%!PS-Adobe-2.0 EPSF-2.0
%%BoundingBox:  0 0 567 544
%%Title: plots/ElectronID_ROC_2017_DYJets_sequential_iso.eps: ElectronID_ROC_2017_DYJets_sequential_iso
%%Creator: ROOT Version 6.14/04
%%CreationDate: Tue Sep 15 15:44:46 2020
%%DocumentNeededResources: ProcSet (FontSetInit)
%%EndComments
%%BeginProlog
80 dict begin
/s {stroke} def /l {lineto} def /m {moveto} def /t {translate} def
/r {rotate} def /rl {roll}  def /R {repeat} def
/d {rlineto} def /rm {rmoveto} def /gr {grestore} def /f {eofill} def
/c {setrgbcolor} def /black {0 setgray} def /sd {setdash} def
/cl {closepath} def /sf {scalefont setfont} def /lw {setlinewidth} def
/box {m dup 0 exch d exch 0 d 0 exch neg d cl} def
/NC{systemdict begin initclip end}def/C{NC box clip newpath}def
/bl {box s} def /bf {gsave box gsave f grestore 1 lw [] 0 sd s grestore} def /Y { 0 exch d} def /X { 0 d} def 
/K {{pop pop 0 moveto} exch kshow} bind def
/ita {/ang 15 def gsave [1 0 ang dup sin exch cos div 1 0 0] concat} def 
/mp {newpath /y exch def /x exch def} def
/side {[w .77 mul w .23 mul] .385 w mul sd w 0 l currentpoint t -144 r} def
/mr {mp x y w2 0 360 arc} def /m24 {mr s} def /m20 {mr f} def
/mb {mp x y w2 add m w2 neg 0 d 0 w neg d w 0 d 0 w d cl} def
/mt {mp x y w2 add m w2 neg w neg d w 0 d cl} def
/w4 {w 4 div} def
/w6 {w 6 div} def
/w8 {w 8 div} def
/m21 {mb f} def /m25 {mb s} def /m22 {mt f} def /m26{mt s} def
/m23 {mp x y w2 sub m w2 w d w neg 0 d cl f} def
/m27 {mp x y w2 add m w3 neg w2 neg d w3 w2 neg d w3 w2 d cl s} def
/m28 {mp x w2 sub y w2 sub w3 add m w3 0 d  0 w3 neg d w3 0 d 0 w3 d w3 0 d  0 w3 d w3 neg 0 d 0 w3 d w3 neg 0 d 0 w3 neg d w3 neg 0 d cl s } def
/m29 {mp gsave x w2 sub y w2 add w3 sub m currentpoint t 4 {side} repeat cl fill gr} def
/m30 {mp gsave x w2 sub y w2 add w3 sub m currentpoint t 4 {side} repeat cl s gr} def
/m31 {mp x y w2 sub m 0 w d x w2 sub y m w 0 d x w2 sub y w2 add m w w neg d x w2 sub y w2 sub m w w d s} def
/m32 {mp x y w2 sub m w2 w d w neg 0 d cl s} def
/m33 {mp x y w2 add m w3 neg w2 neg d w3 w2 neg d w3 w2 d cl f} def
/m34 {mp x w2 sub y w2 sub w3 add m w3 0 d  0 w3 neg d w3 0 d 0 w3 d w3 0 d  0 w3 d w3 neg 0 d 0 w3 d w3 neg 0 d 0 w3 neg d w3 neg 0 d cl f } def
/m35 {mp x y w2 add m w2 neg w2 neg d w2 w2 neg d w2 w2 d w2 neg w2 d x y w2 sub m 0 w d x w2 sub y m w 0 d s} def
/m36 {mb x w2 sub y w2 add m w w neg d x w2 sub y w2 sub m w w d s} def
/m37 {mp x y m w4 neg w2 d w4 neg w2 neg d w2 0 d  w4 neg w2 neg d w2 0 d w4 neg w2 d w2 0 d w4 neg w2 d w4 neg w2 neg d cl s} def
/m38 {mp x w4 sub y w2 add m w4 neg w4 neg d 0 w2 neg d w4 w4 neg d w2 0 d w4 w4 d 0 w2 d w4 neg w4 d w2 neg 0 d x y w2 sub m 0 w d x w2 sub y m w 0 d cl s} def
/m39 {mp x y m w4 neg w2 d w4 neg w2 neg d w2 0 d  w4 neg w2 neg d w2 0 d w4 neg w2 d w2 0 d w4 neg w2 d w4 neg w2 neg d cl f} def
/m40 {mp x y m w4 w2 d w4 w4 neg d w2 neg w4 neg d w2 w4 neg d w4 neg w4 neg d w4 neg w2 d w4 neg w2 neg d w4 neg w4 d w2 w4 d w2 neg w4 d w4 w4 d w4 w2 neg d cl s} def
/m41 {mp x y m w4 w2 d w4 w4 neg d w2 neg w4 neg d w2 w4 neg d w4 neg w4 neg d w4 neg w2 d w4 neg w2 neg d w4 neg w4 d w2 w4 d w2 neg w4 d w4 w4 d w4 w2 neg d cl f} def
/m42 {mp x y w2 add m w8 neg w2 -3 4 div mul d w2 -3 4 div mul w8 neg d w2 3 4 div mul w8 neg d w8 w2 -3 4 div mul d w8 w2 3 4 div mul d w2 3 4 div mul w8 d w2 -3 4 div mul w8 d w8 neg w2 3 4 div mul d cl s} def
/m43 {mp x y w2 add m w8 neg w2 -3 4 div mul d w2 -3 4 div mul w8 neg d w2 3 4 div mul w8 neg d w8 w2 -3 4 div mul d w8 w2 3 4 div mul d w2 3 4 div mul w8 d w2 -3 4 div mul w8 d w8 neg w2 3 4 div mul d cl f} def
/m44 {mp x y m w6 neg w2 d w2 2 3 div mul 0 d w6 neg w2 neg d w2 w6 d 0 w2 -2 3 div mul d w2 neg w6 d w6 w2 neg d w2 -2 3 div mul 0 d w6 w2 d w2 neg w6 neg d 0 w2 2 3 div mul d w2 w6 neg d cl s} def
/m45 {mp x y m w6 neg w2 d w2 2 3 div mul 0 d w6 neg w2 neg d w2 w6 d 0 w2 -2 3 div mul d w2 neg w6 d w6 w2 neg d w2 -2 3 div mul 0 d w6 w2 d w2 neg w6 neg d 0 w2 2 3 div mul d w2 w6 neg d cl f} def
/m46 {mp x y w4 add m w4 neg w4 d w4 neg w4 neg d  w4 w4 neg d w4 neg w4 neg d w4 w4 neg d w4 w4 d w4 w4 neg d w4 w4 d w4 neg w4 d w4 w4 d w4 neg w4 d w4 neg w4 neg d cl s} def
/m47 {mp x y w4 add m w4 neg w4 d w4 neg w4 neg d w4 w4 neg d w4 neg w4 neg d  w4 w4 neg d w4 w4 d w4 w4 neg d w4 w4 d w4 neg w4 d w4 w4 d w4 neg w4 d w4 neg w4 neg d cl f} def
/m48 {mp x y w4 add m w4 neg w4 d w4 neg w4 neg d w4 w4 neg d  w4 neg w4 neg d w4 w4 neg d w4 w4 d w4 w4 neg d w4 w4 d w4 neg w4 d w4 w4 d w4 neg w4 d w4 neg w4 neg d  w4 w4 neg d w4 neg w4 neg d w4 neg w4 d w4 w4 d cl f} def
/m49 {mp x w2 sub w3 add y w2 sub w3 add m  0 w3 neg d w3 0 d 0 w3 d w3 0 d 0 w3 d w3 neg 0 d 0 w3 d w3 neg 0 d 0 w3 neg d w3 neg 0 d 0 w3 neg d w3 0 d 0 w3 d w3 0 d 0 w3 neg d w3 neg 0 d cl f } def
/m2 {mp x y w2 sub m 0 w d x w2 sub y m w 0 d s} def
/m5 {mp x w2 sub y w2 sub m w w d x w2 sub y w2 add m w w neg d s} def
%%IncludeResource: ProcSet (FontSetInit)
%%IncludeResource: font Times-Roman
%%IncludeResource: font Times-Italic
%%IncludeResource: font Times-Bold
%%IncludeResource: font Times-BoldItalic
%%IncludeResource: font Helvetica
%%IncludeResource: font Helvetica-Oblique
%%IncludeResource: font Helvetica-Bold
%%IncludeResource: font Helvetica-BoldOblique
%%IncludeResource: font Courier
%%IncludeResource: font Courier-Oblique
%%IncludeResource: font Courier-Bold
%%IncludeResource: font Courier-BoldOblique
%%IncludeResource: font Symbol
%%IncludeResource: font ZapfDingbats
/reEncode {exch findfont dup length dict begin {1 index /FID eq  {pop pop} {def} ifelse } forall /Encoding exch def currentdict end dup /FontName get exch definefont pop } def [/Times-Bold /Times-Italic /Times-BoldItalic /Helvetica /Helvetica-Oblique
 /Helvetica-Bold /Helvetica-BoldOblique /Courier /Courier-Oblique /Courier-Bold /Courier-BoldOblique /Times-Roman /AvantGarde-Book /AvantGarde-BookOblique /AvantGarde-Demi /AvantGarde-DemiOblique /Bookman-Demi /Bookman-DemiItalic /Bookman-Light
 /Bookman-LightItalic /Helvetica-Narrow /Helvetica-Narrow-Bold /Helvetica-Narrow-BoldOblique /Helvetica-Narrow-Oblique /NewCenturySchlbk-Roman /NewCenturySchlbk-Bold /NewCenturySchlbk-BoldItalic /NewCenturySchlbk-Italic /Palatino-Bold
 /Palatino-BoldItalic /Palatino-Italic /Palatino-Roman ] {ISOLatin1Encoding reEncode } forall
%%EndProlog
%%BeginSetup
%%EndSetup
newpath  gsave  .25 .25 scale  gsave  0 0 t black[  ] 0 sd 3 lw 1 1 1 c 2268 2176 0 0 bf black 1 1 1 c black 1769 1697 408 305 bl 1769 1697 408 305 bl 1 1 1 c black 1769 1697 408 305 bl 1769 1697 408 305 bl 408 305 m 1769 X s 585 356 m -51 Y s 629
 330 m -25 Y s 674 330 m -25 Y s 718 330 m -25 Y s 762 330 m -25 Y s 806 356 m -51 Y s 850 330 m -25 Y s 895 330 m -25 Y s 939 330 m -25 Y s 983 330 m -25 Y s 1027 356 m -51 Y s 1071 330 m -25 Y s 1116 330 m -25 Y s 1160 330 m -25 Y s 1204 330 m -25
 Y s 1248 356 m -51 Y s 1293 330 m -25 Y s 1337 330 m -25 Y s 1381 330 m -25 Y s 1425 330 m -25 Y s 1469 356 m -51 Y s 1514 330 m -25 Y s 1558 330 m -25 Y s 1602 330 m -25 Y s 1646 330 m -25 Y s 1691 356 m -51 Y s 1735 330 m -25 Y s 1779 330 m -25 Y
 s 1823 330 m -25 Y s 1867 330 m -25 Y s 1912 356 m -51 Y s 1956 330 m -25 Y s 2000 330 m -25 Y s 2044 330 m -25 Y s 2089 330 m -25 Y s 2133 356 m -51 Y s 585 356 m -51 Y s 541 330 m -25 Y s 497 330 m -25 Y s 452 330 m -25 Y s 408 330 m -25 Y s 2133
 356 m -51 Y s 2177 330 m -25 Y s
 gsave  2268 2176 0 0 C 483.221 205.464 t 0 r /Helvetica findfont 102.732 sf 0 0 m (0.65) show NC gr 
 gsave  2268 2176 0 0 C 730.54 205.464 t 0 r /Helvetica findfont 102.732 sf 0 0 m (0.7) show NC gr 
 gsave  2268 2176 0 0 C 924.589 205.464 t 0 r /Helvetica findfont 102.732 sf 0 0 m (0.75) show NC gr 
 gsave  2268 2176 0 0 C 1175.71 205.464 t 0 r /Helvetica findfont 102.732 sf 0 0 m (0.8) show NC gr 
 gsave  2268 2176 0 0 C 1369.76 205.464 t 0 r /Helvetica findfont 102.732 sf 0 0 m (0.85) show NC gr 
 gsave  2268 2176 0 0 C 1617.08 205.464 t 0 r /Helvetica findfont 102.732 sf 0 0 m (0.9) show NC gr 
 gsave  2268 2176 0 0 C 1811.13 205.464 t 0 r /Helvetica findfont 102.732 sf 0 0 m (0.95) show NC gr 
 gsave  2268 2176 0 0 C 2111.72 205.464 t 0 r /Helvetica findfont 102.732 sf 0 0 m (1) show NC gr 
 gsave  2268 2176 0 0 C 1297.47 41.8538 t 0 r /Helvetica findfont 121.757 sf 0 0 m (Signal efficiency) show NC gr  408 2002 m 1769 X s 585 1951 m 51 Y s 629 1977 m 25 Y s 674 1977 m 25 Y s 718 1977 m 25 Y s 762 1977 m 25 Y s 806 1951 m 51 Y s 850
 1977 m 25 Y s 895 1977 m 25 Y s 939 1977 m 25 Y s 983 1977 m 25 Y s 1027 1951 m 51 Y s 1071 1977 m 25 Y s 1116 1977 m 25 Y s 1160 1977 m 25 Y s 1204 1977 m 25 Y s 1248 1951 m 51 Y s 1293 1977 m 25 Y s 1337 1977 m 25 Y s 1381 1977 m 25 Y s 1425 1977
 m 25 Y s 1469 1951 m 51 Y s 1514 1977 m 25 Y s 1558 1977 m 25 Y s 1602 1977 m 25 Y s 1646 1977 m 25 Y s 1691 1951 m 51 Y s 1735 1977 m 25 Y s 1779 1977 m 25 Y s 1823 1977 m 25 Y s 1867 1977 m 25 Y s 1912 1951 m 51 Y s 1956 1977 m 25 Y s 2000 1977 m
 25 Y s 2044 1977 m 25 Y s 2089 1977 m 25 Y s 2133 1951 m 51 Y s 585 1951 m 51 Y s 541 1977 m 25 Y s 497 1977 m 25 Y s 452 1977 m 25 Y s 408 1977 m 25 Y s 2133 1951 m 51 Y s 2177 1977 m 25 Y s 408 305 m 1697 Y s 461 305 m -53 X s 435 346 m -27 X s
 435 388 m -27 X s 435 429 m -27 X s 435 470 m -27 X s 461 512 m -53 X s 435 553 m -27 X s 435 595 m -27 X s 435 636 m -27 X s 435 677 m -27 X s 461 719 m -53 X s 435 760 m -27 X s 435 802 m -27 X s 435 843 m -27 X s 435 884 m -27 X s 461 926 m -53 X
 s 435 967 m -27 X s 435 1009 m -27 X s 435 1050 m -27 X s 435 1091 m -27 X s 461 1133 m -53 X s 435 1174 m -27 X s 435 1216 m -27 X s 435 1257 m -27 X s 435 1298 m -27 X s 461 1340 m -53 X s 435 1381 m -27 X s 435 1423 m -27 X s 435 1464 m -27 X s
 435 1505 m -27 X s 461 1547 m -53 X s 435 1588 m -27 X s 435 1630 m -27 X s 435 1671 m -27 X s 435 1712 m -27 X s 461 1754 m -53 X s 435 1795 m -27 X s 435 1837 m -27 X s 435 1878 m -27 X s 435 1919 m -27 X s 461 1961 m -53 X s 461 1961 m -53 X s
 gsave  2268 2176 0 0 C 338.636 270.147 t 0 r /Helvetica findfont 102.732 sf 0 0 m (0) show NC gr 
 gsave  2268 2176 0 0 C 213.074 475.612 t 0 r /Helvetica findfont 102.732 sf 0 0 m (0.01) show NC gr 
 gsave  2268 2176 0 0 C 194.05 681.076 t 0 r /Helvetica findfont 102.732 sf 0 0 m (0.02) show NC gr 
 gsave  2268 2176 0 0 C 194.05 890.345 t 0 r /Helvetica findfont 102.732 sf 0 0 m (0.03) show NC gr 
 gsave  2268 2176 0 0 C 194.05 1095.81 t 0 r /Helvetica findfont 102.732 sf 0 0 m (0.04) show NC gr 
 gsave  2268 2176 0 0 C 194.05 1305.08 t 0 r /Helvetica findfont 102.732 sf 0 0 m (0.05) show NC gr 
 gsave  2268 2176 0 0 C 194.05 1510.54 t 0 r /Helvetica findfont 102.732 sf 0 0 m (0.06) show NC gr 
 gsave  2268 2176 0 0 C 194.05 1716.01 t 0 r /Helvetica findfont 102.732 sf 0 0 m (0.07) show NC gr 
 gsave  2268 2176 0 0 C 194.05 1925.28 t 0 r /Helvetica findfont 102.732 sf 0 0 m (0.08) show NC gr 
 gsave  2268 2176 0 0 C 136.976 296.782 t 90 r /Helvetica findfont 121.757 sf 0 0 m (DY + jets background efficiency) show NC gr  2177 305 m 1697 Y s 2124 305 m 53 X s 2150 346 m 27 X s 2150 388 m 27 X s 2150 429 m 27 X s 2150 470 m 27 X s 2124 512 m
 53 X s 2150 553 m 27 X s 2150 595 m 27 X s 2150 636 m 27 X s 2150 677 m 27 X s 2124 719 m 53 X s 2150 760 m 27 X s 2150 802 m 27 X s 2150 843 m 27 X s 2150 884 m 27 X s 2124 926 m 53 X s 2150 967 m 27 X s 2150 1009 m 27 X s 2150 1050 m 27 X s 2150
 1091 m 27 X s 2124 1133 m 53 X s 2150 1174 m 27 X s 2150 1216 m 27 X s 2150 1257 m 27 X s 2150 1298 m 27 X s 2124 1340 m 53 X s 2150 1381 m 27 X s 2150 1423 m 27 X s 2150 1464 m 27 X s 2150 1505 m 27 X s 2124 1547 m 53 X s 2150 1588 m 27 X s 2150
 1630 m 27 X s 2150 1671 m 27 X s 2150 1712 m 27 X s 2124 1754 m 53 X s 2150 1795 m 27 X s 2150 1837 m 27 X s 2150 1878 m 27 X s 2150 1919 m 27 X s 2124 1961 m 53 X s 2124 1961 m 53 X s 0.81 0.37 0.38 c 6 lw 1 1 1 c black 0.81 0.37 0.38 c 408 338 m
 cl s 408 338 m 3 X 1 Y 38 X 1 Y 16 X 1 Y 32 X 1 Y 28 X 1 Y 13 X 1 Y 34 X 1 Y 7 X 1 Y 3 X 1 Y 14 X 1 Y 53 X 1 Y 11 X 1 Y 24 X 1 Y 13 X 1 Y 9 X 1 Y 9 X 1 Y 16 X 1 Y 3 X 1 Y 15 X 1 Y 12 X 1 Y 23 X 1 Y 3 X 1 Y 7 X 1 Y 20 X 1 Y 14 X 1 Y 3 X 1 Y 4 X 1 Y
 12 X 1 Y 10 X 1 Y 3 X 1 Y 5 X 1 Y 3 X 1 Y 18 X 1 Y 5 X 1 Y 3 X 1 Y 4 X 1 Y 4 X 1 Y 18 X 1 Y 22 X 1 Y 5 X 1 Y 6 X 1 Y 11 X 2 Y 16 X 1 Y 17 X 1 Y 4 X 1 Y 11 X 1 Y 5 X 1 Y 7 X 1 Y 8 X 1 Y 3 X 1 Y 19 X 1 Y 6 X 1 Y 9 X 1 Y 5 X 1 Y 1 X 1 Y 4 X 1 Y 13 X 1
 Y 9 X 1 Y 14 X 1 Y 5 X 1 Y 4 X 1 Y 4 X 1 Y 4 X 1 Y 2 X 1 Y 22 X 1 Y 9 X 1 Y 6 X 1 Y 9 X 1 Y 10 X 1 Y 3 X 1 Y 5 X 1 Y 4 X 1 Y 2 X 1 Y 6 X 1 Y 11 X 1 Y 6 X 1 Y 11 X 1 Y 10 X 1 Y 5 X 1 Y 4 X 1 Y 3 X 1 Y 6 X 1 Y 3 X 1 Y 4 X 1 Y 5 X 1 Y 2 X 1 Y 2 X 1 Y
 11 X 1 Y 11 X 1 Y 4 X 1 Y 4 X 1 Y 1 X 1 Y 2 X 1 Y 7 X 1 Y 3 X 1 Y 3 X 1 Y 3 X 1 Y 5 X 1 Y 7 X 1 Y 10 X 1 Y 4 X 1 Y 6 X 1 Y 7 X 1 Y 1 X 1 Y 2 X 1 Y 3 X 1 Y 2 X 1 Y 7 X 1 Y 3 X 1 Y 1 X 1 Y 5 X 1 Y 3 X 1 Y 4 X 1 Y 1 X 1 Y 7 X 1 Y 1 X 1 Y 6 X 1 Y 4 X 2
 Y 4 X 1 Y 2 X 1 Y 3 X 1 Y 3 X 1 Y 7 X 1 Y 7 X 1 Y 3 X 1 Y 3 X 1 Y 4 X 1 Y 3 X 1 Y 1 X 1 Y 3 X 1 Y 1 X 1 Y 6 X 1 Y 3 X 1 Y 4 X 1 Y 8 X 1 Y 7 X 1 Y 8 X 1 Y 2 X 1 Y 4 X 1 Y 4 X 2 Y 2 X 1 Y 1 X 1 Y 2 X 1 Y 2 X 1 Y 2 X 1 Y 3 X 1 Y 2 X 1 Y 4 X 1 Y 2 X 1 Y
 7 X 1 Y 1 X 1 Y 2 X 1 Y 1 X 1 Y 3 X 1 Y 2 X 1 Y 3 X 1 Y 1 X 1 Y 3 X 1 Y 1 X 1 Y 5 X 1 Y 1 X 1 Y 4 X 1 Y 4 X 1 Y 1 X 1 Y 3 X 1 Y 1 X 1 Y 7 X 2 Y 2 X 1 Y 6 X 1 Y 1 X 1 Y 2 X 1 Y 1 X 2 Y 2 X 1 Y 3 X 1 Y 2 X 1 Y 4 X 1 Y 2 X 1 Y 1 X 1 Y 2 X 1 Y 3 X 1 Y 3
 X 1 Y 2 X 3 Y 3 X 1 Y 3 X 1 Y 1 X 1 Y 1 X 1 Y 2 X 1 Y 3 X 2 Y 1 X 1 Y 2 X 1 Y 2 X 1 Y 1 X 1 Y 1 X 1 Y 2 X 1 Y 4 X 1 Y 2 X 1 Y 3 X 1 Y 3 X 1 Y 1 X 1 Y 2 X 1 Y 1 X 1 Y 3 X 1 Y 2 X 1 Y 1 X 1 Y 3 X 2 Y 1 X 1 Y 4 X 2 Y 2 X 1 Y 4 X 1 Y 2 X 1 Y 1 X 1 Y 2 X
 1 Y 1 X 1 Y 1 X 1 Y 3 X 2 Y 4 X 1 Y 2 X 1 Y 1 X 1 Y 1 X 1 Y 2 X 1 Y 1 X 1 Y 4 X 1 Y 1 X 1 Y 3 X 1 Y 2 X 1 Y 1 X 1 Y 2 X 1 Y 1 X 2 Y 4 X 1 Y 1 X 2 Y 1 X 1 Y 2 X 1 Y 5 X 1 Y 3 X 1 Y 1 X 1 Y 1 X 1 Y 1 X 1 Y 1 X 1 Y 1 X 1 Y 2 X 2 Y 3 X 1 Y 1 X 1 Y 1 X 1
 Y 1 X 1 Y 2 X 2 Y 1 X 1 Y 3 X 1 Y 1 X 2 Y 4 X 1 Y 2 X 1 Y 2 X 1 Y 1 X 1 Y 1 X 1 Y 1 X 1 Y 3 X 1 Y 1 X 1 Y 1 X 1 Y 1 X 1 Y 1 X 2 Y 2 X 1 Y 2 X 1 Y 1 X 2 Y 1 X 1 Y 2 X 1 Y 3 X 2 Y 1 X 1 Y 1 X 1 Y 1 X 1 Y 1 X 1 Y 1 X 1 Y 1 X 2 Y 1 X 2 Y 1 X 2 Y 1 X 1 Y
 2 X 1 Y 1 X 2 Y 1 X 1 Y 1 X 1 Y 1 X 1 Y 1 X 2 Y 1 X 1 Y 2 X 1 Y 1 X 1 Y 3 X 1 Y 1 X 1 Y 1 X 2 Y 2 X 2 Y 1 X 1 Y 1 X 1 Y 1 X 1 Y 2 X 1 Y 1 X 1 Y 1 X 1 Y 2 X 3 Y 1 X 1 Y 1 X 2 Y 1 X 1 Y 1 X 1 Y 1 X 2 Y 2 X 1 Y 1 X 1 Y 1 X 1 Y 1 X 3 Y 4 X 1 Y 1 X 2 Y 1
 X 1 Y 1 X 1 Y 1 X 2 Y 1 X 1 Y 1 X 1 Y 1 X 3 Y 2 X 2 Y 1 X 2 Y 1 X 1 Y 2 X 2 Y 1 X 1 Y 1 X 1 Y 1 X 1 Y 1 X 1 Y 1 X 2 Y 2 X 2 Y 1 X 2 Y 1 X 2 Y 1 X 2 Y 1 X 1 Y 1 X 1 Y 1 X 2 Y 1 X 2 Y 1 X 2 Y 1 X 1 Y 1 X 1 Y 1 X 2 Y 1 X 1 Y 1 X 1 Y 2 X 2 Y 1 X 1 Y 1 X
 2 Y 1 X 1 Y 1 X 1 Y 1 X 1 Y 1 X 1 Y 1 X 3 Y 1 X 2 Y 1 X 1 Y 1 X 1 Y 1 X 1 Y 1 X 2 Y 1 X 1 Y 1 X 2 Y 1 X 1 Y 1 X 2 Y 1 X 2 Y 1 X 1 Y 1 X 2 Y 1 X 3 Y 2 X 3 Y 1 X 3 Y 1 X 1 Y 1 X 1 Y 1 X 2 Y 1 X 1 Y 1 X 3 Y 1 X 2 Y 1 X 1 Y 1 X 3 Y 1 X 2 Y 1 X 2 Y 1 X 1
 Y 1 X 3 Y 1 X 1 Y 1 X 3 Y 1 X 2 Y 1 X 1 Y 1 X 1 Y 1 X 2 Y 1 X 3 Y 2 X 3 Y 1 X 2 Y 1 X 3 Y 1 X 2 Y 1 X 3 Y 1 X 2 Y 1 X 3 Y 1 X 3 Y 2 X 2 Y 1 X 4 Y 1 X 1 Y 1 X 1 Y 1 X 3 Y 1 X 3 Y 1 X 1 Y 1 X 3 Y 1 X 2 Y 1 X 4 Y 1 X 2 Y 1 X 5 Y 1 X 3 Y 1 X 3 Y 1 X 2 Y
 1 X 3 Y 1 X 2 Y 1 X 2 Y 1 X 3 Y 1 X 3 Y 1 X 3 Y 1 X 4 Y 1 X 2 Y 1 X 2 Y 1 X 3 Y 1 X 2 Y 1 X 2 Y 1 X 2 Y 1 X 3 Y 1 X 3 Y 1 X 1 Y 1 X 2 Y 1 X 2 Y 1 X 4 Y 1 X 3 Y 1 X 3 Y 1 X 4 Y 1 X 2 Y 1 X 2 Y 1 X 2 Y 1 X 3 Y 1 X 2 Y 1 X 5 Y 1 X 1 Y 1 X 4 Y 1 X 1 Y 1
 X 2 Y 1 X 4 Y 1 X 3 Y 1 X 4 Y 1 X 4 Y 1 X 5 Y 1 X 3 Y 1 X 2 Y 1 X 4 Y 1 X 5 Y 1 X 3 Y 1 X 2 Y 1 X 5 Y 1 X 2 Y 1 X 2 Y 1 X 2 Y 1 X 3 Y 1 X 4 Y 1 X 3 Y 1 X 5 Y 1 X 4 Y 1 X 2 Y 1 X 4 Y 1 X 3 Y 1 X 3 Y 1 X 4 Y 1 X 4 Y 1 X 5 Y 1 X 4 Y 1 X 5 Y 1 X 4 Y 1 X
 5 Y 1 X 5 Y 1 X 4 Y 1 X 3 Y 1 X 4 Y 1 X 3 Y 1 X 10 Y 1 X 5 Y 1 X 4 Y 1 X 6 Y 1 X 4 Y 1 X 7 Y 1 X 7 Y 1 X 7 Y 1 X 5 Y 1 X 3 Y 1 X 5 Y 1 X 7 Y 1 X 6 Y 1 X 7 Y 1 X 6 Y 1 X 6 Y 1 X 5 Y 1 X 4 Y 1 X 11 Y 1 X 9 Y 1 X 6 Y 1 X 4 Y 1 X 5 Y 1 X 5 Y 1 X 8 Y 1 X
 6 Y 1 X 7 Y 1 X 8 Y 1 X 6 Y 1 X 9 Y 1 X 7 Y 1 X 7 Y 1 X 7 Y 1 X 5 Y 1 X 8 Y 1 X 10 Y 1 X 10 Y 1 X 8 Y 1 X 8 Y 1 X 9 Y 1 X 7 Y 1 X 14 Y 1 X 9 Y 1 X 9 Y 1 X 11 Y 1 X 11 Y 1 X 13 Y 1 X 12 Y 1 X 15 Y 1 X 10 Y 1 X 9 Y 1 X 12 Y 1 X 11 Y 1 X 12 Y 1 X 9 Y 1
 X 11 Y 1 X 11 Y 1 X 14 Y 1 X 11 Y 1 X 13 Y 1 X 15 Y 1 X 15 Y 1 X 12 Y 1 X 13 Y 1 X 12 Y 1 X 9 Y 1 X 14 Y 1 X 14 Y 1 X 14 Y 1 X 18 Y 1 X 14 Y 1 X 14 Y 1 X 16 Y 1 X 17 Y 1 X 19 Y 1 X 16 Y 1 X 20 Y 1 X 18 Y 1 X 28 Y 1 X 19 Y 1 X 17 Y 1 X 19 Y 1 X 25 Y
 1 X 22 Y 1 X 21 Y 1 X 23 Y s 0.52 0.76 0.64 c 1 1 1 c black 0.52 0.76 0.64 c 408 378 m cl s 408 378 m 23 X 1 Y 11 X 1 Y 16 X 1 Y 19 X 1 Y 6 X 1 Y 8 X 1 Y 3 X 1 Y 18 X 1 Y 9 X 1 Y 6 X 1 Y 11 X 1 Y 10 X 1 Y 18 X 1 Y 21 X 1 Y 25 X 1 Y 3 X 1 Y 9 X 1 Y 4
 X 2 Y 13 X 1 Y 16 X 1 Y 8 X 1 Y 5 X 1 Y 4 X 1 Y 8 X 1 Y 9 X 1 Y 20 X 1 Y 5 X 1 Y 9 X 1 Y 9 X 1 Y 5 X 1 Y 7 X 1 Y 17 X 1 Y 4 X 1 Y 7 X 1 Y 8 X 1 Y 5 X 1 Y 13 X 1 Y 7 X 1 Y 10 X 1 Y 4 X 1 Y 2 X 1 Y 10 X 1 Y 4 X 1 Y 12 X 1 Y 8 X 1 Y 5 X 1 Y 9 X 1 Y 9 X
 1 Y 4 X 1 Y 4 X 1 Y 10 X 1 Y 7 X 1 Y 2 X 1 Y 7 X 1 Y 9 X 1 Y 4 X 1 Y 2 X 1 Y 2 X 1 Y 6 X 1 Y 2 X 1 Y 4 X 1 Y 2 X 1 Y 4 X 1 Y 5 X 1 Y 16 X 1 Y 5 X 1 Y 7 X 1 Y 15 X 1 Y 7 X 1 Y 12 X 1 Y 2 X 1 Y 7 X 1 Y 13 X 1 Y 6 X 1 Y 5 X 1 Y 4 X 1 Y 2 X 1 Y 8 X 1 Y
 3 X 1 Y 4 X 1 Y 5 X 1 Y 4 X 1 Y 5 X 1 Y 2 X 1 Y 7 X 1 Y 6 X 1 Y 5 X 1 Y 5 X 1 Y 13 X 1 Y 4 X 1 Y 10 X 1 Y 1 X 1 Y 1 X 1 Y 3 X 1 Y 2 X 2 Y 4 X 1 Y 1 X 1 Y 4 X 1 Y 4 X 1 Y 3 X 1 Y 1 X 1 Y 6 X 1 Y 3 X 1 Y 2 X 1 Y 4 X 1 Y 2 X 1 Y 3 X 1 Y 8 X 1 Y 1 X 2 Y
 1 X 1 Y 6 X 1 Y 2 X 1 Y 7 X 1 Y 5 X 1 Y 3 X 1 Y 6 X 1 Y 9 X 1 Y 1 X 1 Y 6 X 1 Y 5 X 1 Y 6 X 1 Y 4 X 1 Y 3 X 1 Y 2 X 1 Y 4 X 1 Y 4 X 1 Y 3 X 1 Y 5 X 1 Y 5 X 1 Y 2 X 1 Y 4 X 1 Y 3 X 1 Y 4 X 1 Y 3 X 1 Y 7 X 1 Y 6 X 1 Y 1 X 1 Y 6 X 1 Y 1 X 1 Y 1 X 1 Y 4
 X 1 Y 11 X 1 Y 2 X 1 Y 1 X 1 Y 1 X 1 Y 2 X 1 Y 3 X 1 Y 6 X 1 Y 2 X 1 Y 2 X 1 Y 4 X 1 Y 1 X 1 Y 2 X 1 Y 2 X 1 Y 3 X 1 Y 6 X 1 Y 3 X 1 Y 2 X 1 Y 3 X 1 Y 2 X 1 Y 1 X 1 Y 5 X 1 Y 2 X 1 Y 5 X 1 Y 2 X 1 Y 2 X 1 Y 11 X 1 Y 1 X 1 Y 2 X 1 Y 1 X 1 Y 1 X 1 Y 4
 X 1 Y 2 X 1 Y 4 X 1 Y 1 X 1 Y 2 X 1 Y 1 X 1 Y 2 X 1 Y 4 X 1 Y 2 X 1 Y 4 X 1 Y 6 X 1 Y 1 X 1 Y 4 X 1 Y 4 X 1 Y 1 X 1 Y 1 X 1 Y 2 X 1 Y 2 X 1 Y 2 X 1 Y 2 X 1 Y 5 X 1 Y 4 X 1 Y 3 X 1 Y 3 X 1 Y 1 X 1 Y 3 X 1 Y 3 X 1 Y 1 X 1 Y 1 X 1 Y 1 X 1 Y 3 X 1 Y 1 X
 1 Y 3 X 1 Y 1 X 1 Y 2 X 1 Y 1 X 2 Y 3 X 1 Y 1 X 1 Y 3 X 2 Y 4 X 1 Y 1 X 1 Y 1 X 1 Y 1 X 1 Y 3 X 1 Y 1 X 1 Y 2 X 2 Y 3 X 1 Y 7 X 1 Y 4 X 1 Y 1 X 1 Y 1 X 1 Y 1 X 1 Y 3 X 2 Y 2 X 1 Y 3 X 1 Y 2 X 1 Y 1 X 1 Y 1 X 1 Y 3 X 1 Y 1 X 1 Y 2 X 1 Y 3 X 1 Y 4 X 1
 Y 1 X 1 Y 2 X 1 Y 3 X 1 Y 2 X 1 Y 3 X 1 Y 3 X 2 Y 1 X 1 Y 3 X 2 Y 1 X 1 Y 2 X 1 Y 2 X 1 Y 3 X 1 Y 2 X 1 Y 1 X 1 Y 1 X 2 Y 2 X 1 Y 1 X 1 Y 2 X 1 Y 3 X 1 Y 1 X 1 Y 3 X 2 Y 2 X 1 Y 2 X 2 Y 1 X 1 Y 2 X 1 Y 3 X 2 Y 3 X 1 Y 2 X 1 Y 1 X 1 Y 1 X 1 Y 2 X 2 Y
 1 X 2 Y 4 X 1 Y 2 X 1 Y 1 X 1 Y 1 X 1 Y 3 X 1 Y 1 X 1 Y 1 X 1 Y 1 X 1 Y 2 X 1 Y 1 X 2 Y 1 X 1 Y 1 X 1 Y 1 X 1 Y 3 X 1 Y 1 X 2 Y 1 X 1 Y 1 X 1 Y 1 X 1 Y 1 X 1 Y 1 X 1 Y 1 X 1 Y 2 X 1 Y 1 X 1 Y 2 X 1 Y 1 X 1 Y 1 X 2 Y 1 X 1 Y 2 X 2 Y 1 X 1 Y 2 X 1 Y 1
 X 1 Y 2 X 1 Y 3 X 1 Y 2 X 2 Y 2 X 1 Y 1 X 1 Y 1 X 1 Y 1 X 1 Y 1 X 1 Y 1 X 1 Y 2 X 1 Y 1 X 2 Y 1 X 1 Y 2 X 1 Y 1 X 1 Y 1 X 1 Y 2 X 1 Y 1 X 1 Y 1 X 1 Y 1 X 1 Y 1 X 1 Y 1 X 1 Y 3 X 1 Y 2 X 1 Y 1 X 1 Y 1 X 2 Y 1 X 1 Y 2 X 1 Y 1 X 1 Y 2 X 1 Y 1 X 1 Y 1 X
 1 Y 1 X 1 Y 3 X 1 Y 2 X 1 Y 1 X 1 Y 1 X 1 Y 1 X 1 Y 1 X 1 Y 2 X 1 Y 1 X 1 Y 1 X 1 Y 2 X 1 Y 1 X 2 Y 1 X 1 Y 1 X 2 Y 1 X 2 Y 1 X 1 Y 1 X 1 Y 1 X 2 Y 1 X 1 Y 1 X 3 Y 2 X 2 Y 1 X 1 Y 1 X 1 Y 2 X 1 Y 1 X 1 Y 1 X 1 Y 1 X 1 Y 1 X 3 Y 1 X 1 Y 2 X 1 Y 1 X 2
 Y 1 X 1 Y 1 X 3 Y 1 X 1 Y 1 X 1 Y 2 X 1 Y 2 X 1 Y 1 X 1 Y 1 X 2 Y 1 X 1 Y 1 X 1 Y 1 X 2 Y 2 X 1 Y 1 X 1 Y 1 X 1 Y 1 X 1 Y 1 X 1 Y 1 X 1 Y 1 X 1 Y 1 X 1 Y 1 X 2 Y 1 X 2 Y 1 X 2 Y 2 X 1 Y 2 X 2 Y 1 X 2 Y 1 X 1 Y 2 X 1 Y 1 X 1 Y 1 X 1 Y 2 X 2 Y 1 X 1 Y
 1 X 2 Y 1 X 1 Y 1 X 2 Y 1 X 2 Y 1 X 1 Y 1 X 1 Y 2 X 2 Y 1 X 1 Y 1 X 2 Y 1 X 1 Y 1 X 1 Y 1 X 2 Y 1 X 1 Y 1 X 2 Y 1 X 1 Y 1 X 1 Y 1 X 1 Y 1 X 2 Y 2 X 2 Y 1 X 2 Y 1 X 2 Y 1 X 1 Y 1 X 2 Y 1 X 1 Y 1 X 1 Y 1 X 2 Y 1 X 1 Y 1 X 3 Y 1 X 2 Y 1 X 1 Y 1 X 1 Y 1
 X 2 Y 1 X 3 Y 1 X 2 Y 1 X 2 Y 1 X 2 Y 1 X 1 Y 1 X 1 Y 1 X 2 Y 1 X 3 Y 1 X 1 Y 1 X 2 Y 1 X 1 Y 1 X 2 Y 1 X 1 Y 1 X 1 Y 1 X 1 Y 1 X 2 Y 1 X 1 Y 1 X 1 Y 1 X 2 Y 1 X 1 Y 1 X 1 Y 1 X 1 Y 1 X 3 Y 1 X 3 Y 1 X 2 Y 1 X 2 Y 1 X 2 Y 1 X 2 Y 1 X 4 Y 1 X 1 Y 1 X
 2 Y 1 X 1 Y 1 X 3 Y 2 X 3 Y 1 X 2 Y 1 X 1 Y 1 X 3 Y 1 X 1 Y 1 X 4 Y 1 X 1 Y 1 X 2 Y 1 X 3 Y 1 X 3 Y 1 X 1 Y 1 X 2 Y 1 X 1 Y 1 X 4 Y 1 X 3 Y 1 X 3 Y 1 X 3 Y 1 X 1 Y 1 X 1 Y 1 X 1 Y 1 X 1 Y 1 X 4 Y 1 X 1 Y 1 X 1 Y 1 X 2 Y 1 X 4 Y 1 X 2 Y 1 X 2 Y 1 X 2
 Y 1 X 1 Y 1 X 1 Y 1 X 2 Y 1 X 2 Y 1 X 3 Y 1 X 3 Y 1 X 3 Y 1 X 2 Y 1 X 1 Y 1 X 3 Y 1 X 3 Y 1 X 1 Y 1 X 3 Y 1 X 2 Y 1 X 3 Y 1 X 2 Y 1 X 3 Y 1 X 2 Y 1 X 2 Y 1 X 1 Y 1 X 4 Y 1 X 2 Y 1 X 3 Y 1 X 4 Y 1 X 2 Y 1 X 3 Y 1 X 5 Y 1 X 4 Y 1 X 3 Y 1 X 5 Y 1 X 4 Y
 1 X 2 Y 1 X 3 Y 1 X 3 Y 1 X 3 Y 1 X 4 Y 1 X 3 Y 1 X 1 Y 1 X 3 Y 1 X 3 Y 1 X 2 Y 1 X 5 Y 1 X 3 Y 1 X 5 Y 1 X 1 Y 1 X 5 Y 1 X 2 Y 1 X 3 Y 1 X 3 Y 1 X 4 Y 1 X 5 Y 1 X 3 Y 1 X 3 Y 1 X 1 Y 1 X 6 Y 1 X 3 Y 1 X 6 Y 1 X 5 Y 1 X 2 Y 1 X 4 Y 1 X 6 Y 1 X 2 Y 1
 X 5 Y 1 X 5 Y 1 X 6 Y 1 X 4 Y 1 X 3 Y 1 X 2 Y 1 X 4 Y 1 X 3 Y 1 X 5 Y 1 X 5 Y 1 X 5 Y 1 X 2 Y 1 X 5 Y 1 X 5 Y 1 X 3 Y 1 X 6 Y 1 X 2 Y 1 X 1 Y 1 X 1 Y 1 X 3 Y 1 X 3 Y 1 X 4 Y 1 X 5 Y 1 X 6 Y 1 X 5 Y 1 X 4 Y 1 X 6 Y 1 X 2 Y 1 X 6 Y 1 X 4 Y 1 X 5 Y 1 X
 2 Y 1 X 3 Y 1 X 4 Y 1 X 4 Y 1 X 5 Y 1 X 6 Y 1 X 3 Y 1 X 3 Y 1 X 5 Y 1 X 6 Y 1 X 4 Y 1 X 7 Y 1 X 6 Y 1 X 7 Y 1 X 5 Y 1 X 7 Y 1 X 6 Y 1 X 4 Y 1 X 4 Y 1 X 5 Y 1 X 10 Y 1 X 5 Y 1 X 8 Y 1 X 6 Y 1 X 6 Y 1 X 5 Y 1 X 4 Y 1 X 5 Y 1 X 6 Y 1 X 5 Y 1 X 5 Y 1 X
 7 Y 1 X 8 Y 1 X 7 Y 1 X 8 Y 1 X 10 Y 1 X 8 Y 1 X 8 Y 1 X 11 Y 1 X 10 Y 1 X 9 Y 1 X 7 Y 1 X 7 Y 1 X 7 Y 1 X 6 Y 1 X 7 Y 1 X 9 Y 1 X 9 Y 1 X 8 Y 1 X 6 Y 1 X 9 Y 1 X 6 Y 1 X 10 Y 1 X 11 Y 1 X 12 Y 1 X 9 Y 1 X 11 Y 1 X 10 Y 1 X 9 Y 1 X 12 Y 1 X 9 Y 1 X
 11 Y 1 X 12 Y 1 X 11 Y 1 X 9 Y 1 X 13 Y 1 X 18 Y 1 X 13 Y 1 X 9 Y 1 X 14 Y 1 X 15 Y 1 X 13 Y 1 X 14 Y 1 X 15 Y 1 X 15 Y 1 X 14 Y 1 X 12 Y 1 X 15 Y 1 X 19 Y 1 X 14 Y 1 X 14 Y 1 X 14 Y 1 X 6 Y s 0.49 0.6 0.82 c 1 1 1 c black 0.49 0.6 0.82 c 408 345 m
 s 408 345 m 28 X 1 Y 12 X 1 Y 28 X 1 Y 22 X 1 Y 42 X 1 Y 28 X 1 Y 28 X 1 Y 11 X 1 Y 13 X 1 Y 11 X 1 Y 32 X 1 Y 12 X 1 Y 19 X 1 Y 16 X 1 Y 7 X 1 Y 18 X 1 Y 15 X 1 Y 7 X 1 Y 12 X 1 Y 20 X 1 Y 16 X 1 Y 15 X 1 Y 8 X 1 Y 6 X 1 Y 12 X 1 Y 10 X 1 Y 11 X 1
 Y 4 X 1 Y 18 X 1 Y 7 X 1 Y 19 X 1 Y 13 X 1 Y 2 X 1 Y 11 X 1 Y 17 X 1 Y 10 X 1 Y 15 X 1 Y 12 X 1 Y 4 X 1 Y 1 X 1 Y 7 X 1 Y 11 X 1 Y 8 X 1 Y 5 X 1 Y 12 X 1 Y 12 X 1 Y 14 X 1 Y 16 X 1 Y 3 X 1 Y 12 X 1 Y 6 X 1 Y 10 X 1 Y 15 X 1 Y 9 X 1 Y 2 X 1 Y 3 X 1 Y
 9 X 1 Y 10 X 1 Y 7 X 1 Y 1 X 1 Y 6 X 1 Y 1 X 1 Y 11 X 1 Y 6 X 1 Y 12 X 1 Y 6 X 1 Y 3 X 1 Y 9 X 1 Y 6 X 1 Y 3 X 1 Y 6 X 1 Y 5 X 1 Y 4 X 1 Y 4 X 1 Y 2 X 1 Y 4 X 1 Y 2 X 1 Y 3 X 1 Y 3 X 1 Y 2 X 1 Y 5 X 1 Y 4 X 1 Y 3 X 1 Y 6 X 1 Y 4 X 1 Y 1 X 1 Y 1 X 1
 Y 9 X 1 Y 1 X 1 Y 10 X 1 Y 4 X 1 Y 2 X 1 Y 5 X 1 Y 2 X 1 Y 2 X 1 Y 3 X 1 Y 2 X 1 Y 4 X 1 Y 5 X 1 Y 12 X 1 Y 5 X 1 Y 4 X 1 Y 5 X 1 Y 3 X 1 Y 2 X 2 Y 5 X 1 Y 2 X 1 Y 6 X 1 Y 3 X 1 Y 1 X 1 Y 5 X 1 Y 7 X 1 Y 3 X 1 Y 4 X 1 Y 3 X 2 Y 1 X 1 Y 1 X 1 Y 7 X 1
 Y 4 X 1 Y 4 X 1 Y 1 X 1 Y 4 X 1 Y 3 X 1 Y 2 X 1 Y 3 X 1 Y 5 X 1 Y 3 X 1 Y 4 X 1 Y 3 X 1 Y 4 X 1 Y 1 X 1 Y 1 X 1 Y 5 X 1 Y 2 X 1 Y 3 X 1 Y 2 X 2 Y 2 X 1 Y 2 X 1 Y 2 X 1 Y 1 X 1 Y 2 X 1 Y 1 X 1 Y 2 X 1 Y 3 X 1 Y 3 X 1 Y 5 X 1 Y 2 X 1 Y 1 X 1 Y 3 X 1 Y
 6 X 1 Y 3 X 1 Y 2 X 1 Y 5 X 1 Y 2 X 1 Y 3 X 1 Y 1 X 1 Y 3 X 1 Y 4 X 1 Y 4 X 1 Y 1 X 1 Y 2 X 1 Y 1 X 1 Y 3 X 1 Y 2 X 1 Y 2 X 1 Y 2 X 1 Y 1 X 1 Y 1 X 1 Y 4 X 2 Y 3 X 1 Y 5 X 1 Y 1 X 1 Y 3 X 1 Y 2 X 1 Y 3 X 1 Y 1 X 1 Y 2 X 1 Y 1 X 1 Y 4 X 1 Y 4 X 1 Y 1
 X 1 Y 1 X 1 Y 3 X 1 Y 1 X 1 Y 1 X 2 Y 1 X 1 Y 2 X 1 Y 1 X 1 Y 2 X 1 Y 3 X 1 Y 2 X 1 Y 3 X 1 Y 1 X 1 Y 4 X 1 Y 2 X 1 Y 1 X 1 Y 2 X 1 Y 2 X 1 Y 2 X 2 Y 1 X 2 Y 4 X 1 Y 2 X 2 Y 4 X 1 Y 1 X 1 Y 1 X 1 Y 1 X 1 Y 2 X 1 Y 1 X 1 Y 1 X 1 Y 4 X 1 Y 1 X 1 Y 1 X
 3 Y 2 X 1 Y 3 X 2 Y 3 X 2 Y 4 X 1 Y 2 X 1 Y 3 X 1 Y 3 X 2 Y 5 X 1 Y 1 X 1 Y 1 X 2 Y 3 X 2 Y 2 X 1 Y 2 X 2 Y 1 X 1 Y 1 X 1 Y 2 X 1 Y 2 X 2 Y 1 X 1 Y 2 X 2 Y 1 X 1 Y 1 X 1 Y 3 X 1 Y 1 X 1 Y 1 X 1 Y 1 X 1 Y 1 X 1 Y 1 X 1 Y 1 X 1 Y 1 X 1 Y 2 X 1 Y 1 X 1
 Y 1 X 1 Y 1 X 1 Y 2 X 2 Y 1 X 1 Y 1 X 1 Y 1 X 3 Y 1 X 1 Y 2 X 1 Y 1 X 1 Y 1 X 1 Y 1 X 1 Y 1 X 1 Y 2 X 1 Y 1 X 1 Y 2 X 1 Y 2 X 2 Y 2 X 1 Y 1 X 1 Y 1 X 1 Y 1 X 1 Y 2 X 1 Y 1 X 1 Y 1 X 1 Y 1 X 2 Y 1 X 1 Y 1 X 1 Y 2 X 2 Y 1 X 1 Y 1 X 2 Y 2 X 1 Y 1 X 2 Y
 1 X 1 Y 1 X 1 Y 1 X 1 Y 1 X 1 Y 1 X 2 Y 2 X 1 Y 1 X 2 Y 2 X 1 Y 3 X 3 Y 1 X 1 Y 1 X 1 Y 2 X 1 Y 1 X 3 Y 1 X 2 Y 1 X 1 Y 1 X 2 Y 1 X 2 Y 1 X 1 Y 1 X 2 Y 2 X 2 Y 2 X 1 Y 1 X 1 Y 1 X 1 Y 1 X 2 Y 1 X 1 Y 1 X 2 Y 1 X 2 Y 1 X 2 Y 2 X 1 Y 2 X 1 Y 1 X 3 Y 1
 X 1 Y 1 X 1 Y 1 X 1 Y 1 X 2 Y 1 X 2 Y 1 X 2 Y 1 X 1 Y 1 X 2 Y 2 X 2 Y 2 X 2 Y 1 X 2 Y 1 X 3 Y 1 X 1 Y 1 X 2 Y 1 X 2 Y 1 X 1 Y 1 X 2 Y 1 X 1 Y 1 X 2 Y 1 X 2 Y 1 X 1 Y 1 X 1 Y 1 X 3 Y 1 X 3 Y 1 X 1 Y 1 X 2 Y 1 X 2 Y 1 X 1 Y 1 X 1 Y 1 X 2 Y 1 X 1 Y 1 X
 3 Y 1 X 1 Y 1 X 1 Y 1 X 3 Y 1 X 1 Y 1 X 1 Y 1 X 2 Y 1 X 2 Y 1 X 1 Y 1 X 3 Y 1 X 3 Y 1 X 2 Y 1 X 2 Y 1 X 1 Y 1 X 1 Y 1 X 1 Y 1 X 2 Y 1 X 1 Y 1 X 1 Y 1 X 2 Y 1 X 2 Y 1 X 1 Y 1 X 3 Y 1 X 3 Y 2 X 2 Y 1 X 2 Y 1 X 3 Y 1 X 3 Y 1 X 2 Y 1 X 1 Y 1 X 2 Y 1 X 3
 Y 1 X 1 Y 1 X 2 Y 1 X 3 Y 1 X 1 Y 1 X 3 Y 1 X 1 Y 1 X 2 Y 1 X 2 Y 1 X 2 Y 1 X 3 Y 2 X 4 Y 1 X 1 Y 1 X 2 Y 1 X 3 Y 1 X 1 Y 1 X 1 Y 1 X 3 Y 1 X 3 Y 1 X 2 Y 1 X 3 Y 1 X 3 Y 1 X 2 Y 1 X 2 Y 1 X 1 Y 1 X 2 Y 1 X 2 Y 1 X 2 Y 1 X 1 Y 1 X 2 Y 1 X 3 Y 1 X 3 Y
 1 X 1 Y 1 X 1 Y 1 X 3 Y 1 X 1 Y 1 X 3 Y 1 X 3 Y 1 X 4 Y 1 X 2 Y 1 X 2 Y 1 X 3 Y 1 X 2 Y 1 X 1 Y 1 X 4 Y 1 X 2 Y 1 X 3 Y 1 X 2 Y 1 X 2 Y 1 X 3 Y 1 X 2 Y 1 X 3 Y 1 X 2 Y 1 X 4 Y 1 X 3 Y 1 X 4 Y 1 X 2 Y 1 X 3 Y 1 X 3 Y 1 X 3 Y 1 X 4 Y 1 X 4 Y 1 X 2 Y 1
 X 4 Y 1 X 3 Y 1 X 2 Y 1 X 2 Y 1 X 3 Y 1 X 3 Y 1 X 3 Y 1 X 3 Y 1 X 2 Y 1 X 3 Y 1 X 3 Y 1 X 3 Y 1 X 5 Y 1 X 5 Y 1 X 4 Y 1 X 3 Y 1 X 5 Y 1 X 3 Y 1 X 3 Y 1 X 5 Y 1 X 4 Y 1 X 5 Y 1 X 2 Y 1 X 3 Y 1 X 2 Y 1 X 4 Y 1 X 2 Y 1 X 4 Y 1 X 3 Y 1 X 4 Y 1 X 5 Y 1 X
 7 Y 1 X 3 Y 1 X 3 Y 1 X 4 Y 1 X 4 Y 1 X 2 Y 1 X 6 Y 1 X 2 Y 1 X 4 Y 1 X 3 Y 1 X 3 Y 1 X 5 Y 1 X 3 Y 1 X 2 Y 1 X 4 Y 1 X 3 Y 1 X 3 Y 1 X 7 Y 1 X 3 Y 1 X 2 Y 1 X 5 Y 1 X 5 Y 1 X 3 Y 1 X 3 Y 1 X 5 Y 1 X 7 Y 1 X 5 Y 1 X 7 Y 1 X 6 Y 1 X 4 Y 1 X 7 Y 1 X 3
 Y 1 X 6 Y 1 X 3 Y 1 X 5 Y 1 X 6 Y 1 X 7 Y 1 X 4 Y 1 X 5 Y 1 X 4 Y 1 X 4 Y 1 X 4 Y 1 X 5 Y 1 X 4 Y 1 X 6 Y 1 X 6 Y 1 X 8 Y 1 X 5 Y 1 X 4 Y 1 X 4 Y 1 X 5 Y 1 X 7 Y 1 X 4 Y 1 X 6 Y 1 X 8 Y 1 X 4 Y 1 X 5 Y 1 X 7 Y 1 X 6 Y 1 X 6 Y 1 X 4 Y 1 X 7 Y 1 X 5 Y
 1 X 8 Y 1 X 7 Y 1 X 7 Y 1 X 6 Y 1 X 9 Y 1 X 7 Y 1 X 8 Y 1 X 8 Y 1 X 6 Y 1 X 9 Y 1 X 6 Y 1 X 8 Y 1 X 6 Y 1 X 7 Y 1 X 8 Y 1 X 12 Y 1 X 5 Y 1 X 9 Y 1 X 6 Y 1 X 10 Y 1 X 11 Y 1 X 9 Y 1 X 6 Y 1 X 6 Y 1 X 12 Y 1 X 11 Y 1 X 9 Y 1 X 8 Y 1 X 13 Y 1 X 9 Y 1 X
 10 Y 1 X 7 Y 1 X 11 Y 1 X 11 Y 1 X 11 Y 1 X 9 Y 1 X 11 Y 1 X 12 Y 1 X 14 Y 1 X 11 Y 1 X 11 Y 1 X 14 Y 1 X 13 Y 1 X 8 Y 1 X 11 Y 1 X 16 Y 1 X 14 Y 1 X 16 Y 1 X 15 Y 1 X 13 Y 1 X 15 Y 1 X 14 Y 1 X 17 Y 1 X 18 Y 1 X 23 Y 1 X 16 Y 1 X 20 Y 1 X 14 Y 1 X
 12 Y 1 X 14 Y s 0.52 0.76 0.64 c[ 12 12] 0 sd 1 1 1 c black 0.52 0.76 0.64 c 408 428 m cl s 408 428 m 2 X 1 Y 15 X 1 Y 11 X 1 Y 8 X 1 Y 3 X 1 Y 17 X 1 Y 13 X 1 Y 10 X 1 Y 10 X 1 Y 2 X 1 Y 3 X 1 Y 3 X 1 Y 3 X 1 Y 6 X 1 Y 1 X 1 Y 5 X 1 Y 3 X 1 Y 4 X 1
 Y 4 X 1 Y 3 X 1 Y 5 X 1 Y 12 X 1 Y 2 X 1 Y 5 X 1 Y 5 X 1 Y 2 X 1 Y 5 X 1 Y 9 X 1 Y 1 X 1 Y 1 X 1 Y 2 X 1 Y 7 X 1 Y 4 X 1 Y 5 X 1 Y 13 X 1 Y 2 X 1 Y 2 X 1 Y 10 X 1 Y 3 X 1 Y 10 X 1 Y 11 X 1 Y 6 X 1 Y 6 X 1 Y 10 X 1 Y 2 X 1 Y 3 X 1 Y 5 X 1 Y 5 X 1 Y 4
 X 1 Y 6 X 1 Y 9 X 1 Y 3 X 1 Y 5 X 1 Y 2 X 1 Y 14 X 1 Y 2 X 1 Y 4 X 1 Y 3 X 1 Y 4 X 2 Y 8 X 1 Y 2 X 1 Y 2 X 1 Y 7 X 1 Y 4 X 1 Y 13 X 1 Y 6 X 1 Y 5 X 1 Y 3 X 1 Y 2 X 1 Y 3 X 1 Y 6 X 1 Y 2 X 1 Y 4 X 1 Y 1 X 1 Y 4 X 1 Y 10 X 1 Y 6 X 1 Y 1 X 1 Y 1 X 1 Y
 2 X 1 Y 2 X 1 Y 4 X 1 Y 3 X 1 Y 3 X 1 Y 4 X 1 Y 6 X 1 Y 4 X 2 Y 2 X 1 Y 2 X 1 Y 4 X 1 Y 1 X 1 Y 1 X 1 Y 4 X 1 Y 1 X 1 Y 1 X 1 Y 3 X 1 Y 1 X 1 Y 3 X 1 Y 3 X 1 Y 3 X 1 Y 2 X 1 Y 4 X 1 Y 5 X 1 Y 7 X 1 Y 4 X 1 Y 2 X 1 Y 2 X 1 Y 8 X 1 Y 2 X 1 Y 5 X 1 Y 3
 X 1 Y 2 X 1 Y 4 X 1 Y 1 X 1 Y 4 X 2 Y 2 X 1 Y 5 X 1 Y 3 X 1 Y 1 X 1 Y 2 X 1 Y 3 X 1 Y 3 X 1 Y 5 X 1 Y 1 X 1 Y 1 X 1 Y 2 X 1 Y 3 X 1 Y 4 X 1 Y 3 X 1 Y 2 X 1 Y 2 X 1 Y 6 X 1 Y 2 X 1 Y 4 X 1 Y 4 X 1 Y 5 X 1 Y 4 X 1 Y 5 X 1 Y 2 X 1 Y 2 X 1 Y 6 X 1 Y 5 X
 1 Y 1 X 1 Y 5 X 1 Y 7 X 1 Y 2 X 1 Y 1 X 1 Y 6 X 1 Y 3 X 1 Y 1 X 1 Y 3 X 1 Y 1 X 1 Y 3 X 1 Y 3 X 1 Y 6 X 2 Y 3 X 1 Y 2 X 1 Y 4 X 2 Y 2 X 1 Y 2 X 1 Y 1 X 1 Y 4 X 1 Y 3 X 1 Y 5 X 1 Y 3 X 1 Y 6 X 2 Y 4 X 1 Y 1 X 1 Y 3 X 1 Y 2 X 1 Y 1 X 1 Y 2 X 1 Y 1 X 1
 Y 1 X 1 Y 3 X 1 Y 3 X 1 Y 5 X 1 Y 5 X 1 Y 2 X 1 Y 1 X 1 Y 3 X 2 Y 2 X 1 Y 1 X 1 Y 7 X 1 Y 2 X 1 Y 1 X 1 Y 2 X 2 Y 1 X 1 Y 1 X 1 Y 2 X 1 Y 3 X 1 Y 2 X 1 Y 1 X 2 Y 1 X 1 Y 3 X 1 Y 1 X 1 Y 2 X 1 Y 2 X 2 Y 1 X 1 Y 3 X 1 Y 2 X 1 Y 2 X 1 Y 3 X 1 Y 5 X 1 Y
 3 X 1 Y 8 X 1 Y 3 X 1 Y 5 X 1 Y 3 X 1 Y 5 X 1 Y 2 X 1 Y 1 X 1 Y 3 X 1 Y 1 X 1 Y 1 X 1 Y 2 X 2 Y 2 X 2 Y 1 X 2 Y 1 X 1 Y 2 X 2 Y 1 X 1 Y 2 X 2 Y 1 X 1 Y 2 X 3 Y 1 X 1 Y 2 X 1 Y 5 X 1 Y 1 X 1 Y 1 X 2 Y 1 X 1 Y 2 X 1 Y 2 X 2 Y 5 X 2 Y 1 X 1 Y 1 X 1 Y 4
 X 1 Y 1 X 1 Y 2 X 1 Y 6 X 1 Y 1 X 1 Y 3 X 1 Y 6 X 1 Y 1 X 2 Y 2 X 1 Y 2 X 1 Y 2 X 1 Y 1 X 1 Y 3 X 1 Y 1 X 1 Y 1 X 1 Y 3 X 1 Y 2 X 1 Y 3 X 2 Y 1 X 2 Y 3 X 1 Y 2 X 1 Y 1 X 1 Y 2 X 1 Y 1 X 1 Y 2 X 1 Y 1 X 1 Y 3 X 1 Y 2 X 1 Y 1 X 1 Y 1 X 2 Y 1 X 1 Y 1 X
 2 Y 1 X 2 Y 3 X 2 Y 3 X 2 Y 2 X 1 Y 1 X 1 Y 3 X 2 Y 1 X 1 Y 4 X 1 Y 1 X 1 Y 2 X 1 Y 3 X 1 Y 4 X 1 Y 2 X 1 Y 1 X 1 Y 1 X 1 Y 3 X 1 Y 1 X 1 Y 1 X 1 Y 1 X 2 Y 2 X 1 Y 1 X 1 Y 1 X 1 Y 1 X 1 Y 2 X 2 Y 1 X 1 Y 4 X 2 Y 1 X 1 Y 2 X 2 Y 2 X 1 Y 1 X 1 Y 2 X 2
 Y 1 X 1 Y 3 X 1 Y 1 X 2 Y 2 X 1 Y 1 X 1 Y 2 X 1 Y 3 X 1 Y 2 X 2 Y 3 X 1 Y 1 X 2 Y 1 X 1 Y 3 X 2 Y 1 X 1 Y 2 X 2 Y 1 X 1 Y 1 X 1 Y 1 X 1 Y 2 X 1 Y 2 X 1 Y 1 X 3 Y 3 X 1 Y 2 X 1 Y 1 X 1 Y 2 X 1 Y 2 X 1 Y 1 X 1 Y 2 X 1 Y 1 X 2 Y 2 X 1 Y 1 X 2 Y 1 X 1 Y
 3 X 1 Y 1 X 1 Y 1 X 1 Y 4 X 2 Y 1 X 1 Y 3 X 1 Y 4 X 3 Y 1 X 1 Y 2 X 2 Y 1 X 1 Y 1 X 1 Y 1 X 1 Y 1 X 3 Y 2 X 2 Y 3 X 1 Y 1 X 1 Y 3 X 3 Y 1 X 1 Y 1 X 1 Y 1 X 2 Y 1 X 2 Y 2 X 1 Y 3 X 2 Y 1 X 2 Y 1 X 1 Y 1 X 1 Y 1 X 1 Y 1 X 1 Y 1 X 1 Y 1 X 1 Y 1 X 1 Y 1
 X 1 Y 2 X 1 Y 1 X 2 Y 1 X 1 Y 1 X 1 Y 1 X 1 Y 1 X 1 Y 1 X 1 Y 1 X 1 Y 2 X 1 Y 3 X 2 Y 1 X 2 Y 1 X 2 Y 1 X 1 Y 2 X 2 Y 1 X 1 Y 2 X 1 Y 1 X 1 Y 3 X 1 Y 1 X 2 Y 1 X 1 Y 1 X 1 Y 1 X 2 Y 1 X 1 Y 2 X 2 Y 1 X 1 Y 1 X 1 Y 1 X 2 Y 2 X 1 Y 1 X 2 Y 2 X 2 Y 2 X
 1 Y 2 X 3 Y 2 X 1 Y 1 X 1 Y 1 X 1 Y 1 X 1 Y 1 X 3 Y 1 X 2 Y 1 X 1 Y 1 X 1 Y 2 X 1 Y 2 X 2 Y 1 X 1 Y 2 X 1 Y 1 X 2 Y 1 X 2 Y 1 X 2 Y 1 X 2 Y 3 X 1 Y 1 X 1 Y 1 X 1 Y 1 X 2 Y 1 X 2 Y 1 X 1 Y 1 X 1 Y 2 X 2 Y 1 X 1 Y 1 X 1 Y 1 X 2 Y 2 X 2 Y 1 X 2 Y 2 X 1
 Y 1 X 2 Y 1 X 2 Y 1 X 1 Y 1 X 1 Y 1 X 1 Y 1 X 2 Y 1 X 3 Y 2 X 3 Y 1 X 1 Y 1 X 2 Y 1 X 2 Y 1 X 2 Y 1 X 1 Y 1 X 2 Y 1 X 2 Y 1 X 2 Y 2 X 1 Y 1 X 1 Y 1 X 1 Y 1 X 2 Y 1 X 2 Y 1 X 2 Y 1 X 1 Y 1 X 1 Y 1 X 1 Y 2 X 1 Y 1 X 2 Y 1 X 2 Y 1 X 1 Y 1 X 3 Y 1 X 2 Y
 1 X 3 Y 2 X 4 Y 2 X 1 Y 1 X 1 Y 1 X 2 Y 1 X 1 Y 2 X 2 Y 1 X 2 Y 1 X 2 Y 1 X 3 Y 1 X 2 Y 1 X 3 Y 1 X 2 Y 1 X 1 Y 1 X 2 Y 2 X 1 Y 1 X 1 Y 1 X 1 Y 1 X 3 Y 1 X 1 Y 1 X 2 Y 1 X 2 Y 1 X 4 Y 1 X 2 Y 1 X 1 Y 1 X 1 Y 1 X 3 Y 1 X 3 Y 1 X 1 Y 2 X 2 Y 1 X 4 Y 1
 X 1 Y 1 X 3 Y 1 X 1 Y 1 X 1 Y 1 X 1 Y 1 X 1 Y 1 X 3 Y 1 X 2 Y 1 X 1 Y 1 X 4 Y 1 X 2 Y 1 X 2 Y 1 X 1 Y 1 X 2 Y 1 X 2 Y 1 X 1 Y 1 X 3 Y 1 X 2 Y 1 X 1 Y 1 X 2 Y 1 X 2 Y 1 X 2 Y 1 X 1 Y 1 X 2 Y 1 X 3 Y 1 X 3 Y 1 X 1 Y 1 X 3 Y 1 X 1 Y 1 X 2 Y 1 X 2 Y 1 X
 1 Y 1 X 2 Y 1 X 3 Y 1 X 2 Y 1 X 3 Y 1 X 1 Y 1 X 1 Y 1 X 1 Y 1 X 1 Y 1 X 1 Y 1 X 1 Y 1 X 1 Y 1 X 4 Y 1 X 3 Y 1 X 2 Y 1 X 1 Y 1 X 1 Y 1 X 3 Y 1 X 4 Y 1 X 2 Y 1 X 4 Y 2 X 3 Y 1 X 2 Y 1 X 3 Y 1 X 2 Y 1 X 3 Y 1 X 1 Y 1 X 2 Y 1 X 5 Y 1 X 2 Y 1 X 1 Y 1 X 2
 Y 2 X 5 Y 1 X 3 Y 1 X 3 Y 1 X 1 Y 1 X 2 Y 2 X 5 Y 1 X 1 Y 1 X 3 Y 1 X 3 Y 1 X 5 Y 1 X 3 Y 1 X 3 Y 1 X 3 Y 1 X 3 Y 1 X 4 Y 1 X 3 Y 1 X 2 Y 1 X 3 Y 1 X 3 Y 1 X 2 Y 1 X 2 Y 1 X 3 Y 1 X 3 Y 1 X 4 Y 1 X 1 Y 1 X 5 Y 1 X 2 Y 1 X 3 Y 1 X 3 Y 1 X 3 Y 1 X 1 Y
 1 X 2 Y 1 X 3 Y 1 X 4 Y 1 X 2 Y 1 X 1 Y 1 X 2 Y 1 X 3 Y 1 X 2 Y 1 X 3 Y 1 X 3 Y 1 X 2 Y 1 X 3 Y 1 X 3 Y 1 X 2 Y 1 X 4 Y 1 X 2 Y 1 X 2 Y 1 X 5 Y 1 X 4 Y 1 X 3 Y 1 X 2 Y 1 X 3 Y 1 X 3 Y 1 X 3 Y 1 X 2 Y 1 X 4 Y 1 X 2 Y 1 X 3 Y 1 X 3 Y 1 X 2 Y 1 X 2 Y 1
 X 3 Y 1 X 3 Y 1 X 3 Y 1 X 2 Y 1 X 2 Y 1 X 3 Y 1 X 2 Y 1 X 1 Y 1 X 2 Y 1 X 4 Y 1 X 3 Y 1 X 3 Y 1 X 3 Y 1 X 4 Y 1 X 1 Y 1 X 3 Y 1 X 3 Y 1 X 4 Y 1 X 1 Y 1 X 1 Y 1 X 4 Y 1 X 6 Y 1 X 1 Y 1 X 2 Y 1 X 4 Y 1 X 3 Y 1 X 3 Y 1 X 6 Y 1 X 4 Y 1 X 5 Y 1 X 4 Y 1 X
 2 Y 1 X 3 Y 1 X 4 Y 1 X 5 Y 1 X 2 Y 1 X 2 Y 1 X 4 Y 1 X 4 Y 1 X 3 Y 1 X 5 Y 1 X 2 Y 1 X 7 Y 1 X 6 Y 1 X 3 Y 1 X 2 Y 1 X 4 Y 1 X 3 Y 1 X 4 Y 1 X 2 Y 1 X 6 Y 1 X 5 Y 1 X 1 Y 1 X 6 Y 1 X 4 Y 1 X 6 Y 1 X 3 Y 1 X 6 Y 1 X 1 Y 1 X 2 Y 1 X 4 Y 1 X 5 Y 1 X 3
 Y 1 X 5 Y 1 X 6 Y 1 X 4 Y 1 X 3 Y 1 X 6 Y 1 X 2 Y 1 X 4 Y 1 X 2 Y 1 X 6 Y 1 X 5 Y 1 X 4 Y 1 X 3 Y 1 X 9 Y 1 X 2 Y 1 X 2 Y 1 X 6 Y 1 X 3 Y 1 X 4 Y 1 X 4 Y 1 X 2 Y 1 X 5 Y 1 X 3 Y 1 X 5 Y 1 X 3 Y 1 X 2 Y 1 X 6 Y 1 X 3 Y 1 X 5 Y 1 X 6 Y 1 X 4 Y 1 X 5 Y
 1 X 4 Y 1 X 6 Y 1 X 3 Y 1 X 4 Y 1 X 6 Y 1 X 6 Y 1 X 8 Y 1 X 6 Y 1 X 5 Y 1 X 4 Y 1 X 7 Y 1 X 6 Y 1 X 6 Y 1 X 8 Y 1 X 6 Y 1 X 5 Y 1 X 7 Y 1 X 8 Y 1 X 5 Y 1 X 4 Y 1 X 5 Y 1 X 6 Y 1 X 7 Y 1 X 11 Y 1 X 7 Y 1 X 6 Y 1 X 5 Y 1 X 11 Y 1 X 3 Y 1 X 8 Y 1 X 6 Y
 1 X 6 Y 1 X 6 Y 1 X 8 Y 1 X 4 Y 1 X 7 Y 1 X 7 Y 1 X 6 Y 1 X 4 Y 1 X 6 Y 1 X 8 Y 1 X 5 Y 1 X 6 Y 1 X 8 Y 1 X 8 Y 1 X 5 Y 1 X 6 Y 1 X 7 Y 1 X 6 Y 1 X 5 Y 1 X 4 Y 1 X 1 Y s 0.49 0.6 0.82 c 1 1 1 c black 0.49 0.6 0.82 c 408 406 m cl s 408 406 m 1 Y 8 X
 1 Y 1 X 1 Y 14 X 1 Y 6 X 1 Y 5 X 1 Y 6 X 1 Y 13 X 1 Y 12 X 1 Y 2 X 1 Y 9 X 1 Y 9 X 1 Y 3 X 1 Y 2 X 1 Y 7 X 1 Y 5 X 1 Y 3 X 1 Y 11 X 1 Y 2 X 1 Y 3 X 1 Y 9 X 1 Y 6 X 1 Y 12 X 1 Y 4 X 1 Y 7 X 1 Y 13 X 1 Y 10 X 1 Y 4 X 1 Y 9 X 1 Y 11 X 1 Y 10 X 1 Y 3 X
 1 Y 8 X 1 Y 7 X 1 Y 4 X 1 Y 1 X 1 Y 6 X 1 Y 3 X 1 Y 8 X 1 Y 1 X 1 Y 4 X 1 Y 7 X 1 Y 3 X 1 Y 4 X 1 Y 5 X 1 Y 6 X 1 Y 6 X 1 Y 2 X 1 Y 7 X 1 Y 13 X 1 Y 3 X 1 Y 13 X 1 Y 3 X 1 Y 5 X 1 Y 5 X 1 Y 3 X 1 Y 3 X 1 Y 3 X 1 Y 4 X 1 Y 15 X 1 Y 2 X 1 Y 4 X 1 Y 13
 X 1 Y 5 X 1 Y 4 X 1 Y 2 X 1 Y 4 X 1 Y 4 X 1 Y 2 X 1 Y 7 X 1 Y 4 X 1 Y 5 X 1 Y 3 X 1 Y 1 X 1 Y 4 X 1 Y 5 X 1 Y 3 X 1 Y 1 X 1 Y 18 X 1 Y 9 X 1 Y 3 X 1 Y 6 X 1 Y 2 X 1 Y 10 X 1 Y 3 X 1 Y 13 X 1 Y 3 X 1 Y 4 X 1 Y 2 X 1 Y 9 X 1 Y 4 X 1 Y 4 X 1 Y 7 X 1 Y
 4 X 1 Y 2 X 1 Y 6 X 1 Y 2 X 1 Y 1 X 1 Y 7 X 1 Y 4 X 1 Y 3 X 1 Y 5 X 1 Y 9 X 1 Y 2 X 1 Y 3 X 1 Y 4 X 1 Y 1 X 1 Y 2 X 1 Y 5 X 1 Y 2 X 1 Y 2 X 1 Y 2 X 1 Y 1 X 1 Y 8 X 1 Y 6 X 1 Y 2 X 1 Y 2 X 1 Y 1 X 1 Y 3 X 1 Y 5 X 1 Y 3 X 1 Y 3 X 1 Y 2 X 1 Y 3 X 1 Y 4
 X 1 Y 2 X 1 Y 1 X 1 Y 4 X 1 Y 5 X 1 Y 1 X 1 Y 1 X 1 Y 3 X 2 Y 1 X 1 Y 2 X 1 Y 1 X 1 Y 4 X 1 Y 4 X 1 Y 1 X 1 Y 4 X 1 Y 4 X 1 Y 1 X 1 Y 4 X 1 Y 3 X 1 Y 4 X 1 Y 3 X 1 Y 5 X 1 Y 7 X 1 Y 1 X 1 Y 3 X 1 Y 1 X 1 Y 1 X 1 Y 2 X 1 Y 2 X 2 Y 2 X 1 Y 4 X 1 Y 3 X
 1 Y 1 X 1 Y 4 X 1 Y 4 X 1 Y 1 X 1 Y 3 X 1 Y 3 X 1 Y 2 X 1 Y 3 X 1 Y 1 X 1 Y 1 X 1 Y 2 X 1 Y 3 X 1 Y 2 X 1 Y 3 X 1 Y 3 X 1 Y 3 X 1 Y 2 X 1 Y 1 X 1 Y 4 X 2 Y 1 X 1 Y 1 X 1 Y 1 X 1 Y 1 X 1 Y 3 X 1 Y 1 X 1 Y 1 X 1 Y 1 X 1 Y 1 X 1 Y 1 X 1 Y 1 X 1 Y 1 X 1
 Y 2 X 1 Y 1 X 1 Y 2 X 1 Y 2 X 1 Y 3 X 1 Y 1 X 1 Y 1 X 2 Y 2 X 1 Y 5 X 1 Y 3 X 2 Y 2 X 1 Y 2 X 1 Y 2 X 1 Y 3 X 1 Y 1 X 1 Y 3 X 1 Y 1 X 2 Y 1 X 1 Y 2 X 1 Y 2 X 1 Y 1 X 2 Y 5 X 1 Y 4 X 1 Y 1 X 1 Y 2 X 1 Y 2 X 1 Y 3 X 1 Y 6 X 1 Y 1 X 1 Y 1 X 1 Y 1 X 1 Y
 2 X 2 Y 1 X 1 Y 1 X 1 Y 1 X 1 Y 3 X 1 Y 2 X 1 Y 2 X 1 Y 1 X 1 Y 4 X 1 Y 1 X 1 Y 1 X 2 Y 2 X 1 Y 2 X 1 Y 1 X 1 Y 5 X 1 Y 1 X 1 Y 2 X 1 Y 3 X 1 Y 1 X 1 Y 3 X 1 Y 2 X 1 Y 1 X 1 Y 2 X 1 Y 3 X 1 Y 5 X 1 Y 1 X 1 Y 2 X 1 Y 1 X 1 Y 1 X 1 Y 2 X 1 Y 1 X 1 Y 4
 X 2 Y 4 X 1 Y 2 X 1 Y 1 X 1 Y 1 X 1 Y 1 X 1 Y 2 X 1 Y 1 X 1 Y 1 X 1 Y 1 X 1 Y 1 X 1 Y 3 X 2 Y 1 X 1 Y 1 X 1 Y 2 X 1 Y 2 X 1 Y 2 X 1 Y 1 X 1 Y 3 X 2 Y 2 X 1 Y 1 X 1 Y 2 X 2 Y 1 X 1 Y 1 X 1 Y 1 X 1 Y 2 X 1 Y 1 X 1 Y 2 X 1 Y 2 X 1 Y 1 X 1 Y 1 X 1 Y 1 X
 1 Y 3 X 1 Y 1 X 1 Y 3 X 2 Y 1 X 1 Y 2 X 1 Y 1 X 1 Y 1 X 3 Y 3 X 1 Y 2 X 1 Y 3 X 2 Y 1 X 2 Y 1 X 1 Y 1 X 1 Y 1 X 1 Y 2 X 1 Y 2 X 1 Y 1 X 1 Y 1 X 1 Y 1 X 1 Y 1 X 1 Y 1 X 2 Y 1 X 2 Y 1 X 1 Y 1 X 1 Y 2 X 1 Y 1 X 1 Y 1 X 1 Y 1 X 1 Y 1 X 1 Y 2 X 1 Y 1 X 2
 Y 2 X 1 Y 1 X 1 Y 1 X 1 Y 2 X 1 Y 1 X 1 Y 1 X 2 Y 3 X 2 Y 2 X 1 Y 1 X 1 Y 1 X 2 Y 2 X 1 Y 1 X 1 Y 2 X 3 Y 2 X 1 Y 1 X 3 Y 1 X 1 Y 1 X 1 Y 1 X 1 Y 5 X 1 Y 1 X 1 Y 2 X 1 Y 1 X 1 Y 1 X 2 Y 1 X 1 Y 1 X 2 Y 2 X 1 Y 1 X 1 Y 3 X 1 Y 3 X 2 Y 1 X 2 Y 2 X 2 Y
 1 X 1 Y 1 X 1 Y 1 X 1 Y 1 X 1 Y 2 X 1 Y 1 X 1 Y 1 X 2 Y 2 X 2 Y 1 X 1 Y 1 X 1 Y 1 X 1 Y 2 X 1 Y 1 X 2 Y 3 X 1 Y 1 X 2 Y 1 X 2 Y 2 X 2 Y 1 X 1 Y 1 X 1 Y 1 X 2 Y 1 X 1 Y 1 X 2 Y 1 X 1 Y 2 X 1 Y 1 X 2 Y 1 X 1 Y 2 X 1 Y 1 X 1 Y 2 X 1 Y 1 X 1 Y 1 X 2 Y 2
 X 1 Y 1 X 1 Y 1 X 1 Y 1 X 1 Y 1 X 2 Y 2 X 1 Y 2 X 2 Y 1 X 1 Y 2 X 2 Y 1 X 2 Y 1 X 2 Y 2 X 2 Y 1 X 1 Y 1 X 2 Y 3 X 1 Y 1 X 1 Y 1 X 2 Y 1 X 1 Y 1 X 2 Y 1 X 1 Y 2 X 2 Y 1 X 1 Y 1 X 1 Y 1 X 2 Y 3 X 2 Y 1 X 1 Y 1 X 1 Y 1 X 1 Y 1 X 1 Y 1 X 1 Y 1 X 1 Y 1 X
 2 Y 1 X 2 Y 1 X 1 Y 1 X 1 Y 1 X 1 Y 1 X 1 Y 2 X 1 Y 1 X 4 Y 1 X 2 Y 1 X 2 Y 1 X 1 Y 1 X 3 Y 1 X 3 Y 1 X 2 Y 1 X 2 Y 1 X 2 Y 1 X 1 Y 1 X 1 Y 1 X 2 Y 2 X 2 Y 1 X 1 Y 1 X 1 Y 1 X 2 Y 1 X 1 Y 1 X 3 Y 2 X 1 Y 1 X 2 Y 2 X 3 Y 1 X 3 Y 1 X 1 Y 1 X 1 Y 1 X 1
 Y 1 X 1 Y 1 X 1 Y 1 X 2 Y 1 X 2 Y 1 X 2 Y 1 X 1 Y 1 X 2 Y 2 X 1 Y 1 X 1 Y 1 X 1 Y 1 X 1 Y 1 X 4 Y 1 X 1 Y 1 X 2 Y 1 X 2 Y 1 X 3 Y 1 X 4 Y 1 X 1 Y 1 X 3 Y 1 X 3 Y 1 X 2 Y 1 X 1 Y 1 X 2 Y 1 X 2 Y 1 X 1 Y 2 X 1 Y 1 X 1 Y 1 X 2 Y 1 X 1 Y 1 X 2 Y 1 X 2 Y
 1 X 2 Y 1 X 1 Y 1 X 4 Y 1 X 2 Y 3 X 2 Y 1 X 1 Y 1 X 2 Y 1 X 2 Y 1 X 1 Y 1 X 1 Y 1 X 2 Y 1 X 3 Y 1 X 2 Y 1 X 2 Y 1 X 1 Y 1 X 2 Y 2 X 2 Y 1 X 3 Y 1 X 1 Y 1 X 2 Y 1 X 1 Y 1 X 2 Y 1 X 3 Y 2 X 4 Y 1 X 1 Y 1 X 1 Y 1 X 3 Y 1 X 2 Y 1 X 1 Y 1 X 2 Y 1 X 1 Y 1
 X 3 Y 1 X 1 Y 1 X 3 Y 1 X 1 Y 1 X 2 Y 1 X 1 Y 1 X 2 Y 1 X 2 Y 1 X 2 Y 1 X 2 Y 1 X 2 Y 1 X 2 Y 1 X 3 Y 1 X 2 Y 1 X 3 Y 1 X 1 Y 1 X 2 Y 1 X 2 Y 1 X 2 Y 1 X 3 Y 1 X 3 Y 1 X 4 Y 1 X 1 Y 1 X 1 Y 1 X 3 Y 1 X 2 Y 1 X 3 Y 1 X 3 Y 1 X 1 Y 1 X 4 Y 1 X 4 Y 1 X
 3 Y 1 X 2 Y 1 X 1 Y 1 X 3 Y 1 X 2 Y 1 X 2 Y 1 X 2 Y 1 X 1 Y 1 X 2 Y 1 X 2 Y 1 X 5 Y 1 X 2 Y 1 X 1 Y 1 X 3 Y 1 X 3 Y 1 X 3 Y 1 X 1 Y 1 X 1 Y 1 X 2 Y 1 X 2 Y 1 X 5 Y 1 X 1 Y 1 X 2 Y 1 X 1 Y 1 X 2 Y 1 X 1 Y 1 X 2 Y 1 X 2 Y 1 X 1 Y 1 X 3 Y 1 X 2 Y 1 X 5
 Y 1 X 2 Y 1 X 2 Y 1 X 3 Y 1 X 3 Y 1 X 2 Y 1 X 3 Y 1 X 3 Y 1 X 3 Y 1 X 4 Y 1 X 2 Y 1 X 2 Y 1 X 4 Y 1 X 3 Y 1 X 3 Y 1 X 3 Y 1 X 2 Y 1 X 3 Y 1 X 3 Y 1 X 2 Y 1 X 3 Y 1 X 2 Y 1 X 2 Y 1 X 2 Y 1 X 4 Y 1 X 3 Y 1 X 1 Y 1 X 3 Y 1 X 2 Y 1 X 3 Y 1 X 1 Y 1 X 3 Y
 2 X 2 Y 1 X 3 Y 1 X 4 Y 1 X 1 Y 1 X 2 Y 1 X 1 Y 1 X 3 Y 1 X 1 Y 1 X 3 Y 1 X 3 Y 1 X 2 Y 1 X 3 Y 1 X 3 Y 1 X 4 Y 1 X 4 Y 1 X 3 Y 1 X 1 Y 1 X 3 Y 1 X 1 Y 1 X 2 Y 1 X 3 Y 1 X 5 Y 1 X 3 Y 1 X 2 Y 1 X 4 Y 1 X 2 Y 2 X 4 Y 1 X 4 Y 1 X 2 Y 1 X 2 Y 1 X 5 Y 1
 X 2 Y 1 X 3 Y 1 X 3 Y 1 X 5 Y 1 X 2 Y 1 X 5 Y 1 X 4 Y 1 X 4 Y 1 X 3 Y 1 X 2 Y 1 X 1 Y 1 X 3 Y 1 X 3 Y 1 X 1 Y 1 X 5 Y 1 X 3 Y 1 X 2 Y 1 X 3 Y 1 X 6 Y 1 X 3 Y 1 X 5 Y 1 X 3 Y 1 X 7 Y 1 X 2 Y 1 X 4 Y 1 X 5 Y 1 X 4 Y 1 X 4 Y 1 X 4 Y 1 X 2 Y 1 X 4 Y 1 X
 4 Y 1 X 3 Y 1 X 3 Y 1 X 3 Y 1 X 4 Y 1 X 6 Y 1 X 1 Y 1 X 4 Y 1 X 4 Y 1 X 4 Y 1 X 3 Y 1 X 2 Y 1 X 4 Y 1 X 5 Y 1 X 2 Y 1 X 3 Y 1 X 4 Y 1 X 4 Y 1 X 3 Y 1 X 5 Y 1 X 6 Y 1 X 2 Y 1 X 5 Y 1 X 4 Y 1 X 4 Y 1 X 3 Y 1 X 6 Y 1 X 4 Y 1 X 3 Y 1 X 5 Y 1 X 4 Y 1 X 3
 Y 1 X 5 Y 1 X 5 Y 1 X 5 Y 1 X 3 Y 1 X 5 Y 1 X 3 Y 1 X 6 Y 1 X 6 Y 1 X 6 Y 1 X 8 Y 1 X 3 Y 1 X 5 Y 1 X 5 Y 1 X 5 Y 1 X 6 Y 1 X 2 Y 1 X 4 Y 1 X 6 Y 1 X 8 Y 1 X 8 Y 1 X 3 Y 1 X 3 Y 1 X 7 Y 1 X 4 Y 1 X 5 Y 1 X 7 Y 1 X 9 Y 1 X 6 Y 1 X 6 Y 1 X 5 Y 1 X 7 Y
 1 X 3 Y 1 X 7 Y 1 X 6 Y 1 X 5 Y 1 X 5 Y 1 X 8 Y 1 X 4 Y 1 X 8 Y 1 X 6 Y 1 X 7 Y 1 X 6 Y 1 X 6 Y 1 X 8 Y 1 X 4 Y 1 X 2 Y 1 X 6 Y 1 X 6 Y 1 X 4 Y 1 X 6 Y 1 X 7 Y 1 X 9 Y 1 X 4 Y 1 X 4 Y 1 X 6 Y 1 X 6 Y 1 X 10 Y 1 X 6 Y 1 X 6 Y 1 X 6 Y 1 X 4 Y 1 X 5 Y
 1 X 4 Y 1 X 6 Y 1 X 6 Y 1 X 5 Y 1 X 8 Y 1 X 6 Y 1 X 7 Y 1 X 4 Y 1 X 6 Y 1 X 5 Y 1 X 6 Y 1 X 6 Y 1 X 11 Y 1 X 7 Y s 0.81 0.37 0.38 c 1 1 1 c black 0.81 0.37 0.38 c 408 403 m cl s 408 403 m 6 X 1 Y 4 X 1 Y 18 X 1 Y 19 X 1 Y 6 X 1 Y 2 X 1 Y 7 X 1 Y 7 X
 1 Y 5 X 1 Y 5 X 1 Y 10 X 1 Y 15 X 1 Y 13 X 1 Y 20 X 1 Y 7 X 1 Y 13 X 1 Y 3 X 1 Y 5 X 1 Y 4 X 1 Y 16 X 1 Y 10 X 1 Y 6 X 1 Y 4 X 1 Y 15 X 1 Y 6 X 1 Y 1 X 1 Y 16 X 1 Y 3 X 1 Y 2 X 1 Y 6 X 1 Y 7 X 1 Y 8 X 1 Y 11 X 1 Y 8 X 1 Y 8 X 1 Y 2 X 1 Y 4 X 1 Y 3 X
 1 Y 10 X 1 Y 8 X 1 Y 7 X 1 Y 3 X 1 Y 10 X 1 Y 2 X 1 Y 1 X 1 Y 8 X 1 Y 10 X 1 Y 1 X 1 Y 2 X 1 Y 4 X 1 Y 3 X 1 Y 2 X 1 Y 5 X 1 Y 13 X 1 Y 2 X 1 Y 8 X 1 Y 9 X 1 Y 2 X 2 Y 8 X 1 Y 3 X 1 Y 2 X 1 Y 4 X 1 Y 4 X 1 Y 2 X 1 Y 1 X 1 Y 10 X 1 Y 2 X 1 Y 6 X 1 Y
 5 X 1 Y 5 X 1 Y 3 X 1 Y 5 X 1 Y 5 X 1 Y 6 X 1 Y 9 X 1 Y 4 X 1 Y 1 X 1 Y 8 X 1 Y 12 X 1 Y 2 X 1 Y 3 X 1 Y 5 X 1 Y 3 X 1 Y 8 X 1 Y 8 X 1 Y 8 X 1 Y 1 X 1 Y 6 X 1 Y 2 X 1 Y 1 X 1 Y 3 X 1 Y 5 X 1 Y 4 X 1 Y 3 X 1 Y 10 X 1 Y 2 X 1 Y 7 X 1 Y 2 X 1 Y 2 X 1 Y
 8 X 1 Y 8 X 1 Y 1 X 1 Y 4 X 1 Y 7 X 1 Y 3 X 1 Y 4 X 1 Y 2 X 1 Y 4 X 1 Y 9 X 1 Y 5 X 1 Y 6 X 1 Y 1 X 1 Y 5 X 1 Y 3 X 2 Y 1 X 1 Y 1 X 1 Y 2 X 2 Y 4 X 1 Y 2 X 1 Y 2 X 1 Y 3 X 1 Y 5 X 1 Y 1 X 2 Y 2 X 1 Y 2 X 1 Y 2 X 1 Y 1 X 1 Y 3 X 1 Y 2 X 1 Y 2 X 1 Y 2
 X 1 Y 2 X 1 Y 3 X 2 Y 2 X 1 Y 4 X 1 Y 4 X 1 Y 2 X 1 Y 3 X 1 Y 1 X 1 Y 3 X 1 Y 1 X 1 Y 2 X 1 Y 7 X 1 Y 1 X 1 Y 2 X 1 Y 6 X 1 Y 2 X 1 Y 3 X 1 Y 3 X 1 Y 2 X 1 Y 4 X 1 Y 4 X 2 Y 1 X 1 Y 1 X 1 Y 2 X 1 Y 1 X 1 Y 3 X 1 Y 3 X 1 Y 6 X 2 Y 2 X 1 Y 1 X 1 Y 6 X
 1 Y 4 X 1 Y 2 X 1 Y 1 X 1 Y 5 X 1 Y 3 X 1 Y 2 X 1 Y 2 X 1 Y 2 X 2 Y 2 X 1 Y 3 X 2 Y 2 X 1 Y 1 X 1 Y 2 X 1 Y 1 X 1 Y 1 X 1 Y 5 X 1 Y 2 X 1 Y 6 X 1 Y 3 X 1 Y 3 X 2 Y 5 X 1 Y 2 X 1 Y 2 X 1 Y 4 X 1 Y 2 X 1 Y 2 X 1 Y 3 X 1 Y 4 X 1 Y 6 X 1 Y 3 X 1 Y 2 X 1
 Y 2 X 1 Y 4 X 1 Y 3 X 1 Y 2 X 1 Y 2 X 1 Y 2 X 2 Y 2 X 2 Y 1 X 2 Y 2 X 1 Y 4 X 1 Y 2 X 1 Y 6 X 1 Y 1 X 2 Y 2 X 1 Y 3 X 1 Y 2 X 1 Y 3 X 1 Y 5 X 1 Y 1 X 1 Y 2 X 1 Y 1 X 1 Y 2 X 2 Y 1 X 1 Y 1 X 1 Y 2 X 1 Y 1 X 1 Y 1 X 1 Y 1 X 1 Y 2 X 1 Y 3 X 1 Y 1 X 1 Y
 2 X 1 Y 2 X 1 Y 1 X 1 Y 3 X 1 Y 1 X 1 Y 1 X 1 Y 2 X 2 Y 2 X 2 Y 1 X 1 Y 2 X 1 Y 1 X 1 Y 2 X 1 Y 1 X 1 Y 2 X 1 Y 1 X 1 Y 1 X 1 Y 1 X 1 Y 1 X 1 Y 1 X 2 Y 2 X 1 Y 1 X 1 Y 1 X 1 Y 1 X 1 Y 1 X 1 Y 2 X 1 Y 2 X 3 Y 1 X 1 Y 1 X 1 Y 2 X 1 Y 2 X 1 Y 2 X 1 Y 2
 X 1 Y 2 X 1 Y 2 X 1 Y 3 X 2 Y 3 X 1 Y 1 X 2 Y 2 X 1 Y 2 X 1 Y 1 X 1 Y 1 X 2 Y 1 X 1 Y 1 X 2 Y 1 X 1 Y 2 X 1 Y 1 X 1 Y 2 X 1 Y 1 X 1 Y 3 X 1 Y 5 X 1 Y 2 X 1 Y 1 X 2 Y 3 X 1 Y 2 X 2 Y 2 X 2 Y 2 X 1 Y 2 X 2 Y 2 X 1 Y 2 X 1 Y 1 X 1 Y 1 X 2 Y 1 X 1 Y 2 X
 1 Y 1 X 1 Y 1 X 2 Y 4 X 1 Y 1 X 2 Y 2 X 1 Y 1 X 1 Y 1 X 2 Y 1 X 1 Y 2 X 1 Y 2 X 2 Y 1 X 1 Y 1 X 1 Y 1 X 1 Y 1 X 1 Y 1 X 1 Y 1 X 1 Y 1 X 1 Y 2 X 1 Y 1 X 2 Y 2 X 2 Y 2 X 2 Y 2 X 1 Y 1 X 2 Y 1 X 1 Y 3 X 2 Y 1 X 1 Y 1 X 1 Y 1 X 2 Y 2 X 1 Y 1 X 2 Y 1 X 1
 Y 1 X 1 Y 1 X 2 Y 1 X 1 Y 1 X 1 Y 3 X 3 Y 1 X 1 Y 1 X 2 Y 1 X 1 Y 1 X 1 Y 1 X 1 Y 1 X 2 Y 2 X 1 Y 1 X 1 Y 2 X 1 Y 2 X 1 Y 1 X 2 Y 1 X 1 Y 2 X 2 Y 1 X 1 Y 1 X 2 Y 1 X 1 Y 1 X 1 Y 3 X 2 Y 1 X 2 Y 3 X 1 Y 1 X 2 Y 1 X 1 Y 1 X 1 Y 1 X 3 Y 2 X 1 Y 2 X 2 Y
 2 X 1 Y 1 X 2 Y 1 X 2 Y 1 X 1 Y 1 X 1 Y 1 X 2 Y 2 X 1 Y 1 X 1 Y 1 X 1 Y 1 X 1 Y 2 X 1 Y 2 X 2 Y 1 X 1 Y 1 X 1 Y 1 X 2 Y 1 X 1 Y 1 X 2 Y 2 X 2 Y 1 X 2 Y 1 X 1 Y 1 X 2 Y 1 X 1 Y 2 X 2 Y 1 X 3 Y 1 X 1 Y 2 X 2 Y 1 X 1 Y 1 X 2 Y 1 X 1 Y 1 X 1 Y 2 X 2 Y 1
 X 1 Y 1 X 1 Y 1 X 1 Y 1 X 2 Y 1 X 2 Y 1 X 2 Y 1 X 1 Y 1 X 1 Y 1 X 4 Y 1 X 2 Y 1 X 1 Y 1 X 1 Y 1 X 2 Y 1 X 1 Y 3 X 3 Y 1 X 1 Y 1 X 3 Y 1 X 2 Y 1 X 1 Y 1 X 2 Y 2 X 2 Y 1 X 1 Y 1 X 3 Y 1 X 2 Y 2 X 2 Y 1 X 1 Y 1 X 3 Y 1 X 2 Y 2 X 1 Y 1 X 1 Y 1 X 1 Y 1 X
 2 Y 1 X 2 Y 1 X 2 Y 1 X 1 Y 1 X 2 Y 1 X 3 Y 2 X 3 Y 1 X 2 Y 1 X 2 Y 1 X 2 Y 1 X 1 Y 1 X 3 Y 1 X 2 Y 2 X 1 Y 1 X 1 Y 1 X 2 Y 2 X 2 Y 1 X 1 Y 1 X 3 Y 2 X 1 Y 1 X 1 Y 1 X 1 Y 1 X 1 Y 1 X 2 Y 1 X 1 Y 1 X 1 Y 1 X 1 Y 1 X 1 Y 1 X 2 Y 1 X 1 Y 1 X 1 Y 1 X 2
 Y 1 X 1 Y 1 X 2 Y 1 X 1 Y 1 X 1 Y 1 X 2 Y 1 X 1 Y 1 X 2 Y 1 X 1 Y 1 X 2 Y 1 X 1 Y 1 X 2 Y 1 X 1 Y 1 X 3 Y 1 X 1 Y 1 X 3 Y 1 X 3 Y 2 X 1 Y 1 X 2 Y 1 X 1 Y 1 X 1 Y 1 X 1 Y 1 X 2 Y 1 X 1 Y 1 X 3 Y 2 X 1 Y 1 X 3 Y 1 X 2 Y 1 X 1 Y 1 X 2 Y 1 X 2 Y 1 X 3 Y
 1 X 3 Y 2 X 2 Y 1 X 4 Y 1 X 4 Y 1 X 1 Y 1 X 2 Y 1 X 1 Y 1 X 2 Y 1 X 2 Y 1 X 1 Y 1 X 2 Y 1 X 2 Y 1 X 3 Y 1 X 1 Y 2 X 2 Y 1 X 2 Y 1 X 1 Y 1 X 1 Y 1 X 2 Y 1 X 2 Y 1 X 1 Y 1 X 2 Y 1 X 1 Y 1 X 3 Y 1 X 2 Y 1 X 1 Y 1 X 2 Y 1 X 2 Y 1 X 4 Y 1 X 2 Y 1 X 2 Y 1
 X 2 Y 1 X 2 Y 1 X 2 Y 1 X 3 Y 1 X 2 Y 1 X 4 Y 1 X 2 Y 2 X 3 Y 1 X 2 Y 1 X 1 Y 1 X 2 Y 1 X 1 Y 1 X 3 Y 1 X 5 Y 1 X 1 Y 1 X 3 Y 2 X 3 Y 1 X 1 Y 1 X 4 Y 1 X 2 Y 1 X 3 Y 1 X 3 Y 1 X 3 Y 1 X 1 Y 1 X 3 Y 1 X 2 Y 1 X 2 Y 1 X 2 Y 1 X 2 Y 1 X 5 Y 1 X 2 Y 1 X
 3 Y 1 X 1 Y 1 X 1 Y 1 X 1 Y 1 X 1 Y 1 X 1 Y 1 X 3 Y 1 X 3 Y 1 X 3 Y 1 X 3 Y 1 X 1 Y 1 X 3 Y 1 X 3 Y 1 X 2 Y 1 X 4 Y 1 X 2 Y 1 X 4 Y 1 X 3 Y 1 X 1 Y 1 X 2 Y 1 X 2 Y 1 X 4 Y 1 X 2 Y 1 X 3 Y 1 X 2 Y 1 X 5 Y 1 X 2 Y 1 X 4 Y 1 X 2 Y 1 X 2 Y 1 X 1 Y 1 X 2
 Y 1 X 3 Y 1 X 2 Y 1 X 3 Y 1 X 3 Y 1 X 4 Y 1 X 5 Y 1 X 2 Y 1 X 1 Y 1 X 3 Y 1 X 3 Y 1 X 3 Y 1 X 4 Y 1 X 2 Y 1 X 2 Y 1 X 2 Y 1 X 4 Y 1 X 3 Y 1 X 1 Y 1 X 4 Y 1 X 2 Y 1 X 2 Y 1 X 4 Y 1 X 3 Y 1 X 4 Y 1 X 3 Y 1 X 6 Y 1 X 2 Y 1 X 4 Y 1 X 2 Y 1 X 4 Y 1 X 2 Y
 1 X 3 Y 1 X 3 Y 1 X 3 Y 1 X 2 Y 1 X 4 Y 1 X 6 Y 1 X 4 Y 1 X 3 Y 1 X 4 Y 1 X 5 Y 1 X 4 Y 1 X 5 Y 1 X 6 Y 1 X 5 Y 1 X 5 Y 1 X 5 Y 1 X 4 Y 1 X 3 Y 1 X 2 Y 1 X 3 Y 1 X 3 Y 1 X 5 Y 1 X 5 Y 1 X 4 Y 1 X 4 Y 1 X 3 Y 1 X 4 Y 1 X 2 Y 1 X 4 Y 1 X 6 Y 1 X 5 Y 1
 X 5 Y 1 X 5 Y 1 X 3 Y 1 X 5 Y 1 X 4 Y 1 X 5 Y 1 X 7 Y 1 X 6 Y 1 X 2 Y 1 X 5 Y 1 X 7 Y 1 X 9 Y 1 X 4 Y 1 X 6 Y 1 X 3 Y 1 X 5 Y 1 X 4 Y 1 X 4 Y 1 X 3 Y 1 X 3 Y 1 X 7 Y 1 X 5 Y 1 X 4 Y 1 X 7 Y 1 X 5 Y 1 X 7 Y 1 X 4 Y 1 X 4 Y 1 X 5 Y 1 X 4 Y 1 X 6 Y 1 X
 7 Y 1 X 5 Y 1 X 3 Y 1 X 5 Y 1 X 5 Y 1 X 5 Y 1 X 6 Y 1 X 5 Y 1 X 6 Y 1 X 5 Y 1 X 5 Y 1 X 7 Y 1 X 7 Y 1 X 5 Y 1 X 5 Y 1 X 5 Y 1 X 3 Y 1 X 7 Y 1 X 6 Y 1 X 4 Y 1 X 8 Y 1 X 6 Y 1 X 5 Y 1 X 6 Y 1 X 6 Y 1 X 7 Y 1 X 7 Y 1 X 6 Y 1 X 5 Y 1 X 8 Y 1 X 5 Y 1 X 5
 Y 1 X 6 Y 1 X 9 Y 1 X 5 Y 1 X 5 Y 1 X 6 Y 1 X 7 Y 1 X 7 Y 1 X 7 Y 1 X 6 Y 1 X 7 Y 1 X 6 Y 1 X 7 Y 1 X 5 Y 1 X 8 Y 1 X 6 Y 1 X 5 Y 1 X 10 Y 1 X 7 Y 1 X 7 Y 1 X 6 Y 1 X 7 Y 1 X 10 Y 1 X 6 Y 1 X 6 Y 1 X 7 Y 1 X 6 Y 1 X 7 Y 1 X 9 Y 1 X 7 Y 1 X 12 Y 1 X
 6 Y 1 X 6 Y 1 X 7 Y s black
 gsave  2268 2176 0 0 C 1495.32 2039.42 t 0 r /Helvetica findfont 106.537 sf 0 0 m (\(13 TeV\) 2017) show NC gr 
 gsave  2268 2176 0 0 C 408.189 2037.11 t 0 r /Helvetica-Bold findfont 129.366 sf 0 0 m (CMS) show NC gr 
 gsave  2268 2176 0 0 C 487.026 2039.42 t 0 r /Helvetica-Oblique findfont 98.9272 sf 0 0 m (        Simulation) show NC gr [  ] 0 sd 3 lw 408 305 m 1769 X s 585 356 m -51 Y s 629 330 m -25 Y s 674 330 m -25 Y s 718 330 m -25 Y s 762 330 m -25 Y s 806
 356 m -51 Y s 850 330 m -25 Y s 895 330 m -25 Y s 939 330 m -25 Y s 983 330 m -25 Y s 1027 356 m -51 Y s 1071 330 m -25 Y s 1116 330 m -25 Y s 1160 330 m -25 Y s 1204 330 m -25 Y s 1248 356 m -51 Y s 1293 330 m -25 Y s 1337 330 m -25 Y s 1381 330 m
 -25 Y s 1425 330 m -25 Y s 1469 356 m -51 Y s 1514 330 m -25 Y s 1558 330 m -25 Y s 1602 330 m -25 Y s 1646 330 m -25 Y s 1691 356 m -51 Y s 1735 330 m -25 Y s 1779 330 m -25 Y s 1823 330 m -25 Y s 1867 330 m -25 Y s 1912 356 m -51 Y s 1956 330 m
 -25 Y s 2000 330 m -25 Y s 2044 330 m -25 Y s 2089 330 m -25 Y s 2133 356 m -51 Y s 585 356 m -51 Y s 541 330 m -25 Y s 497 330 m -25 Y s 452 330 m -25 Y s 408 330 m -25 Y s 2133 356 m -51 Y s 2177 330 m -25 Y s 408 2002 m 1769 X s 585 1951 m 51 Y s
 629 1977 m 25 Y s 674 1977 m 25 Y s 718 1977 m 25 Y s 762 1977 m 25 Y s 806 1951 m 51 Y s 850 1977 m 25 Y s 895 1977 m 25 Y s 939 1977 m 25 Y s 983 1977 m 25 Y s 1027 1951 m 51 Y s 1071 1977 m 25 Y s 1116 1977 m 25 Y s 1160 1977 m 25 Y s 1204 1977 m
 25 Y s 1248 1951 m 51 Y s 1293 1977 m 25 Y s 1337 1977 m 25 Y s 1381 1977 m 25 Y s 1425 1977 m 25 Y s 1469 1951 m 51 Y s 1514 1977 m 25 Y s 1558 1977 m 25 Y s 1602 1977 m 25 Y s 1646 1977 m 25 Y s 1691 1951 m 51 Y s 1735 1977 m 25 Y s 1779 1977 m 25
 Y s 1823 1977 m 25 Y s 1867 1977 m 25 Y s 1912 1951 m 51 Y s 1956 1977 m 25 Y s 2000 1977 m 25 Y s 2044 1977 m 25 Y s 2089 1977 m 25 Y s 2133 1951 m 51 Y s 585 1951 m 51 Y s 541 1977 m 25 Y s 497 1977 m 25 Y s 452 1977 m 25 Y s 408 1977 m 25 Y s
 2133 1951 m 51 Y s 2177 1977 m 25 Y s 408 305 m 1697 Y s 461 305 m -53 X s 435 346 m -27 X s 435 388 m -27 X s 435 429 m -27 X s 435 470 m -27 X s 461 512 m -53 X s 435 553 m -27 X s 435 595 m -27 X s 435 636 m -27 X s 435 677 m -27 X s 461 719 m
 -53 X s 435 760 m -27 X s 435 802 m -27 X s 435 843 m -27 X s 435 884 m -27 X s 461 926 m -53 X s 435 967 m -27 X s 435 1009 m -27 X s 435 1050 m -27 X s 435 1091 m -27 X s 461 1133 m -53 X s 435 1174 m -27 X s 435 1216 m -27 X s 435 1257 m -27 X s
 435 1298 m -27 X s 461 1340 m -53 X s 435 1381 m -27 X s 435 1423 m -27 X s 435 1464 m -27 X s 435 1505 m -27 X s 461 1547 m -53 X s 435 1588 m -27 X s 435 1630 m -27 X s 435 1671 m -27 X s 435 1712 m -27 X s 461 1754 m -53 X s 435 1795 m -27 X s
 435 1837 m -27 X s 435 1878 m -27 X s 435 1919 m -27 X s 461 1961 m -53 X s 461 1961 m -53 X s 2177 305 m 1697 Y s 2124 305 m 53 X s 2150 346 m 27 X s 2150 388 m 27 X s 2150 429 m 27 X s 2150 470 m 27 X s 2124 512 m 53 X s 2150 553 m 27 X s 2150 595
 m 27 X s 2150 636 m 27 X s 2150 677 m 27 X s 2124 719 m 53 X s 2150 760 m 27 X s 2150 802 m 27 X s 2150 843 m 27 X s 2150 884 m 27 X s 2124 926 m 53 X s 2150 967 m 27 X s 2150 1009 m 27 X s 2150 1050 m 27 X s 2150 1091 m 27 X s 2124 1133 m 53 X s
 2150 1174 m 27 X s 2150 1216 m 27 X s 2150 1257 m 27 X s 2150 1298 m 27 X s 2124 1340 m 53 X s 2150 1381 m 27 X s 2150 1423 m 27 X s 2150 1464 m 27 X s 2150 1505 m 27 X s 2124 1547 m 53 X s 2150 1588 m 27 X s 2150 1630 m 27 X s 2150 1671 m 27 X s
 2150 1712 m 27 X s 2124 1754 m 53 X s 2150 1795 m 27 X s 2150 1837 m 27 X s 2150 1878 m 27 X s 2150 1919 m 27 X s 2124 1961 m 53 X s 2124 1961 m 53 X s 1 1 1 c black 1769 1697 408 305 bl 1769 1697 408 305 bl 0.52 0.76 0.64 c 6 lw black 0.52 0.76
 0.64 c black 0.49 0.6 0.82 c black 0.49 0.6 0.82 c black 0.81 0.37 0.38 c black 0.81 0.37 0.38 c black[ 12 12] 0 sd[  ] 0 sd 3 lw 1 1 1 c 635 718 476 1197 bf black
 gsave  2268 2176 0 0 C 631.612 1830.15 t 0 r /Helvetica findfont 79.9028 sf 0 0 m (BDT w/o iso) show NC gr  0.52 0.76 0.64 c 500 1813 m 111 X 84 Y -111 X f 6 lw 500 1897 m 111 X s 500 1813 m 111 X s 611 1813 m 84 Y s 500 1813 m 84 Y s black
 gsave  2268 2176 0 0 C 631.612 1712.2 t 0 r /Helvetica findfont 79.9028 sf 0 0 m (BDT and iso) show NC gr  0.49 0.6 0.82 c 3 lw 500 1694 m 111 X 84 Y -111 X f 6 lw 500 1778 m 111 X s 500 1694 m 111 X s 611 1694 m 84 Y s 500 1694 m 84 Y s black
 gsave  2268 2176 0 0 C 631.612 1590.45 t 0 r /Helvetica findfont 79.9028 sf 0 0 m (BDT w/ iso) show NC gr  0.81 0.37 0.38 c 3 lw 500 1574 m 111 X 84 Y -111 X f 6 lw 500 1658 m 111 X s 500 1574 m 111 X s 611 1574 m 84 Y s 500 1574 m 84 Y s black
 gsave  2268 2176 0 0 C 631.612 1350.74 t 0 r /Helvetica findfont 79.9028 sf 0 0 m (ECAL Barrel) show NC gr  500 1377 m 111 X s
 gsave  2268 2176 0 0 C 631.612 1232.79 t 0 r /Helvetica findfont 79.9028 sf 0 0 m (ECAL Endcap) show NC gr [ 12 12] 0 sd 500 1257 m 111 X s
 gr  gr showpage
end
%%EOF
