%!PS-Adobe-2.0 EPSF-2.0
%%BoundingBox:  0 0 567 544
%%Title: plots/n_fakes_vs_ele_pt_only2017_barrel_ecal_driven.eps: n_fakes_vs_ele_pt_only2017_barrel_ecal_driven
%%Creator: ROOT Version 6.14/04
%%CreationDate: Tue Aug  4 10:21:11 2020
%%DocumentNeededResources: ProcSet (FontSetInit)
%%EndComments
%%BeginProlog
80 dict begin
/s {stroke} def /l {lineto} def /m {moveto} def /t {translate} def
/r {rotate} def /rl {roll}  def /R {repeat} def
/d {rlineto} def /rm {rmoveto} def /gr {grestore} def /f {eofill} def
/c {setrgbcolor} def /black {0 setgray} def /sd {setdash} def
/cl {closepath} def /sf {scalefont setfont} def /lw {setlinewidth} def
/box {m dup 0 exch d exch 0 d 0 exch neg d cl} def
/NC{systemdict begin initclip end}def/C{NC box clip newpath}def
/bl {box s} def /bf {gsave box gsave f grestore 1 lw [] 0 sd s grestore} def /Y { 0 exch d} def /X { 0 d} def 
/K {{pop pop 0 moveto} exch kshow} bind def
/ita {/ang 15 def gsave [1 0 ang dup sin exch cos div 1 0 0] concat} def 
/mp {newpath /y exch def /x exch def} def
/side {[w .77 mul w .23 mul] .385 w mul sd w 0 l currentpoint t -144 r} def
/mr {mp x y w2 0 360 arc} def /m24 {mr s} def /m20 {mr f} def
/mb {mp x y w2 add m w2 neg 0 d 0 w neg d w 0 d 0 w d cl} def
/mt {mp x y w2 add m w2 neg w neg d w 0 d cl} def
/w4 {w 4 div} def
/w6 {w 6 div} def
/w8 {w 8 div} def
/m21 {mb f} def /m25 {mb s} def /m22 {mt f} def /m26{mt s} def
/m23 {mp x y w2 sub m w2 w d w neg 0 d cl f} def
/m27 {mp x y w2 add m w3 neg w2 neg d w3 w2 neg d w3 w2 d cl s} def
/m28 {mp x w2 sub y w2 sub w3 add m w3 0 d  0 w3 neg d w3 0 d 0 w3 d w3 0 d  0 w3 d w3 neg 0 d 0 w3 d w3 neg 0 d 0 w3 neg d w3 neg 0 d cl s } def
/m29 {mp gsave x w2 sub y w2 add w3 sub m currentpoint t 4 {side} repeat cl fill gr} def
/m30 {mp gsave x w2 sub y w2 add w3 sub m currentpoint t 4 {side} repeat cl s gr} def
/m31 {mp x y w2 sub m 0 w d x w2 sub y m w 0 d x w2 sub y w2 add m w w neg d x w2 sub y w2 sub m w w d s} def
/m32 {mp x y w2 sub m w2 w d w neg 0 d cl s} def
/m33 {mp x y w2 add m w3 neg w2 neg d w3 w2 neg d w3 w2 d cl f} def
/m34 {mp x w2 sub y w2 sub w3 add m w3 0 d  0 w3 neg d w3 0 d 0 w3 d w3 0 d  0 w3 d w3 neg 0 d 0 w3 d w3 neg 0 d 0 w3 neg d w3 neg 0 d cl f } def
/m35 {mp x y w2 add m w2 neg w2 neg d w2 w2 neg d w2 w2 d w2 neg w2 d x y w2 sub m 0 w d x w2 sub y m w 0 d s} def
/m36 {mb x w2 sub y w2 add m w w neg d x w2 sub y w2 sub m w w d s} def
/m37 {mp x y m w4 neg w2 d w4 neg w2 neg d w2 0 d  w4 neg w2 neg d w2 0 d w4 neg w2 d w2 0 d w4 neg w2 d w4 neg w2 neg d cl s} def
/m38 {mp x w4 sub y w2 add m w4 neg w4 neg d 0 w2 neg d w4 w4 neg d w2 0 d w4 w4 d 0 w2 d w4 neg w4 d w2 neg 0 d x y w2 sub m 0 w d x w2 sub y m w 0 d cl s} def
/m39 {mp x y m w4 neg w2 d w4 neg w2 neg d w2 0 d  w4 neg w2 neg d w2 0 d w4 neg w2 d w2 0 d w4 neg w2 d w4 neg w2 neg d cl f} def
/m40 {mp x y m w4 w2 d w4 w4 neg d w2 neg w4 neg d w2 w4 neg d w4 neg w4 neg d w4 neg w2 d w4 neg w2 neg d w4 neg w4 d w2 w4 d w2 neg w4 d w4 w4 d w4 w2 neg d cl s} def
/m41 {mp x y m w4 w2 d w4 w4 neg d w2 neg w4 neg d w2 w4 neg d w4 neg w4 neg d w4 neg w2 d w4 neg w2 neg d w4 neg w4 d w2 w4 d w2 neg w4 d w4 w4 d w4 w2 neg d cl f} def
/m42 {mp x y w2 add m w8 neg w2 -3 4 div mul d w2 -3 4 div mul w8 neg d w2 3 4 div mul w8 neg d w8 w2 -3 4 div mul d w8 w2 3 4 div mul d w2 3 4 div mul w8 d w2 -3 4 div mul w8 d w8 neg w2 3 4 div mul d cl s} def
/m43 {mp x y w2 add m w8 neg w2 -3 4 div mul d w2 -3 4 div mul w8 neg d w2 3 4 div mul w8 neg d w8 w2 -3 4 div mul d w8 w2 3 4 div mul d w2 3 4 div mul w8 d w2 -3 4 div mul w8 d w8 neg w2 3 4 div mul d cl f} def
/m44 {mp x y m w6 neg w2 d w2 2 3 div mul 0 d w6 neg w2 neg d w2 w6 d 0 w2 -2 3 div mul d w2 neg w6 d w6 w2 neg d w2 -2 3 div mul 0 d w6 w2 d w2 neg w6 neg d 0 w2 2 3 div mul d w2 w6 neg d cl s} def
/m45 {mp x y m w6 neg w2 d w2 2 3 div mul 0 d w6 neg w2 neg d w2 w6 d 0 w2 -2 3 div mul d w2 neg w6 d w6 w2 neg d w2 -2 3 div mul 0 d w6 w2 d w2 neg w6 neg d 0 w2 2 3 div mul d w2 w6 neg d cl f} def
/m46 {mp x y w4 add m w4 neg w4 d w4 neg w4 neg d  w4 w4 neg d w4 neg w4 neg d w4 w4 neg d w4 w4 d w4 w4 neg d w4 w4 d w4 neg w4 d w4 w4 d w4 neg w4 d w4 neg w4 neg d cl s} def
/m47 {mp x y w4 add m w4 neg w4 d w4 neg w4 neg d w4 w4 neg d w4 neg w4 neg d  w4 w4 neg d w4 w4 d w4 w4 neg d w4 w4 d w4 neg w4 d w4 w4 d w4 neg w4 d w4 neg w4 neg d cl f} def
/m48 {mp x y w4 add m w4 neg w4 d w4 neg w4 neg d w4 w4 neg d  w4 neg w4 neg d w4 w4 neg d w4 w4 d w4 w4 neg d w4 w4 d w4 neg w4 d w4 w4 d w4 neg w4 d w4 neg w4 neg d  w4 w4 neg d w4 neg w4 neg d w4 neg w4 d w4 w4 d cl f} def
/m49 {mp x w2 sub w3 add y w2 sub w3 add m  0 w3 neg d w3 0 d 0 w3 d w3 0 d 0 w3 d w3 neg 0 d 0 w3 d w3 neg 0 d 0 w3 neg d w3 neg 0 d 0 w3 neg d w3 0 d 0 w3 d w3 0 d 0 w3 neg d w3 neg 0 d cl f } def
/m2 {mp x y w2 sub m 0 w d x w2 sub y m w 0 d s} def
/m5 {mp x w2 sub y w2 sub m w w d x w2 sub y w2 add m w w neg d s} def
%%IncludeResource: ProcSet (FontSetInit)
%%IncludeResource: font Times-Roman
%%IncludeResource: font Times-Italic
%%IncludeResource: font Times-Bold
%%IncludeResource: font Times-BoldItalic
%%IncludeResource: font Helvetica
%%IncludeResource: font Helvetica-Oblique
%%IncludeResource: font Helvetica-Bold
%%IncludeResource: font Helvetica-BoldOblique
%%IncludeResource: font Courier
%%IncludeResource: font Courier-Oblique
%%IncludeResource: font Courier-Bold
%%IncludeResource: font Courier-BoldOblique
%%IncludeResource: font Symbol
%%IncludeResource: font ZapfDingbats
/reEncode {exch findfont dup length dict begin {1 index /FID eq  {pop pop} {def} ifelse } forall /Encoding exch def currentdict end dup /FontName get exch definefont pop } def [/Times-Bold /Times-Italic /Times-BoldItalic /Helvetica /Helvetica-Oblique
 /Helvetica-Bold /Helvetica-BoldOblique /Courier /Courier-Oblique /Courier-Bold /Courier-BoldOblique /Times-Roman /AvantGarde-Book /AvantGarde-BookOblique /AvantGarde-Demi /AvantGarde-DemiOblique /Bookman-Demi /Bookman-DemiItalic /Bookman-Light
 /Bookman-LightItalic /Helvetica-Narrow /Helvetica-Narrow-Bold /Helvetica-Narrow-BoldOblique /Helvetica-Narrow-Oblique /NewCenturySchlbk-Roman /NewCenturySchlbk-Bold /NewCenturySchlbk-BoldItalic /NewCenturySchlbk-Italic /Palatino-Bold
 /Palatino-BoldItalic /Palatino-Italic /Palatino-Roman ] {ISOLatin1Encoding reEncode } forall
%%EndProlog
%%BeginSetup
%%EndSetup
newpath  gsave  .25 .25 scale  gsave  0 0 t black[  ] 0 sd 3 lw 1 1 1 c 2268 2176 0 0 bf black 1 1 1 c black 1769 1697 408 305 bl 1769 1697 408 305 bl 1 1 1 c black 1769 1697 408 305 bl 1769 1697 408 305 bl 0.49 0.6 0.82 c 1 1 1 c 0.49 0.6 0.82 c 408
 1896 m 18 X s 456 1896 m 16 X s /w 30 def /w2 {w 2 div} def /w3 {w 3 div} def 441 1896 m20 472 1874 m 14 X s 517 1874 m 12 X s 501 1874 m20 529 1845 m 12 X s 571 1845 m 10 X s 556 1845 m20 581 1816 m 9 X s 620 1816 m 8 X s 605 1816 m20 628 1789 m 7
 X s 666 1789 m 6 X s 650 1789 m20 672 1762 m 5 X s 707 1762 m 5 X s 692 1762 m20 712 1735 m 4 X s 746 1735 m 3 X s 731 1735 m20 749 1709 m 3 X s 782 1709 m 2 X s 767 1709 m20 784 1687 m 2 X s 816 1687 m 1 X s 801 1687 m20 817 1665 m 1 X s 848 1665 m
 s 833 1665 m20 863 1642 m20 892 1624 m20 919 1607 m20 945 1591 m20 970 1577 m20 993 1562 m20 1016 1549 m20 1038 1537 m20 1058 1525 m20 1079 1514 m20 1098 1504 m20 1117 1495 m20 1135 1484 m20 1152 1474 m20 1169 1465 m20 1186 1459 m20 1202 1449 m20
 1217 1442 m20 1232 1433 m20 1247 1424 m20 1261 1417 m20 1275 1408 m20 1289 1402 m20 1302 1392 m20 1315 1385 m20 1327 1373 m20 1340 1365 m20 1352 1353 m20 1364 1347 m20 1375 1336 m20 1387 1325 m20 1398 1317 m20 1408 1309 m20 1419 1299 m20 1430 1288
 m20 1440 1276 m20 1450 1269 m20 1460 1259 m20 1469 1245 m20 1479 1236 m20 1488 1225 m20 1498 1219 m20 1507 1207 m20 1515 1194 m20 1524 1187 m20 1533 1175 m20 1541 1163 m20 1550 1154 m20 1558 1141 m20 1566 1135 m20 1574 1123 m20 1582 1112 m20 1590
 1099 m20 1597 1087 m20 1605 1080 m20 1612 1065 m20 1620 1052 m20 1627 1042 m20 1634 1029 m20 1641 1004 m20 1648 1006 m20 1655 989 m20 1662 982 m20 1668 970 m20 1675 985 m20 1682 966 m20 1688 958 m20 1694 958 m20 1701 942 m20 1707 950 m20 1713 942
 m20 1719 931 m20 1725 930 m20 1731 935 m20 1737 920 m20 1743 909 m20 1749 907 m20 1754 909 m20 1760 901 m20 1766 882 m20 1771 892 m20 1777 889 m20 1782 878 m20 1787 874 m20 1793 864 m20 1798 877 m20 1803 860 m20 1808 846 m20 1814 833 m20 1819 845
 m20 1824 838 m20 1829 837 m20 1834 827 m20 1839 822 m20 1843 831 m20 1848 814 m20 1853 801 m20 1858 790 m20 1862 802 m20 1867 796 m20 1872 777 m20 1876 774 m20 1881 768 m20 1885 782 m20 1890 762 m20 1894 771 m20 1898 748 m20 1903 745 m20 1907 747
 m20 1911 734 m20 1916 742 m20 1920 734 m20 1924 723 m20 1928 740 m20 1932 709 m20 1936 722 m20 1940 709 m20 1944 714 m20 1948 713 m20 1952 700 m20 1956 693 m20 1960 700 m20 1964 682 m20 1968 678 m20 1972 680 m20 1975 672 m20 1979 678 m20 1983 673
 m20 1987 682 m20 1990 664 m20 1994 672 m20 1998 660 m20 2001 662 m20 2005 634 m20 2009 643 m20 2012 620 m20 2016 636 m20 2019 636 m20 2023 623 m20 2026 640 m20 2029 614 m20 2033 569 m 2 Y s 2033 586 m20 2036 609 m20 2040 590 m s 2040 605 m20 2043
 616 m20 2046 583 m s 2046 598 m20 2050 581 m 1 Y s 2050 597 m20 2053 581 m 1 Y s 2053 597 m20 2056 566 m 2 Y s 2056 583 m20 2059 566 m 2 Y s 2059 583 m20 2063 557 m 1 Y s 2063 589 m s 2063 574 m20 2066 572 m 1 Y s 2066 589 m20 2069 575 m 1 Y s 2069
 592 m20 2072 555 m 2 Y s 2072 587 m 1 Y s 2072 572 m20 2075 558 m 2 Y s 2075 590 m 1 Y s 2075 575 m20 2079 550 m 2 Y s 2079 583 m s 2079 567 m20 2082 548 m 2 Y s 2082 581 m s 2082 566 m20 2085 562 m 1 Y s 2085 578 m20 2088 534 m 3 Y s 2088 567 m 1 Y
 s 2088 552 m20 2091 545 m 2 Y s 2091 578 m s 2091 562 m20 2094 512 m 4 Y s 2094 546 m 2 Y s 2094 531 m20 2097 572 m 1 Y s 2097 589 m20 2100 538 m 2 Y s 2100 571 m 1 Y s 2100 556 m20 2103 509 m 5 Y s 2103 544 m 3 Y s 2103 529 m20 2106 543 m 2 Y s
 2106 576 m 1 Y s 2106 561 m20 2109 541 m 3 Y s 2109 574 m 1 Y s 2109 559 m20 2112 484 m 6 Y s 2112 520 m 4 Y s 2112 505 m20 2115 512 m 4 Y s 2115 546 m 2 Y s 2115 531 m20 2118 500 m 5 Y s 2118 536 m 3 Y s 2118 521 m20 2121 514 m 4 Y s 2121 548 m 2 Y
 s 2121 533 m20 2124 514 m 4 Y s 2124 548 m 2 Y s 2124 533 m20 2126 489 m 5 Y s 2126 525 m 3 Y s 2126 509 m20 2129 491 m 6 Y s 2129 527 m 3 Y s 2129 512 m20 2132 500 m 5 Y s 2132 536 m 3 Y s 2132 521 m20 2135 514 m 4 Y s 2135 548 m 2 Y s 2135 533 m20
 2138 503 m 5 Y s 2138 538 m 3 Y s 2138 523 m20 2141 514 m 4 Y s 2141 548 m 2 Y s 2141 533 m20 2143 465 m 7 Y s 2143 502 m 5 Y s 2143 487 m20 2146 473 m 7 Y s 2146 510 m 4 Y s 2146 495 m20 2149 484 m 6 Y s 2149 520 m 4 Y s 2149 505 m20 2152 450 m 8 Y
 s 2152 489 m 5 Y s 2152 474 m20 2154 447 m 8 Y s 2154 486 m 5 Y s 2154 471 m20 2157 462 m 7 Y s 2157 500 m 4 Y s 2157 485 m20 2160 462 m 7 Y s 2160 500 m 4 Y s 2160 485 m20 2162 462 m 7 Y s 2162 500 m 4 Y s 2162 485 m20 2165 478 m 7 Y s 2165 515 m 4
 Y s 2165 500 m20 2168 456 m 8 Y s 2168 494 m 5 Y s 2168 479 m20 2170 420 m 10 Y s 2170 461 m 7 Y s 2170 445 m20 2173 441 m 8 Y s 2173 480 m 6 Y s 2173 465 m20 2176 431 m 9 Y s 2176 471 m 6 Y s 2176 455 m20 black 408 305 m 1769 X s 507 330 m -25 Y s
 591 330 m -25 Y s 663 330 m -25 Y s 727 330 m -25 Y s 784 356 m -51 Y s
 gsave  2268 2176 0 0 C 726.735 167.415 t 0 r /Helvetica findfont 102.732 sf 0 0 m (10) show NC gr  1161 330 m -25 Y s 1381 330 m -25 Y s 1537 330 m -25 Y s 1658 330 m -25 Y s 1757 330 m -25 Y s 1841 330 m -25 Y s 1913 330 m -25 Y s 1977 330 m -25 Y
 s 2035 356 m -51 Y s
 gsave  2268 2176 0 0 C 2066.06 213.074 t 0 r /Helvetica findfont 68.4881 sf 0 0 m (2) show NC gr 
 gsave  2268 2176 0 0 C 1955.72 167.415 t 0 r /Helvetica findfont 102.732 sf 0 0 m (10) show NC gr 
 gsave  2268 2176 0 0 C 1837.76 60.8783 t 0 r /Helvetica findfont 121.757 sf 0 0 m ( [GeV]) show NC gr 
 gsave  2268 2176 0 0 C 1788.3 -3.80489 t 0 r /Helvetica findfont 79.9028 sf 0 0 m (T) show NC gr 
 gsave  2268 2176 0 0 C 1240.4 60.8783 t 0 r /Helvetica findfont 121.757 sf 0 0 m (Electron p) show NC gr  408 2002 m 1769 X s 507 1977 m 25 Y s 591 1977 m 25 Y s 663 1977 m 25 Y s 727 1977 m 25 Y s 784 1951 m 51 Y s 1161 1977 m 25 Y s 1381 1977 m 25
 Y s 1537 1977 m 25 Y s 1658 1977 m 25 Y s 1757 1977 m 25 Y s 1841 1977 m 25 Y s 1913 1977 m 25 Y s 1977 1977 m 25 Y s 2035 1951 m 51 Y s 408 305 m 1697 Y s 435 329 m -27 X s 435 360 m -27 X s 435 385 m -27 X s 435 407 m -27 X s 435 427 m -27 X s 461
 444 m -53 X s
 gsave  2268 2176 0 0 C 342.44 445.173 t 0 r /Helvetica findfont 68.4881 sf 0 0 m (6) show NC gr 
 gsave  2268 2176 0 0 C 304.391 445.173 t 0 r /Symbol findfont 68.4881 sf 0 0 m (-) show NC gr 
 gsave  2268 2176 0 0 C 194.05 395.709 t 0 r /Helvetica findfont 102.732 sf 0 0 m (10) show NC gr  435 560 m -27 X s 435 627 m -27 X s 435 675 m -27 X s 435 712 m -27 X s 435 742 m -27 X s 435 768 m -27 X s 435 790 m -27 X s 435 809 m -27 X s 461 827
 m -53 X s
 gsave  2268 2176 0 0 C 342.44 829.467 t 0 r /Helvetica findfont 68.4881 sf 0 0 m (5) show NC gr 
 gsave  2268 2176 0 0 C 304.391 829.467 t 0 r /Symbol findfont 68.4881 sf 0 0 m (-) show NC gr 
 gsave  2268 2176 0 0 C 194.05 780.003 t 0 r /Helvetica findfont 102.732 sf 0 0 m (10) show NC gr  435 942 m -27 X s 435 1010 m -27 X s 435 1057 m -27 X s 435 1094 m -27 X s 435 1125 m -27 X s 435 1150 m -27 X s 435 1173 m -27 X s 435 1192 m -27 X s
 461 1210 m -53 X s
 gsave  2268 2176 0 0 C 342.44 1206.15 t 0 r /Helvetica findfont 68.4881 sf 0 0 m (4) show NC gr 
 gsave  2268 2176 0 0 C 304.391 1206.15 t 0 r /Symbol findfont 68.4881 sf 0 0 m (-) show NC gr 
 gsave  2268 2176 0 0 C 194.05 1160.49 t 0 r /Helvetica findfont 102.732 sf 0 0 m (10) show NC gr  435 1325 m -27 X s 435 1392 m -27 X s 435 1440 m -27 X s 435 1477 m -27 X s 435 1507 m -27 X s 435 1533 m -27 X s 435 1555 m -27 X s 435 1575 m -27 X s
 461 1592 m -53 X s
 gsave  2268 2176 0 0 C 342.44 1594.25 t 0 r /Helvetica findfont 68.4881 sf 0 0 m (3) show NC gr 
 gsave  2268 2176 0 0 C 304.391 1594.25 t 0 r /Symbol findfont 68.4881 sf 0 0 m (-) show NC gr 
 gsave  2268 2176 0 0 C 194.05 1544.79 t 0 r /Helvetica findfont 102.732 sf 0 0 m (10) show NC gr  435 1707 m -27 X s 435 1775 m -27 X s 435 1823 m -27 X s 435 1860 m -27 X s 435 1890 m -27 X s 435 1916 m -27 X s 435 1938 m -27 X s 435 1957 m -27 X s
 461 1975 m -53 X s
 gsave  2268 2176 0 0 C 342.44 1974.74 t 0 r /Helvetica findfont 68.4881 sf 0 0 m (2) show NC gr 
 gsave  2268 2176 0 0 C 304.391 1974.74 t 0 r /Symbol findfont 68.4881 sf 0 0 m (-) show NC gr 
 gsave  2268 2176 0 0 C 194.05 1929.08 t 0 r /Helvetica findfont 102.732 sf 0 0 m (10) show NC gr 
 gsave  2268 2176 0 0 C 156.001 620.198 t 90 r /Helvetica findfont 121.757 sf 0 0 m (DY+Jets Fakes per Event) show NC gr  2177 305 m 1697 Y s 2150 329 m 27 X s 2150 360 m 27 X s 2150 385 m 27 X s 2150 407 m 27 X s 2150 427 m 27 X s 2124 444 m 53 X s
 2150 560 m 27 X s 2150 627 m 27 X s 2150 675 m 27 X s 2150 712 m 27 X s 2150 742 m 27 X s 2150 768 m 27 X s 2150 790 m 27 X s 2150 809 m 27 X s 2124 827 m 53 X s 2150 942 m 27 X s 2150 1010 m 27 X s 2150 1057 m 27 X s 2150 1094 m 27 X s 2150 1125 m
 27 X s 2150 1150 m 27 X s 2150 1173 m 27 X s 2150 1192 m 27 X s 2124 1210 m 53 X s 2150 1325 m 27 X s 2150 1392 m 27 X s 2150 1440 m 27 X s 2150 1477 m 27 X s 2150 1507 m 27 X s 2150 1533 m 27 X s 2150 1555 m 27 X s 2150 1575 m 27 X s 2124 1592 m 53
 X s 2150 1707 m 27 X s 2150 1775 m 27 X s 2150 1823 m 27 X s 2150 1860 m 27 X s 2150 1890 m 27 X s 2150 1916 m 27 X s 2150 1938 m 27 X s 2150 1957 m 27 X s 2124 1975 m 53 X s 0.49 0.6 0.82 c 1 1 1 c 0.49 0.6 0.82 c 408 1861 m 18 X s 456 1861 m 16 X
 s 441 1861 m24 472 1841 m 14 X s 517 1841 m 12 X s 501 1841 m24 529 1822 m 12 X s 571 1822 m 10 X s 556 1822 m24 581 1802 m 9 X s 620 1802 m 8 X s 605 1802 m24 628 1779 m 7 X s 666 1779 m 6 X s 650 1779 m24 672 1755 m 5 X s 707 1755 m 5 X s 692 1755
 m24 712 1729 m 4 X s 746 1729 m 3 X s 731 1729 m24 749 1705 m 3 X s 782 1705 m 2 X s 767 1705 m24 784 1682 m 2 X s 816 1682 m 1 X s 801 1682 m24 817 1658 m 1 X s 848 1658 m s 833 1658 m24 863 1640 m24 892 1621 m24 919 1600 m24 945 1583 m24 970 1568
 m24 993 1556 m24 1016 1538 m24 1038 1527 m24 1058 1515 m24 1079 1504 m24 1098 1493 m24 1117 1480 m24 1135 1471 m24 1152 1462 m24 1169 1449 m24 1186 1440 m24 1202 1431 m24 1217 1420 m24 1232 1414 m24 1247 1406 m24 1261 1392 m24 1275 1387 m24 1289
 1379 m24 1302 1363 m24 1315 1357 m24 1327 1350 m24 1340 1340 m24 1352 1327 m24 1364 1319 m24 1375 1312 m24 1387 1302 m24 1398 1293 m24 1408 1282 m24 1419 1276 m24 1430 1256 m24 1440 1263 m24 1450 1244 m24 1460 1235 m24 1469 1221 m24 1479 1217 m24
 1488 1211 m24 1498 1197 m24 1507 1187 m24 1515 1174 m24 1524 1165 m24 1533 1156 m24 1541 1144 m24 1550 1132 m24 1558 1117 m24 1566 1104 m24 1574 1102 m24 1582 1098 m24 1590 1080 m24 1597 1060 m24 1605 1059 m24 1612 1045 m24 1620 1036 m24 1627 1028
 m24 1634 1007 m24 1641 1006 m24 1648 991 m24 1655 974 m24 1662 972 m24 1668 957 m24 1675 959 m24 1682 938 m24 1688 942 m24 1694 934 m24 1701 928 m24 1707 912 m24 1713 904 m24 1719 918 m24 1725 883 m24 1731 886 m24 1737 875 m24 1743 856 m24 1749 846
 m24 1754 843 m24 1760 855 m24 1766 850 m24 1771 824 m24 1777 824 m24 1782 797 m24 1787 827 m24 1793 793 m24 1798 819 m24 1803 801 m24 1808 796 m24 1814 773 m24 1819 779 m24 1824 757 m24 1829 786 m24 1834 771 m24 1839 757 m24 1843 734 m24 1848 734
 m24 1853 743 m24 1858 756 m24 1862 708 m s 1862 724 m24 1867 736 m24 1872 700 m s 1872 715 m24 1876 675 m 2 Y s 1876 707 m s 1876 692 m24 1881 666 m 3 Y s 1881 699 m 1 Y s 1881 684 m24 1885 675 m 2 Y s 1885 707 m s 1885 692 m24 1890 700 m s 1890 715
 m24 1894 689 m 1 Y s 1894 706 m24 1898 676 m 2 Y s 1898 709 m s 1898 693 m24 1903 646 m 3 Y s 1903 680 m 1 Y s 1903 664 m24 1907 688 m 1 Y s 1907 704 m24 1911 646 m 3 Y s 1911 680 m 1 Y s 1911 664 m24 1916 603 m 6 Y s 1916 640 m 3 Y s 1916 625 m24
 1920 654 m 3 Y s 1920 687 m 1 Y s 1920 672 m24 1924 644 m 3 Y s 1924 678 m 1 Y s 1924 663 m24 1928 650 m 3 Y s 1928 683 m 2 Y s 1928 668 m24 1932 666 m 3 Y s 1932 699 m 1 Y s 1932 684 m24 1936 608 m 6 Y s 1936 644 m 4 Y s 1936 629 m24 1940 636 m 4 Y
 s 1940 670 m 2 Y s 1940 655 m24 1944 603 m 6 Y s 1944 640 m 3 Y s 1944 625 m24 1948 603 m 6 Y s 1948 640 m 3 Y s 1948 625 m24 1952 603 m 6 Y s 1952 640 m 3 Y s 1952 625 m24 1956 601 m 6 Y s 1956 637 m 4 Y s 1956 622 m24 1960 627 m 4 Y s 1960 662 m 2
 Y s 1960 647 m24 1964 625 m 4 Y s 1964 660 m 2 Y s 1964 645 m24 1968 524 m 12 Y s 1968 566 m 8 Y s 1968 551 m24 1972 623 m 4 Y s 1972 658 m 2 Y s 1972 642 m24 1975 570 m 8 Y s 1975 608 m 6 Y s 1975 593 m24 1979 585 m 7 Y s 1979 622 m 5 Y s 1979 607
 m24 1983 596 m 6 Y s 1983 632 m 4 Y s 1983 617 m24 1987 554 m 9 Y s 1987 594 m 6 Y s 1987 578 m24 1990 579 m 7 Y s 1990 617 m 5 Y s 1990 602 m24 1994 547 m 10 Y s 1994 587 m 7 Y s 1994 572 m24 1998 587 m 7 Y s 1998 625 m 4 Y s 1998 610 m24 2001 573
 m 8 Y s 2001 611 m 5 Y s 2001 596 m24 2005 516 m 12 Y s 2005 559 m 8 Y s 2005 544 m24 2009 524 m 12 Y s 2009 566 m 8 Y s 2009 551 m24 2012 484 m 15 Y s 2012 529 m 11 Y s 2012 514 m24 2016 484 m 15 Y s 2016 529 m 11 Y s 2016 514 m24 2019 503 m 13 Y s
 2019 547 m 9 Y s 2019 532 m24 2023 543 m 10 Y s 2023 584 m 7 Y s 2023 569 m24 2026 494 m 14 Y s 2026 538 m 10 Y s 2026 523 m24 2029 507 m 13 Y s 2029 551 m 9 Y s 2029 536 m24 2033 484 m 15 Y s 2033 529 m 11 Y s 2033 514 m24 2036 532 m 11 Y s 2036
 574 m 7 Y s 2036 558 m24 2040 543 m 10 Y s 2040 584 m 7 Y s 2040 569 m24 2043 489 m 14 Y s 2043 534 m 10 Y s 2043 519 m24 2046 424 m 21 Y s 2046 475 m 15 Y s 2046 460 m24 2050 516 m 12 Y s 2050 559 m 8 Y s 2050 544 m24 2053 494 m 14 Y s 2053 538 m
 10 Y s 2053 523 m24 2056 489 m 14 Y s 2056 534 m 10 Y s 2056 519 m24 2059 498 m 14 Y s 2059 543 m 9 Y s 2059 527 m24 2063 431 m 20 Y s 2063 481 m 14 Y s 2063 466 m24 2066 516 m 12 Y s 2066 559 m 8 Y s 2066 544 m24 2069 468 m 16 Y s 2069 515 m 11 Y s
 2069 500 m24 2072 468 m 16 Y s 2072 515 m 11 Y s 2072 500 m24 2075 450 m 19 Y s 2075 499 m 13 Y s 2075 484 m24 2079 536 m 11 Y s 2079 577 m 7 Y s 2079 562 m24 2082 520 m 12 Y s 2082 563 m 8 Y s 2082 547 m24 2085 409 m 22 Y s 2085 462 m 16 Y s 2085
 447 m24 2088 473 m 16 Y s 2088 520 m 11 Y s 2088 505 m24 2091 437 m 20 Y s 2091 487 m 14 Y s 2091 472 m24 2094 498 m 14 Y s 2094 543 m 9 Y s 2094 527 m24 2097 468 m 16 Y s 2097 515 m 11 Y s 2097 500 m24 2100 444 m 19 Y s 2100 493 m 13 Y s 2100 478
 m24 2103 450 m 19 Y s 2103 499 m 13 Y s 2103 484 m24 2106 498 m 14 Y s 2106 543 m 9 Y s 2106 527 m24 2109 392 m 25 Y s 2109 447 m 17 Y s 2109 432 m24 2112 462 m 17 Y s 2112 510 m 11 Y s 2112 494 m24 2115 489 m 14 Y s 2115 534 m 10 Y s 2115 519 m24
 2118 450 m 19 Y s 2118 499 m 13 Y s 2118 484 m24 2121 462 m 17 Y s 2121 510 m 11 Y s 2121 494 m24 2124 456 m 18 Y s 2124 504 m 13 Y s 2124 489 m24 2126 437 m 20 Y s 2126 487 m 14 Y s 2126 472 m24 2129 456 m 18 Y s 2129 504 m 13 Y s 2129 489 m24 2132
 384 m 25 Y s 2132 440 m 17 Y s 2132 424 m24 2135 409 m 22 Y s 2135 462 m 16 Y s 2135 447 m24 2138 424 m 21 Y s 2138 475 m 15 Y s 2138 460 m24 2141 392 m 25 Y s 2141 447 m 17 Y s 2141 432 m24 2143 384 m 25 Y s 2143 440 m 17 Y s 2143 424 m24 2146 462
 m 17 Y s 2146 510 m 11 Y s 2146 494 m24 2149 392 m 25 Y s 2149 447 m 17 Y s 2149 432 m24 2152 409 m 22 Y s 2152 462 m 16 Y s 2152 447 m24 2154 384 m 25 Y s 2154 440 m 17 Y s 2154 424 m24 2157 401 m 23 Y s 2157 455 m 16 Y s 2157 440 m24 2160 365 m 28
 Y s 2160 423 m 19 Y s 2160 408 m24 2162 374 m 27 Y s 2162 432 m 18 Y s 2162 416 m24 2165 365 m 28 Y s 2165 423 m 19 Y s 2165 408 m24 2168 374 m 27 Y s 2168 432 m 18 Y s 2168 416 m24 2170 416 m 22 Y s 2170 469 m 15 Y s 2170 453 m24 2173 374 m 27 Y s
 2173 432 m 18 Y s 2173 416 m24 2176 319 m 34 Y s 2176 384 m 23 Y s 2176 369 m24 black 1 1 1 c 635 392 476 435 bf black
 gsave  2268 2176 0 0 C 631.612 688.686 t 0 r /Helvetica findfont 102.732 sf 0 0 m (2017 Barrel ecal driven) show NC gr  0.49 0.6 0.82 c 556 744 m 44 Y s 556 714 m -44 Y s 556 729 m20 black
 gsave  2268 2176 0 0 C 631.612 490.831 t 0 r /Helvetica findfont 102.732 sf 0 0 m (2017 \(Legacy\) Barrel ecal driven) show NC gr  0.49 0.6 0.82 c 556 548 m 44 Y s 556 518 m -44 Y s 556 533 m24 black
 gsave  2268 2176 0 0 C 1769.28 2039.42 t 0 r /Helvetica findfont 106.537 sf 0 0 m (\(13 TeV\)) show NC gr 
 gsave  2268 2176 0 0 C 408.189 2037.11 t 0 r /Helvetica-Bold findfont 129.366 sf 0 0 m (CMS) show NC gr 
 gsave  2268 2176 0 0 C 487.026 2039.42 t 0 r /Helvetica-Oblique findfont 98.9272 sf 0 0 m (        Simulation) show NC gr  408 305 m 1769 X s 507 330 m -25 Y s 591 330 m -25 Y s 663 330 m -25 Y s 727 330 m -25 Y s 784 356 m -51 Y s 1161 330 m -25 Y
 s 1381 330 m -25 Y s 1537 330 m -25 Y s 1658 330 m -25 Y s 1757 330 m -25 Y s 1841 330 m -25 Y s 1913 330 m -25 Y s 1977 330 m -25 Y s 2035 356 m -51 Y s 408 2002 m 1769 X s 507 1977 m 25 Y s 591 1977 m 25 Y s 663 1977 m 25 Y s 727 1977 m 25 Y s 784
 1951 m 51 Y s 1161 1977 m 25 Y s 1381 1977 m 25 Y s 1537 1977 m 25 Y s 1658 1977 m 25 Y s 1757 1977 m 25 Y s 1841 1977 m 25 Y s 1913 1977 m 25 Y s 1977 1977 m 25 Y s 2035 1951 m 51 Y s 408 305 m 1697 Y s 435 329 m -27 X s 435 360 m -27 X s 435 385 m
 -27 X s 435 407 m -27 X s 435 427 m -27 X s 461 444 m -53 X s 435 560 m -27 X s 435 627 m -27 X s 435 675 m -27 X s 435 712 m -27 X s 435 742 m -27 X s 435 768 m -27 X s 435 790 m -27 X s 435 809 m -27 X s 461 827 m -53 X s 435 942 m -27 X s 435
 1010 m -27 X s 435 1057 m -27 X s 435 1094 m -27 X s 435 1125 m -27 X s 435 1150 m -27 X s 435 1173 m -27 X s 435 1192 m -27 X s 461 1210 m -53 X s 435 1325 m -27 X s 435 1392 m -27 X s 435 1440 m -27 X s 435 1477 m -27 X s 435 1507 m -27 X s 435
 1533 m -27 X s 435 1555 m -27 X s 435 1575 m -27 X s 461 1592 m -53 X s 435 1707 m -27 X s 435 1775 m -27 X s 435 1823 m -27 X s 435 1860 m -27 X s 435 1890 m -27 X s 435 1916 m -27 X s 435 1938 m -27 X s 435 1957 m -27 X s 461 1975 m -53 X s 2177
 305 m 1697 Y s 2150 329 m 27 X s 2150 360 m 27 X s 2150 385 m 27 X s 2150 407 m 27 X s 2150 427 m 27 X s 2124 444 m 53 X s 2150 560 m 27 X s 2150 627 m 27 X s 2150 675 m 27 X s 2150 712 m 27 X s 2150 742 m 27 X s 2150 768 m 27 X s 2150 790 m 27 X s
 2150 809 m 27 X s 2124 827 m 53 X s 2150 942 m 27 X s 2150 1010 m 27 X s 2150 1057 m 27 X s 2150 1094 m 27 X s 2150 1125 m 27 X s 2150 1150 m 27 X s 2150 1173 m 27 X s 2150 1192 m 27 X s 2124 1210 m 53 X s 2150 1325 m 27 X s 2150 1392 m 27 X s 2150
 1440 m 27 X s 2150 1477 m 27 X s 2150 1507 m 27 X s 2150 1533 m 27 X s 2150 1555 m 27 X s 2150 1575 m 27 X s 2124 1592 m 53 X s 2150 1707 m 27 X s 2150 1775 m 27 X s 2150 1823 m 27 X s 2150 1860 m 27 X s 2150 1890 m 27 X s 2150 1916 m 27 X s 2150
 1938 m 27 X s 2150 1957 m 27 X s 2124 1975 m 53 X s 1 1 1 c black 1769 1697 408 305 bl 1769 1697 408 305 bl
 gr  gr showpage
end
%%EOF
