%!PS-Adobe-2.0 EPSF-2.0
%%BoundingBox:  0 0 567 544
%%Title: plots/n_fakes_vs_genNpu_pt20_endcap.eps: n_fakes_vs_genNpu_pt20_endcap
%%Creator: ROOT Version 6.14/04
%%CreationDate: Tue Aug  4 10:22:06 2020
%%DocumentNeededResources: ProcSet (FontSetInit)
%%EndComments
%%BeginProlog
80 dict begin
/s {stroke} def /l {lineto} def /m {moveto} def /t {translate} def
/r {rotate} def /rl {roll}  def /R {repeat} def
/d {rlineto} def /rm {rmoveto} def /gr {grestore} def /f {eofill} def
/c {setrgbcolor} def /black {0 setgray} def /sd {setdash} def
/cl {closepath} def /sf {scalefont setfont} def /lw {setlinewidth} def
/box {m dup 0 exch d exch 0 d 0 exch neg d cl} def
/NC{systemdict begin initclip end}def/C{NC box clip newpath}def
/bl {box s} def /bf {gsave box gsave f grestore 1 lw [] 0 sd s grestore} def /Y { 0 exch d} def /X { 0 d} def 
/K {{pop pop 0 moveto} exch kshow} bind def
/ita {/ang 15 def gsave [1 0 ang dup sin exch cos div 1 0 0] concat} def 
/mp {newpath /y exch def /x exch def} def
/side {[w .77 mul w .23 mul] .385 w mul sd w 0 l currentpoint t -144 r} def
/mr {mp x y w2 0 360 arc} def /m24 {mr s} def /m20 {mr f} def
/mb {mp x y w2 add m w2 neg 0 d 0 w neg d w 0 d 0 w d cl} def
/mt {mp x y w2 add m w2 neg w neg d w 0 d cl} def
/w4 {w 4 div} def
/w6 {w 6 div} def
/w8 {w 8 div} def
/m21 {mb f} def /m25 {mb s} def /m22 {mt f} def /m26{mt s} def
/m23 {mp x y w2 sub m w2 w d w neg 0 d cl f} def
/m27 {mp x y w2 add m w3 neg w2 neg d w3 w2 neg d w3 w2 d cl s} def
/m28 {mp x w2 sub y w2 sub w3 add m w3 0 d  0 w3 neg d w3 0 d 0 w3 d w3 0 d  0 w3 d w3 neg 0 d 0 w3 d w3 neg 0 d 0 w3 neg d w3 neg 0 d cl s } def
/m29 {mp gsave x w2 sub y w2 add w3 sub m currentpoint t 4 {side} repeat cl fill gr} def
/m30 {mp gsave x w2 sub y w2 add w3 sub m currentpoint t 4 {side} repeat cl s gr} def
/m31 {mp x y w2 sub m 0 w d x w2 sub y m w 0 d x w2 sub y w2 add m w w neg d x w2 sub y w2 sub m w w d s} def
/m32 {mp x y w2 sub m w2 w d w neg 0 d cl s} def
/m33 {mp x y w2 add m w3 neg w2 neg d w3 w2 neg d w3 w2 d cl f} def
/m34 {mp x w2 sub y w2 sub w3 add m w3 0 d  0 w3 neg d w3 0 d 0 w3 d w3 0 d  0 w3 d w3 neg 0 d 0 w3 d w3 neg 0 d 0 w3 neg d w3 neg 0 d cl f } def
/m35 {mp x y w2 add m w2 neg w2 neg d w2 w2 neg d w2 w2 d w2 neg w2 d x y w2 sub m 0 w d x w2 sub y m w 0 d s} def
/m36 {mb x w2 sub y w2 add m w w neg d x w2 sub y w2 sub m w w d s} def
/m37 {mp x y m w4 neg w2 d w4 neg w2 neg d w2 0 d  w4 neg w2 neg d w2 0 d w4 neg w2 d w2 0 d w4 neg w2 d w4 neg w2 neg d cl s} def
/m38 {mp x w4 sub y w2 add m w4 neg w4 neg d 0 w2 neg d w4 w4 neg d w2 0 d w4 w4 d 0 w2 d w4 neg w4 d w2 neg 0 d x y w2 sub m 0 w d x w2 sub y m w 0 d cl s} def
/m39 {mp x y m w4 neg w2 d w4 neg w2 neg d w2 0 d  w4 neg w2 neg d w2 0 d w4 neg w2 d w2 0 d w4 neg w2 d w4 neg w2 neg d cl f} def
/m40 {mp x y m w4 w2 d w4 w4 neg d w2 neg w4 neg d w2 w4 neg d w4 neg w4 neg d w4 neg w2 d w4 neg w2 neg d w4 neg w4 d w2 w4 d w2 neg w4 d w4 w4 d w4 w2 neg d cl s} def
/m41 {mp x y m w4 w2 d w4 w4 neg d w2 neg w4 neg d w2 w4 neg d w4 neg w4 neg d w4 neg w2 d w4 neg w2 neg d w4 neg w4 d w2 w4 d w2 neg w4 d w4 w4 d w4 w2 neg d cl f} def
/m42 {mp x y w2 add m w8 neg w2 -3 4 div mul d w2 -3 4 div mul w8 neg d w2 3 4 div mul w8 neg d w8 w2 -3 4 div mul d w8 w2 3 4 div mul d w2 3 4 div mul w8 d w2 -3 4 div mul w8 d w8 neg w2 3 4 div mul d cl s} def
/m43 {mp x y w2 add m w8 neg w2 -3 4 div mul d w2 -3 4 div mul w8 neg d w2 3 4 div mul w8 neg d w8 w2 -3 4 div mul d w8 w2 3 4 div mul d w2 3 4 div mul w8 d w2 -3 4 div mul w8 d w8 neg w2 3 4 div mul d cl f} def
/m44 {mp x y m w6 neg w2 d w2 2 3 div mul 0 d w6 neg w2 neg d w2 w6 d 0 w2 -2 3 div mul d w2 neg w6 d w6 w2 neg d w2 -2 3 div mul 0 d w6 w2 d w2 neg w6 neg d 0 w2 2 3 div mul d w2 w6 neg d cl s} def
/m45 {mp x y m w6 neg w2 d w2 2 3 div mul 0 d w6 neg w2 neg d w2 w6 d 0 w2 -2 3 div mul d w2 neg w6 d w6 w2 neg d w2 -2 3 div mul 0 d w6 w2 d w2 neg w6 neg d 0 w2 2 3 div mul d w2 w6 neg d cl f} def
/m46 {mp x y w4 add m w4 neg w4 d w4 neg w4 neg d  w4 w4 neg d w4 neg w4 neg d w4 w4 neg d w4 w4 d w4 w4 neg d w4 w4 d w4 neg w4 d w4 w4 d w4 neg w4 d w4 neg w4 neg d cl s} def
/m47 {mp x y w4 add m w4 neg w4 d w4 neg w4 neg d w4 w4 neg d w4 neg w4 neg d  w4 w4 neg d w4 w4 d w4 w4 neg d w4 w4 d w4 neg w4 d w4 w4 d w4 neg w4 d w4 neg w4 neg d cl f} def
/m48 {mp x y w4 add m w4 neg w4 d w4 neg w4 neg d w4 w4 neg d  w4 neg w4 neg d w4 w4 neg d w4 w4 d w4 w4 neg d w4 w4 d w4 neg w4 d w4 w4 d w4 neg w4 d w4 neg w4 neg d  w4 w4 neg d w4 neg w4 neg d w4 neg w4 d w4 w4 d cl f} def
/m49 {mp x w2 sub w3 add y w2 sub w3 add m  0 w3 neg d w3 0 d 0 w3 d w3 0 d 0 w3 d w3 neg 0 d 0 w3 d w3 neg 0 d 0 w3 neg d w3 neg 0 d 0 w3 neg d w3 0 d 0 w3 d w3 0 d 0 w3 neg d w3 neg 0 d cl f } def
/m2 {mp x y w2 sub m 0 w d x w2 sub y m w 0 d s} def
/m5 {mp x w2 sub y w2 sub m w w d x w2 sub y w2 add m w w neg d s} def
%%IncludeResource: ProcSet (FontSetInit)
%%IncludeResource: font Times-Roman
%%IncludeResource: font Times-Italic
%%IncludeResource: font Times-Bold
%%IncludeResource: font Times-BoldItalic
%%IncludeResource: font Helvetica
%%IncludeResource: font Helvetica-Oblique
%%IncludeResource: font Helvetica-Bold
%%IncludeResource: font Helvetica-BoldOblique
%%IncludeResource: font Courier
%%IncludeResource: font Courier-Oblique
%%IncludeResource: font Courier-Bold
%%IncludeResource: font Courier-BoldOblique
%%IncludeResource: font Symbol
%%IncludeResource: font ZapfDingbats
/reEncode {exch findfont dup length dict begin {1 index /FID eq  {pop pop} {def} ifelse } forall /Encoding exch def currentdict end dup /FontName get exch definefont pop } def [/Times-Bold /Times-Italic /Times-BoldItalic /Helvetica /Helvetica-Oblique
 /Helvetica-Bold /Helvetica-BoldOblique /Courier /Courier-Oblique /Courier-Bold /Courier-BoldOblique /Times-Roman /AvantGarde-Book /AvantGarde-BookOblique /AvantGarde-Demi /AvantGarde-DemiOblique /Bookman-Demi /Bookman-DemiItalic /Bookman-Light
 /Bookman-LightItalic /Helvetica-Narrow /Helvetica-Narrow-Bold /Helvetica-Narrow-BoldOblique /Helvetica-Narrow-Oblique /NewCenturySchlbk-Roman /NewCenturySchlbk-Bold /NewCenturySchlbk-BoldItalic /NewCenturySchlbk-Italic /Palatino-Bold
 /Palatino-BoldItalic /Palatino-Italic /Palatino-Roman ] {ISOLatin1Encoding reEncode } forall
%%EndProlog
%%BeginSetup
%%EndSetup
newpath  gsave  .25 .25 scale  gsave  0 0 t black[  ] 0 sd 3 lw 1 1 1 c 2268 2176 0 0 bf black 1 1 1 c black 1769 1697 408 305 bl 1769 1697 408 305 bl 1 1 1 c black 1769 1697 408 305 bl 1769 1697 408 305 bl 0.52 0.76 0.64 c 1 1 1 c 0.52 0.76 0.64 c
 420 651 m 30 Y s 420 711 m 30 Y s /w 30 def /w2 {w 2 div} def /w3 {w 3 div} def 420 696 m20 442 636 m 14 Y s 442 681 m 14 Y s 442 665 m20 465 636 m 5 Y s 465 671 m 5 Y s 465 656 m20 488 644 m20 510 665 m20 533 650 m20 556 659 m20 578 655 m20 601 666
 m20 624 653 m20 646 664 m20 669 656 m20 692 663 m20 714 662 m20 737 661 m20 760 664 m20 782 662 m20 805 664 m20 828 662 m20 850 664 m20 873 664 m20 896 666 m20 918 667 m20 941 668 m20 964 667 m20 986 677 m20 1009 675 m20 1032 676 m20 1054 673 m20
 1077 674 m20 1100 680 m20 1123 686 m20 1145 685 m20 1168 692 m20 1191 684 m20 1213 701 m20 1236 697 m20 1259 698 m20 1281 698 m20 1304 699 m20 1327 700 m20 1349 716 m20 1372 715 m20 1395 706 m20 1417 728 m20 1440 726 m20 1463 721 m20 1485 729 m20
 1508 735 m20 1531 728 m20 1553 739 m20 1576 763 m20 1599 756 m20 1621 766 m20 1644 740 m s 1644 770 m s 1644 755 m20 1667 760 m 2 Y s 1667 792 m 2 Y s 1667 777 m20 1689 764 m 4 Y s 1689 799 m 4 Y s 1689 784 m20 1712 743 m 5 Y s 1712 779 m 5 Y s 1712
 763 m20 1735 763 m 9 Y s 1735 802 m 8 Y s 1735 787 m20 1757 772 m 11 Y s 1757 814 m 11 Y s 1757 799 m20 1780 750 m 14 Y s 1780 794 m 14 Y s 1780 779 m20 1803 770 m 18 Y s 1803 818 m 18 Y s 1803 803 m20 1826 703 m 20 Y s 1826 753 m 20 Y s 1826 738
 m20 1848 815 m 29 Y s 1848 875 m 29 Y s 1848 860 m20 1871 808 m 35 Y s 1871 873 m 35 Y s 1871 858 m20 1894 711 m 36 Y s 1894 778 m 36 Y s 1894 762 m20 1916 707 m 44 Y s 1916 782 m 44 Y s 1916 767 m20 1939 825 m 60 Y s 1939 916 m 60 Y s 1939 900 m20
 1962 854 m 74 Y s 1962 958 m 73 Y s 1962 943 m20 1984 641 m 67 Y s 1984 739 m 67 Y s 1984 724 m20 2007 941 m 107 Y s 2007 1078 m 106 Y s 2007 1063 m20 2030 644 m 95 Y s 2030 769 m 95 Y s 2030 754 m20 2052 709 m 116 Y s 2052 855 m 116 Y s 2052 840
 m20 2075 879 m 159 Y s 2075 1068 m 159 Y s 2075 1053 m20 2098 489 m 114 Y s 2098 633 m 113 Y s 2098 618 m20 2120 487 m 134 Y s 2120 651 m 134 Y s 2120 636 m20 2143 728 m 221 Y s 2143 979 m 221 Y s 2143 964 m20 2166 796 m 290 Y s 2166 1117 m 289 Y s
 2166 1101 m20 black 408 305 m 1769 X s 590 356 m -51 Y s 635 330 m -25 Y s 680 330 m -25 Y s 726 330 m -25 Y s 771 330 m -25 Y s 816 356 m -51 Y s 862 330 m -25 Y s 907 330 m -25 Y s 952 330 m -25 Y s 998 330 m -25 Y s 1043 356 m -51 Y s 1089 330 m
 -25 Y s 1134 330 m -25 Y s 1179 330 m -25 Y s 1225 330 m -25 Y s 1270 356 m -51 Y s 1315 330 m -25 Y s 1361 330 m -25 Y s 1406 330 m -25 Y s 1451 330 m -25 Y s 1497 356 m -51 Y s 1542 330 m -25 Y s 1587 330 m -25 Y s 1633 330 m -25 Y s 1678 330 m
 -25 Y s 1723 356 m -51 Y s 1769 330 m -25 Y s 1814 330 m -25 Y s 1860 330 m -25 Y s 1905 330 m -25 Y s 1950 356 m -51 Y s 1996 330 m -25 Y s 2041 330 m -25 Y s 2086 330 m -25 Y s 2132 330 m -25 Y s 2177 356 m -51 Y s 590 356 m -51 Y s 544 330 m -25
 Y s 499 330 m -25 Y s 454 330 m -25 Y s
 gsave  2268 2176 0 0 C 528.88 205.464 t 0 r /Helvetica findfont 102.732 sf 0 0 m (10) show NC gr 
 gsave  2268 2176 0 0 C 757.174 205.464 t 0 r /Helvetica findfont 102.732 sf 0 0 m (20) show NC gr 
 gsave  2268 2176 0 0 C 985.467 205.464 t 0 r /Helvetica findfont 102.732 sf 0 0 m (30) show NC gr 
 gsave  2268 2176 0 0 C 1209.96 205.464 t 0 r /Helvetica findfont 102.732 sf 0 0 m (40) show NC gr 
 gsave  2268 2176 0 0 C 1438.25 205.464 t 0 r /Helvetica findfont 102.732 sf 0 0 m (50) show NC gr 
 gsave  2268 2176 0 0 C 1662.74 205.464 t 0 r /Helvetica findfont 102.732 sf 0 0 m (60) show NC gr 
 gsave  2268 2176 0 0 C 1891.03 205.464 t 0 r /Helvetica findfont 102.732 sf 0 0 m (70) show NC gr 
 gsave  2268 2176 0 0 C 2119.33 205.464 t 0 r /Helvetica findfont 102.732 sf 0 0 m (80) show NC gr 
 gsave  2268 2176 0 0 C 1236.59 41.8538 t 0 r /Helvetica findfont 121.757 sf 0 0 m (Number of Pileup) show NC gr  408 2002 m 1769 X s 590 1951 m 51 Y s 635 1977 m 25 Y s 680 1977 m 25 Y s 726 1977 m 25 Y s 771 1977 m 25 Y s 816 1951 m 51 Y s 862 1977
 m 25 Y s 907 1977 m 25 Y s 952 1977 m 25 Y s 998 1977 m 25 Y s 1043 1951 m 51 Y s 1089 1977 m 25 Y s 1134 1977 m 25 Y s 1179 1977 m 25 Y s 1225 1977 m 25 Y s 1270 1951 m 51 Y s 1315 1977 m 25 Y s 1361 1977 m 25 Y s 1406 1977 m 25 Y s 1451 1977 m 25
 Y s 1497 1951 m 51 Y s 1542 1977 m 25 Y s 1587 1977 m 25 Y s 1633 1977 m 25 Y s 1678 1977 m 25 Y s 1723 1951 m 51 Y s 1769 1977 m 25 Y s 1814 1977 m 25 Y s 1860 1977 m 25 Y s 1905 1977 m 25 Y s 1950 1951 m 51 Y s 1996 1977 m 25 Y s 2041 1977 m 25 Y
 s 2086 1977 m 25 Y s 2132 1977 m 25 Y s 2177 1951 m 51 Y s 590 1951 m 51 Y s 544 1977 m 25 Y s 499 1977 m 25 Y s 454 1977 m 25 Y s 408 305 m 1697 Y s 461 305 m -53 X s 435 363 m -27 X s 435 421 m -27 X s 435 479 m -27 X s 435 537 m -27 X s 461 595 m
 -53 X s 435 653 m -27 X s 435 711 m -27 X s 435 769 m -27 X s 435 827 m -27 X s 461 885 m -53 X s 435 943 m -27 X s 435 1001 m -27 X s 435 1059 m -27 X s 435 1117 m -27 X s 461 1175 m -53 X s 435 1233 m -27 X s 435 1291 m -27 X s 435 1349 m -27 X s
 435 1407 m -27 X s 461 1465 m -53 X s 435 1523 m -27 X s 435 1582 m -27 X s 435 1640 m -27 X s 435 1698 m -27 X s 461 1756 m -53 X s 461 1756 m -53 X s 435 1814 m -27 X s 435 1872 m -27 X s 435 1930 m -27 X s 435 1988 m -27 X s
 gsave  2268 2176 0 0 C 338.636 270.147 t 0 r /Helvetica findfont 102.732 sf 0 0 m (0) show NC gr 
 gsave  2268 2176 0 0 C 213.074 559.319 t 0 r /Helvetica findfont 102.732 sf 0 0 m (0.01) show NC gr 
 gsave  2268 2176 0 0 C 194.05 848.491 t 0 r /Helvetica findfont 102.732 sf 0 0 m (0.02) show NC gr 
 gsave  2268 2176 0 0 C 194.05 1137.66 t 0 r /Helvetica findfont 102.732 sf 0 0 m (0.03) show NC gr 
 gsave  2268 2176 0 0 C 194.05 1430.64 t 0 r /Helvetica findfont 102.732 sf 0 0 m (0.04) show NC gr 
 gsave  2268 2176 0 0 C 194.05 1719.81 t 0 r /Helvetica findfont 102.732 sf 0 0 m (0.05) show NC gr 
 gsave  2268 2176 0 0 C 156.001 620.198 t 90 r /Helvetica findfont 121.757 sf 0 0 m (DY+Jets Fakes per Event) show NC gr  2177 305 m 1697 Y s 2124 305 m 53 X s 2150 363 m 27 X s 2150 421 m 27 X s 2150 479 m 27 X s 2150 537 m 27 X s 2124 595 m 53 X s
 2150 653 m 27 X s 2150 711 m 27 X s 2150 769 m 27 X s 2150 827 m 27 X s 2124 885 m 53 X s 2150 943 m 27 X s 2150 1001 m 27 X s 2150 1059 m 27 X s 2150 1117 m 27 X s 2124 1175 m 53 X s 2150 1233 m 27 X s 2150 1291 m 27 X s 2150 1349 m 27 X s 2150
 1407 m 27 X s 2124 1465 m 53 X s 2150 1523 m 27 X s 2150 1582 m 27 X s 2150 1640 m 27 X s 2150 1698 m 27 X s 2124 1756 m 53 X s 2124 1756 m 53 X s 2150 1814 m 27 X s 2150 1872 m 27 X s 2150 1930 m 27 X s 2150 1988 m 27 X s 0.49 0.6 0.82 c 1 1 1 c
 0.49 0.6 0.82 c 420 586 m20 442 606 m20 465 557 m20 488 579 m20 510 583 m20 533 581 m20 556 577 m20 578 588 m20 601 578 m20 624 598 m20 646 592 m20 669 597 m20 692 594 m20 714 590 m20 737 588 m20 760 583 m20 782 590 m20 805 584 m20 828 592 m20 850
 590 m20 873 587 m20 896 587 m20 918 590 m20 941 594 m20 964 590 m20 986 591 m20 1009 595 m20 1032 594 m20 1054 595 m20 1077 594 m20 1100 594 m20 1123 593 m20 1145 595 m20 1168 596 m20 1191 599 m20 1213 601 m20 1236 605 m20 1259 594 m20 1281 593 m20
 1304 601 m20 1327 596 m20 1349 599 m20 1372 605 m20 1395 597 m20 1417 600 m20 1440 611 m20 1463 605 m20 1485 611 m20 1508 610 m20 1531 615 m20 1553 608 m20 1576 616 m20 1599 624 m20 1621 622 m20 1644 614 m20 1667 620 m20 1689 629 m20 1712 622 m20
 1735 634 m20 1757 628 m20 1780 627 m20 1803 631 m20 1826 637 m20 1848 631 m20 1871 638 m20 1894 625 m20 1916 639 m20 1939 651 m20 1962 650 m20 1984 643 m20 2007 663 m20 2030 658 m20 2052 664 m20 2075 667 m20 2098 698 m20 2120 668 m s 2120 698 m s
 2120 683 m20 2143 616 m s 2143 646 m 1 Y s 2143 631 m20 2166 663 m 3 Y s 2166 696 m 3 Y s 2166 681 m20 0.81 0.37 0.38 c 1 1 1 c 0.81 0.37 0.38 c 420 614 m 94 Y s 420 738 m 94 Y s 420 723 m20 442 518 m 40 Y s 442 588 m 40 Y s 442 573 m20 465 486 m 18
 Y s 465 534 m 19 Y s 465 519 m20 488 544 m 11 Y s 488 585 m 11 Y s 488 570 m20 510 546 m 3 Y s 510 580 m 4 Y s 510 565 m20 533 586 m s 533 617 m s 533 602 m20 556 586 m20 578 575 m20 601 590 m20 624 587 m20 646 593 m20 669 598 m20 692 594 m20 714
 591 m20 737 590 m20 760 594 m20 782 589 m20 805 593 m20 828 589 m20 850 594 m20 873 594 m20 896 590 m20 918 593 m20 941 592 m20 964 592 m20 986 596 m20 1009 595 m20 1032 595 m20 1054 593 m20 1077 594 m20 1100 596 m20 1123 597 m20 1145 596 m20 1168
 596 m20 1191 599 m20 1213 598 m20 1236 605 m20 1259 599 m20 1281 596 m20 1304 601 m20 1327 600 m20 1349 602 m20 1372 599 m20 1395 599 m20 1417 605 m20 1440 603 m20 1463 604 m20 1485 604 m20 1508 611 m20 1531 609 m20 1553 612 m20 1576 614 m20 1599
 608 m20 1621 614 m20 1644 616 m20 1667 629 m20 1689 619 m20 1712 617 m20 1735 621 m20 1757 618 m20 1780 625 m20 1803 628 m20 1826 627 m20 1848 630 m20 1871 637 m20 1894 622 m20 1916 618 m20 1939 627 m20 1962 632 m20 1984 644 m 2 Y s 1984 676 m 2 Y s
 1984 661 m20 2007 645 m 3 Y s 2007 679 m 4 Y s 2007 664 m20 2030 655 m 6 Y s 2030 692 m 6 Y s 2030 677 m20 2052 634 m 8 Y s 2052 672 m 8 Y s 2052 657 m20 2075 664 m 11 Y s 2075 706 m 11 Y s 2075 690 m20 2098 640 m 14 Y s 2098 685 m 13 Y s 2098 669
 m20 2120 668 m 19 Y s 2120 718 m 19 Y s 2120 703 m20 2143 651 m 22 Y s 2143 704 m 22 Y s 2143 688 m20 2166 645 m 27 Y s 2166 702 m 27 Y s 2166 687 m20 black 1 1 1 c 635 392 476 1523 bf black
 gsave  2268 2176 0 0 C 631.612 1822.54 t 0 r /Helvetica findfont 102.732 sf 0 0 m (2016 Endcap) show NC gr  0.52 0.76 0.64 c 556 1865 m 24 Y s 556 1835 m -24 Y s 556 1850 m20 black
 gsave  2268 2176 0 0 C 631.612 1693.18 t 0 r /Helvetica findfont 102.732 sf 0 0 m (2017 Endcap) show NC gr  0.49 0.6 0.82 c 556 1735 m 24 Y s 556 1704 m -24 Y s 556 1719 m20 black
 gsave  2268 2176 0 0 C 631.612 1560.01 t 0 r /Helvetica findfont 102.732 sf 0 0 m (2018 Endcap) show NC gr  0.81 0.37 0.38 c 556 1604 m 24 Y s 556 1574 m -24 Y s 556 1589 m20 black
 gsave  2268 2176 0 0 C 1769.28 2039.42 t 0 r /Helvetica findfont 106.537 sf 0 0 m (\(13 TeV\)) show NC gr 
 gsave  2268 2176 0 0 C 408.189 2037.11 t 0 r /Helvetica-Bold findfont 129.366 sf 0 0 m (CMS) show NC gr 
 gsave  2268 2176 0 0 C 487.026 2039.42 t 0 r /Helvetica-Oblique findfont 98.9272 sf 0 0 m (        Simulation) show NC gr  408 305 m 1769 X s 590 356 m -51 Y s 635 330 m -25 Y s 680 330 m -25 Y s 726 330 m -25 Y s 771 330 m -25 Y s 816 356 m -51 Y s
 862 330 m -25 Y s 907 330 m -25 Y s 952 330 m -25 Y s 998 330 m -25 Y s 1043 356 m -51 Y s 1089 330 m -25 Y s 1134 330 m -25 Y s 1179 330 m -25 Y s 1225 330 m -25 Y s 1270 356 m -51 Y s 1315 330 m -25 Y s 1361 330 m -25 Y s 1406 330 m -25 Y s 1451
 330 m -25 Y s 1497 356 m -51 Y s 1542 330 m -25 Y s 1587 330 m -25 Y s 1633 330 m -25 Y s 1678 330 m -25 Y s 1723 356 m -51 Y s 1769 330 m -25 Y s 1814 330 m -25 Y s 1860 330 m -25 Y s 1905 330 m -25 Y s 1950 356 m -51 Y s 1996 330 m -25 Y s 2041
 330 m -25 Y s 2086 330 m -25 Y s 2132 330 m -25 Y s 2177 356 m -51 Y s 590 356 m -51 Y s 544 330 m -25 Y s 499 330 m -25 Y s 454 330 m -25 Y s 408 2002 m 1769 X s 590 1951 m 51 Y s 635 1977 m 25 Y s 680 1977 m 25 Y s 726 1977 m 25 Y s 771 1977 m 25
 Y s 816 1951 m 51 Y s 862 1977 m 25 Y s 907 1977 m 25 Y s 952 1977 m 25 Y s 998 1977 m 25 Y s 1043 1951 m 51 Y s 1089 1977 m 25 Y s 1134 1977 m 25 Y s 1179 1977 m 25 Y s 1225 1977 m 25 Y s 1270 1951 m 51 Y s 1315 1977 m 25 Y s 1361 1977 m 25 Y s
 1406 1977 m 25 Y s 1451 1977 m 25 Y s 1497 1951 m 51 Y s 1542 1977 m 25 Y s 1587 1977 m 25 Y s 1633 1977 m 25 Y s 1678 1977 m 25 Y s 1723 1951 m 51 Y s 1769 1977 m 25 Y s 1814 1977 m 25 Y s 1860 1977 m 25 Y s 1905 1977 m 25 Y s 1950 1951 m 51 Y s
 1996 1977 m 25 Y s 2041 1977 m 25 Y s 2086 1977 m 25 Y s 2132 1977 m 25 Y s 2177 1951 m 51 Y s 590 1951 m 51 Y s 544 1977 m 25 Y s 499 1977 m 25 Y s 454 1977 m 25 Y s 408 305 m 1697 Y s 461 305 m -53 X s 435 363 m -27 X s 435 421 m -27 X s 435 479 m
 -27 X s 435 537 m -27 X s 461 595 m -53 X s 435 653 m -27 X s 435 711 m -27 X s 435 769 m -27 X s 435 827 m -27 X s 461 885 m -53 X s 435 943 m -27 X s 435 1001 m -27 X s 435 1059 m -27 X s 435 1117 m -27 X s 461 1175 m -53 X s 435 1233 m -27 X s
 435 1291 m -27 X s 435 1349 m -27 X s 435 1407 m -27 X s 461 1465 m -53 X s 435 1523 m -27 X s 435 1582 m -27 X s 435 1640 m -27 X s 435 1698 m -27 X s 461 1756 m -53 X s 461 1756 m -53 X s 435 1814 m -27 X s 435 1872 m -27 X s 435 1930 m -27 X s
 435 1988 m -27 X s 2177 305 m 1697 Y s 2124 305 m 53 X s 2150 363 m 27 X s 2150 421 m 27 X s 2150 479 m 27 X s 2150 537 m 27 X s 2124 595 m 53 X s 2150 653 m 27 X s 2150 711 m 27 X s 2150 769 m 27 X s 2150 827 m 27 X s 2124 885 m 53 X s 2150 943 m
 27 X s 2150 1001 m 27 X s 2150 1059 m 27 X s 2150 1117 m 27 X s 2124 1175 m 53 X s 2150 1233 m 27 X s 2150 1291 m 27 X s 2150 1349 m 27 X s 2150 1407 m 27 X s 2124 1465 m 53 X s 2150 1523 m 27 X s 2150 1582 m 27 X s 2150 1640 m 27 X s 2150 1698 m 27
 X s 2124 1756 m 53 X s 2124 1756 m 53 X s 2150 1814 m 27 X s 2150 1872 m 27 X s 2150 1930 m 27 X s 2150 1988 m 27 X s 1 1 1 c black 1769 1697 408 305 bl 1769 1697 408 305 bl
 gr  gr showpage
end
%%EOF
