%!PS-Adobe-2.0 EPSF-2.0
%%BoundingBox:  0 0 567 544
%%Title: plots/n_fakes_vs_genNpu_pt20_barrel.eps: n_fakes_vs_genNpu_pt20_barrel
%%Creator: ROOT Version 6.14/04
%%CreationDate: Tue Aug  4 10:17:16 2020
%%DocumentNeededResources: ProcSet (FontSetInit)
%%EndComments
%%BeginProlog
80 dict begin
/s {stroke} def /l {lineto} def /m {moveto} def /t {translate} def
/r {rotate} def /rl {roll}  def /R {repeat} def
/d {rlineto} def /rm {rmoveto} def /gr {grestore} def /f {eofill} def
/c {setrgbcolor} def /black {0 setgray} def /sd {setdash} def
/cl {closepath} def /sf {scalefont setfont} def /lw {setlinewidth} def
/box {m dup 0 exch d exch 0 d 0 exch neg d cl} def
/NC{systemdict begin initclip end}def/C{NC box clip newpath}def
/bl {box s} def /bf {gsave box gsave f grestore 1 lw [] 0 sd s grestore} def /Y { 0 exch d} def /X { 0 d} def 
/K {{pop pop 0 moveto} exch kshow} bind def
/ita {/ang 15 def gsave [1 0 ang dup sin exch cos div 1 0 0] concat} def 
/mp {newpath /y exch def /x exch def} def
/side {[w .77 mul w .23 mul] .385 w mul sd w 0 l currentpoint t -144 r} def
/mr {mp x y w2 0 360 arc} def /m24 {mr s} def /m20 {mr f} def
/mb {mp x y w2 add m w2 neg 0 d 0 w neg d w 0 d 0 w d cl} def
/mt {mp x y w2 add m w2 neg w neg d w 0 d cl} def
/w4 {w 4 div} def
/w6 {w 6 div} def
/w8 {w 8 div} def
/m21 {mb f} def /m25 {mb s} def /m22 {mt f} def /m26{mt s} def
/m23 {mp x y w2 sub m w2 w d w neg 0 d cl f} def
/m27 {mp x y w2 add m w3 neg w2 neg d w3 w2 neg d w3 w2 d cl s} def
/m28 {mp x w2 sub y w2 sub w3 add m w3 0 d  0 w3 neg d w3 0 d 0 w3 d w3 0 d  0 w3 d w3 neg 0 d 0 w3 d w3 neg 0 d 0 w3 neg d w3 neg 0 d cl s } def
/m29 {mp gsave x w2 sub y w2 add w3 sub m currentpoint t 4 {side} repeat cl fill gr} def
/m30 {mp gsave x w2 sub y w2 add w3 sub m currentpoint t 4 {side} repeat cl s gr} def
/m31 {mp x y w2 sub m 0 w d x w2 sub y m w 0 d x w2 sub y w2 add m w w neg d x w2 sub y w2 sub m w w d s} def
/m32 {mp x y w2 sub m w2 w d w neg 0 d cl s} def
/m33 {mp x y w2 add m w3 neg w2 neg d w3 w2 neg d w3 w2 d cl f} def
/m34 {mp x w2 sub y w2 sub w3 add m w3 0 d  0 w3 neg d w3 0 d 0 w3 d w3 0 d  0 w3 d w3 neg 0 d 0 w3 d w3 neg 0 d 0 w3 neg d w3 neg 0 d cl f } def
/m35 {mp x y w2 add m w2 neg w2 neg d w2 w2 neg d w2 w2 d w2 neg w2 d x y w2 sub m 0 w d x w2 sub y m w 0 d s} def
/m36 {mb x w2 sub y w2 add m w w neg d x w2 sub y w2 sub m w w d s} def
/m37 {mp x y m w4 neg w2 d w4 neg w2 neg d w2 0 d  w4 neg w2 neg d w2 0 d w4 neg w2 d w2 0 d w4 neg w2 d w4 neg w2 neg d cl s} def
/m38 {mp x w4 sub y w2 add m w4 neg w4 neg d 0 w2 neg d w4 w4 neg d w2 0 d w4 w4 d 0 w2 d w4 neg w4 d w2 neg 0 d x y w2 sub m 0 w d x w2 sub y m w 0 d cl s} def
/m39 {mp x y m w4 neg w2 d w4 neg w2 neg d w2 0 d  w4 neg w2 neg d w2 0 d w4 neg w2 d w2 0 d w4 neg w2 d w4 neg w2 neg d cl f} def
/m40 {mp x y m w4 w2 d w4 w4 neg d w2 neg w4 neg d w2 w4 neg d w4 neg w4 neg d w4 neg w2 d w4 neg w2 neg d w4 neg w4 d w2 w4 d w2 neg w4 d w4 w4 d w4 w2 neg d cl s} def
/m41 {mp x y m w4 w2 d w4 w4 neg d w2 neg w4 neg d w2 w4 neg d w4 neg w4 neg d w4 neg w2 d w4 neg w2 neg d w4 neg w4 d w2 w4 d w2 neg w4 d w4 w4 d w4 w2 neg d cl f} def
/m42 {mp x y w2 add m w8 neg w2 -3 4 div mul d w2 -3 4 div mul w8 neg d w2 3 4 div mul w8 neg d w8 w2 -3 4 div mul d w8 w2 3 4 div mul d w2 3 4 div mul w8 d w2 -3 4 div mul w8 d w8 neg w2 3 4 div mul d cl s} def
/m43 {mp x y w2 add m w8 neg w2 -3 4 div mul d w2 -3 4 div mul w8 neg d w2 3 4 div mul w8 neg d w8 w2 -3 4 div mul d w8 w2 3 4 div mul d w2 3 4 div mul w8 d w2 -3 4 div mul w8 d w8 neg w2 3 4 div mul d cl f} def
/m44 {mp x y m w6 neg w2 d w2 2 3 div mul 0 d w6 neg w2 neg d w2 w6 d 0 w2 -2 3 div mul d w2 neg w6 d w6 w2 neg d w2 -2 3 div mul 0 d w6 w2 d w2 neg w6 neg d 0 w2 2 3 div mul d w2 w6 neg d cl s} def
/m45 {mp x y m w6 neg w2 d w2 2 3 div mul 0 d w6 neg w2 neg d w2 w6 d 0 w2 -2 3 div mul d w2 neg w6 d w6 w2 neg d w2 -2 3 div mul 0 d w6 w2 d w2 neg w6 neg d 0 w2 2 3 div mul d w2 w6 neg d cl f} def
/m46 {mp x y w4 add m w4 neg w4 d w4 neg w4 neg d  w4 w4 neg d w4 neg w4 neg d w4 w4 neg d w4 w4 d w4 w4 neg d w4 w4 d w4 neg w4 d w4 w4 d w4 neg w4 d w4 neg w4 neg d cl s} def
/m47 {mp x y w4 add m w4 neg w4 d w4 neg w4 neg d w4 w4 neg d w4 neg w4 neg d  w4 w4 neg d w4 w4 d w4 w4 neg d w4 w4 d w4 neg w4 d w4 w4 d w4 neg w4 d w4 neg w4 neg d cl f} def
/m48 {mp x y w4 add m w4 neg w4 d w4 neg w4 neg d w4 w4 neg d  w4 neg w4 neg d w4 w4 neg d w4 w4 d w4 w4 neg d w4 w4 d w4 neg w4 d w4 w4 d w4 neg w4 d w4 neg w4 neg d  w4 w4 neg d w4 neg w4 neg d w4 neg w4 d w4 w4 d cl f} def
/m49 {mp x w2 sub w3 add y w2 sub w3 add m  0 w3 neg d w3 0 d 0 w3 d w3 0 d 0 w3 d w3 neg 0 d 0 w3 d w3 neg 0 d 0 w3 neg d w3 neg 0 d 0 w3 neg d w3 0 d 0 w3 d w3 0 d 0 w3 neg d w3 neg 0 d cl f } def
/m2 {mp x y w2 sub m 0 w d x w2 sub y m w 0 d s} def
/m5 {mp x w2 sub y w2 sub m w w d x w2 sub y w2 add m w w neg d s} def
%%IncludeResource: ProcSet (FontSetInit)
%%IncludeResource: font Times-Roman
%%IncludeResource: font Times-Italic
%%IncludeResource: font Times-Bold
%%IncludeResource: font Times-BoldItalic
%%IncludeResource: font Helvetica
%%IncludeResource: font Helvetica-Oblique
%%IncludeResource: font Helvetica-Bold
%%IncludeResource: font Helvetica-BoldOblique
%%IncludeResource: font Courier
%%IncludeResource: font Courier-Oblique
%%IncludeResource: font Courier-Bold
%%IncludeResource: font Courier-BoldOblique
%%IncludeResource: font Symbol
%%IncludeResource: font ZapfDingbats
/reEncode {exch findfont dup length dict begin {1 index /FID eq  {pop pop} {def} ifelse } forall /Encoding exch def currentdict end dup /FontName get exch definefont pop } def [/Times-Bold /Times-Italic /Times-BoldItalic /Helvetica /Helvetica-Oblique
 /Helvetica-Bold /Helvetica-BoldOblique /Courier /Courier-Oblique /Courier-Bold /Courier-BoldOblique /Times-Roman /AvantGarde-Book /AvantGarde-BookOblique /AvantGarde-Demi /AvantGarde-DemiOblique /Bookman-Demi /Bookman-DemiItalic /Bookman-Light
 /Bookman-LightItalic /Helvetica-Narrow /Helvetica-Narrow-Bold /Helvetica-Narrow-BoldOblique /Helvetica-Narrow-Oblique /NewCenturySchlbk-Roman /NewCenturySchlbk-Bold /NewCenturySchlbk-BoldItalic /NewCenturySchlbk-Italic /Palatino-Bold
 /Palatino-BoldItalic /Palatino-Italic /Palatino-Roman ] {ISOLatin1Encoding reEncode } forall
%%EndProlog
%%BeginSetup
%%EndSetup
newpath  gsave  .25 .25 scale  gsave  0 0 t black[  ] 0 sd 3 lw 1 1 1 c 2268 2176 0 0 bf black 1 1 1 c black 1769 1697 408 305 bl 1769 1697 408 305 bl 1 1 1 c black 1769 1697 408 305 bl 1769 1697 408 305 bl 0.52 0.76 0.64 c 1 1 1 c 0.52 0.76 0.64 c
 420 655 m 31 Y s 420 716 m 31 Y s /w 30 def /w2 {w 2 div} def /w3 {w 3 div} def 420 701 m20 442 679 m 15 Y s 442 725 m 15 Y s 442 709 m20 465 673 m 6 Y s 465 709 m 6 Y s 465 694 m20 488 708 m20 510 696 m20 533 717 m20 556 712 m20 578 713 m20 601 714
 m20 624 710 m20 646 714 m20 669 716 m20 692 721 m20 714 712 m20 737 713 m20 760 717 m20 782 716 m20 805 718 m20 828 713 m20 850 711 m20 873 713 m20 896 715 m20 918 716 m20 941 712 m20 964 711 m20 986 717 m20 1009 710 m20 1032 712 m20 1054 719 m20
 1077 718 m20 1100 719 m20 1123 723 m20 1145 724 m20 1168 717 m20 1191 725 m20 1213 721 m20 1236 723 m20 1259 717 m20 1281 715 m20 1304 726 m20 1327 720 m20 1349 721 m20 1372 725 m20 1395 729 m20 1417 732 m20 1440 741 m20 1463 740 m20 1485 738 m20
 1508 739 m20 1531 741 m20 1553 735 m20 1576 734 m20 1599 756 m20 1621 766 m20 1644 746 m s 1644 777 m s 1644 762 m20 1667 728 m 2 Y s 1667 760 m 1 Y s 1667 745 m20 1689 737 m 4 Y s 1689 771 m 3 Y s 1689 756 m20 1712 725 m 5 Y s 1712 761 m 5 Y s 1712
 745 m20 1735 709 m 6 Y s 1735 746 m 7 Y s 1735 731 m20 1757 708 m 10 Y s 1757 748 m 9 Y s 1757 733 m20 1780 726 m 13 Y s 1780 770 m 13 Y s 1780 755 m20 1803 745 m 17 Y s 1803 792 m 17 Y s 1803 777 m20 1826 761 m 22 Y s 1826 813 m 22 Y s 1826 798 m20
 1848 742 m 26 Y s 1848 798 m 26 Y s 1848 783 m20 1871 647 m 26 Y s 1871 704 m 26 Y s 1871 689 m20 1894 727 m 37 Y s 1894 795 m 37 Y s 1894 779 m20 1916 610 m 37 Y s 1916 678 m 36 Y s 1916 662 m20 1939 686 m 50 Y s 1939 767 m 49 Y s 1939 751 m20 1962
 676 m 59 Y s 1962 765 m 59 Y s 1962 750 m20 1984 598 m 62 Y s 1984 691 m 62 Y s 1984 675 m20 2007 666 m 78 Y s 2007 775 m 78 Y s 2007 760 m20 2030 927 m 129 Y s 2030 1086 m 129 Y s 2030 1071 m20 2052 627 m 103 Y s 2052 761 m 103 Y s 2052 745 m20
 2075 606 m 117 Y s 2075 753 m 116 Y s 2075 738 m20 2098 793 m 175 Y s 2098 998 m 176 Y s 2098 983 m20 2120 487 m 134 Y s 2120 651 m 134 Y s 2120 636 m20 2143 531 m 171 Y s 2143 732 m 171 Y s 2143 717 m20 2166 448 m 183 Y s 2166 661 m 183 Y s 2166
 646 m20 black 408 305 m 1769 X s 590 356 m -51 Y s 635 330 m -25 Y s 680 330 m -25 Y s 726 330 m -25 Y s 771 330 m -25 Y s 816 356 m -51 Y s 862 330 m -25 Y s 907 330 m -25 Y s 952 330 m -25 Y s 998 330 m -25 Y s 1043 356 m -51 Y s 1089 330 m -25 Y
 s 1134 330 m -25 Y s 1179 330 m -25 Y s 1225 330 m -25 Y s 1270 356 m -51 Y s 1315 330 m -25 Y s 1361 330 m -25 Y s 1406 330 m -25 Y s 1451 330 m -25 Y s 1497 356 m -51 Y s 1542 330 m -25 Y s 1587 330 m -25 Y s 1633 330 m -25 Y s 1678 330 m -25 Y s
 1723 356 m -51 Y s 1769 330 m -25 Y s 1814 330 m -25 Y s 1860 330 m -25 Y s 1905 330 m -25 Y s 1950 356 m -51 Y s 1996 330 m -25 Y s 2041 330 m -25 Y s 2086 330 m -25 Y s 2132 330 m -25 Y s 2177 356 m -51 Y s 590 356 m -51 Y s 544 330 m -25 Y s 499
 330 m -25 Y s 454 330 m -25 Y s
 gsave  2268 2176 0 0 C 528.88 205.464 t 0 r /Helvetica findfont 102.732 sf 0 0 m (10) show NC gr 
 gsave  2268 2176 0 0 C 757.174 205.464 t 0 r /Helvetica findfont 102.732 sf 0 0 m (20) show NC gr 
 gsave  2268 2176 0 0 C 985.467 205.464 t 0 r /Helvetica findfont 102.732 sf 0 0 m (30) show NC gr 
 gsave  2268 2176 0 0 C 1209.96 205.464 t 0 r /Helvetica findfont 102.732 sf 0 0 m (40) show NC gr 
 gsave  2268 2176 0 0 C 1438.25 205.464 t 0 r /Helvetica findfont 102.732 sf 0 0 m (50) show NC gr 
 gsave  2268 2176 0 0 C 1662.74 205.464 t 0 r /Helvetica findfont 102.732 sf 0 0 m (60) show NC gr 
 gsave  2268 2176 0 0 C 1891.03 205.464 t 0 r /Helvetica findfont 102.732 sf 0 0 m (70) show NC gr 
 gsave  2268 2176 0 0 C 2119.33 205.464 t 0 r /Helvetica findfont 102.732 sf 0 0 m (80) show NC gr 
 gsave  2268 2176 0 0 C 1236.59 41.8538 t 0 r /Helvetica findfont 121.757 sf 0 0 m (Number of Pileup) show NC gr  408 2002 m 1769 X s 590 1951 m 51 Y s 635 1977 m 25 Y s 680 1977 m 25 Y s 726 1977 m 25 Y s 771 1977 m 25 Y s 816 1951 m 51 Y s 862 1977
 m 25 Y s 907 1977 m 25 Y s 952 1977 m 25 Y s 998 1977 m 25 Y s 1043 1951 m 51 Y s 1089 1977 m 25 Y s 1134 1977 m 25 Y s 1179 1977 m 25 Y s 1225 1977 m 25 Y s 1270 1951 m 51 Y s 1315 1977 m 25 Y s 1361 1977 m 25 Y s 1406 1977 m 25 Y s 1451 1977 m 25
 Y s 1497 1951 m 51 Y s 1542 1977 m 25 Y s 1587 1977 m 25 Y s 1633 1977 m 25 Y s 1678 1977 m 25 Y s 1723 1951 m 51 Y s 1769 1977 m 25 Y s 1814 1977 m 25 Y s 1860 1977 m 25 Y s 1905 1977 m 25 Y s 1950 1951 m 51 Y s 1996 1977 m 25 Y s 2041 1977 m 25 Y
 s 2086 1977 m 25 Y s 2132 1977 m 25 Y s 2177 1951 m 51 Y s 590 1951 m 51 Y s 544 1977 m 25 Y s 499 1977 m 25 Y s 454 1977 m 25 Y s 408 305 m 1697 Y s 461 305 m -53 X s 435 363 m -27 X s 435 421 m -27 X s 435 479 m -27 X s 435 537 m -27 X s 461 595 m
 -53 X s 435 653 m -27 X s 435 711 m -27 X s 435 769 m -27 X s 435 827 m -27 X s 461 885 m -53 X s 435 943 m -27 X s 435 1001 m -27 X s 435 1059 m -27 X s 435 1117 m -27 X s 461 1175 m -53 X s 435 1233 m -27 X s 435 1291 m -27 X s 435 1349 m -27 X s
 435 1407 m -27 X s 461 1465 m -53 X s 435 1523 m -27 X s 435 1582 m -27 X s 435 1640 m -27 X s 435 1698 m -27 X s 461 1756 m -53 X s 461 1756 m -53 X s 435 1814 m -27 X s 435 1872 m -27 X s 435 1930 m -27 X s 435 1988 m -27 X s
 gsave  2268 2176 0 0 C 338.636 270.147 t 0 r /Helvetica findfont 102.732 sf 0 0 m (0) show NC gr 
 gsave  2268 2176 0 0 C 213.074 559.319 t 0 r /Helvetica findfont 102.732 sf 0 0 m (0.01) show NC gr 
 gsave  2268 2176 0 0 C 194.05 848.491 t 0 r /Helvetica findfont 102.732 sf 0 0 m (0.02) show NC gr 
 gsave  2268 2176 0 0 C 194.05 1137.66 t 0 r /Helvetica findfont 102.732 sf 0 0 m (0.03) show NC gr 
 gsave  2268 2176 0 0 C 194.05 1430.64 t 0 r /Helvetica findfont 102.732 sf 0 0 m (0.04) show NC gr 
 gsave  2268 2176 0 0 C 194.05 1719.81 t 0 r /Helvetica findfont 102.732 sf 0 0 m (0.05) show NC gr 
 gsave  2268 2176 0 0 C 156.001 620.198 t 90 r /Helvetica findfont 121.757 sf 0 0 m (DY+Jets Fakes per Event) show NC gr  2177 305 m 1697 Y s 2124 305 m 53 X s 2150 363 m 27 X s 2150 421 m 27 X s 2150 479 m 27 X s 2150 537 m 27 X s 2124 595 m 53 X s
 2150 653 m 27 X s 2150 711 m 27 X s 2150 769 m 27 X s 2150 827 m 27 X s 2124 885 m 53 X s 2150 943 m 27 X s 2150 1001 m 27 X s 2150 1059 m 27 X s 2150 1117 m 27 X s 2124 1175 m 53 X s 2150 1233 m 27 X s 2150 1291 m 27 X s 2150 1349 m 27 X s 2150
 1407 m 27 X s 2124 1465 m 53 X s 2150 1523 m 27 X s 2150 1582 m 27 X s 2150 1640 m 27 X s 2150 1698 m 27 X s 2124 1756 m 53 X s 2124 1756 m 53 X s 2150 1814 m 27 X s 2150 1872 m 27 X s 2150 1930 m 27 X s 2150 1988 m 27 X s 0.49 0.6 0.82 c 1 1 1 c
 0.49 0.6 0.82 c 420 677 m20 442 664 m20 465 648 m20 488 653 m20 510 634 m20 533 637 m20 556 657 m20 578 646 m20 601 639 m20 624 643 m20 646 651 m20 669 638 m20 692 643 m20 714 637 m20 737 646 m20 760 640 m20 782 644 m20 805 637 m20 828 640 m20 850
 640 m20 873 638 m20 896 644 m20 918 644 m20 941 646 m20 964 642 m20 986 644 m20 1009 642 m20 1032 638 m20 1054 648 m20 1077 649 m20 1100 646 m20 1123 642 m20 1145 646 m20 1168 649 m20 1191 645 m20 1213 646 m20 1236 643 m20 1259 640 m20 1281 640 m20
 1304 643 m20 1327 646 m20 1349 647 m20 1372 650 m20 1395 652 m20 1417 654 m20 1440 647 m20 1463 650 m20 1485 650 m20 1508 655 m20 1531 660 m20 1553 656 m20 1576 660 m20 1599 658 m20 1621 663 m20 1644 666 m20 1667 662 m20 1689 657 m20 1712 661 m20
 1735 679 m20 1757 666 m20 1780 667 m20 1803 672 m20 1826 667 m20 1848 672 m20 1871 669 m20 1894 670 m20 1916 703 m20 1939 677 m20 1962 678 m20 1984 688 m20 2007 694 m20 2030 687 m20 2052 705 m20 2075 709 m20 2098 716 m20 2120 683 m s 2120 714 m s
 2120 698 m20 2143 690 m 2 Y s 2143 722 m 2 Y s 2143 707 m20 2166 699 m 3 Y s 2166 733 m 3 Y s 2166 717 m20 0.81 0.37 0.38 c 1 1 1 c 0.81 0.37 0.38 c 420 472 m 69 Y s 420 571 m 69 Y s 420 556 m20 442 670 m 55 Y s 442 756 m 55 Y s 442 740 m20 465 615
 m 27 Y s 465 672 m 28 Y s 465 657 m20 488 599 m 14 Y s 488 643 m 14 Y s 488 628 m20 510 631 m 7 Y s 510 668 m 7 Y s 510 653 m20 533 599 m s 533 630 m 1 Y s 533 615 m20 556 622 m20 578 634 m20 601 620 m20 624 608 m20 646 625 m20 669 614 m20 692 612
 m20 714 619 m20 737 624 m20 760 629 m20 782 618 m20 805 621 m20 828 616 m20 850 617 m20 873 615 m20 896 619 m20 918 618 m20 941 619 m20 964 617 m20 986 623 m20 1009 623 m20 1032 622 m20 1054 621 m20 1077 623 m20 1100 622 m20 1123 624 m20 1145 619
 m20 1168 622 m20 1191 623 m20 1213 625 m20 1236 624 m20 1259 624 m20 1281 632 m20 1304 628 m20 1327 624 m20 1349 635 m20 1372 634 m20 1395 634 m20 1417 635 m20 1440 639 m20 1463 632 m20 1485 638 m20 1508 635 m20 1531 643 m20 1553 638 m20 1576 641
 m20 1599 639 m20 1621 640 m20 1644 648 m20 1667 645 m20 1689 641 m20 1712 657 m20 1735 642 m20 1757 647 m20 1780 645 m20 1803 654 m20 1826 659 m20 1848 657 m20 1871 647 m20 1894 666 m20 1916 665 m20 1939 644 m20 1962 646 m20 1984 674 m 2 Y s 1984
 707 m 2 Y s 1984 691 m20 2007 657 m 4 Y s 2007 692 m 4 Y s 2007 676 m20 2030 668 m 7 Y s 2030 705 m 7 Y s 2030 690 m20 2052 628 m 8 Y s 2052 666 m 8 Y s 2052 651 m20 2075 618 m 10 Y s 2075 658 m 10 Y s 2075 643 m20 2098 691 m 15 Y s 2098 737 m 16 Y
 s 2098 722 m20 2120 654 m 19 Y s 2120 703 m 19 Y s 2120 688 m20 2143 620 m 20 Y s 2143 671 m 21 Y s 2143 656 m20 2166 615 m 25 Y s 2166 670 m 25 Y s 2166 655 m20 black 1 1 1 c 635 392 476 1523 bf black
 gsave  2268 2176 0 0 C 631.612 1822.54 t 0 r /Helvetica findfont 102.732 sf 0 0 m (2016 Barrel) show NC gr  0.52 0.76 0.64 c 556 1865 m 24 Y s 556 1835 m -24 Y s 556 1850 m20 black
 gsave  2268 2176 0 0 C 631.612 1693.18 t 0 r /Helvetica findfont 102.732 sf 0 0 m (2017 Barrel) show NC gr  0.49 0.6 0.82 c 556 1735 m 24 Y s 556 1704 m -24 Y s 556 1719 m20 black
 gsave  2268 2176 0 0 C 631.612 1560.01 t 0 r /Helvetica findfont 102.732 sf 0 0 m (2018 Barrel) show NC gr  0.81 0.37 0.38 c 556 1604 m 24 Y s 556 1574 m -24 Y s 556 1589 m20 black
 gsave  2268 2176 0 0 C 1769.28 2039.42 t 0 r /Helvetica findfont 106.537 sf 0 0 m (\(13 TeV\)) show NC gr 
 gsave  2268 2176 0 0 C 408.189 2037.11 t 0 r /Helvetica-Bold findfont 129.366 sf 0 0 m (CMS) show NC gr 
 gsave  2268 2176 0 0 C 487.026 2039.42 t 0 r /Helvetica-Oblique findfont 98.9272 sf 0 0 m (        Simulation) show NC gr  408 305 m 1769 X s 590 356 m -51 Y s 635 330 m -25 Y s 680 330 m -25 Y s 726 330 m -25 Y s 771 330 m -25 Y s 816 356 m -51 Y s
 862 330 m -25 Y s 907 330 m -25 Y s 952 330 m -25 Y s 998 330 m -25 Y s 1043 356 m -51 Y s 1089 330 m -25 Y s 1134 330 m -25 Y s 1179 330 m -25 Y s 1225 330 m -25 Y s 1270 356 m -51 Y s 1315 330 m -25 Y s 1361 330 m -25 Y s 1406 330 m -25 Y s 1451
 330 m -25 Y s 1497 356 m -51 Y s 1542 330 m -25 Y s 1587 330 m -25 Y s 1633 330 m -25 Y s 1678 330 m -25 Y s 1723 356 m -51 Y s 1769 330 m -25 Y s 1814 330 m -25 Y s 1860 330 m -25 Y s 1905 330 m -25 Y s 1950 356 m -51 Y s 1996 330 m -25 Y s 2041
 330 m -25 Y s 2086 330 m -25 Y s 2132 330 m -25 Y s 2177 356 m -51 Y s 590 356 m -51 Y s 544 330 m -25 Y s 499 330 m -25 Y s 454 330 m -25 Y s 408 2002 m 1769 X s 590 1951 m 51 Y s 635 1977 m 25 Y s 680 1977 m 25 Y s 726 1977 m 25 Y s 771 1977 m 25
 Y s 816 1951 m 51 Y s 862 1977 m 25 Y s 907 1977 m 25 Y s 952 1977 m 25 Y s 998 1977 m 25 Y s 1043 1951 m 51 Y s 1089 1977 m 25 Y s 1134 1977 m 25 Y s 1179 1977 m 25 Y s 1225 1977 m 25 Y s 1270 1951 m 51 Y s 1315 1977 m 25 Y s 1361 1977 m 25 Y s
 1406 1977 m 25 Y s 1451 1977 m 25 Y s 1497 1951 m 51 Y s 1542 1977 m 25 Y s 1587 1977 m 25 Y s 1633 1977 m 25 Y s 1678 1977 m 25 Y s 1723 1951 m 51 Y s 1769 1977 m 25 Y s 1814 1977 m 25 Y s 1860 1977 m 25 Y s 1905 1977 m 25 Y s 1950 1951 m 51 Y s
 1996 1977 m 25 Y s 2041 1977 m 25 Y s 2086 1977 m 25 Y s 2132 1977 m 25 Y s 2177 1951 m 51 Y s 590 1951 m 51 Y s 544 1977 m 25 Y s 499 1977 m 25 Y s 454 1977 m 25 Y s 408 305 m 1697 Y s 461 305 m -53 X s 435 363 m -27 X s 435 421 m -27 X s 435 479 m
 -27 X s 435 537 m -27 X s 461 595 m -53 X s 435 653 m -27 X s 435 711 m -27 X s 435 769 m -27 X s 435 827 m -27 X s 461 885 m -53 X s 435 943 m -27 X s 435 1001 m -27 X s 435 1059 m -27 X s 435 1117 m -27 X s 461 1175 m -53 X s 435 1233 m -27 X s
 435 1291 m -27 X s 435 1349 m -27 X s 435 1407 m -27 X s 461 1465 m -53 X s 435 1523 m -27 X s 435 1582 m -27 X s 435 1640 m -27 X s 435 1698 m -27 X s 461 1756 m -53 X s 461 1756 m -53 X s 435 1814 m -27 X s 435 1872 m -27 X s 435 1930 m -27 X s
 435 1988 m -27 X s 2177 305 m 1697 Y s 2124 305 m 53 X s 2150 363 m 27 X s 2150 421 m 27 X s 2150 479 m 27 X s 2150 537 m 27 X s 2124 595 m 53 X s 2150 653 m 27 X s 2150 711 m 27 X s 2150 769 m 27 X s 2150 827 m 27 X s 2124 885 m 53 X s 2150 943 m
 27 X s 2150 1001 m 27 X s 2150 1059 m 27 X s 2150 1117 m 27 X s 2124 1175 m 53 X s 2150 1233 m 27 X s 2150 1291 m 27 X s 2150 1349 m 27 X s 2150 1407 m 27 X s 2124 1465 m 53 X s 2150 1523 m 27 X s 2150 1582 m 27 X s 2150 1640 m 27 X s 2150 1698 m 27
 X s 2124 1756 m 53 X s 2124 1756 m 53 X s 2150 1814 m 27 X s 2150 1872 m 27 X s 2150 1930 m 27 X s 2150 1988 m 27 X s 1 1 1 c black 1769 1697 408 305 bl 1769 1697 408 305 bl
 gr  gr showpage
end
%%EOF
