%!PS-Adobe-2.0 EPSF-2.0
%%BoundingBox:  0 0 567 544
%%Title: plots/n_fakes_vs_ele_pt_only2017_endcap_tracker_driven.eps: n_fakes_vs_ele_pt_only2017_endcap_tracker_driven
%%Creator: ROOT Version 6.14/04
%%CreationDate: Tue Aug  4 10:25:15 2020
%%DocumentNeededResources: ProcSet (FontSetInit)
%%EndComments
%%BeginProlog
80 dict begin
/s {stroke} def /l {lineto} def /m {moveto} def /t {translate} def
/r {rotate} def /rl {roll}  def /R {repeat} def
/d {rlineto} def /rm {rmoveto} def /gr {grestore} def /f {eofill} def
/c {setrgbcolor} def /black {0 setgray} def /sd {setdash} def
/cl {closepath} def /sf {scalefont setfont} def /lw {setlinewidth} def
/box {m dup 0 exch d exch 0 d 0 exch neg d cl} def
/NC{systemdict begin initclip end}def/C{NC box clip newpath}def
/bl {box s} def /bf {gsave box gsave f grestore 1 lw [] 0 sd s grestore} def /Y { 0 exch d} def /X { 0 d} def 
/K {{pop pop 0 moveto} exch kshow} bind def
/ita {/ang 15 def gsave [1 0 ang dup sin exch cos div 1 0 0] concat} def 
/mp {newpath /y exch def /x exch def} def
/side {[w .77 mul w .23 mul] .385 w mul sd w 0 l currentpoint t -144 r} def
/mr {mp x y w2 0 360 arc} def /m24 {mr s} def /m20 {mr f} def
/mb {mp x y w2 add m w2 neg 0 d 0 w neg d w 0 d 0 w d cl} def
/mt {mp x y w2 add m w2 neg w neg d w 0 d cl} def
/w4 {w 4 div} def
/w6 {w 6 div} def
/w8 {w 8 div} def
/m21 {mb f} def /m25 {mb s} def /m22 {mt f} def /m26{mt s} def
/m23 {mp x y w2 sub m w2 w d w neg 0 d cl f} def
/m27 {mp x y w2 add m w3 neg w2 neg d w3 w2 neg d w3 w2 d cl s} def
/m28 {mp x w2 sub y w2 sub w3 add m w3 0 d  0 w3 neg d w3 0 d 0 w3 d w3 0 d  0 w3 d w3 neg 0 d 0 w3 d w3 neg 0 d 0 w3 neg d w3 neg 0 d cl s } def
/m29 {mp gsave x w2 sub y w2 add w3 sub m currentpoint t 4 {side} repeat cl fill gr} def
/m30 {mp gsave x w2 sub y w2 add w3 sub m currentpoint t 4 {side} repeat cl s gr} def
/m31 {mp x y w2 sub m 0 w d x w2 sub y m w 0 d x w2 sub y w2 add m w w neg d x w2 sub y w2 sub m w w d s} def
/m32 {mp x y w2 sub m w2 w d w neg 0 d cl s} def
/m33 {mp x y w2 add m w3 neg w2 neg d w3 w2 neg d w3 w2 d cl f} def
/m34 {mp x w2 sub y w2 sub w3 add m w3 0 d  0 w3 neg d w3 0 d 0 w3 d w3 0 d  0 w3 d w3 neg 0 d 0 w3 d w3 neg 0 d 0 w3 neg d w3 neg 0 d cl f } def
/m35 {mp x y w2 add m w2 neg w2 neg d w2 w2 neg d w2 w2 d w2 neg w2 d x y w2 sub m 0 w d x w2 sub y m w 0 d s} def
/m36 {mb x w2 sub y w2 add m w w neg d x w2 sub y w2 sub m w w d s} def
/m37 {mp x y m w4 neg w2 d w4 neg w2 neg d w2 0 d  w4 neg w2 neg d w2 0 d w4 neg w2 d w2 0 d w4 neg w2 d w4 neg w2 neg d cl s} def
/m38 {mp x w4 sub y w2 add m w4 neg w4 neg d 0 w2 neg d w4 w4 neg d w2 0 d w4 w4 d 0 w2 d w4 neg w4 d w2 neg 0 d x y w2 sub m 0 w d x w2 sub y m w 0 d cl s} def
/m39 {mp x y m w4 neg w2 d w4 neg w2 neg d w2 0 d  w4 neg w2 neg d w2 0 d w4 neg w2 d w2 0 d w4 neg w2 d w4 neg w2 neg d cl f} def
/m40 {mp x y m w4 w2 d w4 w4 neg d w2 neg w4 neg d w2 w4 neg d w4 neg w4 neg d w4 neg w2 d w4 neg w2 neg d w4 neg w4 d w2 w4 d w2 neg w4 d w4 w4 d w4 w2 neg d cl s} def
/m41 {mp x y m w4 w2 d w4 w4 neg d w2 neg w4 neg d w2 w4 neg d w4 neg w4 neg d w4 neg w2 d w4 neg w2 neg d w4 neg w4 d w2 w4 d w2 neg w4 d w4 w4 d w4 w2 neg d cl f} def
/m42 {mp x y w2 add m w8 neg w2 -3 4 div mul d w2 -3 4 div mul w8 neg d w2 3 4 div mul w8 neg d w8 w2 -3 4 div mul d w8 w2 3 4 div mul d w2 3 4 div mul w8 d w2 -3 4 div mul w8 d w8 neg w2 3 4 div mul d cl s} def
/m43 {mp x y w2 add m w8 neg w2 -3 4 div mul d w2 -3 4 div mul w8 neg d w2 3 4 div mul w8 neg d w8 w2 -3 4 div mul d w8 w2 3 4 div mul d w2 3 4 div mul w8 d w2 -3 4 div mul w8 d w8 neg w2 3 4 div mul d cl f} def
/m44 {mp x y m w6 neg w2 d w2 2 3 div mul 0 d w6 neg w2 neg d w2 w6 d 0 w2 -2 3 div mul d w2 neg w6 d w6 w2 neg d w2 -2 3 div mul 0 d w6 w2 d w2 neg w6 neg d 0 w2 2 3 div mul d w2 w6 neg d cl s} def
/m45 {mp x y m w6 neg w2 d w2 2 3 div mul 0 d w6 neg w2 neg d w2 w6 d 0 w2 -2 3 div mul d w2 neg w6 d w6 w2 neg d w2 -2 3 div mul 0 d w6 w2 d w2 neg w6 neg d 0 w2 2 3 div mul d w2 w6 neg d cl f} def
/m46 {mp x y w4 add m w4 neg w4 d w4 neg w4 neg d  w4 w4 neg d w4 neg w4 neg d w4 w4 neg d w4 w4 d w4 w4 neg d w4 w4 d w4 neg w4 d w4 w4 d w4 neg w4 d w4 neg w4 neg d cl s} def
/m47 {mp x y w4 add m w4 neg w4 d w4 neg w4 neg d w4 w4 neg d w4 neg w4 neg d  w4 w4 neg d w4 w4 d w4 w4 neg d w4 w4 d w4 neg w4 d w4 w4 d w4 neg w4 d w4 neg w4 neg d cl f} def
/m48 {mp x y w4 add m w4 neg w4 d w4 neg w4 neg d w4 w4 neg d  w4 neg w4 neg d w4 w4 neg d w4 w4 d w4 w4 neg d w4 w4 d w4 neg w4 d w4 w4 d w4 neg w4 d w4 neg w4 neg d  w4 w4 neg d w4 neg w4 neg d w4 neg w4 d w4 w4 d cl f} def
/m49 {mp x w2 sub w3 add y w2 sub w3 add m  0 w3 neg d w3 0 d 0 w3 d w3 0 d 0 w3 d w3 neg 0 d 0 w3 d w3 neg 0 d 0 w3 neg d w3 neg 0 d 0 w3 neg d w3 0 d 0 w3 d w3 0 d 0 w3 neg d w3 neg 0 d cl f } def
/m2 {mp x y w2 sub m 0 w d x w2 sub y m w 0 d s} def
/m5 {mp x w2 sub y w2 sub m w w d x w2 sub y w2 add m w w neg d s} def
%%IncludeResource: ProcSet (FontSetInit)
%%IncludeResource: font Times-Roman
%%IncludeResource: font Times-Italic
%%IncludeResource: font Times-Bold
%%IncludeResource: font Times-BoldItalic
%%IncludeResource: font Helvetica
%%IncludeResource: font Helvetica-Oblique
%%IncludeResource: font Helvetica-Bold
%%IncludeResource: font Helvetica-BoldOblique
%%IncludeResource: font Courier
%%IncludeResource: font Courier-Oblique
%%IncludeResource: font Courier-Bold
%%IncludeResource: font Courier-BoldOblique
%%IncludeResource: font Symbol
%%IncludeResource: font ZapfDingbats
/reEncode {exch findfont dup length dict begin {1 index /FID eq  {pop pop} {def} ifelse } forall /Encoding exch def currentdict end dup /FontName get exch definefont pop } def [/Times-Bold /Times-Italic /Times-BoldItalic /Helvetica /Helvetica-Oblique
 /Helvetica-Bold /Helvetica-BoldOblique /Courier /Courier-Oblique /Courier-Bold /Courier-BoldOblique /Times-Roman /AvantGarde-Book /AvantGarde-BookOblique /AvantGarde-Demi /AvantGarde-DemiOblique /Bookman-Demi /Bookman-DemiItalic /Bookman-Light
 /Bookman-LightItalic /Helvetica-Narrow /Helvetica-Narrow-Bold /Helvetica-Narrow-BoldOblique /Helvetica-Narrow-Oblique /NewCenturySchlbk-Roman /NewCenturySchlbk-Bold /NewCenturySchlbk-BoldItalic /NewCenturySchlbk-Italic /Palatino-Bold
 /Palatino-BoldItalic /Palatino-Italic /Palatino-Roman ] {ISOLatin1Encoding reEncode } forall
%%EndProlog
%%BeginSetup
%%EndSetup
newpath  gsave  .25 .25 scale  gsave  0 0 t black[  ] 0 sd 3 lw 1 1 1 c 2268 2176 0 0 bf black 1 1 1 c black 1769 1697 408 305 bl 1769 1697 408 305 bl 1 1 1 c black 1769 1697 408 305 bl 1769 1697 408 305 bl 0.49 0.6 0.82 c 1 1 1 c 0.49 0.6 0.82 c 408
 1915 m 18 X s 456 1915 m 16 X s /w 30 def /w2 {w 2 div} def /w3 {w 3 div} def 441 1915 m20 472 1878 m 14 X s 517 1878 m 12 X s 501 1878 m20 529 1831 m 12 X s 571 1831 m 10 X s 556 1831 m20 581 1792 m 9 X s 620 1792 m 8 X s 605 1792 m20 628 1760 m 7
 X s 666 1760 m 6 X s 650 1760 m20 672 1730 m 5 X s 707 1730 m 5 X s 692 1730 m20 712 1704 m 4 X s 746 1704 m 3 X s 731 1704 m20 749 1684 m 3 X s 782 1684 m 2 X s 767 1684 m20 784 1670 m 2 X s 816 1670 m 1 X s 801 1670 m20 817 1654 m 1 X s 848 1654 m
 s 833 1654 m20 863 1643 m20 892 1627 m20 919 1614 m20 945 1599 m20 970 1587 m20 993 1576 m20 1016 1566 m20 1038 1556 m20 1058 1543 m20 1079 1535 m20 1098 1524 m20 1117 1516 m20 1135 1507 m20 1152 1498 m20 1169 1493 m20 1186 1486 m20 1202 1477 m20
 1217 1467 m20 1232 1462 m20 1247 1454 m20 1261 1447 m20 1275 1439 m20 1289 1437 m20 1302 1422 m20 1315 1419 m20 1327 1415 m20 1340 1404 m20 1352 1395 m20 1364 1386 m20 1375 1381 m20 1387 1374 m20 1398 1366 m20 1408 1362 m20 1419 1352 m20 1430 1343
 m20 1440 1336 m20 1450 1326 m20 1460 1312 m20 1469 1308 m20 1479 1303 m20 1488 1295 m20 1498 1287 m20 1507 1278 m20 1515 1269 m20 1524 1261 m20 1533 1251 m20 1541 1243 m20 1550 1244 m20 1558 1234 m20 1566 1221 m20 1574 1216 m20 1582 1204 m20 1590
 1197 m20 1597 1187 m20 1605 1173 m20 1612 1170 m20 1620 1160 m20 1627 1151 m20 1634 1148 m20 1641 1140 m20 1648 1123 m20 1655 1110 m20 1662 1094 m20 1668 1088 m20 1675 1091 m20 1682 1082 m20 1688 1067 m20 1694 1069 m20 1701 1072 m20 1707 1067 m20
 1713 1036 m20 1719 1054 m20 1725 1044 m20 1731 1036 m20 1737 1021 m20 1743 1019 m20 1749 1008 m20 1754 1007 m20 1760 1005 m20 1766 1000 m20 1771 985 m20 1777 958 m20 1782 984 m20 1787 965 m20 1793 962 m20 1798 945 m20 1803 945 m20 1808 940 m20 1814
 949 m20 1819 945 m20 1824 933 m20 1829 929 m20 1834 928 m20 1839 927 m20 1843 900 m20 1848 891 m20 1853 907 m20 1858 892 m20 1862 866 m20 1867 842 m20 1872 893 m20 1876 862 m20 1881 851 m20 1885 862 m20 1890 866 m20 1894 842 m20 1898 863 m20 1903
 847 m20 1907 859 m20 1911 836 m20 1916 840 m20 1920 810 m 1 Y s 1920 826 m20 1924 842 m20 1928 814 m s 1928 829 m20 1932 788 m 2 Y s 1932 805 m20 1936 782 m 2 Y s 1936 814 m 1 Y s 1936 799 m20 1940 807 m 1 Y s 1940 823 m20 1944 786 m 2 Y s 1944 818
 m s 1944 803 m20 1948 779 m 3 Y s 1948 812 m 1 Y s 1948 797 m20 1952 807 m 1 Y s 1952 823 m20 1956 761 m 4 Y s 1956 795 m 1 Y s 1956 780 m20 1960 753 m 5 Y s 1960 788 m 2 Y s 1960 773 m20 1964 770 m 4 Y s 1964 804 m 1 Y s 1964 789 m20 1968 758 m 4 Y
 s 1968 793 m 1 Y s 1968 778 m20 1972 766 m 3 Y s 1972 800 m 1 Y s 1972 784 m20 1975 724 m 7 Y s 1975 761 m 4 Y s 1975 746 m20 1979 756 m 4 Y s 1979 790 m 2 Y s 1979 775 m20 1983 745 m 5 Y s 1983 781 m 2 Y s 1983 765 m20 1987 728 m 6 Y s 1987 764 m 3
 Y s 1987 749 m20 1990 718 m 7 Y s 1990 755 m 4 Y s 1990 740 m20 1994 692 m 9 Y s 1994 732 m 5 Y s 1994 717 m20 1998 721 m 7 Y s 1998 758 m 4 Y s 1998 743 m20 2001 753 m 5 Y s 2001 788 m 2 Y s 2001 773 m20 2005 718 m 7 Y s 2005 755 m 4 Y s 2005 740
 m20 2009 700 m 8 Y s 2009 739 m 5 Y s 2009 724 m20 2012 666 m 11 Y s 2012 708 m 7 Y s 2012 693 m20 2016 675 m 11 Y s 2016 716 m 7 Y s 2016 701 m20 2019 688 m 10 Y s 2019 728 m 6 Y s 2019 713 m20 2023 700 m 8 Y s 2023 739 m 5 Y s 2023 724 m20 2026
 707 m 8 Y s 2026 746 m 4 Y s 2026 730 m20 2029 661 m 12 Y s 2029 703 m 8 Y s 2029 688 m20 2033 656 m 12 Y s 2033 699 m 8 Y s 2033 684 m20 2036 684 m 10 Y s 2036 724 m 6 Y s 2036 709 m20 2040 696 m 9 Y s 2040 735 m 6 Y s 2040 720 m20 2043 645 m 14 Y
 s 2043 689 m 9 Y s 2043 674 m20 2046 675 m 11 Y s 2046 716 m 7 Y s 2046 701 m20 2050 645 m 14 Y s 2050 689 m 9 Y s 2050 674 m20 2053 639 m 14 Y s 2053 684 m 9 Y s 2053 669 m20 2056 650 m 14 Y s 2056 694 m 8 Y s 2056 679 m20 2059 614 m 17 Y s 2059
 661 m 11 Y s 2059 646 m20 2063 639 m 14 Y s 2063 684 m 9 Y s 2063 669 m20 2066 666 m 11 Y s 2066 708 m 7 Y s 2066 693 m20 2069 614 m 17 Y s 2069 661 m 11 Y s 2069 646 m20 2072 633 m 15 Y s 2072 679 m 9 Y s 2072 663 m20 2075 633 m 15 Y s 2075 679 m 9
 Y s 2075 663 m20 2079 645 m 14 Y s 2079 689 m 9 Y s 2079 674 m20 2082 675 m 11 Y s 2082 716 m 7 Y s 2082 701 m20 2085 599 m 19 Y s 2085 648 m 13 Y s 2085 633 m20 2088 599 m 19 Y s 2088 648 m 13 Y s 2088 633 m20 2091 573 m 23 Y s 2091 626 m 15 Y s
 2091 611 m20 2094 591 m 20 Y s 2094 641 m 13 Y s 2094 626 m20 2097 627 m 16 Y s 2097 673 m 10 Y s 2097 658 m20 2100 518 m 31 Y s 2100 579 m 19 Y s 2100 564 m20 2103 518 m 31 Y s 2103 579 m 19 Y s 2103 564 m20 2106 633 m 15 Y s 2106 679 m 9 Y s 2106
 663 m20 2109 543 m 27 Y s 2109 600 m 17 Y s 2109 585 m20 2112 470 m 40 Y s 2112 540 m 24 Y s 2112 525 m20 2115 564 m 24 Y s 2115 618 m 15 Y s 2115 603 m20 2118 518 m 31 Y s 2118 579 m 19 Y s 2118 564 m20 2121 591 m 20 Y s 2121 641 m 13 Y s 2121 626
 m20 2124 582 m 22 Y s 2124 634 m 14 Y s 2124 619 m20 2126 518 m 31 Y s 2126 579 m 19 Y s 2126 564 m20 2129 573 m 23 Y s 2129 626 m 15 Y s 2129 611 m20 2132 645 m 14 Y s 2132 689 m 9 Y s 2132 674 m20 2135 450 m 44 Y s 2135 524 m 26 Y s 2135 509 m20
 2138 543 m 27 Y s 2138 600 m 17 Y s 2138 585 m20 2141 582 m 22 Y s 2141 634 m 14 Y s 2141 619 m20 2143 426 m 50 Y s 2143 506 m 28 Y s 2143 491 m20 2146 470 m 40 Y s 2146 540 m 24 Y s 2146 525 m20 2149 426 m 50 Y s 2149 506 m 28 Y s 2149 491 m20 2152
 503 m 34 Y s 2152 567 m 21 Y s 2152 552 m20 2154 488 m 36 Y s 2154 554 m 22 Y s 2154 539 m20 2157 503 m 34 Y s 2157 567 m 21 Y s 2157 552 m20 2160 543 m 27 Y s 2160 600 m 17 Y s 2160 585 m20 2162 518 m 31 Y s 2162 579 m 19 Y s 2162 564 m20 2165 531
 m 28 Y s 2165 590 m 18 Y s 2165 575 m20 2168 518 m 31 Y s 2168 579 m 19 Y s 2168 564 m20 2170 399 m 56 Y s 2170 485 m 31 Y s 2170 470 m20 2173 450 m 44 Y s 2173 524 m 26 Y s 2173 509 m20 2176 426 m 50 Y s 2176 506 m 28 Y s 2176 491 m20 black 408 305
 m 1769 X s 507 330 m -25 Y s 591 330 m -25 Y s 663 330 m -25 Y s 727 330 m -25 Y s 784 356 m -51 Y s
 gsave  2268 2176 0 0 C 726.735 167.415 t 0 r /Helvetica findfont 102.732 sf 0 0 m (10) show NC gr  1161 330 m -25 Y s 1381 330 m -25 Y s 1537 330 m -25 Y s 1658 330 m -25 Y s 1757 330 m -25 Y s 1841 330 m -25 Y s 1913 330 m -25 Y s 1977 330 m -25 Y
 s 2035 356 m -51 Y s
 gsave  2268 2176 0 0 C 2066.06 213.074 t 0 r /Helvetica findfont 68.4881 sf 0 0 m (2) show NC gr 
 gsave  2268 2176 0 0 C 1955.72 167.415 t 0 r /Helvetica findfont 102.732 sf 0 0 m (10) show NC gr 
 gsave  2268 2176 0 0 C 1837.76 60.8783 t 0 r /Helvetica findfont 121.757 sf 0 0 m ( [GeV]) show NC gr 
 gsave  2268 2176 0 0 C 1788.3 -3.80489 t 0 r /Helvetica findfont 79.9028 sf 0 0 m (T) show NC gr 
 gsave  2268 2176 0 0 C 1240.4 60.8783 t 0 r /Helvetica findfont 121.757 sf 0 0 m (Electron p) show NC gr  408 2002 m 1769 X s 507 1977 m 25 Y s 591 1977 m 25 Y s 663 1977 m 25 Y s 727 1977 m 25 Y s 784 1951 m 51 Y s 1161 1977 m 25 Y s 1381 1977 m 25
 Y s 1537 1977 m 25 Y s 1658 1977 m 25 Y s 1757 1977 m 25 Y s 1841 1977 m 25 Y s 1913 1977 m 25 Y s 1977 1977 m 25 Y s 2035 1951 m 51 Y s 408 305 m 1697 Y s 435 317 m -27 X s 435 347 m -27 X s 435 372 m -27 X s 435 393 m -27 X s 435 411 m -27 X s 435
 427 m -27 X s 461 441 m -53 X s
 gsave  2268 2176 0 0 C 342.44 441.368 t 0 r /Helvetica findfont 68.4881 sf 0 0 m (7) show NC gr 
 gsave  2268 2176 0 0 C 304.391 441.368 t 0 r /Symbol findfont 68.4881 sf 0 0 m (-) show NC gr 
 gsave  2268 2176 0 0 C 194.05 395.709 t 0 r /Helvetica findfont 102.732 sf 0 0 m (10) show NC gr  435 535 m -27 X s 435 590 m -27 X s 435 629 m -27 X s 435 660 m -27 X s 435 684 m -27 X s 435 705 m -27 X s 435 723 m -27 X s 435 739 m -27 X s 461 754
 m -53 X s
 gsave  2268 2176 0 0 C 342.44 757.174 t 0 r /Helvetica findfont 68.4881 sf 0 0 m (6) show NC gr 
 gsave  2268 2176 0 0 C 304.391 757.174 t 0 r /Symbol findfont 68.4881 sf 0 0 m (-) show NC gr 
 gsave  2268 2176 0 0 C 194.05 707.71 t 0 r /Helvetica findfont 102.732 sf 0 0 m (10) show NC gr  435 848 m -27 X s 435 903 m -27 X s 435 942 m -27 X s 435 972 m -27 X s 435 997 m -27 X s 435 1018 m -27 X s 435 1036 m -27 X s 435 1052 m -27 X s 461
 1066 m -53 X s
 gsave  2268 2176 0 0 C 342.44 1069.18 t 0 r /Helvetica findfont 68.4881 sf 0 0 m (5) show NC gr 
 gsave  2268 2176 0 0 C 304.391 1069.18 t 0 r /Symbol findfont 68.4881 sf 0 0 m (-) show NC gr 
 gsave  2268 2176 0 0 C 194.05 1019.71 t 0 r /Helvetica findfont 102.732 sf 0 0 m (10) show NC gr  435 1160 m -27 X s 435 1215 m -27 X s 435 1254 m -27 X s 435 1284 m -27 X s 435 1309 m -27 X s 435 1330 m -27 X s 435 1348 m -27 X s 435 1364 m -27 X s
 461 1378 m -53 X s
 gsave  2268 2176 0 0 C 342.44 1377.37 t 0 r /Helvetica findfont 68.4881 sf 0 0 m (4) show NC gr 
 gsave  2268 2176 0 0 C 304.391 1377.37 t 0 r /Symbol findfont 68.4881 sf 0 0 m (-) show NC gr 
 gsave  2268 2176 0 0 C 194.05 1331.71 t 0 r /Helvetica findfont 102.732 sf 0 0 m (10) show NC gr  435 1472 m -27 X s 435 1527 m -27 X s 435 1566 m -27 X s 435 1597 m -27 X s 435 1621 m -27 X s 435 1642 m -27 X s 435 1660 m -27 X s 435 1676 m -27 X s
 461 1691 m -53 X s
 gsave  2268 2176 0 0 C 342.44 1693.18 t 0 r /Helvetica findfont 68.4881 sf 0 0 m (3) show NC gr 
 gsave  2268 2176 0 0 C 304.391 1693.18 t 0 r /Symbol findfont 68.4881 sf 0 0 m (-) show NC gr 
 gsave  2268 2176 0 0 C 194.05 1643.71 t 0 r /Helvetica findfont 102.732 sf 0 0 m (10) show NC gr  435 1785 m -27 X s 435 1840 m -27 X s 435 1879 m -27 X s 435 1909 m -27 X s 435 1934 m -27 X s 435 1954 m -27 X s 435 1973 m -27 X s 435 1989 m -27 X s
 gsave  2268 2176 0 0 C 156.001 620.198 t 90 r /Helvetica findfont 121.757 sf 0 0 m (DY+Jets Fakes per Event) show NC gr  2177 305 m 1697 Y s 2150 317 m 27 X s 2150 347 m 27 X s 2150 372 m 27 X s 2150 393 m 27 X s 2150 411 m 27 X s 2150 427 m 27 X s
 2124 441 m 53 X s 2150 535 m 27 X s 2150 590 m 27 X s 2150 629 m 27 X s 2150 660 m 27 X s 2150 684 m 27 X s 2150 705 m 27 X s 2150 723 m 27 X s 2150 739 m 27 X s 2124 754 m 53 X s 2150 848 m 27 X s 2150 903 m 27 X s 2150 942 m 27 X s 2150 972 m 27 X
 s 2150 997 m 27 X s 2150 1018 m 27 X s 2150 1036 m 27 X s 2150 1052 m 27 X s 2124 1066 m 53 X s 2150 1160 m 27 X s 2150 1215 m 27 X s 2150 1254 m 27 X s 2150 1284 m 27 X s 2150 1309 m 27 X s 2150 1330 m 27 X s 2150 1348 m 27 X s 2150 1364 m 27 X s
 2124 1378 m 53 X s 2150 1472 m 27 X s 2150 1527 m 27 X s 2150 1566 m 27 X s 2150 1597 m 27 X s 2150 1621 m 27 X s 2150 1642 m 27 X s 2150 1660 m 27 X s 2150 1676 m 27 X s 2124 1691 m 53 X s 2150 1785 m 27 X s 2150 1840 m 27 X s 2150 1879 m 27 X s
 2150 1909 m 27 X s 2150 1934 m 27 X s 2150 1954 m 27 X s 2150 1973 m 27 X s 2150 1989 m 27 X s 0.49 0.6 0.82 c 1 1 1 c 0.49 0.6 0.82 c 408 1917 m 18 X s 456 1917 m 16 X s 441 1917 m24 472 1871 m 14 X s 517 1871 m 12 X s 501 1871 m24 529 1817 m 12 X
 s 571 1817 m 10 X s 556 1817 m24 581 1777 m 9 X s 620 1777 m 8 X s 605 1777 m24 628 1741 m 7 X s 666 1741 m 6 X s 650 1741 m24 672 1712 m 5 X s 707 1712 m 5 X s 692 1712 m24 712 1689 m 4 X s 746 1689 m 3 X s 731 1689 m24 749 1672 m 3 X s 782 1672 m
 2 X s 767 1672 m24 784 1660 m 2 X s 816 1660 m 1 X s 801 1660 m24 817 1642 m 1 X s 848 1642 m s 833 1642 m24 863 1627 m24 892 1613 m24 919 1601 m24 945 1587 m24 970 1572 m24 993 1562 m24 1016 1552 m24 1038 1541 m24 1058 1531 m24 1079 1526 m24 1098
 1513 m24 1117 1502 m24 1135 1492 m24 1152 1490 m24 1169 1476 m24 1186 1468 m24 1202 1462 m24 1217 1455 m24 1232 1448 m24 1247 1443 m24 1261 1429 m24 1275 1428 m24 1289 1419 m24 1302 1408 m24 1315 1405 m24 1327 1399 m24 1340 1394 m24 1352 1386 m24
 1364 1371 m24 1375 1372 m24 1387 1367 m24 1398 1352 m24 1408 1344 m24 1419 1336 m24 1430 1331 m24 1440 1322 m24 1450 1320 m24 1460 1308 m24 1469 1301 m24 1479 1288 m24 1488 1287 m24 1498 1282 m24 1507 1271 m24 1515 1265 m24 1524 1261 m24 1533 1244
 m24 1541 1233 m24 1550 1232 m24 1558 1216 m24 1566 1211 m24 1574 1195 m24 1582 1184 m24 1590 1178 m24 1597 1182 m24 1605 1165 m24 1612 1164 m24 1620 1149 m24 1627 1156 m24 1634 1133 m24 1641 1148 m24 1648 1134 m24 1655 1117 m24 1662 1118 m24 1668
 1117 m24 1675 1103 m24 1682 1095 m24 1688 1087 m24 1694 1087 m24 1701 1078 m24 1707 1065 m24 1713 1072 m24 1719 1055 m24 1725 1037 m24 1731 1048 m24 1737 1045 m24 1743 1033 m24 1749 995 m24 1754 1009 m24 1760 1021 m24 1766 999 m24 1771 1002 m24 1777
 974 m24 1782 998 m24 1787 967 m24 1793 994 m24 1798 980 m24 1803 950 m24 1808 941 m24 1814 960 m24 1819 953 m24 1824 906 m 1 Y s 1824 922 m24 1829 966 m24 1834 948 m24 1839 954 m24 1843 897 m 1 Y s 1843 914 m24 1848 936 m24 1853 915 m s 1853 930 m24
 1858 886 m 1 Y s 1858 903 m24 1862 952 m24 1867 905 m s 1867 921 m24 1872 856 m 4 Y s 1872 890 m 2 Y s 1872 875 m24 1876 875 m 3 Y s 1876 908 m 1 Y s 1876 893 m24 1881 873 m 3 Y s 1881 906 m 1 Y s 1881 891 m24 1885 851 m 4 Y s 1885 886 m 2 Y s 1885
 871 m24 1890 893 m 2 Y s 1890 910 m24 1894 854 m 4 Y s 1894 888 m 2 Y s 1894 873 m24 1898 854 m 4 Y s 1898 888 m 2 Y s 1898 873 m24 1903 884 m 2 Y s 1903 916 m s 1903 901 m24 1907 877 m 3 Y s 1907 910 m s 1907 895 m24 1911 856 m 4 Y s 1911 890 m 2 Y
 s 1911 875 m24 1916 892 m 1 Y s 1916 908 m24 1920 871 m 2 Y s 1920 904 m 1 Y s 1920 889 m24 1924 856 m 4 Y s 1924 890 m 2 Y s 1924 875 m24 1928 840 m 5 Y s 1928 876 m 2 Y s 1928 860 m24 1932 837 m 6 Y s 1932 873 m 3 Y s 1932 858 m24 1936 854 m 4 Y s
 1936 888 m 2 Y s 1936 873 m24 1940 840 m 5 Y s 1940 876 m 2 Y s 1940 860 m24 1944 812 m 7 Y s 1944 850 m 4 Y s 1944 835 m24 1948 805 m 8 Y s 1948 843 m 5 Y s 1948 828 m24 1952 805 m 8 Y s 1952 843 m 5 Y s 1952 828 m24 1956 798 m 8 Y s 1956 837 m 5 Y
 s 1956 821 m24 1960 856 m 4 Y s 1960 890 m 2 Y s 1960 875 m24 1964 805 m 8 Y s 1964 843 m 5 Y s 1964 828 m24 1968 834 m 6 Y s 1968 870 m 3 Y s 1968 855 m24 1972 828 m 6 Y s 1972 865 m 3 Y s 1972 850 m24 1975 805 m 8 Y s 1975 843 m 5 Y s 1975 828 m24
 1979 786 m 9 Y s 1979 826 m 5 Y s 1979 811 m24 1983 805 m 8 Y s 1983 843 m 5 Y s 1983 828 m24 1987 802 m 8 Y s 1987 840 m 5 Y s 1987 825 m24 1990 782 m 10 Y s 1990 822 m 6 Y s 1990 807 m24 1994 831 m 6 Y s 1994 868 m 3 Y s 1994 852 m24 1998 748 m 13
 Y s 1998 792 m 8 Y s 1998 777 m24 2001 748 m 13 Y s 2001 792 m 8 Y s 2001 777 m24 2005 798 m 8 Y s 2005 837 m 5 Y s 2005 821 m24 2009 748 m 13 Y s 2009 792 m 8 Y s 2009 777 m24 2012 748 m 13 Y s 2012 792 m 8 Y s 2012 777 m24 2016 753 m 13 Y s 2016
 796 m 8 Y s 2016 781 m24 2019 777 m 11 Y s 2019 818 m 6 Y s 2019 803 m24 2023 777 m 11 Y s 2023 818 m 6 Y s 2023 803 m24 2026 711 m 18 Y s 2026 759 m 11 Y s 2026 744 m24 2029 737 m 14 Y s 2029 782 m 9 Y s 2029 766 m24 2033 725 m 15 Y s 2033 771 m 10
 Y s 2033 756 m24 2036 731 m 15 Y s 2036 776 m 10 Y s 2036 761 m24 2040 689 m 20 Y s 2040 739 m 13 Y s 2040 724 m24 2043 725 m 15 Y s 2043 771 m 10 Y s 2043 756 m24 2046 773 m 11 Y s 2046 814 m 7 Y s 2046 799 m24 2050 680 m 21 Y s 2050 732 m 13 Y s
 2050 717 m24 2053 737 m 14 Y s 2053 782 m 9 Y s 2053 766 m24 2056 731 m 15 Y s 2056 776 m 10 Y s 2056 761 m24 2059 711 m 18 Y s 2059 759 m 11 Y s 2059 744 m24 2063 718 m 17 Y s 2063 765 m 11 Y s 2063 750 m24 2066 697 m 19 Y s 2066 746 m 12 Y s 2066
 731 m24 2069 697 m 19 Y s 2069 746 m 12 Y s 2069 731 m24 2072 711 m 18 Y s 2072 759 m 11 Y s 2072 744 m24 2075 704 m 18 Y s 2075 753 m 11 Y s 2075 737 m24 2079 718 m 17 Y s 2079 765 m 11 Y s 2079 750 m24 2082 628 m 29 Y s 2082 688 m 18 Y s 2082 672
 m24 2085 743 m 13 Y s 2085 787 m 8 Y s 2085 772 m24 2088 711 m 18 Y s 2088 759 m 11 Y s 2088 744 m24 2091 718 m 17 Y s 2091 765 m 11 Y s 2091 750 m24 2094 671 m 23 Y s 2094 724 m 14 Y s 2094 709 m24 2097 697 m 19 Y s 2097 746 m 12 Y s 2097 731 m24
 2100 651 m 26 Y s 2100 707 m 16 Y s 2100 692 m24 2103 651 m 26 Y s 2103 707 m 16 Y s 2103 692 m24 2106 697 m 19 Y s 2106 746 m 12 Y s 2106 731 m24 2109 680 m 21 Y s 2109 732 m 13 Y s 2109 717 m24 2112 662 m 23 Y s 2112 716 m 15 Y s 2112 701 m24 2115
 628 m 29 Y s 2115 688 m 18 Y s 2115 672 m24 2118 711 m 18 Y s 2118 759 m 11 Y s 2118 744 m24 2121 547 m 44 Y s 2121 622 m 26 Y s 2121 607 m24 2124 628 m 29 Y s 2124 688 m 18 Y s 2124 672 m24 2126 628 m 29 Y s 2126 688 m 18 Y s 2126 672 m24 2129 601
 m 34 Y s 2129 665 m 21 Y s 2129 650 m24 2132 640 m 27 Y s 2132 698 m 17 Y s 2132 683 m24 2135 689 m 20 Y s 2135 739 m 13 Y s 2135 724 m24 2138 568 m 39 Y s 2138 638 m 24 Y s 2138 623 m24 2141 601 m 34 Y s 2141 665 m 21 Y s 2141 650 m24 2143 601 m 34
 Y s 2143 665 m 21 Y s 2143 650 m24 2146 547 m 44 Y s 2146 622 m 26 Y s 2146 607 m24 2149 524 m 49 Y s 2149 604 m 28 Y s 2149 589 m24 2152 568 m 39 Y s 2152 638 m 24 Y s 2152 623 m24 2154 585 m 37 Y s 2154 652 m 22 Y s 2154 637 m24 2157 601 m 34 Y s
 2157 665 m 21 Y s 2157 650 m24 2160 568 m 39 Y s 2160 638 m 24 Y s 2160 623 m24 2162 524 m 49 Y s 2162 604 m 28 Y s 2162 589 m24 2165 628 m 29 Y s 2165 688 m 18 Y s 2165 672 m24 2168 628 m 29 Y s 2168 688 m 18 Y s 2168 672 m24 2170 640 m 27 Y s 2170
 698 m 17 Y s 2170 683 m24 2173 615 m 31 Y s 2173 677 m 19 Y s 2173 662 m24 2176 651 m 26 Y s 2176 707 m 16 Y s 2176 692 m24 black 1 1 1 c 635 392 476 435 bf black
 gsave  2268 2176 0 0 C 631.612 688.686 t 0 r /Helvetica findfont 102.732 sf 0 0 m (2017 Endcap tracker driven) show NC gr  0.49 0.6 0.82 c 556 744 m 44 Y s 556 714 m -44 Y s 556 729 m20 black
 gsave  2268 2176 0 0 C 631.612 490.831 t 0 r /Helvetica findfont 102.732 sf 0 0 m (2017 \(Legacy\) Endcap tracker driven) show NC gr  0.49 0.6 0.82 c 556 548 m 44 Y s 556 518 m -44 Y s 556 533 m24 black
 gsave  2268 2176 0 0 C 1769.28 2039.42 t 0 r /Helvetica findfont 106.537 sf 0 0 m (\(13 TeV\)) show NC gr 
 gsave  2268 2176 0 0 C 408.189 2037.11 t 0 r /Helvetica-Bold findfont 129.366 sf 0 0 m (CMS) show NC gr 
 gsave  2268 2176 0 0 C 487.026 2039.42 t 0 r /Helvetica-Oblique findfont 98.9272 sf 0 0 m (        Simulation) show NC gr  408 305 m 1769 X s 507 330 m -25 Y s 591 330 m -25 Y s 663 330 m -25 Y s 727 330 m -25 Y s 784 356 m -51 Y s 1161 330 m -25 Y
 s 1381 330 m -25 Y s 1537 330 m -25 Y s 1658 330 m -25 Y s 1757 330 m -25 Y s 1841 330 m -25 Y s 1913 330 m -25 Y s 1977 330 m -25 Y s 2035 356 m -51 Y s 408 2002 m 1769 X s 507 1977 m 25 Y s 591 1977 m 25 Y s 663 1977 m 25 Y s 727 1977 m 25 Y s 784
 1951 m 51 Y s 1161 1977 m 25 Y s 1381 1977 m 25 Y s 1537 1977 m 25 Y s 1658 1977 m 25 Y s 1757 1977 m 25 Y s 1841 1977 m 25 Y s 1913 1977 m 25 Y s 1977 1977 m 25 Y s 2035 1951 m 51 Y s 408 305 m 1697 Y s 435 317 m -27 X s 435 347 m -27 X s 435 372 m
 -27 X s 435 393 m -27 X s 435 411 m -27 X s 435 427 m -27 X s 461 441 m -53 X s 435 535 m -27 X s 435 590 m -27 X s 435 629 m -27 X s 435 660 m -27 X s 435 684 m -27 X s 435 705 m -27 X s 435 723 m -27 X s 435 739 m -27 X s 461 754 m -53 X s 435 848
 m -27 X s 435 903 m -27 X s 435 942 m -27 X s 435 972 m -27 X s 435 997 m -27 X s 435 1018 m -27 X s 435 1036 m -27 X s 435 1052 m -27 X s 461 1066 m -53 X s 435 1160 m -27 X s 435 1215 m -27 X s 435 1254 m -27 X s 435 1284 m -27 X s 435 1309 m -27
 X s 435 1330 m -27 X s 435 1348 m -27 X s 435 1364 m -27 X s 461 1378 m -53 X s 435 1472 m -27 X s 435 1527 m -27 X s 435 1566 m -27 X s 435 1597 m -27 X s 435 1621 m -27 X s 435 1642 m -27 X s 435 1660 m -27 X s 435 1676 m -27 X s 461 1691 m -53 X
 s 435 1785 m -27 X s 435 1840 m -27 X s 435 1879 m -27 X s 435 1909 m -27 X s 435 1934 m -27 X s 435 1954 m -27 X s 435 1973 m -27 X s 435 1989 m -27 X s 2177 305 m 1697 Y s 2150 317 m 27 X s 2150 347 m 27 X s 2150 372 m 27 X s 2150 393 m 27 X s
 2150 411 m 27 X s 2150 427 m 27 X s 2124 441 m 53 X s 2150 535 m 27 X s 2150 590 m 27 X s 2150 629 m 27 X s 2150 660 m 27 X s 2150 684 m 27 X s 2150 705 m 27 X s 2150 723 m 27 X s 2150 739 m 27 X s 2124 754 m 53 X s 2150 848 m 27 X s 2150 903 m 27 X
 s 2150 942 m 27 X s 2150 972 m 27 X s 2150 997 m 27 X s 2150 1018 m 27 X s 2150 1036 m 27 X s 2150 1052 m 27 X s 2124 1066 m 53 X s 2150 1160 m 27 X s 2150 1215 m 27 X s 2150 1254 m 27 X s 2150 1284 m 27 X s 2150 1309 m 27 X s 2150 1330 m 27 X s
 2150 1348 m 27 X s 2150 1364 m 27 X s 2124 1378 m 53 X s 2150 1472 m 27 X s 2150 1527 m 27 X s 2150 1566 m 27 X s 2150 1597 m 27 X s 2150 1621 m 27 X s 2150 1642 m 27 X s 2150 1660 m 27 X s 2150 1676 m 27 X s 2124 1691 m 53 X s 2150 1785 m 27 X s
 2150 1840 m 27 X s 2150 1879 m 27 X s 2150 1909 m 27 X s 2150 1934 m 27 X s 2150 1954 m 27 X s 2150 1973 m 27 X s 2150 1989 m 27 X s 1 1 1 c black 1769 1697 408 305 bl 1769 1697 408 305 bl
 gr  gr showpage
end
%%EOF
