%!PS-Adobe-2.0 EPSF-2.0
%%BoundingBox:  0 0 567 544
%%Title: plots/n_fakes_vs_ele_pt_only2017.eps: n_fakes_vs_ele_pt_only2017
%%Creator: ROOT Version 6.14/04
%%CreationDate: Tue Aug  4 10:14:26 2020
%%DocumentNeededResources: ProcSet (FontSetInit)
%%EndComments
%%BeginProlog
80 dict begin
/s {stroke} def /l {lineto} def /m {moveto} def /t {translate} def
/r {rotate} def /rl {roll}  def /R {repeat} def
/d {rlineto} def /rm {rmoveto} def /gr {grestore} def /f {eofill} def
/c {setrgbcolor} def /black {0 setgray} def /sd {setdash} def
/cl {closepath} def /sf {scalefont setfont} def /lw {setlinewidth} def
/box {m dup 0 exch d exch 0 d 0 exch neg d cl} def
/NC{systemdict begin initclip end}def/C{NC box clip newpath}def
/bl {box s} def /bf {gsave box gsave f grestore 1 lw [] 0 sd s grestore} def /Y { 0 exch d} def /X { 0 d} def 
/K {{pop pop 0 moveto} exch kshow} bind def
/ita {/ang 15 def gsave [1 0 ang dup sin exch cos div 1 0 0] concat} def 
/mp {newpath /y exch def /x exch def} def
/side {[w .77 mul w .23 mul] .385 w mul sd w 0 l currentpoint t -144 r} def
/mr {mp x y w2 0 360 arc} def /m24 {mr s} def /m20 {mr f} def
/mb {mp x y w2 add m w2 neg 0 d 0 w neg d w 0 d 0 w d cl} def
/mt {mp x y w2 add m w2 neg w neg d w 0 d cl} def
/w4 {w 4 div} def
/w6 {w 6 div} def
/w8 {w 8 div} def
/m21 {mb f} def /m25 {mb s} def /m22 {mt f} def /m26{mt s} def
/m23 {mp x y w2 sub m w2 w d w neg 0 d cl f} def
/m27 {mp x y w2 add m w3 neg w2 neg d w3 w2 neg d w3 w2 d cl s} def
/m28 {mp x w2 sub y w2 sub w3 add m w3 0 d  0 w3 neg d w3 0 d 0 w3 d w3 0 d  0 w3 d w3 neg 0 d 0 w3 d w3 neg 0 d 0 w3 neg d w3 neg 0 d cl s } def
/m29 {mp gsave x w2 sub y w2 add w3 sub m currentpoint t 4 {side} repeat cl fill gr} def
/m30 {mp gsave x w2 sub y w2 add w3 sub m currentpoint t 4 {side} repeat cl s gr} def
/m31 {mp x y w2 sub m 0 w d x w2 sub y m w 0 d x w2 sub y w2 add m w w neg d x w2 sub y w2 sub m w w d s} def
/m32 {mp x y w2 sub m w2 w d w neg 0 d cl s} def
/m33 {mp x y w2 add m w3 neg w2 neg d w3 w2 neg d w3 w2 d cl f} def
/m34 {mp x w2 sub y w2 sub w3 add m w3 0 d  0 w3 neg d w3 0 d 0 w3 d w3 0 d  0 w3 d w3 neg 0 d 0 w3 d w3 neg 0 d 0 w3 neg d w3 neg 0 d cl f } def
/m35 {mp x y w2 add m w2 neg w2 neg d w2 w2 neg d w2 w2 d w2 neg w2 d x y w2 sub m 0 w d x w2 sub y m w 0 d s} def
/m36 {mb x w2 sub y w2 add m w w neg d x w2 sub y w2 sub m w w d s} def
/m37 {mp x y m w4 neg w2 d w4 neg w2 neg d w2 0 d  w4 neg w2 neg d w2 0 d w4 neg w2 d w2 0 d w4 neg w2 d w4 neg w2 neg d cl s} def
/m38 {mp x w4 sub y w2 add m w4 neg w4 neg d 0 w2 neg d w4 w4 neg d w2 0 d w4 w4 d 0 w2 d w4 neg w4 d w2 neg 0 d x y w2 sub m 0 w d x w2 sub y m w 0 d cl s} def
/m39 {mp x y m w4 neg w2 d w4 neg w2 neg d w2 0 d  w4 neg w2 neg d w2 0 d w4 neg w2 d w2 0 d w4 neg w2 d w4 neg w2 neg d cl f} def
/m40 {mp x y m w4 w2 d w4 w4 neg d w2 neg w4 neg d w2 w4 neg d w4 neg w4 neg d w4 neg w2 d w4 neg w2 neg d w4 neg w4 d w2 w4 d w2 neg w4 d w4 w4 d w4 w2 neg d cl s} def
/m41 {mp x y m w4 w2 d w4 w4 neg d w2 neg w4 neg d w2 w4 neg d w4 neg w4 neg d w4 neg w2 d w4 neg w2 neg d w4 neg w4 d w2 w4 d w2 neg w4 d w4 w4 d w4 w2 neg d cl f} def
/m42 {mp x y w2 add m w8 neg w2 -3 4 div mul d w2 -3 4 div mul w8 neg d w2 3 4 div mul w8 neg d w8 w2 -3 4 div mul d w8 w2 3 4 div mul d w2 3 4 div mul w8 d w2 -3 4 div mul w8 d w8 neg w2 3 4 div mul d cl s} def
/m43 {mp x y w2 add m w8 neg w2 -3 4 div mul d w2 -3 4 div mul w8 neg d w2 3 4 div mul w8 neg d w8 w2 -3 4 div mul d w8 w2 3 4 div mul d w2 3 4 div mul w8 d w2 -3 4 div mul w8 d w8 neg w2 3 4 div mul d cl f} def
/m44 {mp x y m w6 neg w2 d w2 2 3 div mul 0 d w6 neg w2 neg d w2 w6 d 0 w2 -2 3 div mul d w2 neg w6 d w6 w2 neg d w2 -2 3 div mul 0 d w6 w2 d w2 neg w6 neg d 0 w2 2 3 div mul d w2 w6 neg d cl s} def
/m45 {mp x y m w6 neg w2 d w2 2 3 div mul 0 d w6 neg w2 neg d w2 w6 d 0 w2 -2 3 div mul d w2 neg w6 d w6 w2 neg d w2 -2 3 div mul 0 d w6 w2 d w2 neg w6 neg d 0 w2 2 3 div mul d w2 w6 neg d cl f} def
/m46 {mp x y w4 add m w4 neg w4 d w4 neg w4 neg d  w4 w4 neg d w4 neg w4 neg d w4 w4 neg d w4 w4 d w4 w4 neg d w4 w4 d w4 neg w4 d w4 w4 d w4 neg w4 d w4 neg w4 neg d cl s} def
/m47 {mp x y w4 add m w4 neg w4 d w4 neg w4 neg d w4 w4 neg d w4 neg w4 neg d  w4 w4 neg d w4 w4 d w4 w4 neg d w4 w4 d w4 neg w4 d w4 w4 d w4 neg w4 d w4 neg w4 neg d cl f} def
/m48 {mp x y w4 add m w4 neg w4 d w4 neg w4 neg d w4 w4 neg d  w4 neg w4 neg d w4 w4 neg d w4 w4 d w4 w4 neg d w4 w4 d w4 neg w4 d w4 w4 d w4 neg w4 d w4 neg w4 neg d  w4 w4 neg d w4 neg w4 neg d w4 neg w4 d w4 w4 d cl f} def
/m49 {mp x w2 sub w3 add y w2 sub w3 add m  0 w3 neg d w3 0 d 0 w3 d w3 0 d 0 w3 d w3 neg 0 d 0 w3 d w3 neg 0 d 0 w3 neg d w3 neg 0 d 0 w3 neg d w3 0 d 0 w3 d w3 0 d 0 w3 neg d w3 neg 0 d cl f } def
/m2 {mp x y w2 sub m 0 w d x w2 sub y m w 0 d s} def
/m5 {mp x w2 sub y w2 sub m w w d x w2 sub y w2 add m w w neg d s} def
%%IncludeResource: ProcSet (FontSetInit)
%%IncludeResource: font Times-Roman
%%IncludeResource: font Times-Italic
%%IncludeResource: font Times-Bold
%%IncludeResource: font Times-BoldItalic
%%IncludeResource: font Helvetica
%%IncludeResource: font Helvetica-Oblique
%%IncludeResource: font Helvetica-Bold
%%IncludeResource: font Helvetica-BoldOblique
%%IncludeResource: font Courier
%%IncludeResource: font Courier-Oblique
%%IncludeResource: font Courier-Bold
%%IncludeResource: font Courier-BoldOblique
%%IncludeResource: font Symbol
%%IncludeResource: font ZapfDingbats
/reEncode {exch findfont dup length dict begin {1 index /FID eq  {pop pop} {def} ifelse } forall /Encoding exch def currentdict end dup /FontName get exch definefont pop } def [/Times-Bold /Times-Italic /Times-BoldItalic /Helvetica /Helvetica-Oblique
 /Helvetica-Bold /Helvetica-BoldOblique /Courier /Courier-Oblique /Courier-Bold /Courier-BoldOblique /Times-Roman /AvantGarde-Book /AvantGarde-BookOblique /AvantGarde-Demi /AvantGarde-DemiOblique /Bookman-Demi /Bookman-DemiItalic /Bookman-Light
 /Bookman-LightItalic /Helvetica-Narrow /Helvetica-Narrow-Bold /Helvetica-Narrow-BoldOblique /Helvetica-Narrow-Oblique /NewCenturySchlbk-Roman /NewCenturySchlbk-Bold /NewCenturySchlbk-BoldItalic /NewCenturySchlbk-Italic /Palatino-Bold
 /Palatino-BoldItalic /Palatino-Italic /Palatino-Roman ] {ISOLatin1Encoding reEncode } forall
%%EndProlog
%%BeginSetup
%%EndSetup
newpath  gsave  .25 .25 scale  gsave  0 0 t black[  ] 0 sd 3 lw 1 1 1 c 2268 2176 0 0 bf black 1 1 1 c black 1769 1697 408 305 bl 1769 1697 408 305 bl 1 1 1 c black 1769 1697 408 305 bl 1769 1697 408 305 bl 0.49 0.6 0.82 c 1 1 1 c 0.49 0.6 0.82 c 408
 1902 m 18 X s 456 1902 m 16 X s /w 30 def /w2 {w 2 div} def /w3 {w 3 div} def 441 1902 m20 472 1869 m 14 X s 517 1869 m 12 X s 501 1869 m20 529 1834 m 12 X s 571 1834 m 10 X s 556 1834 m20 581 1797 m 9 X s 620 1797 m 8 X s 605 1797 m20 628 1763 m 7
 X s 666 1763 m 6 X s 650 1763 m20 672 1731 m 5 X s 707 1731 m 5 X s 692 1731 m20 712 1701 m 4 X s 746 1701 m 3 X s 731 1701 m20 749 1676 m 3 X s 782 1676 m 2 X s 767 1676 m20 784 1656 m 2 X s 816 1656 m 1 X s 801 1656 m20 817 1636 m 1 X s 848 1636 m
 s 833 1636 m20 863 1617 m20 892 1599 m20 919 1583 m20 945 1567 m20 970 1554 m20 993 1540 m20 1016 1529 m20 1038 1517 m20 1058 1505 m20 1079 1495 m20 1098 1484 m20 1117 1476 m20 1135 1466 m20 1152 1457 m20 1169 1448 m20 1186 1441 m20 1202 1432 m20
 1217 1425 m20 1232 1416 m20 1247 1408 m20 1261 1400 m20 1275 1393 m20 1289 1386 m20 1302 1376 m20 1315 1369 m20 1327 1361 m20 1340 1353 m20 1352 1343 m20 1364 1335 m20 1375 1326 m20 1387 1316 m20 1398 1309 m20 1408 1303 m20 1419 1295 m20 1430 1284
 m20 1440 1275 m20 1450 1267 m20 1460 1256 m20 1469 1246 m20 1479 1240 m20 1488 1229 m20 1498 1220 m20 1507 1211 m20 1515 1200 m20 1524 1193 m20 1533 1184 m20 1541 1171 m20 1550 1164 m20 1558 1154 m20 1566 1143 m20 1574 1135 m20 1582 1124 m20 1590
 1114 m20 1597 1103 m20 1605 1090 m20 1612 1080 m20 1620 1069 m20 1627 1055 m20 1634 1048 m20 1641 1029 m20 1648 1020 m20 1655 1006 m20 1662 995 m20 1668 987 m20 1675 987 m20 1682 974 m20 1688 963 m20 1694 961 m20 1701 954 m20 1707 951 m20 1713 937
 m20 1719 932 m20 1725 928 m20 1731 927 m20 1737 911 m20 1743 908 m20 1749 901 m20 1754 899 m20 1760 893 m20 1766 883 m20 1771 881 m20 1777 871 m20 1782 872 m20 1787 863 m20 1793 855 m20 1798 859 m20 1803 848 m20 1808 834 m20 1814 829 m20 1819 835
 m20 1824 830 m20 1829 826 m20 1834 815 m20 1839 812 m20 1843 813 m20 1848 797 m20 1853 784 m20 1858 786 m20 1862 788 m20 1867 774 m20 1872 773 m20 1876 759 m20 1881 758 m20 1885 767 m20 1890 760 m20 1894 753 m20 1898 743 m20 1903 744 m20 1907 739
 m20 1911 726 m20 1916 732 m20 1920 727 m20 1924 719 m20 1928 727 m20 1932 701 m20 1936 699 m20 1940 707 m20 1944 700 m20 1948 695 m20 1952 699 m20 1956 689 m20 1960 686 m20 1964 672 m20 1968 667 m20 1972 679 m20 1975 655 m20 1979 674 m20 1983 668
 m20 1987 651 m20 1990 657 m20 1994 652 m20 1998 656 m20 2001 648 m20 2005 638 m20 2009 637 m20 2012 623 m20 2016 626 m20 2019 627 m20 2023 625 m20 2026 626 m20 2029 610 m20 2033 586 m20 2036 596 m20 2040 597 m20 2043 602 m20 2046 608 m20 2050 589
 m20 2053 595 m20 2056 584 m20 2059 574 m20 2063 577 m20 2066 579 m20 2069 586 m20 2072 580 m20 2075 558 m20 2079 550 m20 2082 562 m20 2085 568 m20 2088 553 m20 2091 549 m20 2094 541 m20 2097 567 m20 2100 530 m20 2103 525 m20 2106 559 m20 2109 538
 m20 2112 487 m20 2115 532 m20 2118 515 m20 2121 522 m20 2124 522 m20 2126 509 m20 2129 507 m20 2132 530 m20 2135 508 m20 2138 508 m20 2141 511 m20 2143 461 m s 2143 476 m20 2146 459 m 1 Y s 2146 475 m20 2149 495 m20 2152 488 m20 2154 450 m 1 Y s
 2154 466 m20 2157 465 m s 2157 480 m20 2160 456 m 1 Y s 2160 472 m20 2162 465 m s 2162 480 m20 2165 488 m20 2168 459 m 1 Y s 2168 475 m20 2170 414 m 2 Y s 2170 447 m 1 Y s 2170 432 m20 2173 432 m 2 Y s 2173 464 m s 2173 449 m20 2176 425 m 2 Y s 2176
 457 m 1 Y s 2176 442 m20 black 408 305 m 1769 X s 507 330 m -25 Y s 591 330 m -25 Y s 663 330 m -25 Y s 727 330 m -25 Y s 784 356 m -51 Y s
 gsave  2268 2176 0 0 C 726.735 167.415 t 0 r /Helvetica findfont 102.732 sf 0 0 m (10) show NC gr  1161 330 m -25 Y s 1381 330 m -25 Y s 1537 330 m -25 Y s 1658 330 m -25 Y s 1757 330 m -25 Y s 1841 330 m -25 Y s 1913 330 m -25 Y s 1977 330 m -25 Y
 s 2035 356 m -51 Y s
 gsave  2268 2176 0 0 C 2066.06 213.074 t 0 r /Helvetica findfont 68.4881 sf 0 0 m (2) show NC gr 
 gsave  2268 2176 0 0 C 1955.72 167.415 t 0 r /Helvetica findfont 102.732 sf 0 0 m (10) show NC gr 
 gsave  2268 2176 0 0 C 1837.76 60.8783 t 0 r /Helvetica findfont 121.757 sf 0 0 m ( [GeV]) show NC gr 
 gsave  2268 2176 0 0 C 1788.3 -3.80489 t 0 r /Helvetica findfont 79.9028 sf 0 0 m (T) show NC gr 
 gsave  2268 2176 0 0 C 1240.4 60.8783 t 0 r /Helvetica findfont 121.757 sf 0 0 m (Electron p) show NC gr  408 2002 m 1769 X s 507 1977 m 25 Y s 591 1977 m 25 Y s 663 1977 m 25 Y s 727 1977 m 25 Y s 784 1951 m 51 Y s 1161 1977 m 25 Y s 1381 1977 m 25
 Y s 1537 1977 m 25 Y s 1658 1977 m 25 Y s 1757 1977 m 25 Y s 1841 1977 m 25 Y s 1913 1977 m 25 Y s 1977 1977 m 25 Y s 2035 1951 m 51 Y s 408 305 m 1697 Y s 435 309 m -27 X s 435 327 m -27 X s 461 344 m -53 X s
 gsave  2268 2176 0 0 C 342.44 346.245 t 0 r /Helvetica findfont 68.4881 sf 0 0 m (6) show NC gr 
 gsave  2268 2176 0 0 C 304.391 346.245 t 0 r /Symbol findfont 68.4881 sf 0 0 m (-) show NC gr 
 gsave  2268 2176 0 0 C 194.05 296.782 t 0 r /Helvetica findfont 102.732 sf 0 0 m (10) show NC gr  435 453 m -27 X s 435 517 m -27 X s 435 562 m -27 X s 435 597 m -27 X s 435 625 m -27 X s 435 650 m -27 X s 435 671 m -27 X s 435 689 m -27 X s 461 706
 m -53 X s
 gsave  2268 2176 0 0 C 342.44 707.71 t 0 r /Helvetica findfont 68.4881 sf 0 0 m (5) show NC gr 
 gsave  2268 2176 0 0 C 304.391 707.71 t 0 r /Symbol findfont 68.4881 sf 0 0 m (-) show NC gr 
 gsave  2268 2176 0 0 C 194.05 658.247 t 0 r /Helvetica findfont 102.732 sf 0 0 m (10) show NC gr  435 814 m -27 X s 435 878 m -27 X s 435 923 m -27 X s 435 958 m -27 X s 435 987 m -27 X s 435 1011 m -27 X s 435 1032 m -27 X s 435 1051 m -27 X s 461
 1067 m -53 X s
 gsave  2268 2176 0 0 C 342.44 1065.37 t 0 r /Helvetica findfont 68.4881 sf 0 0 m (4) show NC gr 
 gsave  2268 2176 0 0 C 304.391 1065.37 t 0 r /Symbol findfont 68.4881 sf 0 0 m (-) show NC gr 
 gsave  2268 2176 0 0 C 194.05 1019.71 t 0 r /Helvetica findfont 102.732 sf 0 0 m (10) show NC gr  435 1176 m -27 X s 435 1240 m -27 X s 435 1285 m -27 X s 435 1320 m -27 X s 435 1348 m -27 X s 435 1373 m -27 X s 435 1394 m -27 X s 435 1412 m -27 X s
 461 1429 m -53 X s
 gsave  2268 2176 0 0 C 342.44 1430.64 t 0 r /Helvetica findfont 68.4881 sf 0 0 m (3) show NC gr 
 gsave  2268 2176 0 0 C 304.391 1430.64 t 0 r /Symbol findfont 68.4881 sf 0 0 m (-) show NC gr 
 gsave  2268 2176 0 0 C 194.05 1381.18 t 0 r /Helvetica findfont 102.732 sf 0 0 m (10) show NC gr  435 1537 m -27 X s 435 1601 m -27 X s 435 1646 m -27 X s 435 1681 m -27 X s 435 1710 m -27 X s 435 1734 m -27 X s 435 1755 m -27 X s 435 1774 m -27 X s
 461 1790 m -53 X s
 gsave  2268 2176 0 0 C 342.44 1788.3 t 0 r /Helvetica findfont 68.4881 sf 0 0 m (2) show NC gr 
 gsave  2268 2176 0 0 C 304.391 1788.3 t 0 r /Symbol findfont 68.4881 sf 0 0 m (-) show NC gr 
 gsave  2268 2176 0 0 C 194.05 1742.64 t 0 r /Helvetica findfont 102.732 sf 0 0 m (10) show NC gr  435 1899 m -27 X s 435 1963 m -27 X s
 gsave  2268 2176 0 0 C 156.001 620.198 t 90 r /Helvetica findfont 121.757 sf 0 0 m (DY+Jets Fakes per Event) show NC gr  2177 305 m 1697 Y s 2150 309 m 27 X s 2150 327 m 27 X s 2124 344 m 53 X s 2150 453 m 27 X s 2150 517 m 27 X s 2150 562 m 27 X s
 2150 597 m 27 X s 2150 625 m 27 X s 2150 650 m 27 X s 2150 671 m 27 X s 2150 689 m 27 X s 2124 706 m 53 X s 2150 814 m 27 X s 2150 878 m 27 X s 2150 923 m 27 X s 2150 958 m 27 X s 2150 987 m 27 X s 2150 1011 m 27 X s 2150 1032 m 27 X s 2150 1051 m
 27 X s 2124 1067 m 53 X s 2150 1176 m 27 X s 2150 1240 m 27 X s 2150 1285 m 27 X s 2150 1320 m 27 X s 2150 1348 m 27 X s 2150 1373 m 27 X s 2150 1394 m 27 X s 2150 1412 m 27 X s 2124 1429 m 53 X s 2150 1537 m 27 X s 2150 1601 m 27 X s 2150 1646 m 27
 X s 2150 1681 m 27 X s 2150 1710 m 27 X s 2150 1734 m 27 X s 2150 1755 m 27 X s 2150 1774 m 27 X s 2124 1790 m 53 X s 2150 1899 m 27 X s 2150 1963 m 27 X s 0.49 0.6 0.82 c 1 1 1 c 0.49 0.6 0.82 c 408 1887 m 18 X s 456 1887 m 16 X s 441 1887 m24 472
 1847 m 14 X s 517 1847 m 12 X s 501 1847 m24 529 1811 m 12 X s 571 1811 m 10 X s 556 1811 m24 581 1777 m 9 X s 620 1777 m 8 X s 605 1777 m24 628 1745 m 7 X s 666 1745 m 6 X s 650 1745 m24 672 1715 m 5 X s 707 1715 m 5 X s 692 1715 m24 712 1689 m 4 X
 s 746 1689 m 3 X s 731 1689 m24 749 1667 m 3 X s 782 1667 m 2 X s 767 1667 m24 784 1645 m 2 X s 816 1645 m 1 X s 801 1645 m24 817 1624 m 1 X s 848 1624 m s 833 1624 m24 863 1605 m24 892 1588 m24 919 1570 m24 945 1554 m24 970 1539 m24 993 1528 m24
 1016 1515 m24 1038 1502 m24 1058 1491 m24 1079 1483 m24 1098 1471 m24 1117 1460 m24 1135 1450 m24 1152 1442 m24 1169 1432 m24 1186 1424 m24 1202 1416 m24 1217 1405 m24 1232 1398 m24 1247 1392 m24 1261 1380 m24 1275 1375 m24 1289 1367 m24 1302 1354
 m24 1315 1351 m24 1327 1342 m24 1340 1335 m24 1352 1324 m24 1364 1315 m24 1375 1311 m24 1387 1301 m24 1398 1292 m24 1408 1283 m24 1419 1276 m24 1430 1264 m24 1440 1261 m24 1450 1250 m24 1460 1239 m24 1469 1232 m24 1479 1223 m24 1488 1216 m24 1498
 1207 m24 1507 1198 m24 1515 1187 m24 1524 1181 m24 1533 1168 m24 1541 1159 m24 1550 1149 m24 1558 1137 m24 1566 1130 m24 1574 1117 m24 1582 1114 m24 1590 1099 m24 1597 1089 m24 1605 1081 m24 1612 1072 m24 1620 1059 m24 1627 1052 m24 1634 1037 m24
 1641 1028 m24 1648 1021 m24 1655 1009 m24 1662 1005 m24 1668 989 m24 1675 987 m24 1682 970 m24 1688 971 m24 1694 959 m24 1701 955 m24 1707 947 m24 1713 942 m24 1719 935 m24 1725 911 m24 1731 919 m24 1737 914 m24 1743 899 m24 1749 880 m24 1754 885
 m24 1760 890 m24 1766 878 m24 1771 869 m24 1777 859 m24 1782 860 m24 1787 855 m24 1793 841 m24 1798 856 m24 1803 830 m24 1808 827 m24 1814 823 m24 1819 828 m24 1824 804 m24 1829 818 m24 1834 804 m24 1839 800 m24 1843 788 m24 1848 799 m24 1853 793
 m24 1858 793 m24 1862 782 m24 1867 781 m24 1872 758 m24 1876 736 m24 1881 753 m24 1885 756 m24 1890 763 m24 1894 741 m24 1898 742 m24 1903 742 m24 1907 743 m24 1911 726 m24 1916 726 m24 1920 724 m24 1924 723 m24 1928 717 m24 1932 732 m24 1936 698
 m24 1940 708 m24 1944 685 m24 1948 695 m24 1952 679 m24 1956 672 m24 1960 696 m24 1964 696 m24 1968 667 m24 1972 682 m24 1975 660 m24 1979 668 m24 1983 660 m24 1987 652 m24 1990 654 m24 1994 661 m24 1998 643 m24 2001 627 m24 2005 630 m24 2009 623
 m24 2012 614 m24 2016 603 m24 2019 638 m24 2023 637 m24 2026 577 m s 2026 592 m24 2029 613 m24 2033 599 m24 2036 610 m24 2040 615 m24 2043 563 m 1 Y s 2043 579 m24 2046 572 m 1 Y s 2046 588 m24 2050 605 m24 2053 608 m24 2056 565 m 1 Y s 2056 581 m24
 2059 554 m 1 Y s 2059 570 m24 2063 549 m 1 Y s 2063 565 m24 2066 575 m 1 Y s 2066 591 m24 2069 552 m 1 Y s 2069 569 m24 2072 554 m 1 Y s 2072 570 m24 2075 545 m 2 Y s 2075 577 m 1 Y s 2075 562 m24 2079 575 m 1 Y s 2079 591 m24 2082 566 m 1 Y s 2082
 582 m24 2085 550 m 2 Y s 2085 567 m24 2088 559 m 1 Y s 2088 575 m24 2091 559 m 1 Y s 2091 575 m24 2094 554 m 1 Y s 2094 570 m24 2097 543 m 2 Y s 2097 576 m s 2097 561 m24 2100 536 m 2 Y s 2100 569 m s 2100 554 m24 2103 549 m 1 Y s 2103 565 m24 2106
 557 m 1 Y s 2106 573 m24 2109 482 m 5 Y s 2109 518 m 3 Y s 2109 503 m24 2112 542 m 2 Y s 2112 574 m s 2112 559 m24 2115 538 m 2 Y s 2115 571 m s 2115 555 m24 2118 545 m 2 Y s 2118 577 m 1 Y s 2118 562 m24 2121 512 m 4 Y s 2121 546 m 2 Y s 2121 531
 m24 2124 512 m 4 Y s 2124 546 m 2 Y s 2124 531 m24 2126 510 m 4 Y s 2126 544 m 2 Y s 2126 529 m24 2129 512 m 4 Y s 2129 546 m 2 Y s 2129 531 m24 2132 477 m 5 Y s 2132 513 m 3 Y s 2132 498 m24 2135 508 m 4 Y s 2135 542 m 2 Y s 2135 527 m24 2138 482 m
 5 Y s 2138 518 m 3 Y s 2138 503 m24 2141 471 m 6 Y s 2141 508 m 4 Y s 2141 493 m24 2143 477 m 5 Y s 2143 513 m 3 Y s 2143 498 m24 2146 501 m 5 Y s 2146 536 m 2 Y s 2146 521 m24 2149 477 m 5 Y s 2149 513 m 3 Y s 2149 498 m24 2152 484 m 6 Y s 2152 520
 m 3 Y s 2152 505 m24 2154 460 m 7 Y s 2154 497 m 5 Y s 2154 482 m24 2157 479 m 6 Y s 2157 515 m 4 Y s 2157 500 m24 2160 460 m 7 Y s 2160 497 m 5 Y s 2160 482 m24 2162 451 m 7 Y s 2162 489 m 5 Y s 2162 473 m24 2165 457 m 7 Y s 2165 494 m 5 Y s 2165
 479 m24 2168 468 m 7 Y s 2168 505 m 4 Y s 2168 490 m24 2170 508 m 4 Y s 2170 542 m 2 Y s 2170 527 m24 2173 451 m 7 Y s 2173 489 m 5 Y s 2173 473 m24 2176 474 m 6 Y s 2176 510 m 4 Y s 2176 495 m24 black 1 1 1 c 635 392 476 435 bf black
 gsave  2268 2176 0 0 C 631.612 688.686 t 0 r /Helvetica findfont 102.732 sf 0 0 m (2017) show NC gr  0.49 0.6 0.82 c 556 744 m 44 Y s 556 714 m -44 Y s 556 729 m20 black
 gsave  2268 2176 0 0 C 631.612 490.831 t 0 r /Helvetica findfont 102.732 sf 0 0 m (2017 \(Legacy\)) show NC gr  0.49 0.6 0.82 c 556 548 m 44 Y s 556 518 m -44 Y s 556 533 m24 black
 gsave  2268 2176 0 0 C 1769.28 2039.42 t 0 r /Helvetica findfont 106.537 sf 0 0 m (\(13 TeV\)) show NC gr 
 gsave  2268 2176 0 0 C 408.189 2037.11 t 0 r /Helvetica-Bold findfont 129.366 sf 0 0 m (CMS) show NC gr 
 gsave  2268 2176 0 0 C 487.026 2039.42 t 0 r /Helvetica-Oblique findfont 98.9272 sf 0 0 m (        Simulation) show NC gr  408 305 m 1769 X s 507 330 m -25 Y s 591 330 m -25 Y s 663 330 m -25 Y s 727 330 m -25 Y s 784 356 m -51 Y s 1161 330 m -25 Y
 s 1381 330 m -25 Y s 1537 330 m -25 Y s 1658 330 m -25 Y s 1757 330 m -25 Y s 1841 330 m -25 Y s 1913 330 m -25 Y s 1977 330 m -25 Y s 2035 356 m -51 Y s 408 2002 m 1769 X s 507 1977 m 25 Y s 591 1977 m 25 Y s 663 1977 m 25 Y s 727 1977 m 25 Y s 784
 1951 m 51 Y s 1161 1977 m 25 Y s 1381 1977 m 25 Y s 1537 1977 m 25 Y s 1658 1977 m 25 Y s 1757 1977 m 25 Y s 1841 1977 m 25 Y s 1913 1977 m 25 Y s 1977 1977 m 25 Y s 2035 1951 m 51 Y s 408 305 m 1697 Y s 435 309 m -27 X s 435 327 m -27 X s 461 344 m
 -53 X s 435 453 m -27 X s 435 517 m -27 X s 435 562 m -27 X s 435 597 m -27 X s 435 625 m -27 X s 435 650 m -27 X s 435 671 m -27 X s 435 689 m -27 X s 461 706 m -53 X s 435 814 m -27 X s 435 878 m -27 X s 435 923 m -27 X s 435 958 m -27 X s 435 987
 m -27 X s 435 1011 m -27 X s 435 1032 m -27 X s 435 1051 m -27 X s 461 1067 m -53 X s 435 1176 m -27 X s 435 1240 m -27 X s 435 1285 m -27 X s 435 1320 m -27 X s 435 1348 m -27 X s 435 1373 m -27 X s 435 1394 m -27 X s 435 1412 m -27 X s 461 1429 m
 -53 X s 435 1537 m -27 X s 435 1601 m -27 X s 435 1646 m -27 X s 435 1681 m -27 X s 435 1710 m -27 X s 435 1734 m -27 X s 435 1755 m -27 X s 435 1774 m -27 X s 461 1790 m -53 X s 435 1899 m -27 X s 435 1963 m -27 X s 2177 305 m 1697 Y s 2150 309 m
 27 X s 2150 327 m 27 X s 2124 344 m 53 X s 2150 453 m 27 X s 2150 517 m 27 X s 2150 562 m 27 X s 2150 597 m 27 X s 2150 625 m 27 X s 2150 650 m 27 X s 2150 671 m 27 X s 2150 689 m 27 X s 2124 706 m 53 X s 2150 814 m 27 X s 2150 878 m 27 X s 2150 923
 m 27 X s 2150 958 m 27 X s 2150 987 m 27 X s 2150 1011 m 27 X s 2150 1032 m 27 X s 2150 1051 m 27 X s 2124 1067 m 53 X s 2150 1176 m 27 X s 2150 1240 m 27 X s 2150 1285 m 27 X s 2150 1320 m 27 X s 2150 1348 m 27 X s 2150 1373 m 27 X s 2150 1394 m 27
 X s 2150 1412 m 27 X s 2124 1429 m 53 X s 2150 1537 m 27 X s 2150 1601 m 27 X s 2150 1646 m 27 X s 2150 1681 m 27 X s 2150 1710 m 27 X s 2150 1734 m 27 X s 2150 1755 m 27 X s 2150 1774 m 27 X s 2124 1790 m 53 X s 2150 1899 m 27 X s 2150 1963 m 27 X
 s 1 1 1 c black 1769 1697 408 305 bl 1769 1697 408 305 bl
 gr  gr showpage
end
%%EOF
