%!PS-Adobe-2.0 EPSF-2.0
%%BoundingBox:  0 0 567 544
%%Title: plots/n_fakes_vs_genNpu_pt20_ul2017.eps: n_fakes_vs_genNpu_pt20_ul2017
%%Creator: ROOT Version 6.14/04
%%CreationDate: Tue Aug  4 10:13:43 2020
%%DocumentNeededResources: ProcSet (FontSetInit)
%%EndComments
%%BeginProlog
80 dict begin
/s {stroke} def /l {lineto} def /m {moveto} def /t {translate} def
/r {rotate} def /rl {roll}  def /R {repeat} def
/d {rlineto} def /rm {rmoveto} def /gr {grestore} def /f {eofill} def
/c {setrgbcolor} def /black {0 setgray} def /sd {setdash} def
/cl {closepath} def /sf {scalefont setfont} def /lw {setlinewidth} def
/box {m dup 0 exch d exch 0 d 0 exch neg d cl} def
/NC{systemdict begin initclip end}def/C{NC box clip newpath}def
/bl {box s} def /bf {gsave box gsave f grestore 1 lw [] 0 sd s grestore} def /Y { 0 exch d} def /X { 0 d} def 
/K {{pop pop 0 moveto} exch kshow} bind def
/ita {/ang 15 def gsave [1 0 ang dup sin exch cos div 1 0 0] concat} def 
/mp {newpath /y exch def /x exch def} def
/side {[w .77 mul w .23 mul] .385 w mul sd w 0 l currentpoint t -144 r} def
/mr {mp x y w2 0 360 arc} def /m24 {mr s} def /m20 {mr f} def
/mb {mp x y w2 add m w2 neg 0 d 0 w neg d w 0 d 0 w d cl} def
/mt {mp x y w2 add m w2 neg w neg d w 0 d cl} def
/w4 {w 4 div} def
/w6 {w 6 div} def
/w8 {w 8 div} def
/m21 {mb f} def /m25 {mb s} def /m22 {mt f} def /m26{mt s} def
/m23 {mp x y w2 sub m w2 w d w neg 0 d cl f} def
/m27 {mp x y w2 add m w3 neg w2 neg d w3 w2 neg d w3 w2 d cl s} def
/m28 {mp x w2 sub y w2 sub w3 add m w3 0 d  0 w3 neg d w3 0 d 0 w3 d w3 0 d  0 w3 d w3 neg 0 d 0 w3 d w3 neg 0 d 0 w3 neg d w3 neg 0 d cl s } def
/m29 {mp gsave x w2 sub y w2 add w3 sub m currentpoint t 4 {side} repeat cl fill gr} def
/m30 {mp gsave x w2 sub y w2 add w3 sub m currentpoint t 4 {side} repeat cl s gr} def
/m31 {mp x y w2 sub m 0 w d x w2 sub y m w 0 d x w2 sub y w2 add m w w neg d x w2 sub y w2 sub m w w d s} def
/m32 {mp x y w2 sub m w2 w d w neg 0 d cl s} def
/m33 {mp x y w2 add m w3 neg w2 neg d w3 w2 neg d w3 w2 d cl f} def
/m34 {mp x w2 sub y w2 sub w3 add m w3 0 d  0 w3 neg d w3 0 d 0 w3 d w3 0 d  0 w3 d w3 neg 0 d 0 w3 d w3 neg 0 d 0 w3 neg d w3 neg 0 d cl f } def
/m35 {mp x y w2 add m w2 neg w2 neg d w2 w2 neg d w2 w2 d w2 neg w2 d x y w2 sub m 0 w d x w2 sub y m w 0 d s} def
/m36 {mb x w2 sub y w2 add m w w neg d x w2 sub y w2 sub m w w d s} def
/m37 {mp x y m w4 neg w2 d w4 neg w2 neg d w2 0 d  w4 neg w2 neg d w2 0 d w4 neg w2 d w2 0 d w4 neg w2 d w4 neg w2 neg d cl s} def
/m38 {mp x w4 sub y w2 add m w4 neg w4 neg d 0 w2 neg d w4 w4 neg d w2 0 d w4 w4 d 0 w2 d w4 neg w4 d w2 neg 0 d x y w2 sub m 0 w d x w2 sub y m w 0 d cl s} def
/m39 {mp x y m w4 neg w2 d w4 neg w2 neg d w2 0 d  w4 neg w2 neg d w2 0 d w4 neg w2 d w2 0 d w4 neg w2 d w4 neg w2 neg d cl f} def
/m40 {mp x y m w4 w2 d w4 w4 neg d w2 neg w4 neg d w2 w4 neg d w4 neg w4 neg d w4 neg w2 d w4 neg w2 neg d w4 neg w4 d w2 w4 d w2 neg w4 d w4 w4 d w4 w2 neg d cl s} def
/m41 {mp x y m w4 w2 d w4 w4 neg d w2 neg w4 neg d w2 w4 neg d w4 neg w4 neg d w4 neg w2 d w4 neg w2 neg d w4 neg w4 d w2 w4 d w2 neg w4 d w4 w4 d w4 w2 neg d cl f} def
/m42 {mp x y w2 add m w8 neg w2 -3 4 div mul d w2 -3 4 div mul w8 neg d w2 3 4 div mul w8 neg d w8 w2 -3 4 div mul d w8 w2 3 4 div mul d w2 3 4 div mul w8 d w2 -3 4 div mul w8 d w8 neg w2 3 4 div mul d cl s} def
/m43 {mp x y w2 add m w8 neg w2 -3 4 div mul d w2 -3 4 div mul w8 neg d w2 3 4 div mul w8 neg d w8 w2 -3 4 div mul d w8 w2 3 4 div mul d w2 3 4 div mul w8 d w2 -3 4 div mul w8 d w8 neg w2 3 4 div mul d cl f} def
/m44 {mp x y m w6 neg w2 d w2 2 3 div mul 0 d w6 neg w2 neg d w2 w6 d 0 w2 -2 3 div mul d w2 neg w6 d w6 w2 neg d w2 -2 3 div mul 0 d w6 w2 d w2 neg w6 neg d 0 w2 2 3 div mul d w2 w6 neg d cl s} def
/m45 {mp x y m w6 neg w2 d w2 2 3 div mul 0 d w6 neg w2 neg d w2 w6 d 0 w2 -2 3 div mul d w2 neg w6 d w6 w2 neg d w2 -2 3 div mul 0 d w6 w2 d w2 neg w6 neg d 0 w2 2 3 div mul d w2 w6 neg d cl f} def
/m46 {mp x y w4 add m w4 neg w4 d w4 neg w4 neg d  w4 w4 neg d w4 neg w4 neg d w4 w4 neg d w4 w4 d w4 w4 neg d w4 w4 d w4 neg w4 d w4 w4 d w4 neg w4 d w4 neg w4 neg d cl s} def
/m47 {mp x y w4 add m w4 neg w4 d w4 neg w4 neg d w4 w4 neg d w4 neg w4 neg d  w4 w4 neg d w4 w4 d w4 w4 neg d w4 w4 d w4 neg w4 d w4 w4 d w4 neg w4 d w4 neg w4 neg d cl f} def
/m48 {mp x y w4 add m w4 neg w4 d w4 neg w4 neg d w4 w4 neg d  w4 neg w4 neg d w4 w4 neg d w4 w4 d w4 w4 neg d w4 w4 d w4 neg w4 d w4 w4 d w4 neg w4 d w4 neg w4 neg d  w4 w4 neg d w4 neg w4 neg d w4 neg w4 d w4 w4 d cl f} def
/m49 {mp x w2 sub w3 add y w2 sub w3 add m  0 w3 neg d w3 0 d 0 w3 d w3 0 d 0 w3 d w3 neg 0 d 0 w3 d w3 neg 0 d 0 w3 neg d w3 neg 0 d 0 w3 neg d w3 0 d 0 w3 d w3 0 d 0 w3 neg d w3 neg 0 d cl f } def
/m2 {mp x y w2 sub m 0 w d x w2 sub y m w 0 d s} def
/m5 {mp x w2 sub y w2 sub m w w d x w2 sub y w2 add m w w neg d s} def
%%IncludeResource: ProcSet (FontSetInit)
%%IncludeResource: font Times-Roman
%%IncludeResource: font Times-Italic
%%IncludeResource: font Times-Bold
%%IncludeResource: font Times-BoldItalic
%%IncludeResource: font Helvetica
%%IncludeResource: font Helvetica-Oblique
%%IncludeResource: font Helvetica-Bold
%%IncludeResource: font Helvetica-BoldOblique
%%IncludeResource: font Courier
%%IncludeResource: font Courier-Oblique
%%IncludeResource: font Courier-Bold
%%IncludeResource: font Courier-BoldOblique
%%IncludeResource: font Symbol
%%IncludeResource: font ZapfDingbats
/reEncode {exch findfont dup length dict begin {1 index /FID eq  {pop pop} {def} ifelse } forall /Encoding exch def currentdict end dup /FontName get exch definefont pop } def [/Times-Bold /Times-Italic /Times-BoldItalic /Helvetica /Helvetica-Oblique
 /Helvetica-Bold /Helvetica-BoldOblique /Courier /Courier-Oblique /Courier-Bold /Courier-BoldOblique /Times-Roman /AvantGarde-Book /AvantGarde-BookOblique /AvantGarde-Demi /AvantGarde-DemiOblique /Bookman-Demi /Bookman-DemiItalic /Bookman-Light
 /Bookman-LightItalic /Helvetica-Narrow /Helvetica-Narrow-Bold /Helvetica-Narrow-BoldOblique /Helvetica-Narrow-Oblique /NewCenturySchlbk-Roman /NewCenturySchlbk-Bold /NewCenturySchlbk-BoldItalic /NewCenturySchlbk-Italic /Palatino-Bold
 /Palatino-BoldItalic /Palatino-Italic /Palatino-Roman ] {ISOLatin1Encoding reEncode } forall
%%EndProlog
%%BeginSetup
%%EndSetup
newpath  gsave  .25 .25 scale  gsave  0 0 t black[  ] 0 sd 3 lw 1 1 1 c 2268 2176 0 0 bf black 1 1 1 c black 1769 1697 408 305 bl 1769 1697 408 305 bl 1 1 1 c black 1769 1697 408 305 bl 1769 1697 408 305 bl 0.52 0.76 0.64 c 1 1 1 c 0.52 0.76 0.64 c
 420 1028 m 49 Y s 420 1108 m 49 Y s /w 30 def /w2 {w 2 div} def /w3 {w 3 div} def 420 1093 m20 442 1028 m 27 Y s 442 1085 m 28 Y s 442 1070 m20 465 1016 m 14 Y s 465 1060 m 14 Y s 465 1045 m20 488 1028 m 5 Y s 488 1063 m 6 Y s 488 1048 m20 510 1056
 m20 533 1062 m20 556 1066 m20 578 1063 m20 601 1075 m20 624 1059 m20 646 1073 m20 669 1068 m20 692 1080 m20 714 1069 m20 737 1070 m20 760 1076 m20 782 1072 m20 805 1077 m20 828 1070 m20 850 1071 m20 873 1073 m20 896 1077 m20 918 1078 m20 941 1075
 m20 964 1073 m20 986 1089 m20 1009 1080 m20 1032 1083 m20 1054 1088 m20 1077 1087 m20 1100 1095 m20 1123 1104 m20 1145 1104 m20 1168 1105 m20 1191 1104 m20 1213 1117 m20 1236 1115 m20 1259 1110 m20 1281 1108 m20 1304 1120 m20 1327 1115 m20 1349 1132
 m20 1372 1135 m20 1395 1130 m20 1417 1155 m20 1440 1162 m20 1463 1157 m20 1485 1162 m20 1508 1169 m20 1531 1165 m20 1553 1169 m20 1576 1176 m 1 Y s 1576 1208 m 1 Y s 1576 1193 m20 1599 1190 m 3 Y s 1599 1223 m 3 Y s 1599 1208 m20 1621 1207 m 5 Y s
 1621 1243 m 5 Y s 1621 1228 m20 1644 1190 m 7 Y s 1644 1227 m 7 Y s 1644 1212 m20 1667 1193 m 9 Y s 1667 1233 m 8 Y s 1667 1217 m20 1689 1208 m 12 Y s 1689 1250 m 12 Y s 1689 1235 m20 1712 1175 m 14 Y s 1712 1219 m 14 Y s 1712 1204 m20 1735 1180 m
 18 Y s 1735 1228 m 17 Y s 1735 1213 m20 1757 1191 m 21 Y s 1757 1242 m 21 Y s 1757 1227 m20 1780 1188 m 25 Y s 1780 1244 m 25 Y s 1780 1229 m20 1803 1229 m 31 Y s 1803 1291 m 31 Y s 1803 1276 m20 1826 1180 m 36 Y s 1826 1246 m 36 Y s 1826 1231 m20
 1848 1276 m 46 Y s 1848 1353 m 46 Y s 1848 1338 m20 1871 1176 m 51 Y s 1871 1257 m 51 Y s 1871 1242 m20 1894 1163 m 59 Y s 1894 1252 m 59 Y s 1894 1237 m20 1916 1045 m 64 Y s 1916 1139 m 64 Y s 1916 1124 m20 1939 1247 m 85 Y s 1939 1362 m 85 Y s
 1939 1347 m20 1962 1272 m 101 Y s 1962 1404 m 101 Y s 1962 1388 m20 1984 980 m 99 Y s 1984 1109 m 100 Y s 1984 1094 m20 2007 1363 m 140 Y s 2007 1533 m 140 Y s 2007 1518 m20 2030 1337 m 168 Y s 2030 1536 m 167 Y s 2030 1520 m20 2052 1102 m 163 Y s
 2052 1296 m 163 Y s 2052 1280 m20 2075 1266 m 205 Y s 2075 1501 m 205 Y s 2075 1486 m20 2098 1065 m 216 Y s 2098 1312 m 216 Y s 2098 1296 m20 2120 755 m 197 Y s 2120 982 m 197 Y s 2120 967 m20 2143 1074 m 287 Y s 2143 1392 m 287 Y s 2143 1376 m20
 2166 1076 m 351 Y s 2166 1458 m 352 Y s 2166 1443 m20 black 408 305 m 1769 X s 590 356 m -51 Y s 635 330 m -25 Y s 680 330 m -25 Y s 726 330 m -25 Y s 771 330 m -25 Y s 816 356 m -51 Y s 862 330 m -25 Y s 907 330 m -25 Y s 952 330 m -25 Y s 998 330
 m -25 Y s 1043 356 m -51 Y s 1089 330 m -25 Y s 1134 330 m -25 Y s 1179 330 m -25 Y s 1225 330 m -25 Y s 1270 356 m -51 Y s 1315 330 m -25 Y s 1361 330 m -25 Y s 1406 330 m -25 Y s 1451 330 m -25 Y s 1497 356 m -51 Y s 1542 330 m -25 Y s 1587 330 m
 -25 Y s 1633 330 m -25 Y s 1678 330 m -25 Y s 1723 356 m -51 Y s 1769 330 m -25 Y s 1814 330 m -25 Y s 1860 330 m -25 Y s 1905 330 m -25 Y s 1950 356 m -51 Y s 1996 330 m -25 Y s 2041 330 m -25 Y s 2086 330 m -25 Y s 2132 330 m -25 Y s 2177 356 m
 -51 Y s 590 356 m -51 Y s 544 330 m -25 Y s 499 330 m -25 Y s 454 330 m -25 Y s
 gsave  2268 2176 0 0 C 528.88 205.464 t 0 r /Helvetica findfont 102.732 sf 0 0 m (10) show NC gr 
 gsave  2268 2176 0 0 C 757.174 205.464 t 0 r /Helvetica findfont 102.732 sf 0 0 m (20) show NC gr 
 gsave  2268 2176 0 0 C 985.467 205.464 t 0 r /Helvetica findfont 102.732 sf 0 0 m (30) show NC gr 
 gsave  2268 2176 0 0 C 1209.96 205.464 t 0 r /Helvetica findfont 102.732 sf 0 0 m (40) show NC gr 
 gsave  2268 2176 0 0 C 1438.25 205.464 t 0 r /Helvetica findfont 102.732 sf 0 0 m (50) show NC gr 
 gsave  2268 2176 0 0 C 1662.74 205.464 t 0 r /Helvetica findfont 102.732 sf 0 0 m (60) show NC gr 
 gsave  2268 2176 0 0 C 1891.03 205.464 t 0 r /Helvetica findfont 102.732 sf 0 0 m (70) show NC gr 
 gsave  2268 2176 0 0 C 2119.33 205.464 t 0 r /Helvetica findfont 102.732 sf 0 0 m (80) show NC gr 
 gsave  2268 2176 0 0 C 1236.59 41.8538 t 0 r /Helvetica findfont 121.757 sf 0 0 m (Number of Pileup) show NC gr  408 2002 m 1769 X s 590 1951 m 51 Y s 635 1977 m 25 Y s 680 1977 m 25 Y s 726 1977 m 25 Y s 771 1977 m 25 Y s 816 1951 m 51 Y s 862 1977
 m 25 Y s 907 1977 m 25 Y s 952 1977 m 25 Y s 998 1977 m 25 Y s 1043 1951 m 51 Y s 1089 1977 m 25 Y s 1134 1977 m 25 Y s 1179 1977 m 25 Y s 1225 1977 m 25 Y s 1270 1951 m 51 Y s 1315 1977 m 25 Y s 1361 1977 m 25 Y s 1406 1977 m 25 Y s 1451 1977 m 25
 Y s 1497 1951 m 51 Y s 1542 1977 m 25 Y s 1587 1977 m 25 Y s 1633 1977 m 25 Y s 1678 1977 m 25 Y s 1723 1951 m 51 Y s 1769 1977 m 25 Y s 1814 1977 m 25 Y s 1860 1977 m 25 Y s 1905 1977 m 25 Y s 1950 1951 m 51 Y s 1996 1977 m 25 Y s 2041 1977 m 25 Y
 s 2086 1977 m 25 Y s 2132 1977 m 25 Y s 2177 1951 m 51 Y s 590 1951 m 51 Y s 544 1977 m 25 Y s 499 1977 m 25 Y s 454 1977 m 25 Y s 408 305 m 1697 Y s 461 305 m -53 X s 435 363 m -27 X s 435 421 m -27 X s 435 479 m -27 X s 435 537 m -27 X s 461 595 m
 -53 X s 435 653 m -27 X s 435 711 m -27 X s 435 769 m -27 X s 435 827 m -27 X s 461 885 m -53 X s 435 943 m -27 X s 435 1001 m -27 X s 435 1059 m -27 X s 435 1117 m -27 X s 461 1175 m -53 X s 435 1233 m -27 X s 435 1291 m -27 X s 435 1349 m -27 X s
 435 1407 m -27 X s 461 1465 m -53 X s 435 1523 m -27 X s 435 1582 m -27 X s 435 1640 m -27 X s 435 1698 m -27 X s 461 1756 m -53 X s 461 1756 m -53 X s 435 1814 m -27 X s 435 1872 m -27 X s 435 1930 m -27 X s 435 1988 m -27 X s
 gsave  2268 2176 0 0 C 338.636 270.147 t 0 r /Helvetica findfont 102.732 sf 0 0 m (0) show NC gr 
 gsave  2268 2176 0 0 C 213.074 559.319 t 0 r /Helvetica findfont 102.732 sf 0 0 m (0.01) show NC gr 
 gsave  2268 2176 0 0 C 194.05 848.491 t 0 r /Helvetica findfont 102.732 sf 0 0 m (0.02) show NC gr 
 gsave  2268 2176 0 0 C 194.05 1137.66 t 0 r /Helvetica findfont 102.732 sf 0 0 m (0.03) show NC gr 
 gsave  2268 2176 0 0 C 194.05 1430.64 t 0 r /Helvetica findfont 102.732 sf 0 0 m (0.04) show NC gr 
 gsave  2268 2176 0 0 C 194.05 1719.81 t 0 r /Helvetica findfont 102.732 sf 0 0 m (0.05) show NC gr 
 gsave  2268 2176 0 0 C 156.001 620.198 t 90 r /Helvetica findfont 121.757 sf 0 0 m (DY+Jets Fakes per Event) show NC gr  2177 305 m 1697 Y s 2124 305 m 53 X s 2150 363 m 27 X s 2150 421 m 27 X s 2150 479 m 27 X s 2150 537 m 27 X s 2124 595 m 53 X s
 2150 653 m 27 X s 2150 711 m 27 X s 2150 769 m 27 X s 2150 827 m 27 X s 2124 885 m 53 X s 2150 943 m 27 X s 2150 1001 m 27 X s 2150 1059 m 27 X s 2150 1117 m 27 X s 2124 1175 m 53 X s 2150 1233 m 27 X s 2150 1291 m 27 X s 2150 1349 m 27 X s 2150
 1407 m 27 X s 2124 1465 m 53 X s 2150 1523 m 27 X s 2150 1582 m 27 X s 2150 1640 m 27 X s 2150 1698 m 27 X s 2124 1756 m 53 X s 2124 1756 m 53 X s 2150 1814 m 27 X s 2150 1872 m 27 X s 2150 1930 m 27 X s 2150 1988 m 27 X s 0.49 0.6 0.82 c 1 1 1 c
 0.49 0.6 0.82 c 420 781 m 75 Y s 420 887 m 75 Y s 420 871 m24 442 848 m 59 Y s 442 938 m 59 Y s 442 923 m24 465 804 m 40 Y s 465 875 m 41 Y s 465 860 m24 488 881 m 30 Y s 488 942 m 30 Y s 488 927 m24 510 818 m 17 Y s 510 865 m 18 Y s 510 850 m24 533
 883 m 12 Y s 533 925 m 12 Y s 533 910 m24 556 852 m 5 Y s 556 888 m 5 Y s 556 873 m24 578 844 m 1 Y s 578 875 m 1 Y s 578 860 m24 601 878 m24 624 857 m24 646 880 m24 669 883 m24 692 875 m24 714 892 m24 737 888 m24 760 879 m24 782 878 m24 805 881 m24
 828 886 m24 850 874 m24 873 886 m24 896 874 m24 918 888 m24 941 878 m24 964 880 m24 986 879 m24 1009 883 m24 1032 880 m24 1054 885 m24 1077 875 m24 1100 878 m24 1123 875 m24 1145 882 m24 1168 878 m24 1191 894 m24 1213 881 m24 1236 878 m24 1259 892
 m24 1281 880 m24 1304 888 m24 1327 883 m24 1349 891 m24 1372 892 m24 1395 891 m24 1417 897 m24 1440 911 m24 1463 887 m24 1485 886 m24 1508 898 m24 1531 903 m24 1553 889 m24 1576 897 m24 1599 905 m24 1621 914 m24 1644 906 m24 1667 916 m24 1689 926
 m24 1712 926 m24 1735 908 m24 1757 884 m s 1757 915 m 1 Y s 1757 900 m24 1780 914 m 3 Y s 1780 947 m 3 Y s 1780 932 m24 1803 928 m 5 Y s 1803 963 m 5 Y s 1803 948 m24 1826 879 m 6 Y s 1826 915 m 7 Y s 1826 900 m24 1848 906 m 9 Y s 1848 946 m 9 Y s
 1848 931 m24 1871 921 m 13 Y s 1871 964 m 13 Y s 1871 949 m24 1894 868 m 15 Y s 1894 913 m 15 Y s 1894 898 m24 1916 906 m 20 Y s 1916 956 m 20 Y s 1916 941 m24 1939 951 m 25 Y s 1939 1007 m 25 Y s 1939 991 m24 1962 937 m 31 Y s 1962 998 m 31 Y s
 1962 983 m24 1984 893 m 36 Y s 1984 959 m 37 Y s 1984 944 m24 2007 896 m 44 Y s 2007 971 m 43 Y s 2007 955 m24 2030 826 m 49 Y s 2030 905 m 50 Y s 2030 890 m24 2052 809 m 58 Y s 2052 898 m 58 Y s 2052 883 m24 2075 1065 m 93 Y s 2075 1188 m 93 Y s
 2075 1173 m24 2098 896 m 92 Y s 2098 1019 m 92 Y s 2098 1003 m24 2120 830 m 107 Y s 2120 967 m 107 Y s 2120 952 m24 2143 843 m 137 Y s 2143 1011 m 137 Y s 2143 996 m24 2166 815 m 165 Y s 2166 1011 m 165 Y s 2166 996 m24 0.81 0.37 0.38 c 1 1 1 c 0.81
 0.37 0.38 c 420 836 m 123 Y s 420 990 m 123 Y s 420 974 m20 442 919 m 74 Y s 442 1024 m 74 Y s 442 1009 m20 465 817 m 40 Y s 465 887 m 39 Y s 465 872 m20 488 854 m 24 Y s 488 908 m 24 Y s 488 893 m20 510 884 m 14 Y s 510 928 m 14 Y s 510 913 m20 533
 889 m 7 Y s 533 927 m 7 Y s 533 912 m20 556 885 m 2 Y s 556 918 m 2 Y s 556 903 m20 578 904 m20 601 905 m20 624 891 m20 646 914 m20 669 908 m20 692 901 m20 714 905 m20 737 910 m20 760 919 m20 782 903 m20 805 909 m20 828 901 m20 850 907 m20 873 905
 m20 896 904 m20 918 905 m20 941 906 m20 964 905 m20 986 914 m20 1009 913 m20 1032 912 m20 1054 909 m20 1077 912 m20 1100 913 m20 1123 916 m20 1145 910 m20 1168 914 m20 1191 916 m20 1213 919 m20 1236 925 m20 1259 919 m20 1281 924 m20 1304 924 m20
 1327 919 m20 1349 932 m20 1372 928 m20 1395 928 m20 1417 935 m20 1440 938 m20 1463 931 m20 1485 937 m20 1508 941 m20 1531 947 m20 1553 945 m20 1576 950 m20 1599 942 m20 1621 950 m20 1644 960 m20 1667 969 m20 1689 955 m20 1712 970 m20 1735 959 m20
 1757 961 m20 1780 966 m20 1803 977 m20 1826 981 m20 1848 982 m20 1871 979 m20 1894 967 m 1 Y s 1894 998 m 1 Y s 1894 983 m20 1916 960 m 3 Y s 1916 993 m 3 Y s 1916 978 m20 1939 947 m 4 Y s 1939 982 m 4 Y s 1939 967 m20 1962 953 m 6 Y s 1962 989 m 6
 Y s 1962 974 m20 1984 1023 m 9 Y s 1984 1063 m 9 Y s 1984 1048 m20 2007 1008 m 12 Y s 2007 1051 m 12 Y s 2007 1035 m20 2030 1031 m 16 Y s 2030 1077 m 15 Y s 2030 1062 m20 2052 970 m 18 Y s 2052 1018 m 18 Y s 2052 1003 m20 2075 992 m 21 Y s 2075 1044
 m 21 Y s 2075 1029 m20 2098 1044 m 27 Y s 2098 1101 m 28 Y s 2098 1086 m20 2120 1038 m 33 Y s 2120 1101 m 33 Y s 2120 1086 m20 2143 987 m 37 Y s 2143 1055 m 37 Y s 2143 1039 m20 2166 979 m 43 Y s 2166 1052 m 44 Y s 2166 1037 m20 black 1 1 1 c 635
 392 476 1523 bf black
 gsave  2268 2176 0 0 C 631.612 1822.54 t 0 r /Helvetica findfont 102.732 sf 0 0 m (2016) show NC gr  0.52 0.76 0.64 c 556 1865 m 24 Y s 556 1835 m -24 Y s 556 1850 m20 black
 gsave  2268 2176 0 0 C 631.612 1693.18 t 0 r /Helvetica findfont 102.732 sf 0 0 m (2017 \(Legacy\)) show NC gr  0.49 0.6 0.82 c 556 1735 m 24 Y s 556 1704 m -24 Y s 556 1719 m24 black
 gsave  2268 2176 0 0 C 631.612 1560.01 t 0 r /Helvetica findfont 102.732 sf 0 0 m (2018) show NC gr  0.81 0.37 0.38 c 556 1604 m 24 Y s 556 1574 m -24 Y s 556 1589 m20 black
 gsave  2268 2176 0 0 C 1769.28 2039.42 t 0 r /Helvetica findfont 106.537 sf 0 0 m (\(13 TeV\)) show NC gr 
 gsave  2268 2176 0 0 C 408.189 2037.11 t 0 r /Helvetica-Bold findfont 129.366 sf 0 0 m (CMS) show NC gr 
 gsave  2268 2176 0 0 C 487.026 2039.42 t 0 r /Helvetica-Oblique findfont 98.9272 sf 0 0 m (        Simulation) show NC gr  408 305 m 1769 X s 590 356 m -51 Y s 635 330 m -25 Y s 680 330 m -25 Y s 726 330 m -25 Y s 771 330 m -25 Y s 816 356 m -51 Y s
 862 330 m -25 Y s 907 330 m -25 Y s 952 330 m -25 Y s 998 330 m -25 Y s 1043 356 m -51 Y s 1089 330 m -25 Y s 1134 330 m -25 Y s 1179 330 m -25 Y s 1225 330 m -25 Y s 1270 356 m -51 Y s 1315 330 m -25 Y s 1361 330 m -25 Y s 1406 330 m -25 Y s 1451
 330 m -25 Y s 1497 356 m -51 Y s 1542 330 m -25 Y s 1587 330 m -25 Y s 1633 330 m -25 Y s 1678 330 m -25 Y s 1723 356 m -51 Y s 1769 330 m -25 Y s 1814 330 m -25 Y s 1860 330 m -25 Y s 1905 330 m -25 Y s 1950 356 m -51 Y s 1996 330 m -25 Y s 2041
 330 m -25 Y s 2086 330 m -25 Y s 2132 330 m -25 Y s 2177 356 m -51 Y s 590 356 m -51 Y s 544 330 m -25 Y s 499 330 m -25 Y s 454 330 m -25 Y s 408 2002 m 1769 X s 590 1951 m 51 Y s 635 1977 m 25 Y s 680 1977 m 25 Y s 726 1977 m 25 Y s 771 1977 m 25
 Y s 816 1951 m 51 Y s 862 1977 m 25 Y s 907 1977 m 25 Y s 952 1977 m 25 Y s 998 1977 m 25 Y s 1043 1951 m 51 Y s 1089 1977 m 25 Y s 1134 1977 m 25 Y s 1179 1977 m 25 Y s 1225 1977 m 25 Y s 1270 1951 m 51 Y s 1315 1977 m 25 Y s 1361 1977 m 25 Y s
 1406 1977 m 25 Y s 1451 1977 m 25 Y s 1497 1951 m 51 Y s 1542 1977 m 25 Y s 1587 1977 m 25 Y s 1633 1977 m 25 Y s 1678 1977 m 25 Y s 1723 1951 m 51 Y s 1769 1977 m 25 Y s 1814 1977 m 25 Y s 1860 1977 m 25 Y s 1905 1977 m 25 Y s 1950 1951 m 51 Y s
 1996 1977 m 25 Y s 2041 1977 m 25 Y s 2086 1977 m 25 Y s 2132 1977 m 25 Y s 2177 1951 m 51 Y s 590 1951 m 51 Y s 544 1977 m 25 Y s 499 1977 m 25 Y s 454 1977 m 25 Y s 408 305 m 1697 Y s 461 305 m -53 X s 435 363 m -27 X s 435 421 m -27 X s 435 479 m
 -27 X s 435 537 m -27 X s 461 595 m -53 X s 435 653 m -27 X s 435 711 m -27 X s 435 769 m -27 X s 435 827 m -27 X s 461 885 m -53 X s 435 943 m -27 X s 435 1001 m -27 X s 435 1059 m -27 X s 435 1117 m -27 X s 461 1175 m -53 X s 435 1233 m -27 X s
 435 1291 m -27 X s 435 1349 m -27 X s 435 1407 m -27 X s 461 1465 m -53 X s 435 1523 m -27 X s 435 1582 m -27 X s 435 1640 m -27 X s 435 1698 m -27 X s 461 1756 m -53 X s 461 1756 m -53 X s 435 1814 m -27 X s 435 1872 m -27 X s 435 1930 m -27 X s
 435 1988 m -27 X s 2177 305 m 1697 Y s 2124 305 m 53 X s 2150 363 m 27 X s 2150 421 m 27 X s 2150 479 m 27 X s 2150 537 m 27 X s 2124 595 m 53 X s 2150 653 m 27 X s 2150 711 m 27 X s 2150 769 m 27 X s 2150 827 m 27 X s 2124 885 m 53 X s 2150 943 m
 27 X s 2150 1001 m 27 X s 2150 1059 m 27 X s 2150 1117 m 27 X s 2124 1175 m 53 X s 2150 1233 m 27 X s 2150 1291 m 27 X s 2150 1349 m 27 X s 2150 1407 m 27 X s 2124 1465 m 53 X s 2150 1523 m 27 X s 2150 1582 m 27 X s 2150 1640 m 27 X s 2150 1698 m 27
 X s 2124 1756 m 53 X s 2124 1756 m 53 X s 2150 1814 m 27 X s 2150 1872 m 27 X s 2150 1930 m 27 X s 2150 1988 m 27 X s 1 1 1 c black 1769 1697 408 305 bl 1769 1697 408 305 bl
 gr  gr showpage
end
%%EOF
