%!PS-Adobe-2.0 EPSF-2.0
%%BoundingBox:  0 0 567 544
%%Title: plots/n_fakes_vs_ele_pt_only2017_barrel.eps: n_fakes_vs_ele_pt_only2017_barrel
%%Creator: ROOT Version 6.14/04
%%CreationDate: Tue Aug  4 10:19:17 2020
%%DocumentNeededResources: ProcSet (FontSetInit)
%%EndComments
%%BeginProlog
80 dict begin
/s {stroke} def /l {lineto} def /m {moveto} def /t {translate} def
/r {rotate} def /rl {roll}  def /R {repeat} def
/d {rlineto} def /rm {rmoveto} def /gr {grestore} def /f {eofill} def
/c {setrgbcolor} def /black {0 setgray} def /sd {setdash} def
/cl {closepath} def /sf {scalefont setfont} def /lw {setlinewidth} def
/box {m dup 0 exch d exch 0 d 0 exch neg d cl} def
/NC{systemdict begin initclip end}def/C{NC box clip newpath}def
/bl {box s} def /bf {gsave box gsave f grestore 1 lw [] 0 sd s grestore} def /Y { 0 exch d} def /X { 0 d} def 
/K {{pop pop 0 moveto} exch kshow} bind def
/ita {/ang 15 def gsave [1 0 ang dup sin exch cos div 1 0 0] concat} def 
/mp {newpath /y exch def /x exch def} def
/side {[w .77 mul w .23 mul] .385 w mul sd w 0 l currentpoint t -144 r} def
/mr {mp x y w2 0 360 arc} def /m24 {mr s} def /m20 {mr f} def
/mb {mp x y w2 add m w2 neg 0 d 0 w neg d w 0 d 0 w d cl} def
/mt {mp x y w2 add m w2 neg w neg d w 0 d cl} def
/w4 {w 4 div} def
/w6 {w 6 div} def
/w8 {w 8 div} def
/m21 {mb f} def /m25 {mb s} def /m22 {mt f} def /m26{mt s} def
/m23 {mp x y w2 sub m w2 w d w neg 0 d cl f} def
/m27 {mp x y w2 add m w3 neg w2 neg d w3 w2 neg d w3 w2 d cl s} def
/m28 {mp x w2 sub y w2 sub w3 add m w3 0 d  0 w3 neg d w3 0 d 0 w3 d w3 0 d  0 w3 d w3 neg 0 d 0 w3 d w3 neg 0 d 0 w3 neg d w3 neg 0 d cl s } def
/m29 {mp gsave x w2 sub y w2 add w3 sub m currentpoint t 4 {side} repeat cl fill gr} def
/m30 {mp gsave x w2 sub y w2 add w3 sub m currentpoint t 4 {side} repeat cl s gr} def
/m31 {mp x y w2 sub m 0 w d x w2 sub y m w 0 d x w2 sub y w2 add m w w neg d x w2 sub y w2 sub m w w d s} def
/m32 {mp x y w2 sub m w2 w d w neg 0 d cl s} def
/m33 {mp x y w2 add m w3 neg w2 neg d w3 w2 neg d w3 w2 d cl f} def
/m34 {mp x w2 sub y w2 sub w3 add m w3 0 d  0 w3 neg d w3 0 d 0 w3 d w3 0 d  0 w3 d w3 neg 0 d 0 w3 d w3 neg 0 d 0 w3 neg d w3 neg 0 d cl f } def
/m35 {mp x y w2 add m w2 neg w2 neg d w2 w2 neg d w2 w2 d w2 neg w2 d x y w2 sub m 0 w d x w2 sub y m w 0 d s} def
/m36 {mb x w2 sub y w2 add m w w neg d x w2 sub y w2 sub m w w d s} def
/m37 {mp x y m w4 neg w2 d w4 neg w2 neg d w2 0 d  w4 neg w2 neg d w2 0 d w4 neg w2 d w2 0 d w4 neg w2 d w4 neg w2 neg d cl s} def
/m38 {mp x w4 sub y w2 add m w4 neg w4 neg d 0 w2 neg d w4 w4 neg d w2 0 d w4 w4 d 0 w2 d w4 neg w4 d w2 neg 0 d x y w2 sub m 0 w d x w2 sub y m w 0 d cl s} def
/m39 {mp x y m w4 neg w2 d w4 neg w2 neg d w2 0 d  w4 neg w2 neg d w2 0 d w4 neg w2 d w2 0 d w4 neg w2 d w4 neg w2 neg d cl f} def
/m40 {mp x y m w4 w2 d w4 w4 neg d w2 neg w4 neg d w2 w4 neg d w4 neg w4 neg d w4 neg w2 d w4 neg w2 neg d w4 neg w4 d w2 w4 d w2 neg w4 d w4 w4 d w4 w2 neg d cl s} def
/m41 {mp x y m w4 w2 d w4 w4 neg d w2 neg w4 neg d w2 w4 neg d w4 neg w4 neg d w4 neg w2 d w4 neg w2 neg d w4 neg w4 d w2 w4 d w2 neg w4 d w4 w4 d w4 w2 neg d cl f} def
/m42 {mp x y w2 add m w8 neg w2 -3 4 div mul d w2 -3 4 div mul w8 neg d w2 3 4 div mul w8 neg d w8 w2 -3 4 div mul d w8 w2 3 4 div mul d w2 3 4 div mul w8 d w2 -3 4 div mul w8 d w8 neg w2 3 4 div mul d cl s} def
/m43 {mp x y w2 add m w8 neg w2 -3 4 div mul d w2 -3 4 div mul w8 neg d w2 3 4 div mul w8 neg d w8 w2 -3 4 div mul d w8 w2 3 4 div mul d w2 3 4 div mul w8 d w2 -3 4 div mul w8 d w8 neg w2 3 4 div mul d cl f} def
/m44 {mp x y m w6 neg w2 d w2 2 3 div mul 0 d w6 neg w2 neg d w2 w6 d 0 w2 -2 3 div mul d w2 neg w6 d w6 w2 neg d w2 -2 3 div mul 0 d w6 w2 d w2 neg w6 neg d 0 w2 2 3 div mul d w2 w6 neg d cl s} def
/m45 {mp x y m w6 neg w2 d w2 2 3 div mul 0 d w6 neg w2 neg d w2 w6 d 0 w2 -2 3 div mul d w2 neg w6 d w6 w2 neg d w2 -2 3 div mul 0 d w6 w2 d w2 neg w6 neg d 0 w2 2 3 div mul d w2 w6 neg d cl f} def
/m46 {mp x y w4 add m w4 neg w4 d w4 neg w4 neg d  w4 w4 neg d w4 neg w4 neg d w4 w4 neg d w4 w4 d w4 w4 neg d w4 w4 d w4 neg w4 d w4 w4 d w4 neg w4 d w4 neg w4 neg d cl s} def
/m47 {mp x y w4 add m w4 neg w4 d w4 neg w4 neg d w4 w4 neg d w4 neg w4 neg d  w4 w4 neg d w4 w4 d w4 w4 neg d w4 w4 d w4 neg w4 d w4 w4 d w4 neg w4 d w4 neg w4 neg d cl f} def
/m48 {mp x y w4 add m w4 neg w4 d w4 neg w4 neg d w4 w4 neg d  w4 neg w4 neg d w4 w4 neg d w4 w4 d w4 w4 neg d w4 w4 d w4 neg w4 d w4 w4 d w4 neg w4 d w4 neg w4 neg d  w4 w4 neg d w4 neg w4 neg d w4 neg w4 d w4 w4 d cl f} def
/m49 {mp x w2 sub w3 add y w2 sub w3 add m  0 w3 neg d w3 0 d 0 w3 d w3 0 d 0 w3 d w3 neg 0 d 0 w3 d w3 neg 0 d 0 w3 neg d w3 neg 0 d 0 w3 neg d w3 0 d 0 w3 d w3 0 d 0 w3 neg d w3 neg 0 d cl f } def
/m2 {mp x y w2 sub m 0 w d x w2 sub y m w 0 d s} def
/m5 {mp x w2 sub y w2 sub m w w d x w2 sub y w2 add m w w neg d s} def
%%IncludeResource: ProcSet (FontSetInit)
%%IncludeResource: font Times-Roman
%%IncludeResource: font Times-Italic
%%IncludeResource: font Times-Bold
%%IncludeResource: font Times-BoldItalic
%%IncludeResource: font Helvetica
%%IncludeResource: font Helvetica-Oblique
%%IncludeResource: font Helvetica-Bold
%%IncludeResource: font Helvetica-BoldOblique
%%IncludeResource: font Courier
%%IncludeResource: font Courier-Oblique
%%IncludeResource: font Courier-Bold
%%IncludeResource: font Courier-BoldOblique
%%IncludeResource: font Symbol
%%IncludeResource: font ZapfDingbats
/reEncode {exch findfont dup length dict begin {1 index /FID eq  {pop pop} {def} ifelse } forall /Encoding exch def currentdict end dup /FontName get exch definefont pop } def [/Times-Bold /Times-Italic /Times-BoldItalic /Helvetica /Helvetica-Oblique
 /Helvetica-Bold /Helvetica-BoldOblique /Courier /Courier-Oblique /Courier-Bold /Courier-BoldOblique /Times-Roman /AvantGarde-Book /AvantGarde-BookOblique /AvantGarde-Demi /AvantGarde-DemiOblique /Bookman-Demi /Bookman-DemiItalic /Bookman-Light
 /Bookman-LightItalic /Helvetica-Narrow /Helvetica-Narrow-Bold /Helvetica-Narrow-BoldOblique /Helvetica-Narrow-Oblique /NewCenturySchlbk-Roman /NewCenturySchlbk-Bold /NewCenturySchlbk-BoldItalic /NewCenturySchlbk-Italic /Palatino-Bold
 /Palatino-BoldItalic /Palatino-Italic /Palatino-Roman ] {ISOLatin1Encoding reEncode } forall
%%EndProlog
%%BeginSetup
%%EndSetup
newpath  gsave  .25 .25 scale  gsave  0 0 t black[  ] 0 sd 3 lw 1 1 1 c 2268 2176 0 0 bf black 1 1 1 c black 1769 1697 408 305 bl 1769 1697 408 305 bl 1 1 1 c black 1769 1697 408 305 bl 1769 1697 408 305 bl 0.49 0.6 0.82 c 1 1 1 c 0.49 0.6 0.82 c 408
 1899 m 18 X s 456 1899 m 16 X s /w 30 def /w2 {w 2 div} def /w3 {w 3 div} def 441 1899 m20 472 1867 m 14 X s 517 1867 m 12 X s 501 1867 m20 529 1836 m 12 X s 571 1836 m 10 X s 556 1836 m20 581 1804 m 9 X s 620 1804 m 8 X s 605 1804 m20 628 1773 m 7
 X s 666 1773 m 6 X s 650 1773 m20 672 1745 m 5 X s 707 1745 m 5 X s 692 1745 m20 712 1717 m 4 X s 746 1717 m 3 X s 731 1717 m20 749 1694 m 3 X s 782 1694 m 2 X s 767 1694 m20 784 1676 m 2 X s 816 1676 m 1 X s 801 1676 m20 817 1657 m 1 X s 848 1657 m
 s 833 1657 m20 863 1637 m20 892 1619 m20 919 1604 m20 945 1589 m20 970 1576 m20 993 1562 m20 1016 1550 m20 1038 1537 m20 1058 1527 m20 1079 1516 m20 1098 1505 m20 1117 1497 m20 1135 1486 m20 1152 1476 m20 1169 1467 m20 1186 1460 m20 1202 1451 m20
 1217 1444 m20 1232 1435 m20 1247 1425 m20 1261 1418 m20 1275 1410 m20 1289 1403 m20 1302 1392 m20 1315 1385 m20 1327 1374 m20 1340 1368 m20 1352 1356 m20 1364 1348 m20 1375 1339 m20 1387 1328 m20 1398 1319 m20 1408 1313 m20 1419 1303 m20 1430 1293
 m20 1440 1281 m20 1450 1274 m20 1460 1265 m20 1469 1252 m20 1479 1245 m20 1488 1234 m20 1498 1227 m20 1507 1215 m20 1515 1204 m20 1524 1198 m20 1533 1186 m20 1541 1174 m20 1550 1166 m20 1558 1153 m20 1566 1145 m20 1574 1136 m20 1582 1125 m20 1590
 1112 m20 1597 1101 m20 1605 1091 m20 1612 1078 m20 1620 1065 m20 1627 1053 m20 1634 1042 m20 1641 1020 m20 1648 1016 m20 1655 1000 m20 1662 994 m20 1668 979 m20 1675 985 m20 1682 969 m20 1688 958 m20 1694 952 m20 1701 942 m20 1707 946 m20 1713 937
 m20 1719 923 m20 1725 924 m20 1731 928 m20 1737 911 m20 1743 902 m20 1749 897 m20 1754 901 m20 1760 893 m20 1766 876 m20 1771 881 m20 1777 878 m20 1782 867 m20 1787 866 m20 1793 857 m20 1798 866 m20 1803 849 m20 1808 835 m20 1814 823 m20 1819 833
 m20 1824 829 m20 1829 826 m20 1834 810 m20 1839 808 m20 1843 818 m20 1848 801 m20 1853 785 m20 1858 779 m20 1862 789 m20 1867 782 m20 1872 765 m20 1876 760 m20 1881 757 m20 1885 769 m20 1890 751 m20 1894 757 m20 1898 730 m20 1903 739 m20 1907 735
 m20 1911 726 m20 1916 729 m20 1920 724 m20 1924 713 m20 1928 728 m20 1932 698 m20 1936 705 m20 1940 699 m20 1944 699 m20 1948 694 m20 1952 691 m20 1956 689 m20 1960 685 m20 1964 672 m20 1968 667 m20 1972 677 m20 1975 661 m20 1979 660 m20 1983 663
 m20 1987 670 m20 1990 653 m20 1994 663 m20 1998 647 m20 2001 643 m20 2005 627 m20 2009 634 m20 2012 612 m20 2016 624 m20 2019 622 m20 2023 622 m20 2026 630 m20 2029 607 m20 2033 580 m20 2036 599 m20 2040 592 m20 2043 605 m20 2046 585 m20 2050 587
 m20 2053 590 m20 2056 560 m s 2056 576 m20 2059 581 m20 2063 549 m s 2063 565 m20 2066 582 m20 2069 588 m20 2072 553 m 1 Y s 2072 569 m20 2075 546 m 1 Y s 2075 562 m20 2079 540 m 1 Y s 2079 556 m20 2082 546 m 1 Y s 2082 562 m20 2085 549 m s 2085 565
 m20 2088 528 m 2 Y s 2088 560 m s 2088 545 m20 2091 533 m 2 Y s 2091 550 m20 2094 521 m 2 Y s 2094 554 m s 2094 539 m20 2097 560 m s 2097 576 m20 2100 530 m 1 Y s 2100 562 m s 2100 547 m20 2103 512 m 3 Y s 2103 545 m 1 Y s 2103 530 m20 2106 540 m 1
 Y s 2106 556 m20 2109 526 m 2 Y s 2109 559 m s 2109 544 m20 2112 486 m 4 Y s 2112 521 m 2 Y s 2112 505 m20 2115 508 m 3 Y s 2115 542 m 1 Y s 2115 526 m20 2118 497 m 3 Y s 2118 531 m 1 Y s 2118 515 m20 2121 508 m 3 Y s 2121 542 m 1 Y s 2121 526 m20
 2124 505 m 3 Y s 2124 538 m 1 Y s 2124 523 m20 2126 486 m 4 Y s 2126 521 m 2 Y s 2126 505 m20 2129 479 m 5 Y s 2129 514 m 3 Y s 2129 499 m20 2132 499 m 3 Y s 2132 532 m 2 Y s 2132 517 m20 2135 508 m 3 Y s 2135 542 m 1 Y s 2135 526 m20 2138 499 m 3 Y
 s 2138 532 m 2 Y s 2138 517 m20 2141 505 m 3 Y s 2141 538 m 1 Y s 2141 523 m20 2143 458 m 5 Y s 2143 494 m 3 Y s 2143 479 m20 2146 470 m 5 Y s 2146 506 m 2 Y s 2146 490 m20 2149 479 m 5 Y s 2149 514 m 3 Y s 2149 499 m20 2152 460 m 6 Y s 2152 496 m 4
 Y s 2152 481 m20 2154 436 m 7 Y s 2154 473 m 5 Y s 2154 458 m20 2157 455 m 6 Y s 2157 491 m 4 Y s 2157 476 m20 2160 463 m 5 Y s 2160 499 m 3 Y s 2160 483 m20 2162 452 m 7 Y s 2162 489 m 4 Y s 2162 474 m20 2165 465 m 6 Y s 2165 501 m 3 Y s 2165 486
 m20 2168 455 m 6 Y s 2168 491 m 4 Y s 2168 476 m20 2170 417 m 9 Y s 2170 456 m 6 Y s 2170 441 m20 2173 436 m 7 Y s 2173 473 m 5 Y s 2173 458 m20 2176 426 m 8 Y s 2176 465 m 5 Y s 2176 450 m20 black 408 305 m 1769 X s 507 330 m -25 Y s 591 330 m -25
 Y s 663 330 m -25 Y s 727 330 m -25 Y s 784 356 m -51 Y s
 gsave  2268 2176 0 0 C 726.735 167.415 t 0 r /Helvetica findfont 102.732 sf 0 0 m (10) show NC gr  1161 330 m -25 Y s 1381 330 m -25 Y s 1537 330 m -25 Y s 1658 330 m -25 Y s 1757 330 m -25 Y s 1841 330 m -25 Y s 1913 330 m -25 Y s 1977 330 m -25 Y
 s 2035 356 m -51 Y s
 gsave  2268 2176 0 0 C 2066.06 213.074 t 0 r /Helvetica findfont 68.4881 sf 0 0 m (2) show NC gr 
 gsave  2268 2176 0 0 C 1955.72 167.415 t 0 r /Helvetica findfont 102.732 sf 0 0 m (10) show NC gr 
 gsave  2268 2176 0 0 C 1837.76 60.8783 t 0 r /Helvetica findfont 121.757 sf 0 0 m ( [GeV]) show NC gr 
 gsave  2268 2176 0 0 C 1788.3 -3.80489 t 0 r /Helvetica findfont 79.9028 sf 0 0 m (T) show NC gr 
 gsave  2268 2176 0 0 C 1240.4 60.8783 t 0 r /Helvetica findfont 121.757 sf 0 0 m (Electron p) show NC gr  408 2002 m 1769 X s 507 1977 m 25 Y s 591 1977 m 25 Y s 663 1977 m 25 Y s 727 1977 m 25 Y s 784 1951 m 51 Y s 1161 1977 m 25 Y s 1381 1977 m 25
 Y s 1537 1977 m 25 Y s 1658 1977 m 25 Y s 1757 1977 m 25 Y s 1841 1977 m 25 Y s 1913 1977 m 25 Y s 1977 1977 m 25 Y s 2035 1951 m 51 Y s 408 305 m 1697 Y s 435 315 m -27 X s 435 344 m -27 X s 435 369 m -27 X s 435 391 m -27 X s 435 410 m -27 X s 461
 427 m -53 X s
 gsave  2268 2176 0 0 C 342.44 429.953 t 0 r /Helvetica findfont 68.4881 sf 0 0 m (6) show NC gr 
 gsave  2268 2176 0 0 C 304.391 429.953 t 0 r /Symbol findfont 68.4881 sf 0 0 m (-) show NC gr 
 gsave  2268 2176 0 0 C 194.05 380.489 t 0 r /Helvetica findfont 102.732 sf 0 0 m (10) show NC gr  435 539 m -27 X s 435 605 m -27 X s 435 651 m -27 X s 435 687 m -27 X s 435 717 m -27 X s 435 742 m -27 X s 435 764 m -27 X s 435 783 m -27 X s 461 800
 m -53 X s
 gsave  2268 2176 0 0 C 342.44 802.833 t 0 r /Helvetica findfont 68.4881 sf 0 0 m (5) show NC gr 
 gsave  2268 2176 0 0 C 304.391 802.833 t 0 r /Symbol findfont 68.4881 sf 0 0 m (-) show NC gr 
 gsave  2268 2176 0 0 C 194.05 753.369 t 0 r /Helvetica findfont 102.732 sf 0 0 m (10) show NC gr  435 912 m -27 X s 435 977 m -27 X s 435 1024 m -27 X s 435 1060 m -27 X s 435 1090 m -27 X s 435 1115 m -27 X s 435 1136 m -27 X s 435 1155 m -27 X s
 461 1172 m -53 X s
 gsave  2268 2176 0 0 C 342.44 1171.91 t 0 r /Helvetica findfont 68.4881 sf 0 0 m (4) show NC gr 
 gsave  2268 2176 0 0 C 304.391 1171.91 t 0 r /Symbol findfont 68.4881 sf 0 0 m (-) show NC gr 
 gsave  2268 2176 0 0 C 194.05 1126.25 t 0 r /Helvetica findfont 102.732 sf 0 0 m (10) show NC gr  435 1284 m -27 X s 435 1350 m -27 X s 435 1397 m -27 X s 435 1433 m -27 X s 435 1462 m -27 X s 435 1487 m -27 X s 435 1509 m -27 X s 435 1528 m -27 X s
 461 1545 m -53 X s
 gsave  2268 2176 0 0 C 342.44 1548.59 t 0 r /Helvetica findfont 68.4881 sf 0 0 m (3) show NC gr 
 gsave  2268 2176 0 0 C 304.391 1548.59 t 0 r /Symbol findfont 68.4881 sf 0 0 m (-) show NC gr 
 gsave  2268 2176 0 0 C 194.05 1499.13 t 0 r /Helvetica findfont 102.732 sf 0 0 m (10) show NC gr  435 1657 m -27 X s 435 1723 m -27 X s 435 1769 m -27 X s 435 1805 m -27 X s 435 1835 m -27 X s 435 1860 m -27 X s 435 1881 m -27 X s 435 1900 m -27 X s
 461 1917 m -53 X s
 gsave  2268 2176 0 0 C 342.44 1913.86 t 0 r /Helvetica findfont 68.4881 sf 0 0 m (2) show NC gr 
 gsave  2268 2176 0 0 C 304.391 1913.86 t 0 r /Symbol findfont 68.4881 sf 0 0 m (-) show NC gr 
 gsave  2268 2176 0 0 C 194.05 1868.2 t 0 r /Helvetica findfont 102.732 sf 0 0 m (10) show NC gr 
 gsave  2268 2176 0 0 C 156.001 620.198 t 90 r /Helvetica findfont 121.757 sf 0 0 m (DY+Jets Fakes per Event) show NC gr  2177 305 m 1697 Y s 2150 315 m 27 X s 2150 344 m 27 X s 2150 369 m 27 X s 2150 391 m 27 X s 2150 410 m 27 X s 2124 427 m 53 X s
 2150 539 m 27 X s 2150 605 m 27 X s 2150 651 m 27 X s 2150 687 m 27 X s 2150 717 m 27 X s 2150 742 m 27 X s 2150 764 m 27 X s 2150 783 m 27 X s 2124 800 m 53 X s 2150 912 m 27 X s 2150 977 m 27 X s 2150 1024 m 27 X s 2150 1060 m 27 X s 2150 1090 m
 27 X s 2150 1115 m 27 X s 2150 1136 m 27 X s 2150 1155 m 27 X s 2124 1172 m 53 X s 2150 1284 m 27 X s 2150 1350 m 27 X s 2150 1397 m 27 X s 2150 1433 m 27 X s 2150 1462 m 27 X s 2150 1487 m 27 X s 2150 1509 m 27 X s 2150 1528 m 27 X s 2124 1545 m 53
 X s 2150 1657 m 27 X s 2150 1723 m 27 X s 2150 1769 m 27 X s 2150 1805 m 27 X s 2150 1835 m 27 X s 2150 1860 m 27 X s 2150 1881 m 27 X s 2150 1900 m 27 X s 2124 1917 m 53 X s 0.49 0.6 0.82 c 1 1 1 c 0.49 0.6 0.82 c 408 1872 m 18 X s 456 1872 m 16 X
 s 441 1872 m24 472 1839 m 14 X s 517 1839 m 12 X s 501 1839 m24 529 1814 m 12 X s 571 1814 m 10 X s 556 1814 m24 581 1788 m 9 X s 620 1788 m 8 X s 605 1788 m24 628 1762 m 7 X s 666 1762 m 6 X s 650 1762 m24 672 1736 m 5 X s 707 1736 m 5 X s 692 1736
 m24 712 1712 m 4 X s 746 1712 m 3 X s 731 1712 m24 749 1692 m 3 X s 782 1692 m 2 X s 767 1692 m24 784 1671 m 2 X s 816 1671 m 1 X s 801 1671 m24 817 1650 m 1 X s 848 1650 m s 833 1650 m24 863 1632 m24 892 1615 m24 919 1596 m24 945 1579 m24 970 1565
 m24 993 1554 m24 1016 1537 m24 1038 1526 m24 1058 1514 m24 1079 1503 m24 1098 1493 m24 1117 1481 m24 1135 1470 m24 1152 1461 m24 1169 1449 m24 1186 1442 m24 1202 1432 m24 1217 1421 m24 1232 1414 m24 1247 1407 m24 1261 1394 m24 1275 1389 m24 1289
 1380 m24 1302 1366 m24 1315 1360 m24 1327 1352 m24 1340 1341 m24 1352 1331 m24 1364 1324 m24 1375 1316 m24 1387 1305 m24 1398 1298 m24 1408 1289 m24 1419 1282 m24 1430 1265 m24 1440 1267 m24 1450 1250 m24 1460 1243 m24 1469 1228 m24 1479 1224 m24
 1488 1215 m24 1498 1206 m24 1507 1196 m24 1515 1185 m24 1524 1178 m24 1533 1165 m24 1541 1158 m24 1550 1144 m24 1558 1130 m24 1566 1122 m24 1574 1114 m24 1582 1113 m24 1590 1095 m24 1597 1078 m24 1605 1074 m24 1612 1064 m24 1620 1056 m24 1627 1047
 m24 1634 1033 m24 1641 1025 m24 1648 1014 m24 1655 999 m24 1662 998 m24 1668 974 m24 1675 982 m24 1682 962 m24 1688 968 m24 1694 955 m24 1701 949 m24 1707 939 m24 1713 925 m24 1719 935 m24 1725 903 m24 1731 909 m24 1737 898 m24 1743 882 m24 1749 874
 m24 1754 878 m24 1760 886 m24 1766 872 m24 1771 859 m24 1777 849 m24 1782 840 m24 1787 855 m24 1793 825 m24 1798 856 m24 1803 829 m24 1808 828 m24 1814 810 m24 1819 814 m24 1824 796 m24 1829 810 m24 1834 800 m24 1839 781 m24 1843 777 m24 1848 777
 m24 1853 782 m24 1858 798 m24 1862 761 m24 1867 767 m24 1872 758 m24 1876 726 m24 1881 740 m24 1885 753 m24 1890 749 m24 1894 734 m24 1898 730 m24 1903 720 m24 1907 735 m24 1911 705 m24 1916 680 m s 1916 695 m24 1920 711 m24 1924 704 m24 1928 711
 m24 1932 720 m24 1936 667 m 1 Y s 1936 683 m24 1940 698 m24 1944 664 m 1 Y s 1944 680 m24 1948 667 m 1 Y s 1948 683 m24 1952 650 m 1 Y s 1952 666 m24 1956 646 m 2 Y s 1956 679 m s 1956 663 m24 1960 671 m 1 Y s 1960 687 m24 1964 699 m24 1968 603 m 4
 Y s 1968 637 m 2 Y s 1968 622 m24 1972 656 m 1 Y s 1972 673 m24 1975 621 m 3 Y s 1975 655 m 1 Y s 1975 639 m24 1979 641 m 2 Y s 1979 674 m s 1979 659 m24 1983 643 m 2 Y s 1983 675 m 1 Y s 1983 660 m24 1987 613 m 4 Y s 1987 647 m 2 Y s 1987 632 m24
 1990 634 m 3 Y s 1990 667 m 1 Y s 1990 652 m24 1994 605 m 4 Y s 1994 639 m 2 Y s 1994 624 m24 1998 631 m 2 Y s 1998 664 m s 1998 648 m24 2001 609 m 4 Y s 2001 643 m 2 Y s 2001 628 m24 2005 582 m 5 Y s 2005 618 m 3 Y s 2005 602 m24 2009 591 m 5 Y s
 2009 627 m 2 Y s 2009 611 m24 2012 549 m 8 Y s 2012 587 m 5 Y s 2012 572 m24 2016 558 m 7 Y s 2016 595 m 5 Y s 2016 580 m24 2019 591 m 5 Y s 2019 627 m 2 Y s 2019 611 m24 2023 611 m 4 Y s 2023 645 m 2 Y s 2023 630 m24 2026 558 m 7 Y s 2026 595 m 5 Y
 s 2026 580 m24 2029 574 m 6 Y s 2029 611 m 3 Y s 2029 595 m24 2033 558 m 7 Y s 2033 595 m 5 Y s 2033 580 m24 2036 584 m 5 Y s 2036 620 m 3 Y s 2036 605 m24 2040 591 m 5 Y s 2040 627 m 2 Y s 2040 611 m24 2043 546 m 8 Y s 2043 584 m 5 Y s 2043 569 m24
 2046 558 m 7 Y s 2046 595 m 5 Y s 2046 580 m24 2050 569 m 6 Y s 2050 606 m 3 Y s 2050 590 m24 2053 552 m 8 Y s 2053 590 m 5 Y s 2053 575 m24 2056 540 m 8 Y s 2056 579 m 5 Y s 2056 563 m24 2059 552 m 8 Y s 2059 590 m 5 Y s 2059 575 m24 2063 512 m 11
 Y s 2063 553 m 7 Y s 2063 538 m24 2066 587 m 5 Y s 2066 622 m 3 Y s 2066 607 m24 2069 552 m 8 Y s 2069 590 m 5 Y s 2069 575 m24 2072 546 m 8 Y s 2072 584 m 5 Y s 2072 569 m24 2075 509 m 10 Y s 2075 550 m 7 Y s 2075 534 m24 2079 582 m 5 Y s 2079 618
 m 3 Y s 2079 602 m24 2082 582 m 5 Y s 2082 618 m 3 Y s 2082 602 m24 2085 512 m 11 Y s 2085 553 m 7 Y s 2085 538 m24 2088 520 m 9 Y s 2088 560 m 6 Y s 2088 545 m24 2091 523 m 10 Y s 2091 563 m 6 Y s 2091 548 m24 2094 543 m 8 Y s 2094 582 m 5 Y s 2094
 566 m24 2097 523 m 10 Y s 2097 563 m 6 Y s 2097 548 m24 2100 527 m 9 Y s 2100 566 m 6 Y s 2100 551 m24 2103 537 m 8 Y s 2103 576 m 5 Y s 2103 560 m24 2106 540 m 8 Y s 2106 579 m 5 Y s 2106 563 m24 2109 470 m 14 Y s 2109 514 m 10 Y s 2109 499 m24
 2112 546 m 8 Y s 2112 584 m 5 Y s 2112 569 m24 2115 555 m 7 Y s 2115 593 m 4 Y s 2115 577 m24 2118 509 m 10 Y s 2118 550 m 7 Y s 2118 534 m24 2121 527 m 9 Y s 2121 566 m 6 Y s 2121 551 m24 2124 520 m 9 Y s 2124 560 m 6 Y s 2124 545 m24 2126 516 m 10
 Y s 2126 557 m 6 Y s 2126 541 m24 2129 523 m 10 Y s 2129 563 m 6 Y s 2129 548 m24 2132 420 m 19 Y s 2132 469 m 13 Y s 2132 454 m24 2135 480 m 13 Y s 2135 523 m 9 Y s 2135 508 m24 2138 488 m 13 Y s 2138 531 m 8 Y s 2138 516 m24 2141 450 m 16 Y s 2141
 496 m 11 Y s 2141 481 m24 2143 475 m 13 Y s 2143 519 m 9 Y s 2143 504 m24 2146 516 m 10 Y s 2146 557 m 6 Y s 2146 541 m24 2149 493 m 12 Y s 2149 535 m 8 Y s 2149 520 m24 2152 497 m 11 Y s 2152 539 m 8 Y s 2152 524 m24 2154 470 m 14 Y s 2154 514 m 10
 Y s 2154 499 m24 2157 488 m 13 Y s 2157 531 m 8 Y s 2157 516 m24 2160 439 m 16 Y s 2160 486 m 11 Y s 2160 471 m24 2162 480 m 13 Y s 2162 523 m 9 Y s 2162 508 m24 2165 433 m 17 Y s 2165 481 m 11 Y s 2165 465 m24 2168 439 m 16 Y s 2168 486 m 11 Y s
 2168 471 m24 2170 484 m 13 Y s 2170 527 m 9 Y s 2170 512 m24 2173 465 m 15 Y s 2173 510 m 10 Y s 2173 495 m24 2176 439 m 16 Y s 2176 486 m 11 Y s 2176 471 m24 black 1 1 1 c 635 392 476 435 bf black
 gsave  2268 2176 0 0 C 631.612 688.686 t 0 r /Helvetica findfont 102.732 sf 0 0 m (2017 Barrel) show NC gr  0.49 0.6 0.82 c 556 744 m 44 Y s 556 714 m -44 Y s 556 729 m20 black
 gsave  2268 2176 0 0 C 631.612 490.831 t 0 r /Helvetica findfont 102.732 sf 0 0 m (2017 \(Legacy\) Barrel) show NC gr  0.49 0.6 0.82 c 556 548 m 44 Y s 556 518 m -44 Y s 556 533 m24 black
 gsave  2268 2176 0 0 C 1769.28 2039.42 t 0 r /Helvetica findfont 106.537 sf 0 0 m (\(13 TeV\)) show NC gr 
 gsave  2268 2176 0 0 C 408.189 2037.11 t 0 r /Helvetica-Bold findfont 129.366 sf 0 0 m (CMS) show NC gr 
 gsave  2268 2176 0 0 C 487.026 2039.42 t 0 r /Helvetica-Oblique findfont 98.9272 sf 0 0 m (        Simulation) show NC gr  408 305 m 1769 X s 507 330 m -25 Y s 591 330 m -25 Y s 663 330 m -25 Y s 727 330 m -25 Y s 784 356 m -51 Y s 1161 330 m -25 Y
 s 1381 330 m -25 Y s 1537 330 m -25 Y s 1658 330 m -25 Y s 1757 330 m -25 Y s 1841 330 m -25 Y s 1913 330 m -25 Y s 1977 330 m -25 Y s 2035 356 m -51 Y s 408 2002 m 1769 X s 507 1977 m 25 Y s 591 1977 m 25 Y s 663 1977 m 25 Y s 727 1977 m 25 Y s 784
 1951 m 51 Y s 1161 1977 m 25 Y s 1381 1977 m 25 Y s 1537 1977 m 25 Y s 1658 1977 m 25 Y s 1757 1977 m 25 Y s 1841 1977 m 25 Y s 1913 1977 m 25 Y s 1977 1977 m 25 Y s 2035 1951 m 51 Y s 408 305 m 1697 Y s 435 315 m -27 X s 435 344 m -27 X s 435 369 m
 -27 X s 435 391 m -27 X s 435 410 m -27 X s 461 427 m -53 X s 435 539 m -27 X s 435 605 m -27 X s 435 651 m -27 X s 435 687 m -27 X s 435 717 m -27 X s 435 742 m -27 X s 435 764 m -27 X s 435 783 m -27 X s 461 800 m -53 X s 435 912 m -27 X s 435 977
 m -27 X s 435 1024 m -27 X s 435 1060 m -27 X s 435 1090 m -27 X s 435 1115 m -27 X s 435 1136 m -27 X s 435 1155 m -27 X s 461 1172 m -53 X s 435 1284 m -27 X s 435 1350 m -27 X s 435 1397 m -27 X s 435 1433 m -27 X s 435 1462 m -27 X s 435 1487 m
 -27 X s 435 1509 m -27 X s 435 1528 m -27 X s 461 1545 m -53 X s 435 1657 m -27 X s 435 1723 m -27 X s 435 1769 m -27 X s 435 1805 m -27 X s 435 1835 m -27 X s 435 1860 m -27 X s 435 1881 m -27 X s 435 1900 m -27 X s 461 1917 m -53 X s 2177 305 m
 1697 Y s 2150 315 m 27 X s 2150 344 m 27 X s 2150 369 m 27 X s 2150 391 m 27 X s 2150 410 m 27 X s 2124 427 m 53 X s 2150 539 m 27 X s 2150 605 m 27 X s 2150 651 m 27 X s 2150 687 m 27 X s 2150 717 m 27 X s 2150 742 m 27 X s 2150 764 m 27 X s 2150
 783 m 27 X s 2124 800 m 53 X s 2150 912 m 27 X s 2150 977 m 27 X s 2150 1024 m 27 X s 2150 1060 m 27 X s 2150 1090 m 27 X s 2150 1115 m 27 X s 2150 1136 m 27 X s 2150 1155 m 27 X s 2124 1172 m 53 X s 2150 1284 m 27 X s 2150 1350 m 27 X s 2150 1397 m
 27 X s 2150 1433 m 27 X s 2150 1462 m 27 X s 2150 1487 m 27 X s 2150 1509 m 27 X s 2150 1528 m 27 X s 2124 1545 m 53 X s 2150 1657 m 27 X s 2150 1723 m 27 X s 2150 1769 m 27 X s 2150 1805 m 27 X s 2150 1835 m 27 X s 2150 1860 m 27 X s 2150 1881 m 27
 X s 2150 1900 m 27 X s 2124 1917 m 53 X s 1 1 1 c black 1769 1697 408 305 bl 1769 1697 408 305 bl
 gr  gr showpage
end
%%EOF
