%!PS-Adobe-2.0 EPSF-2.0
%%BoundingBox:  0 0 567 544
%%Title: plots/n_fakes_vs_genNpu_pt5_only2017_ecal_driven.eps: n_fakes_vs_genNpu_pt5_only2017_ecal_driven
%%Creator: ROOT Version 6.14/04
%%CreationDate: Tue Aug  4 10:15:51 2020
%%DocumentNeededResources: ProcSet (FontSetInit)
%%EndComments
%%BeginProlog
80 dict begin
/s {stroke} def /l {lineto} def /m {moveto} def /t {translate} def
/r {rotate} def /rl {roll}  def /R {repeat} def
/d {rlineto} def /rm {rmoveto} def /gr {grestore} def /f {eofill} def
/c {setrgbcolor} def /black {0 setgray} def /sd {setdash} def
/cl {closepath} def /sf {scalefont setfont} def /lw {setlinewidth} def
/box {m dup 0 exch d exch 0 d 0 exch neg d cl} def
/NC{systemdict begin initclip end}def/C{NC box clip newpath}def
/bl {box s} def /bf {gsave box gsave f grestore 1 lw [] 0 sd s grestore} def /Y { 0 exch d} def /X { 0 d} def 
/K {{pop pop 0 moveto} exch kshow} bind def
/ita {/ang 15 def gsave [1 0 ang dup sin exch cos div 1 0 0] concat} def 
/mp {newpath /y exch def /x exch def} def
/side {[w .77 mul w .23 mul] .385 w mul sd w 0 l currentpoint t -144 r} def
/mr {mp x y w2 0 360 arc} def /m24 {mr s} def /m20 {mr f} def
/mb {mp x y w2 add m w2 neg 0 d 0 w neg d w 0 d 0 w d cl} def
/mt {mp x y w2 add m w2 neg w neg d w 0 d cl} def
/w4 {w 4 div} def
/w6 {w 6 div} def
/w8 {w 8 div} def
/m21 {mb f} def /m25 {mb s} def /m22 {mt f} def /m26{mt s} def
/m23 {mp x y w2 sub m w2 w d w neg 0 d cl f} def
/m27 {mp x y w2 add m w3 neg w2 neg d w3 w2 neg d w3 w2 d cl s} def
/m28 {mp x w2 sub y w2 sub w3 add m w3 0 d  0 w3 neg d w3 0 d 0 w3 d w3 0 d  0 w3 d w3 neg 0 d 0 w3 d w3 neg 0 d 0 w3 neg d w3 neg 0 d cl s } def
/m29 {mp gsave x w2 sub y w2 add w3 sub m currentpoint t 4 {side} repeat cl fill gr} def
/m30 {mp gsave x w2 sub y w2 add w3 sub m currentpoint t 4 {side} repeat cl s gr} def
/m31 {mp x y w2 sub m 0 w d x w2 sub y m w 0 d x w2 sub y w2 add m w w neg d x w2 sub y w2 sub m w w d s} def
/m32 {mp x y w2 sub m w2 w d w neg 0 d cl s} def
/m33 {mp x y w2 add m w3 neg w2 neg d w3 w2 neg d w3 w2 d cl f} def
/m34 {mp x w2 sub y w2 sub w3 add m w3 0 d  0 w3 neg d w3 0 d 0 w3 d w3 0 d  0 w3 d w3 neg 0 d 0 w3 d w3 neg 0 d 0 w3 neg d w3 neg 0 d cl f } def
/m35 {mp x y w2 add m w2 neg w2 neg d w2 w2 neg d w2 w2 d w2 neg w2 d x y w2 sub m 0 w d x w2 sub y m w 0 d s} def
/m36 {mb x w2 sub y w2 add m w w neg d x w2 sub y w2 sub m w w d s} def
/m37 {mp x y m w4 neg w2 d w4 neg w2 neg d w2 0 d  w4 neg w2 neg d w2 0 d w4 neg w2 d w2 0 d w4 neg w2 d w4 neg w2 neg d cl s} def
/m38 {mp x w4 sub y w2 add m w4 neg w4 neg d 0 w2 neg d w4 w4 neg d w2 0 d w4 w4 d 0 w2 d w4 neg w4 d w2 neg 0 d x y w2 sub m 0 w d x w2 sub y m w 0 d cl s} def
/m39 {mp x y m w4 neg w2 d w4 neg w2 neg d w2 0 d  w4 neg w2 neg d w2 0 d w4 neg w2 d w2 0 d w4 neg w2 d w4 neg w2 neg d cl f} def
/m40 {mp x y m w4 w2 d w4 w4 neg d w2 neg w4 neg d w2 w4 neg d w4 neg w4 neg d w4 neg w2 d w4 neg w2 neg d w4 neg w4 d w2 w4 d w2 neg w4 d w4 w4 d w4 w2 neg d cl s} def
/m41 {mp x y m w4 w2 d w4 w4 neg d w2 neg w4 neg d w2 w4 neg d w4 neg w4 neg d w4 neg w2 d w4 neg w2 neg d w4 neg w4 d w2 w4 d w2 neg w4 d w4 w4 d w4 w2 neg d cl f} def
/m42 {mp x y w2 add m w8 neg w2 -3 4 div mul d w2 -3 4 div mul w8 neg d w2 3 4 div mul w8 neg d w8 w2 -3 4 div mul d w8 w2 3 4 div mul d w2 3 4 div mul w8 d w2 -3 4 div mul w8 d w8 neg w2 3 4 div mul d cl s} def
/m43 {mp x y w2 add m w8 neg w2 -3 4 div mul d w2 -3 4 div mul w8 neg d w2 3 4 div mul w8 neg d w8 w2 -3 4 div mul d w8 w2 3 4 div mul d w2 3 4 div mul w8 d w2 -3 4 div mul w8 d w8 neg w2 3 4 div mul d cl f} def
/m44 {mp x y m w6 neg w2 d w2 2 3 div mul 0 d w6 neg w2 neg d w2 w6 d 0 w2 -2 3 div mul d w2 neg w6 d w6 w2 neg d w2 -2 3 div mul 0 d w6 w2 d w2 neg w6 neg d 0 w2 2 3 div mul d w2 w6 neg d cl s} def
/m45 {mp x y m w6 neg w2 d w2 2 3 div mul 0 d w6 neg w2 neg d w2 w6 d 0 w2 -2 3 div mul d w2 neg w6 d w6 w2 neg d w2 -2 3 div mul 0 d w6 w2 d w2 neg w6 neg d 0 w2 2 3 div mul d w2 w6 neg d cl f} def
/m46 {mp x y w4 add m w4 neg w4 d w4 neg w4 neg d  w4 w4 neg d w4 neg w4 neg d w4 w4 neg d w4 w4 d w4 w4 neg d w4 w4 d w4 neg w4 d w4 w4 d w4 neg w4 d w4 neg w4 neg d cl s} def
/m47 {mp x y w4 add m w4 neg w4 d w4 neg w4 neg d w4 w4 neg d w4 neg w4 neg d  w4 w4 neg d w4 w4 d w4 w4 neg d w4 w4 d w4 neg w4 d w4 w4 d w4 neg w4 d w4 neg w4 neg d cl f} def
/m48 {mp x y w4 add m w4 neg w4 d w4 neg w4 neg d w4 w4 neg d  w4 neg w4 neg d w4 w4 neg d w4 w4 d w4 w4 neg d w4 w4 d w4 neg w4 d w4 w4 d w4 neg w4 d w4 neg w4 neg d  w4 w4 neg d w4 neg w4 neg d w4 neg w4 d w4 w4 d cl f} def
/m49 {mp x w2 sub w3 add y w2 sub w3 add m  0 w3 neg d w3 0 d 0 w3 d w3 0 d 0 w3 d w3 neg 0 d 0 w3 d w3 neg 0 d 0 w3 neg d w3 neg 0 d 0 w3 neg d w3 0 d 0 w3 d w3 0 d 0 w3 neg d w3 neg 0 d cl f } def
/m2 {mp x y w2 sub m 0 w d x w2 sub y m w 0 d s} def
/m5 {mp x w2 sub y w2 sub m w w d x w2 sub y w2 add m w w neg d s} def
%%IncludeResource: ProcSet (FontSetInit)
%%IncludeResource: font Times-Roman
%%IncludeResource: font Times-Italic
%%IncludeResource: font Times-Bold
%%IncludeResource: font Times-BoldItalic
%%IncludeResource: font Helvetica
%%IncludeResource: font Helvetica-Oblique
%%IncludeResource: font Helvetica-Bold
%%IncludeResource: font Helvetica-BoldOblique
%%IncludeResource: font Courier
%%IncludeResource: font Courier-Oblique
%%IncludeResource: font Courier-Bold
%%IncludeResource: font Courier-BoldOblique
%%IncludeResource: font Symbol
%%IncludeResource: font ZapfDingbats
/reEncode {exch findfont dup length dict begin {1 index /FID eq  {pop pop} {def} ifelse } forall /Encoding exch def currentdict end dup /FontName get exch definefont pop } def [/Times-Bold /Times-Italic /Times-BoldItalic /Helvetica /Helvetica-Oblique
 /Helvetica-Bold /Helvetica-BoldOblique /Courier /Courier-Oblique /Courier-Bold /Courier-BoldOblique /Times-Roman /AvantGarde-Book /AvantGarde-BookOblique /AvantGarde-Demi /AvantGarde-DemiOblique /Bookman-Demi /Bookman-DemiItalic /Bookman-Light
 /Bookman-LightItalic /Helvetica-Narrow /Helvetica-Narrow-Bold /Helvetica-Narrow-BoldOblique /Helvetica-Narrow-Oblique /NewCenturySchlbk-Roman /NewCenturySchlbk-Bold /NewCenturySchlbk-BoldItalic /NewCenturySchlbk-Italic /Palatino-Bold
 /Palatino-BoldItalic /Palatino-Italic /Palatino-Roman ] {ISOLatin1Encoding reEncode } forall
%%EndProlog
%%BeginSetup
%%EndSetup
newpath  gsave  .25 .25 scale  gsave  0 0 t black[  ] 0 sd 3 lw 1 1 1 c 2268 2176 0 0 bf black 1 1 1 c black 1769 1697 408 305 bl 1769 1697 408 305 bl 1 1 1 c black 1769 1697 408 305 bl 1769 1697 408 305 bl 0.49 0.6 0.82 c 1 1 1 c 0.49 0.6 0.82 c /w
 30 def /w2 {w 2 div} def /w3 {w 3 div} def 420 409 m20 442 411 m20 465 408 m20 488 419 m20 510 419 m20 533 421 m20 556 424 m20 578 423 m20 601 428 m20 624 430 m20 646 433 m20 669 435 m20 692 438 m20 714 440 m20 737 443 m20 760 445 m20 782 449 m20
 805 452 m20 828 455 m20 850 457 m20 873 460 m20 896 464 m20 918 467 m20 941 470 m20 964 474 m20 986 478 m20 1009 480 m20 1032 483 m20 1054 487 m20 1077 491 m20 1100 496 m20 1123 499 m20 1145 504 m20 1168 509 m20 1191 512 m20 1213 517 m20 1236 522
 m20 1259 524 m20 1281 530 m20 1304 536 m20 1327 539 m20 1349 544 m20 1372 549 m20 1395 554 m20 1417 561 m20 1440 564 m20 1463 570 m20 1485 578 m20 1508 581 m20 1531 587 m20 1553 591 m20 1576 598 m20 1599 606 m20 1621 608 m20 1644 614 m20 1667 619
 m20 1689 625 m20 1712 630 m20 1735 637 m20 1757 645 m20 1780 648 m20 1803 655 m20 1826 661 m20 1848 666 m20 1871 666 m20 1894 678 m20 1916 683 m20 1939 690 m20 1962 698 m20 1984 705 m20 2007 701 m20 2030 712 m20 2052 730 m20 2075 725 m20 2098 726
 m20 2120 736 m20 2143 740 m20 2166 749 m20 black 408 305 m 1769 X s 590 356 m -51 Y s 635 330 m -25 Y s 680 330 m -25 Y s 726 330 m -25 Y s 771 330 m -25 Y s 816 356 m -51 Y s 862 330 m -25 Y s 907 330 m -25 Y s 952 330 m -25 Y s 998 330 m -25 Y s
 1043 356 m -51 Y s 1089 330 m -25 Y s 1134 330 m -25 Y s 1179 330 m -25 Y s 1225 330 m -25 Y s 1270 356 m -51 Y s 1315 330 m -25 Y s 1361 330 m -25 Y s 1406 330 m -25 Y s 1451 330 m -25 Y s 1497 356 m -51 Y s 1542 330 m -25 Y s 1587 330 m -25 Y s
 1633 330 m -25 Y s 1678 330 m -25 Y s 1723 356 m -51 Y s 1769 330 m -25 Y s 1814 330 m -25 Y s 1860 330 m -25 Y s 1905 330 m -25 Y s 1950 356 m -51 Y s 1996 330 m -25 Y s 2041 330 m -25 Y s 2086 330 m -25 Y s 2132 330 m -25 Y s 2177 356 m -51 Y s
 590 356 m -51 Y s 544 330 m -25 Y s 499 330 m -25 Y s 454 330 m -25 Y s
 gsave  2268 2176 0 0 C 528.88 205.464 t 0 r /Helvetica findfont 102.732 sf 0 0 m (10) show NC gr 
 gsave  2268 2176 0 0 C 757.174 205.464 t 0 r /Helvetica findfont 102.732 sf 0 0 m (20) show NC gr 
 gsave  2268 2176 0 0 C 985.467 205.464 t 0 r /Helvetica findfont 102.732 sf 0 0 m (30) show NC gr 
 gsave  2268 2176 0 0 C 1209.96 205.464 t 0 r /Helvetica findfont 102.732 sf 0 0 m (40) show NC gr 
 gsave  2268 2176 0 0 C 1438.25 205.464 t 0 r /Helvetica findfont 102.732 sf 0 0 m (50) show NC gr 
 gsave  2268 2176 0 0 C 1662.74 205.464 t 0 r /Helvetica findfont 102.732 sf 0 0 m (60) show NC gr 
 gsave  2268 2176 0 0 C 1891.03 205.464 t 0 r /Helvetica findfont 102.732 sf 0 0 m (70) show NC gr 
 gsave  2268 2176 0 0 C 2119.33 205.464 t 0 r /Helvetica findfont 102.732 sf 0 0 m (80) show NC gr 
 gsave  2268 2176 0 0 C 1236.59 41.8538 t 0 r /Helvetica findfont 121.757 sf 0 0 m (Number of Pileup) show NC gr  408 2002 m 1769 X s 590 1951 m 51 Y s 635 1977 m 25 Y s 680 1977 m 25 Y s 726 1977 m 25 Y s 771 1977 m 25 Y s 816 1951 m 51 Y s 862 1977
 m 25 Y s 907 1977 m 25 Y s 952 1977 m 25 Y s 998 1977 m 25 Y s 1043 1951 m 51 Y s 1089 1977 m 25 Y s 1134 1977 m 25 Y s 1179 1977 m 25 Y s 1225 1977 m 25 Y s 1270 1951 m 51 Y s 1315 1977 m 25 Y s 1361 1977 m 25 Y s 1406 1977 m 25 Y s 1451 1977 m 25
 Y s 1497 1951 m 51 Y s 1542 1977 m 25 Y s 1587 1977 m 25 Y s 1633 1977 m 25 Y s 1678 1977 m 25 Y s 1723 1951 m 51 Y s 1769 1977 m 25 Y s 1814 1977 m 25 Y s 1860 1977 m 25 Y s 1905 1977 m 25 Y s 1950 1951 m 51 Y s 1996 1977 m 25 Y s 2041 1977 m 25 Y
 s 2086 1977 m 25 Y s 2132 1977 m 25 Y s 2177 1951 m 51 Y s 590 1951 m 51 Y s 544 1977 m 25 Y s 499 1977 m 25 Y s 454 1977 m 25 Y s 408 305 m 1697 Y s 461 305 m -53 X s 435 351 m -27 X s 435 396 m -27 X s 435 442 m -27 X s 435 488 m -27 X s 461 534 m
 -53 X s 435 580 m -27 X s 435 626 m -27 X s 435 672 m -27 X s 435 718 m -27 X s 461 764 m -53 X s 435 809 m -27 X s 435 855 m -27 X s 435 901 m -27 X s 435 947 m -27 X s 461 993 m -53 X s 435 1039 m -27 X s 435 1085 m -27 X s 435 1131 m -27 X s 435
 1176 m -27 X s 461 1222 m -53 X s 435 1268 m -27 X s 435 1314 m -27 X s 435 1360 m -27 X s 435 1406 m -27 X s 461 1452 m -53 X s 435 1498 m -27 X s 435 1543 m -27 X s 435 1589 m -27 X s 435 1635 m -27 X s 461 1681 m -53 X s 435 1727 m -27 X s 435
 1773 m -27 X s 435 1819 m -27 X s 435 1865 m -27 X s 461 1911 m -53 X s 461 1911 m -53 X s 435 1956 m -27 X s
 gsave  2268 2176 0 0 C 338.636 270.147 t 0 r /Helvetica findfont 102.732 sf 0 0 m (0) show NC gr 
 gsave  2268 2176 0 0 C 270.147 498.441 t 0 r /Helvetica findfont 102.732 sf 0 0 m (0.1) show NC gr 
 gsave  2268 2176 0 0 C 251.123 726.735 t 0 r /Helvetica findfont 102.732 sf 0 0 m (0.2) show NC gr 
 gsave  2268 2176 0 0 C 251.123 955.028 t 0 r /Helvetica findfont 102.732 sf 0 0 m (0.3) show NC gr 
 gsave  2268 2176 0 0 C 251.123 1187.13 t 0 r /Helvetica findfont 102.732 sf 0 0 m (0.4) show NC gr 
 gsave  2268 2176 0 0 C 251.123 1415.42 t 0 r /Helvetica findfont 102.732 sf 0 0 m (0.5) show NC gr 
 gsave  2268 2176 0 0 C 251.123 1643.71 t 0 r /Helvetica findfont 102.732 sf 0 0 m (0.6) show NC gr 
 gsave  2268 2176 0 0 C 251.123 1875.81 t 0 r /Helvetica findfont 102.732 sf 0 0 m (0.7) show NC gr 
 gsave  2268 2176 0 0 C 156.001 620.198 t 90 r /Helvetica findfont 121.757 sf 0 0 m (DY+Jets Fakes per Event) show NC gr  2177 305 m 1697 Y s 2124 305 m 53 X s 2150 351 m 27 X s 2150 396 m 27 X s 2150 442 m 27 X s 2150 488 m 27 X s 2124 534 m 53 X s
 2150 580 m 27 X s 2150 626 m 27 X s 2150 672 m 27 X s 2150 718 m 27 X s 2124 764 m 53 X s 2150 809 m 27 X s 2150 855 m 27 X s 2150 901 m 27 X s 2150 947 m 27 X s 2124 993 m 53 X s 2150 1039 m 27 X s 2150 1085 m 27 X s 2150 1131 m 27 X s 2150 1176 m
 27 X s 2124 1222 m 53 X s 2150 1268 m 27 X s 2150 1314 m 27 X s 2150 1360 m 27 X s 2150 1406 m 27 X s 2124 1452 m 53 X s 2150 1498 m 27 X s 2150 1543 m 27 X s 2150 1589 m 27 X s 2150 1635 m 27 X s 2124 1681 m 53 X s 2150 1727 m 27 X s 2150 1773 m 27
 X s 2150 1819 m 27 X s 2150 1865 m 27 X s 2124 1911 m 53 X s 2124 1911 m 53 X s 2150 1956 m 27 X s 0.49 0.6 0.82 c 1 1 1 c 0.49 0.6 0.82 c 420 399 m24 442 407 m24 465 411 m24 488 408 m24 510 418 m24 533 421 m24 556 418 m24 578 426 m24 601 428 m24
 624 431 m24 646 431 m24 669 436 m24 692 436 m24 714 440 m24 737 442 m24 760 446 m24 782 447 m24 805 451 m24 828 453 m24 850 456 m24 873 459 m24 896 462 m24 918 464 m24 941 467 m24 964 470 m24 986 473 m24 1009 475 m24 1032 478 m24 1054 483 m24 1077
 485 m24 1100 488 m24 1123 491 m24 1145 494 m24 1168 497 m24 1191 500 m24 1213 504 m24 1236 506 m24 1259 510 m24 1281 511 m24 1304 513 m24 1327 518 m24 1349 523 m24 1372 526 m24 1395 532 m24 1417 531 m24 1440 537 m24 1463 541 m24 1485 545 m24 1508
 550 m24 1531 553 m24 1553 558 m24 1576 560 m24 1599 566 m24 1621 570 m24 1644 574 m24 1667 576 m24 1689 587 m24 1712 590 m24 1735 594 m24 1757 597 m24 1780 603 m24 1803 604 m24 1826 612 m24 1848 613 m24 1871 621 m24 1894 621 m24 1916 629 m24 1939
 633 m24 1962 633 m24 1984 642 m24 2007 659 m24 2030 656 m24 2052 613 m 1 Y s 2052 645 m 1 Y s 2052 630 m24 2075 658 m 5 Y s 2075 694 m 6 Y s 2075 679 m24 2098 629 m 7 Y s 2098 667 m 7 Y s 2098 651 m24 2120 704 m 14 Y s 2120 749 m 14 Y s 2120 734 m24
 2143 663 m 19 Y s 2143 713 m 19 Y s 2143 697 m24 2166 657 m 26 Y s 2166 713 m 26 Y s 2166 698 m24 black 1 1 1 c 635 392 476 1523 bf black
 gsave  2268 2176 0 0 C 631.612 1776.89 t 0 r /Helvetica findfont 102.732 sf 0 0 m (2017 ecal driven) show NC gr  0.49 0.6 0.82 c 556 1833 m 43 Y s 556 1802 m -43 Y s 556 1817 m20 black
 gsave  2268 2176 0 0 C 631.612 1579.03 t 0 r /Helvetica findfont 102.732 sf 0 0 m (2017 \(Legacy\) ecal driven) show NC gr  0.49 0.6 0.82 c 556 1637 m 43 Y s 556 1606 m -43 Y s 556 1621 m24 black
 gsave  2268 2176 0 0 C 1769.28 2039.42 t 0 r /Helvetica findfont 106.537 sf 0 0 m (\(13 TeV\)) show NC gr 
 gsave  2268 2176 0 0 C 408.189 2037.11 t 0 r /Helvetica-Bold findfont 129.366 sf 0 0 m (CMS) show NC gr 
 gsave  2268 2176 0 0 C 487.026 2039.42 t 0 r /Helvetica-Oblique findfont 98.9272 sf 0 0 m (        Simulation) show NC gr  408 305 m 1769 X s 590 356 m -51 Y s 635 330 m -25 Y s 680 330 m -25 Y s 726 330 m -25 Y s 771 330 m -25 Y s 816 356 m -51 Y s
 862 330 m -25 Y s 907 330 m -25 Y s 952 330 m -25 Y s 998 330 m -25 Y s 1043 356 m -51 Y s 1089 330 m -25 Y s 1134 330 m -25 Y s 1179 330 m -25 Y s 1225 330 m -25 Y s 1270 356 m -51 Y s 1315 330 m -25 Y s 1361 330 m -25 Y s 1406 330 m -25 Y s 1451
 330 m -25 Y s 1497 356 m -51 Y s 1542 330 m -25 Y s 1587 330 m -25 Y s 1633 330 m -25 Y s 1678 330 m -25 Y s 1723 356 m -51 Y s 1769 330 m -25 Y s 1814 330 m -25 Y s 1860 330 m -25 Y s 1905 330 m -25 Y s 1950 356 m -51 Y s 1996 330 m -25 Y s 2041
 330 m -25 Y s 2086 330 m -25 Y s 2132 330 m -25 Y s 2177 356 m -51 Y s 590 356 m -51 Y s 544 330 m -25 Y s 499 330 m -25 Y s 454 330 m -25 Y s 408 2002 m 1769 X s 590 1951 m 51 Y s 635 1977 m 25 Y s 680 1977 m 25 Y s 726 1977 m 25 Y s 771 1977 m 25
 Y s 816 1951 m 51 Y s 862 1977 m 25 Y s 907 1977 m 25 Y s 952 1977 m 25 Y s 998 1977 m 25 Y s 1043 1951 m 51 Y s 1089 1977 m 25 Y s 1134 1977 m 25 Y s 1179 1977 m 25 Y s 1225 1977 m 25 Y s 1270 1951 m 51 Y s 1315 1977 m 25 Y s 1361 1977 m 25 Y s
 1406 1977 m 25 Y s 1451 1977 m 25 Y s 1497 1951 m 51 Y s 1542 1977 m 25 Y s 1587 1977 m 25 Y s 1633 1977 m 25 Y s 1678 1977 m 25 Y s 1723 1951 m 51 Y s 1769 1977 m 25 Y s 1814 1977 m 25 Y s 1860 1977 m 25 Y s 1905 1977 m 25 Y s 1950 1951 m 51 Y s
 1996 1977 m 25 Y s 2041 1977 m 25 Y s 2086 1977 m 25 Y s 2132 1977 m 25 Y s 2177 1951 m 51 Y s 590 1951 m 51 Y s 544 1977 m 25 Y s 499 1977 m 25 Y s 454 1977 m 25 Y s 408 305 m 1697 Y s 461 305 m -53 X s 435 351 m -27 X s 435 396 m -27 X s 435 442 m
 -27 X s 435 488 m -27 X s 461 534 m -53 X s 435 580 m -27 X s 435 626 m -27 X s 435 672 m -27 X s 435 718 m -27 X s 461 764 m -53 X s 435 809 m -27 X s 435 855 m -27 X s 435 901 m -27 X s 435 947 m -27 X s 461 993 m -53 X s 435 1039 m -27 X s 435
 1085 m -27 X s 435 1131 m -27 X s 435 1176 m -27 X s 461 1222 m -53 X s 435 1268 m -27 X s 435 1314 m -27 X s 435 1360 m -27 X s 435 1406 m -27 X s 461 1452 m -53 X s 435 1498 m -27 X s 435 1543 m -27 X s 435 1589 m -27 X s 435 1635 m -27 X s 461
 1681 m -53 X s 435 1727 m -27 X s 435 1773 m -27 X s 435 1819 m -27 X s 435 1865 m -27 X s 461 1911 m -53 X s 461 1911 m -53 X s 435 1956 m -27 X s 2177 305 m 1697 Y s 2124 305 m 53 X s 2150 351 m 27 X s 2150 396 m 27 X s 2150 442 m 27 X s 2150 488
 m 27 X s 2124 534 m 53 X s 2150 580 m 27 X s 2150 626 m 27 X s 2150 672 m 27 X s 2150 718 m 27 X s 2124 764 m 53 X s 2150 809 m 27 X s 2150 855 m 27 X s 2150 901 m 27 X s 2150 947 m 27 X s 2124 993 m 53 X s 2150 1039 m 27 X s 2150 1085 m 27 X s 2150
 1131 m 27 X s 2150 1176 m 27 X s 2124 1222 m 53 X s 2150 1268 m 27 X s 2150 1314 m 27 X s 2150 1360 m 27 X s 2150 1406 m 27 X s 2124 1452 m 53 X s 2150 1498 m 27 X s 2150 1543 m 27 X s 2150 1589 m 27 X s 2150 1635 m 27 X s 2124 1681 m 53 X s 2150
 1727 m 27 X s 2150 1773 m 27 X s 2150 1819 m 27 X s 2150 1865 m 27 X s 2124 1911 m 53 X s 2124 1911 m 53 X s 2150 1956 m 27 X s 1 1 1 c black 1769 1697 408 305 bl 1769 1697 408 305 bl
 gr  gr showpage
end
%%EOF
