%!PS-Adobe-2.0 EPSF-2.0
%%BoundingBox:  0 0 567 544
%%Title: plots/n_fakes_vs_ele_pt_only2017_endcap_ecal_driven.eps: n_fakes_vs_ele_pt_only2017_endcap_ecal_driven
%%Creator: ROOT Version 6.14/04
%%CreationDate: Tue Aug  4 10:26:00 2020
%%DocumentNeededResources: ProcSet (FontSetInit)
%%EndComments
%%BeginProlog
80 dict begin
/s {stroke} def /l {lineto} def /m {moveto} def /t {translate} def
/r {rotate} def /rl {roll}  def /R {repeat} def
/d {rlineto} def /rm {rmoveto} def /gr {grestore} def /f {eofill} def
/c {setrgbcolor} def /black {0 setgray} def /sd {setdash} def
/cl {closepath} def /sf {scalefont setfont} def /lw {setlinewidth} def
/box {m dup 0 exch d exch 0 d 0 exch neg d cl} def
/NC{systemdict begin initclip end}def/C{NC box clip newpath}def
/bl {box s} def /bf {gsave box gsave f grestore 1 lw [] 0 sd s grestore} def /Y { 0 exch d} def /X { 0 d} def 
/K {{pop pop 0 moveto} exch kshow} bind def
/ita {/ang 15 def gsave [1 0 ang dup sin exch cos div 1 0 0] concat} def 
/mp {newpath /y exch def /x exch def} def
/side {[w .77 mul w .23 mul] .385 w mul sd w 0 l currentpoint t -144 r} def
/mr {mp x y w2 0 360 arc} def /m24 {mr s} def /m20 {mr f} def
/mb {mp x y w2 add m w2 neg 0 d 0 w neg d w 0 d 0 w d cl} def
/mt {mp x y w2 add m w2 neg w neg d w 0 d cl} def
/w4 {w 4 div} def
/w6 {w 6 div} def
/w8 {w 8 div} def
/m21 {mb f} def /m25 {mb s} def /m22 {mt f} def /m26{mt s} def
/m23 {mp x y w2 sub m w2 w d w neg 0 d cl f} def
/m27 {mp x y w2 add m w3 neg w2 neg d w3 w2 neg d w3 w2 d cl s} def
/m28 {mp x w2 sub y w2 sub w3 add m w3 0 d  0 w3 neg d w3 0 d 0 w3 d w3 0 d  0 w3 d w3 neg 0 d 0 w3 d w3 neg 0 d 0 w3 neg d w3 neg 0 d cl s } def
/m29 {mp gsave x w2 sub y w2 add w3 sub m currentpoint t 4 {side} repeat cl fill gr} def
/m30 {mp gsave x w2 sub y w2 add w3 sub m currentpoint t 4 {side} repeat cl s gr} def
/m31 {mp x y w2 sub m 0 w d x w2 sub y m w 0 d x w2 sub y w2 add m w w neg d x w2 sub y w2 sub m w w d s} def
/m32 {mp x y w2 sub m w2 w d w neg 0 d cl s} def
/m33 {mp x y w2 add m w3 neg w2 neg d w3 w2 neg d w3 w2 d cl f} def
/m34 {mp x w2 sub y w2 sub w3 add m w3 0 d  0 w3 neg d w3 0 d 0 w3 d w3 0 d  0 w3 d w3 neg 0 d 0 w3 d w3 neg 0 d 0 w3 neg d w3 neg 0 d cl f } def
/m35 {mp x y w2 add m w2 neg w2 neg d w2 w2 neg d w2 w2 d w2 neg w2 d x y w2 sub m 0 w d x w2 sub y m w 0 d s} def
/m36 {mb x w2 sub y w2 add m w w neg d x w2 sub y w2 sub m w w d s} def
/m37 {mp x y m w4 neg w2 d w4 neg w2 neg d w2 0 d  w4 neg w2 neg d w2 0 d w4 neg w2 d w2 0 d w4 neg w2 d w4 neg w2 neg d cl s} def
/m38 {mp x w4 sub y w2 add m w4 neg w4 neg d 0 w2 neg d w4 w4 neg d w2 0 d w4 w4 d 0 w2 d w4 neg w4 d w2 neg 0 d x y w2 sub m 0 w d x w2 sub y m w 0 d cl s} def
/m39 {mp x y m w4 neg w2 d w4 neg w2 neg d w2 0 d  w4 neg w2 neg d w2 0 d w4 neg w2 d w2 0 d w4 neg w2 d w4 neg w2 neg d cl f} def
/m40 {mp x y m w4 w2 d w4 w4 neg d w2 neg w4 neg d w2 w4 neg d w4 neg w4 neg d w4 neg w2 d w4 neg w2 neg d w4 neg w4 d w2 w4 d w2 neg w4 d w4 w4 d w4 w2 neg d cl s} def
/m41 {mp x y m w4 w2 d w4 w4 neg d w2 neg w4 neg d w2 w4 neg d w4 neg w4 neg d w4 neg w2 d w4 neg w2 neg d w4 neg w4 d w2 w4 d w2 neg w4 d w4 w4 d w4 w2 neg d cl f} def
/m42 {mp x y w2 add m w8 neg w2 -3 4 div mul d w2 -3 4 div mul w8 neg d w2 3 4 div mul w8 neg d w8 w2 -3 4 div mul d w8 w2 3 4 div mul d w2 3 4 div mul w8 d w2 -3 4 div mul w8 d w8 neg w2 3 4 div mul d cl s} def
/m43 {mp x y w2 add m w8 neg w2 -3 4 div mul d w2 -3 4 div mul w8 neg d w2 3 4 div mul w8 neg d w8 w2 -3 4 div mul d w8 w2 3 4 div mul d w2 3 4 div mul w8 d w2 -3 4 div mul w8 d w8 neg w2 3 4 div mul d cl f} def
/m44 {mp x y m w6 neg w2 d w2 2 3 div mul 0 d w6 neg w2 neg d w2 w6 d 0 w2 -2 3 div mul d w2 neg w6 d w6 w2 neg d w2 -2 3 div mul 0 d w6 w2 d w2 neg w6 neg d 0 w2 2 3 div mul d w2 w6 neg d cl s} def
/m45 {mp x y m w6 neg w2 d w2 2 3 div mul 0 d w6 neg w2 neg d w2 w6 d 0 w2 -2 3 div mul d w2 neg w6 d w6 w2 neg d w2 -2 3 div mul 0 d w6 w2 d w2 neg w6 neg d 0 w2 2 3 div mul d w2 w6 neg d cl f} def
/m46 {mp x y w4 add m w4 neg w4 d w4 neg w4 neg d  w4 w4 neg d w4 neg w4 neg d w4 w4 neg d w4 w4 d w4 w4 neg d w4 w4 d w4 neg w4 d w4 w4 d w4 neg w4 d w4 neg w4 neg d cl s} def
/m47 {mp x y w4 add m w4 neg w4 d w4 neg w4 neg d w4 w4 neg d w4 neg w4 neg d  w4 w4 neg d w4 w4 d w4 w4 neg d w4 w4 d w4 neg w4 d w4 w4 d w4 neg w4 d w4 neg w4 neg d cl f} def
/m48 {mp x y w4 add m w4 neg w4 d w4 neg w4 neg d w4 w4 neg d  w4 neg w4 neg d w4 w4 neg d w4 w4 d w4 w4 neg d w4 w4 d w4 neg w4 d w4 w4 d w4 neg w4 d w4 neg w4 neg d  w4 w4 neg d w4 neg w4 neg d w4 neg w4 d w4 w4 d cl f} def
/m49 {mp x w2 sub w3 add y w2 sub w3 add m  0 w3 neg d w3 0 d 0 w3 d w3 0 d 0 w3 d w3 neg 0 d 0 w3 d w3 neg 0 d 0 w3 neg d w3 neg 0 d 0 w3 neg d w3 0 d 0 w3 d w3 0 d 0 w3 neg d w3 neg 0 d cl f } def
/m2 {mp x y w2 sub m 0 w d x w2 sub y m w 0 d s} def
/m5 {mp x w2 sub y w2 sub m w w d x w2 sub y w2 add m w w neg d s} def
%%IncludeResource: ProcSet (FontSetInit)
%%IncludeResource: font Times-Roman
%%IncludeResource: font Times-Italic
%%IncludeResource: font Times-Bold
%%IncludeResource: font Times-BoldItalic
%%IncludeResource: font Helvetica
%%IncludeResource: font Helvetica-Oblique
%%IncludeResource: font Helvetica-Bold
%%IncludeResource: font Helvetica-BoldOblique
%%IncludeResource: font Courier
%%IncludeResource: font Courier-Oblique
%%IncludeResource: font Courier-Bold
%%IncludeResource: font Courier-BoldOblique
%%IncludeResource: font Symbol
%%IncludeResource: font ZapfDingbats
/reEncode {exch findfont dup length dict begin {1 index /FID eq  {pop pop} {def} ifelse } forall /Encoding exch def currentdict end dup /FontName get exch definefont pop } def [/Times-Bold /Times-Italic /Times-BoldItalic /Helvetica /Helvetica-Oblique
 /Helvetica-Bold /Helvetica-BoldOblique /Courier /Courier-Oblique /Courier-Bold /Courier-BoldOblique /Times-Roman /AvantGarde-Book /AvantGarde-BookOblique /AvantGarde-Demi /AvantGarde-DemiOblique /Bookman-Demi /Bookman-DemiItalic /Bookman-Light
 /Bookman-LightItalic /Helvetica-Narrow /Helvetica-Narrow-Bold /Helvetica-Narrow-BoldOblique /Helvetica-Narrow-Oblique /NewCenturySchlbk-Roman /NewCenturySchlbk-Bold /NewCenturySchlbk-BoldItalic /NewCenturySchlbk-Italic /Palatino-Bold
 /Palatino-BoldItalic /Palatino-Italic /Palatino-Roman ] {ISOLatin1Encoding reEncode } forall
%%EndProlog
%%BeginSetup
%%EndSetup
newpath  gsave  .25 .25 scale  gsave  0 0 t black[  ] 0 sd 3 lw 1 1 1 c 2268 2176 0 0 bf black 1 1 1 c black 1769 1697 408 305 bl 1769 1697 408 305 bl 1 1 1 c black 1769 1697 408 305 bl 1769 1697 408 305 bl 0.49 0.6 0.82 c 1 1 1 c 0.49 0.6 0.82 c 408
 1904 m 18 X s 456 1904 m 16 X s /w 30 def /w2 {w 2 div} def /w3 {w 3 div} def 441 1904 m20 472 1876 m 14 X s 517 1876 m 12 X s 501 1876 m20 529 1838 m 12 X s 571 1838 m 10 X s 556 1838 m20 581 1798 m 9 X s 620 1798 m 8 X s 605 1798 m20 628 1760 m 7
 X s 666 1760 m 6 X s 650 1760 m20 672 1724 m 5 X s 707 1724 m 5 X s 692 1724 m20 712 1692 m 4 X s 746 1692 m 3 X s 731 1692 m20 749 1663 m 3 X s 782 1663 m 2 X s 767 1663 m20 784 1637 m 2 X s 816 1637 m 1 X s 801 1637 m20 817 1614 m 1 X s 848 1614 m
 s 833 1614 m20 863 1592 m20 892 1573 m20 919 1555 m20 945 1541 m20 970 1526 m20 993 1514 m20 1016 1503 m20 1038 1494 m20 1058 1480 m20 1079 1472 m20 1098 1460 m20 1117 1455 m20 1135 1445 m20 1152 1439 m20 1169 1430 m20 1186 1425 m20 1202 1415 m20
 1217 1408 m20 1232 1403 m20 1247 1396 m20 1261 1388 m20 1275 1381 m20 1289 1375 m20 1302 1367 m20 1315 1360 m20 1327 1355 m20 1340 1346 m20 1352 1339 m20 1364 1331 m20 1375 1324 m20 1387 1313 m20 1398 1310 m20 1408 1304 m20 1419 1299 m20 1430 1287
 m20 1440 1280 m20 1450 1272 m20 1460 1260 m20 1469 1252 m20 1479 1246 m20 1488 1234 m20 1498 1224 m20 1507 1218 m20 1515 1206 m20 1524 1199 m20 1533 1193 m20 1541 1177 m20 1550 1170 m20 1558 1162 m20 1566 1150 m20 1574 1141 m20 1582 1134 m20 1590
 1121 m20 1597 1111 m20 1605 1096 m20 1612 1087 m20 1620 1077 m20 1627 1059 m20 1634 1058 m20 1641 1039 m20 1648 1028 m20 1655 1014 m20 1662 1001 m20 1668 1002 m20 1675 991 m20 1682 984 m20 1688 974 m20 1694 978 m20 1701 972 m20 1707 959 m20 1713 947
 m20 1719 946 m20 1725 937 m20 1731 935 m20 1737 917 m20 1743 922 m20 1749 914 m20 1754 908 m20 1760 902 m20 1766 898 m20 1771 894 m20 1777 878 m20 1782 890 m20 1787 870 m20 1793 863 m20 1798 868 m20 1803 861 m20 1808 848 m20 1814 850 m20 1819 852
 m20 1824 847 m20 1829 844 m20 1834 834 m20 1839 832 m20 1843 826 m20 1848 802 m20 1853 796 m20 1858 816 m20 1862 808 m20 1867 787 m20 1872 801 m20 1876 778 m20 1881 781 m20 1885 783 m20 1890 789 m20 1894 769 m20 1898 776 m20 1903 765 m20 1907 763
 m20 1911 744 m20 1916 758 m20 1920 753 m20 1924 745 m20 1928 746 m20 1932 729 m20 1936 708 m20 1940 739 m20 1944 718 m20 1948 716 m20 1952 730 m20 1956 711 m20 1960 712 m20 1964 691 m20 1968 686 m20 1972 706 m20 1975 674 m20 1979 710 m20 1983 692
 m20 1987 623 m s 1987 638 m20 1990 686 m20 1994 663 m20 1998 693 m20 2001 676 m20 2005 672 m20 2009 666 m20 2012 661 m20 2016 654 m20 2019 659 m20 2023 652 m20 2026 644 m20 2029 624 m 1 Y s 2029 640 m20 2033 603 m 1 Y s 2033 619 m20 2036 598 m 1 Y s
 2036 614 m20 2040 616 m s 2040 631 m20 2043 608 m 1 Y s 2043 624 m20 2046 660 m20 2050 606 m 1 Y s 2050 622 m20 2053 614 m 1 Y s 2053 630 m20 2056 606 m 1 Y s 2056 622 m20 2059 572 m 3 Y s 2059 605 m 1 Y s 2059 590 m20 2063 599 m 2 Y s 2063 616 m20
 2066 585 m 2 Y s 2066 618 m s 2066 603 m20 2069 594 m 2 Y s 2069 611 m20 2072 604 m 2 Y s 2072 621 m20 2075 557 m 4 Y s 2075 591 m 2 Y s 2075 576 m20 2079 555 m 4 Y s 2079 589 m 2 Y s 2079 574 m20 2082 566 m 3 Y s 2082 599 m 2 Y s 2082 584 m20 2085
 583 m 3 Y s 2085 616 m 1 Y s 2085 601 m20 2088 570 m 3 Y s 2088 603 m 1 Y s 2088 588 m20 2091 561 m 4 Y s 2091 595 m 2 Y s 2091 580 m20 2094 555 m 4 Y s 2094 589 m 2 Y s 2094 574 m20 2097 563 m 4 Y s 2097 597 m 2 Y s 2097 582 m20 2100 508 m 7 Y s
 2100 545 m 5 Y s 2100 530 m20 2103 528 m 5 Y s 2103 564 m 3 Y s 2103 549 m20 2106 574 m 3 Y s 2106 607 m 1 Y s 2106 592 m20 2109 536 m 5 Y s 2109 571 m 3 Y s 2109 556 m20 2112 463 m 10 Y s 2112 504 m 7 Y s 2112 489 m20 2115 545 m 5 Y s 2115 580 m 3
 Y s 2115 565 m20 2118 520 m 6 Y s 2118 556 m 4 Y s 2118 541 m20 2121 520 m 6 Y s 2121 556 m 4 Y s 2121 541 m20 2124 525 m 6 Y s 2124 561 m 4 Y s 2124 546 m20 2126 517 m 6 Y s 2126 554 m 3 Y s 2126 538 m20 2129 520 m 6 Y s 2129 556 m 4 Y s 2129 541
 m20 2132 552 m 4 Y s 2132 587 m 2 Y s 2132 572 m20 2135 485 m 9 Y s 2135 524 m 6 Y s 2135 509 m20 2138 502 m 7 Y s 2138 540 m 4 Y s 2138 525 m20 2141 499 m 7 Y s 2141 537 m 5 Y s 2141 522 m20 2143 478 m 9 Y s 2143 518 m 6 Y s 2143 503 m20 2146 455 m
 11 Y s 2146 496 m 8 Y s 2146 481 m20 2149 495 m 8 Y s 2149 534 m 5 Y s 2149 519 m20 2152 502 m 7 Y s 2152 540 m 4 Y s 2152 525 m20 2154 482 m 9 Y s 2154 521 m 6 Y s 2154 506 m20 2157 489 m 8 Y s 2157 528 m 5 Y s 2157 512 m20 2160 455 m 11 Y s 2160
 496 m 8 Y s 2160 481 m20 2162 495 m 8 Y s 2162 534 m 5 Y s 2162 519 m20 2165 499 m 7 Y s 2165 537 m 5 Y s 2165 522 m20 2168 467 m 10 Y s 2168 508 m 6 Y s 2168 492 m20 2170 411 m 16 Y s 2170 457 m 10 Y s 2170 442 m20 2173 432 m 13 Y s 2173 476 m 9 Y
 s 2173 461 m20 2176 422 m 14 Y s 2176 467 m 9 Y s 2176 452 m20 black 408 305 m 1769 X s 507 330 m -25 Y s 591 330 m -25 Y s 663 330 m -25 Y s 727 330 m -25 Y s 784 356 m -51 Y s
 gsave  2268 2176 0 0 C 726.735 167.415 t 0 r /Helvetica findfont 102.732 sf 0 0 m (10) show NC gr  1161 330 m -25 Y s 1381 330 m -25 Y s 1537 330 m -25 Y s 1658 330 m -25 Y s 1757 330 m -25 Y s 1841 330 m -25 Y s 1913 330 m -25 Y s 1977 330 m -25 Y
 s 2035 356 m -51 Y s
 gsave  2268 2176 0 0 C 2066.06 213.074 t 0 r /Helvetica findfont 68.4881 sf 0 0 m (2) show NC gr 
 gsave  2268 2176 0 0 C 1955.72 167.415 t 0 r /Helvetica findfont 102.732 sf 0 0 m (10) show NC gr 
 gsave  2268 2176 0 0 C 1837.76 60.8783 t 0 r /Helvetica findfont 121.757 sf 0 0 m ( [GeV]) show NC gr 
 gsave  2268 2176 0 0 C 1788.3 -3.80489 t 0 r /Helvetica findfont 79.9028 sf 0 0 m (T) show NC gr 
 gsave  2268 2176 0 0 C 1240.4 60.8783 t 0 r /Helvetica findfont 121.757 sf 0 0 m (Electron p) show NC gr  408 2002 m 1769 X s 507 1977 m 25 Y s 591 1977 m 25 Y s 663 1977 m 25 Y s 727 1977 m 25 Y s 784 1951 m 51 Y s 1161 1977 m 25 Y s 1381 1977 m 25
 Y s 1537 1977 m 25 Y s 1658 1977 m 25 Y s 1757 1977 m 25 Y s 1841 1977 m 25 Y s 1913 1977 m 25 Y s 1977 1977 m 25 Y s 2035 1951 m 51 Y s 408 305 m 1697 Y s 435 326 m -27 X s 435 370 m -27 X s 435 405 m -27 X s 435 433 m -27 X s 435 456 m -27 X s 435
 477 m -27 X s 435 495 m -27 X s 461 511 m -53 X s
 gsave  2268 2176 0 0 C 342.44 513.661 t 0 r /Helvetica findfont 68.4881 sf 0 0 m (6) show NC gr 
 gsave  2268 2176 0 0 C 304.391 513.661 t 0 r /Symbol findfont 68.4881 sf 0 0 m (-) show NC gr 
 gsave  2268 2176 0 0 C 194.05 464.197 t 0 r /Helvetica findfont 102.732 sf 0 0 m (10) show NC gr  435 618 m -27 X s 435 681 m -27 X s 435 725 m -27 X s 435 759 m -27 X s 435 787 m -27 X s 435 811 m -27 X s 435 832 m -27 X s 435 850 m -27 X s 461 866
 m -53 X s
 gsave  2268 2176 0 0 C 342.44 867.516 t 0 r /Helvetica findfont 68.4881 sf 0 0 m (5) show NC gr 
 gsave  2268 2176 0 0 C 304.391 867.516 t 0 r /Symbol findfont 68.4881 sf 0 0 m (-) show NC gr 
 gsave  2268 2176 0 0 C 194.05 818.052 t 0 r /Helvetica findfont 102.732 sf 0 0 m (10) show NC gr  435 973 m -27 X s 435 1035 m -27 X s 435 1079 m -27 X s 435 1114 m -27 X s 435 1142 m -27 X s 435 1166 m -27 X s 435 1186 m -27 X s 435 1204 m -27 X s
 461 1221 m -53 X s
 gsave  2268 2176 0 0 C 342.44 1217.57 t 0 r /Helvetica findfont 68.4881 sf 0 0 m (4) show NC gr 
 gsave  2268 2176 0 0 C 304.391 1217.57 t 0 r /Symbol findfont 68.4881 sf 0 0 m (-) show NC gr 
 gsave  2268 2176 0 0 C 194.05 1171.91 t 0 r /Helvetica findfont 102.732 sf 0 0 m (10) show NC gr  435 1327 m -27 X s 435 1390 m -27 X s 435 1434 m -27 X s 435 1468 m -27 X s 435 1497 m -27 X s 435 1520 m -27 X s 435 1541 m -27 X s 435 1559 m -27 X s
 461 1575 m -53 X s
 gsave  2268 2176 0 0 C 342.44 1575.23 t 0 r /Helvetica findfont 68.4881 sf 0 0 m (3) show NC gr 
 gsave  2268 2176 0 0 C 304.391 1575.23 t 0 r /Symbol findfont 68.4881 sf 0 0 m (-) show NC gr 
 gsave  2268 2176 0 0 C 194.05 1525.76 t 0 r /Helvetica findfont 102.732 sf 0 0 m (10) show NC gr  435 1682 m -27 X s 435 1744 m -27 X s 435 1789 m -27 X s 435 1823 m -27 X s 435 1851 m -27 X s 435 1875 m -27 X s 435 1895 m -27 X s 435 1914 m -27 X s
 461 1930 m -53 X s
 gsave  2268 2176 0 0 C 342.44 1929.08 t 0 r /Helvetica findfont 68.4881 sf 0 0 m (2) show NC gr 
 gsave  2268 2176 0 0 C 304.391 1929.08 t 0 r /Symbol findfont 68.4881 sf 0 0 m (-) show NC gr 
 gsave  2268 2176 0 0 C 194.05 1883.42 t 0 r /Helvetica findfont 102.732 sf 0 0 m (10) show NC gr 
 gsave  2268 2176 0 0 C 156.001 620.198 t 90 r /Helvetica findfont 121.757 sf 0 0 m (DY+Jets Fakes per Event) show NC gr  2177 305 m 1697 Y s 2150 326 m 27 X s 2150 370 m 27 X s 2150 405 m 27 X s 2150 433 m 27 X s 2150 456 m 27 X s 2150 477 m 27 X s
 2150 495 m 27 X s 2124 511 m 53 X s 2150 618 m 27 X s 2150 681 m 27 X s 2150 725 m 27 X s 2150 759 m 27 X s 2150 787 m 27 X s 2150 811 m 27 X s 2150 832 m 27 X s 2150 850 m 27 X s 2124 866 m 53 X s 2150 973 m 27 X s 2150 1035 m 27 X s 2150 1079 m 27
 X s 2150 1114 m 27 X s 2150 1142 m 27 X s 2150 1166 m 27 X s 2150 1186 m 27 X s 2150 1204 m 27 X s 2124 1221 m 53 X s 2150 1327 m 27 X s 2150 1390 m 27 X s 2150 1434 m 27 X s 2150 1468 m 27 X s 2150 1497 m 27 X s 2150 1520 m 27 X s 2150 1541 m 27 X
 s 2150 1559 m 27 X s 2124 1575 m 53 X s 2150 1682 m 27 X s 2150 1744 m 27 X s 2150 1789 m 27 X s 2150 1823 m 27 X s 2150 1851 m 27 X s 2150 1875 m 27 X s 2150 1895 m 27 X s 2150 1914 m 27 X s 2124 1930 m 53 X s 0.49 0.6 0.82 c 1 1 1 c 0.49 0.6 0.82
 c 408 1890 m 18 X s 456 1890 m 16 X s 441 1890 m24 472 1849 m 14 X s 517 1849 m 12 X s 501 1849 m24 529 1805 m 12 X s 571 1805 m 10 X s 556 1805 m24 581 1767 m 9 X s 620 1767 m 8 X s 605 1767 m24 628 1730 m 7 X s 666 1730 m 6 X s 650 1730 m24 672
 1695 m 5 X s 707 1695 m 5 X s 692 1695 m24 712 1665 m 4 X s 746 1665 m 3 X s 731 1665 m24 749 1638 m 3 X s 782 1638 m 2 X s 767 1638 m24 784 1611 m 2 X s 816 1611 m 1 X s 801 1611 m24 817 1588 m 1 X s 848 1588 m s 833 1588 m24 863 1564 m24 892 1548
 m24 919 1530 m24 945 1516 m24 970 1503 m24 993 1492 m24 1016 1483 m24 1038 1469 m24 1058 1462 m24 1079 1455 m24 1098 1443 m24 1117 1436 m24 1135 1428 m24 1152 1420 m24 1169 1416 m24 1186 1406 m24 1202 1401 m24 1217 1391 m24 1232 1383 m24 1247 1380
 m24 1261 1371 m24 1275 1364 m24 1289 1357 m24 1302 1347 m24 1315 1348 m24 1327 1339 m24 1340 1336 m24 1352 1323 m24 1364 1314 m24 1375 1312 m24 1387 1304 m24 1398 1295 m24 1408 1287 m24 1419 1281 m24 1430 1275 m24 1440 1264 m24 1450 1261 m24 1460
 1245 m24 1469 1245 m24 1479 1234 m24 1488 1225 m24 1498 1214 m24 1507 1208 m24 1515 1198 m24 1524 1193 m24 1533 1181 m24 1541 1167 m24 1550 1159 m24 1558 1153 m24 1566 1148 m24 1574 1127 m24 1582 1121 m24 1590 1108 m24 1597 1103 m24 1605 1098 m24
 1612 1085 m24 1620 1066 m24 1627 1058 m24 1634 1044 m24 1641 1024 m24 1648 1025 m24 1655 1020 m24 1662 1009 m24 1668 995 m24 1675 991 m24 1682 974 m24 1688 969 m24 1694 954 m24 1701 952 m24 1707 955 m24 1713 953 m24 1719 930 m24 1725 919 m24 1731
 924 m24 1737 928 m24 1743 912 m24 1749 883 m24 1754 892 m24 1760 890 m24 1766 887 m24 1771 882 m24 1777 873 m24 1782 879 m24 1787 857 m24 1793 854 m24 1798 851 m24 1803 838 m24 1808 828 m24 1814 839 m24 1819 838 m24 1824 817 m24 1829 821 m24 1834
 800 m24 1839 812 m24 1843 803 m24 1848 820 m24 1853 798 m24 1858 783 m24 1862 788 m24 1867 790 m24 1872 761 m24 1876 715 m 2 Y s 1876 732 m24 1881 763 m24 1885 765 m24 1890 776 m24 1894 728 m s 1894 744 m24 1898 761 m24 1903 759 m24 1907 727 m s
 1907 742 m24 1911 722 m 1 Y s 1911 738 m24 1916 730 m s 1916 745 m24 1920 715 m 2 Y s 1920 732 m24 1924 728 m s 1924 744 m24 1928 714 m 1 Y s 1928 730 m24 1932 734 m s 1932 749 m24 1936 683 m 3 Y s 1936 716 m 1 Y s 1936 701 m24 1940 702 m 2 Y s 1940
 734 m s 1940 719 m24 1944 672 m 4 Y s 1944 706 m 2 Y s 1944 691 m24 1948 679 m 3 Y s 1948 712 m 1 Y s 1948 697 m24 1952 672 m 4 Y s 1952 706 m 2 Y s 1952 691 m24 1956 654 m 5 Y s 1956 689 m 3 Y s 1956 674 m24 1960 670 m 4 Y s 1960 704 m 2 Y s 1960
 689 m24 1964 677 m 3 Y s 1964 710 m 2 Y s 1964 695 m24 1968 681 m 3 Y s 1968 714 m 1 Y s 1968 699 m24 1972 661 m 4 Y s 1972 696 m 2 Y s 1972 681 m24 1975 641 m 6 Y s 1975 677 m 3 Y s 1975 662 m24 1979 656 m 5 Y s 1979 691 m 3 Y s 1979 676 m24 1983
 622 m 7 Y s 1983 659 m 4 Y s 1983 644 m24 1987 633 m 6 Y s 1987 670 m 3 Y s 1987 655 m24 1990 622 m 7 Y s 1990 659 m 4 Y s 1990 644 m24 1994 672 m 4 Y s 1994 706 m 2 Y s 1994 691 m24 1998 613 m 7 Y s 1998 651 m 4 Y s 1998 636 m24 2001 593 m 9 Y s
 2001 632 m 6 Y s 2001 617 m24 2005 610 m 7 Y s 2005 648 m 5 Y s 2005 633 m24 2009 603 m 8 Y s 2009 642 m 5 Y s 2009 627 m24 2012 631 m 6 Y s 2012 667 m 4 Y s 2012 652 m24 2016 582 m 10 Y s 2016 622 m 6 Y s 2016 607 m24 2019 606 m 8 Y s 2019 645 m 5
 Y s 2019 630 m24 2023 606 m 8 Y s 2023 645 m 5 Y s 2023 630 m24 2026 552 m 13 Y s 2026 595 m 9 Y s 2026 580 m24 2029 593 m 9 Y s 2029 632 m 6 Y s 2029 617 m24 2033 585 m 10 Y s 2033 626 m 6 Y s 2033 610 m24 2036 582 m 10 Y s 2036 622 m 6 Y s 2036
 607 m24 2040 603 m 8 Y s 2040 642 m 5 Y s 2040 627 m24 2043 557 m 12 Y s 2043 599 m 8 Y s 2043 584 m24 2046 543 m 13 Y s 2046 587 m 9 Y s 2046 572 m24 2050 603 m 8 Y s 2050 642 m 5 Y s 2050 627 m24 2053 616 m 7 Y s 2053 654 m 4 Y s 2053 638 m24 2056
 552 m 13 Y s 2056 595 m 9 Y s 2056 580 m24 2059 478 m 20 Y s 2059 529 m 13 Y s 2059 513 m24 2063 557 m 12 Y s 2063 599 m 8 Y s 2063 584 m24 2066 511 m 16 Y s 2066 558 m 11 Y s 2066 543 m24 2069 528 m 15 Y s 2069 573 m 10 Y s 2069 558 m24 2072 505 m
 17 Y s 2072 552 m 12 Y s 2072 537 m24 2075 538 m 14 Y s 2075 582 m 10 Y s 2075 567 m24 2079 543 m 13 Y s 2079 587 m 9 Y s 2079 572 m24 2082 511 m 16 Y s 2082 558 m 11 Y s 2082 543 m24 2085 522 m 16 Y s 2085 568 m 10 Y s 2085 553 m24 2088 566 m 11 Y
 s 2088 607 m 8 Y s 2088 592 m24 2091 566 m 11 Y s 2091 607 m 8 Y s 2091 592 m24 2094 533 m 14 Y s 2094 578 m 9 Y s 2094 563 m24 2097 522 m 16 Y s 2097 568 m 10 Y s 2097 553 m24 2100 522 m 16 Y s 2100 568 m 10 Y s 2100 553 m24 2103 533 m 14 Y s 2103
 578 m 9 Y s 2103 563 m24 2106 552 m 13 Y s 2106 595 m 9 Y s 2106 580 m24 2109 446 m 24 Y s 2109 501 m 15 Y s 2109 485 m24 2112 499 m 17 Y s 2112 547 m 12 Y s 2112 532 m24 2115 485 m 20 Y s 2115 535 m 13 Y s 2115 520 m24 2118 561 m 12 Y s 2118 603 m
 8 Y s 2118 588 m24 2121 478 m 20 Y s 2121 529 m 13 Y s 2121 513 m24 2124 471 m 21 Y s 2124 522 m 14 Y s 2124 507 m24 2126 478 m 20 Y s 2126 529 m 13 Y s 2126 513 m24 2129 455 m 23 Y s 2129 508 m 15 Y s 2129 493 m24 2132 478 m 20 Y s 2132 529 m 13 Y
 s 2132 513 m24 2135 485 m 20 Y s 2135 535 m 13 Y s 2135 520 m24 2138 446 m 24 Y s 2138 501 m 15 Y s 2138 485 m24 2141 463 m 22 Y s 2141 515 m 15 Y s 2141 500 m24 2143 428 m 26 Y s 2143 484 m 18 Y s 2143 469 m24 2146 446 m 24 Y s 2146 501 m 15 Y s
 2146 485 m24 2149 395 m 31 Y s 2149 456 m 20 Y s 2149 441 m24 2152 428 m 26 Y s 2152 484 m 18 Y s 2152 469 m24 2154 354 m 38 Y s 2154 422 m 24 Y s 2154 407 m24 2157 395 m 31 Y s 2157 456 m 20 Y s 2157 441 m24 2160 428 m 26 Y s 2160 484 m 18 Y s 2160
 469 m24 2162 383 m 32 Y s 2162 446 m 21 Y s 2162 430 m24 2165 446 m 24 Y s 2165 501 m 15 Y s 2165 485 m24 2168 437 m 25 Y s 2168 493 m 16 Y s 2168 478 m24 2170 478 m 20 Y s 2170 529 m 13 Y s 2170 513 m24 2173 320 m 43 Y s 2173 394 m 27 Y s 2173 379
 m24 2176 446 m 24 Y s 2176 501 m 15 Y s 2176 485 m24 black 1 1 1 c 635 392 476 435 bf black
 gsave  2268 2176 0 0 C 631.612 688.686 t 0 r /Helvetica findfont 102.732 sf 0 0 m (2017 Endcap ecal driven) show NC gr  0.49 0.6 0.82 c 556 744 m 44 Y s 556 714 m -44 Y s 556 729 m20 black
 gsave  2268 2176 0 0 C 631.612 490.831 t 0 r /Helvetica findfont 102.732 sf 0 0 m (2017 \(Legacy\) Endcap ecal driven) show NC gr  0.49 0.6 0.82 c 556 548 m 44 Y s 556 518 m -44 Y s 556 533 m24 black
 gsave  2268 2176 0 0 C 1769.28 2039.42 t 0 r /Helvetica findfont 106.537 sf 0 0 m (\(13 TeV\)) show NC gr 
 gsave  2268 2176 0 0 C 408.189 2037.11 t 0 r /Helvetica-Bold findfont 129.366 sf 0 0 m (CMS) show NC gr 
 gsave  2268 2176 0 0 C 487.026 2039.42 t 0 r /Helvetica-Oblique findfont 98.9272 sf 0 0 m (        Simulation) show NC gr  408 305 m 1769 X s 507 330 m -25 Y s 591 330 m -25 Y s 663 330 m -25 Y s 727 330 m -25 Y s 784 356 m -51 Y s 1161 330 m -25 Y
 s 1381 330 m -25 Y s 1537 330 m -25 Y s 1658 330 m -25 Y s 1757 330 m -25 Y s 1841 330 m -25 Y s 1913 330 m -25 Y s 1977 330 m -25 Y s 2035 356 m -51 Y s 408 2002 m 1769 X s 507 1977 m 25 Y s 591 1977 m 25 Y s 663 1977 m 25 Y s 727 1977 m 25 Y s 784
 1951 m 51 Y s 1161 1977 m 25 Y s 1381 1977 m 25 Y s 1537 1977 m 25 Y s 1658 1977 m 25 Y s 1757 1977 m 25 Y s 1841 1977 m 25 Y s 1913 1977 m 25 Y s 1977 1977 m 25 Y s 2035 1951 m 51 Y s 408 305 m 1697 Y s 435 326 m -27 X s 435 370 m -27 X s 435 405 m
 -27 X s 435 433 m -27 X s 435 456 m -27 X s 435 477 m -27 X s 435 495 m -27 X s 461 511 m -53 X s 435 618 m -27 X s 435 681 m -27 X s 435 725 m -27 X s 435 759 m -27 X s 435 787 m -27 X s 435 811 m -27 X s 435 832 m -27 X s 435 850 m -27 X s 461 866
 m -53 X s 435 973 m -27 X s 435 1035 m -27 X s 435 1079 m -27 X s 435 1114 m -27 X s 435 1142 m -27 X s 435 1166 m -27 X s 435 1186 m -27 X s 435 1204 m -27 X s 461 1221 m -53 X s 435 1327 m -27 X s 435 1390 m -27 X s 435 1434 m -27 X s 435 1468 m
 -27 X s 435 1497 m -27 X s 435 1520 m -27 X s 435 1541 m -27 X s 435 1559 m -27 X s 461 1575 m -53 X s 435 1682 m -27 X s 435 1744 m -27 X s 435 1789 m -27 X s 435 1823 m -27 X s 435 1851 m -27 X s 435 1875 m -27 X s 435 1895 m -27 X s 435 1914 m
 -27 X s 461 1930 m -53 X s 2177 305 m 1697 Y s 2150 326 m 27 X s 2150 370 m 27 X s 2150 405 m 27 X s 2150 433 m 27 X s 2150 456 m 27 X s 2150 477 m 27 X s 2150 495 m 27 X s 2124 511 m 53 X s 2150 618 m 27 X s 2150 681 m 27 X s 2150 725 m 27 X s 2150
 759 m 27 X s 2150 787 m 27 X s 2150 811 m 27 X s 2150 832 m 27 X s 2150 850 m 27 X s 2124 866 m 53 X s 2150 973 m 27 X s 2150 1035 m 27 X s 2150 1079 m 27 X s 2150 1114 m 27 X s 2150 1142 m 27 X s 2150 1166 m 27 X s 2150 1186 m 27 X s 2150 1204 m 27
 X s 2124 1221 m 53 X s 2150 1327 m 27 X s 2150 1390 m 27 X s 2150 1434 m 27 X s 2150 1468 m 27 X s 2150 1497 m 27 X s 2150 1520 m 27 X s 2150 1541 m 27 X s 2150 1559 m 27 X s 2124 1575 m 53 X s 2150 1682 m 27 X s 2150 1744 m 27 X s 2150 1789 m 27 X
 s 2150 1823 m 27 X s 2150 1851 m 27 X s 2150 1875 m 27 X s 2150 1895 m 27 X s 2150 1914 m 27 X s 2124 1930 m 53 X s 1 1 1 c black 1769 1697 408 305 bl 1769 1697 408 305 bl
 gr  gr showpage
end
%%EOF
