%!PS-Adobe-2.0 EPSF-2.0
%%BoundingBox:  0 0 567 544
%%Title: plots/n_fakes_vs_ele_pt_ul2017.eps: n_fakes_vs_ele_pt_ul2017
%%Creator: ROOT Version 6.14/04
%%CreationDate: Tue Aug  4 10:14:49 2020
%%DocumentNeededResources: ProcSet (FontSetInit)
%%EndComments
%%BeginProlog
80 dict begin
/s {stroke} def /l {lineto} def /m {moveto} def /t {translate} def
/r {rotate} def /rl {roll}  def /R {repeat} def
/d {rlineto} def /rm {rmoveto} def /gr {grestore} def /f {eofill} def
/c {setrgbcolor} def /black {0 setgray} def /sd {setdash} def
/cl {closepath} def /sf {scalefont setfont} def /lw {setlinewidth} def
/box {m dup 0 exch d exch 0 d 0 exch neg d cl} def
/NC{systemdict begin initclip end}def/C{NC box clip newpath}def
/bl {box s} def /bf {gsave box gsave f grestore 1 lw [] 0 sd s grestore} def /Y { 0 exch d} def /X { 0 d} def 
/K {{pop pop 0 moveto} exch kshow} bind def
/ita {/ang 15 def gsave [1 0 ang dup sin exch cos div 1 0 0] concat} def 
/mp {newpath /y exch def /x exch def} def
/side {[w .77 mul w .23 mul] .385 w mul sd w 0 l currentpoint t -144 r} def
/mr {mp x y w2 0 360 arc} def /m24 {mr s} def /m20 {mr f} def
/mb {mp x y w2 add m w2 neg 0 d 0 w neg d w 0 d 0 w d cl} def
/mt {mp x y w2 add m w2 neg w neg d w 0 d cl} def
/w4 {w 4 div} def
/w6 {w 6 div} def
/w8 {w 8 div} def
/m21 {mb f} def /m25 {mb s} def /m22 {mt f} def /m26{mt s} def
/m23 {mp x y w2 sub m w2 w d w neg 0 d cl f} def
/m27 {mp x y w2 add m w3 neg w2 neg d w3 w2 neg d w3 w2 d cl s} def
/m28 {mp x w2 sub y w2 sub w3 add m w3 0 d  0 w3 neg d w3 0 d 0 w3 d w3 0 d  0 w3 d w3 neg 0 d 0 w3 d w3 neg 0 d 0 w3 neg d w3 neg 0 d cl s } def
/m29 {mp gsave x w2 sub y w2 add w3 sub m currentpoint t 4 {side} repeat cl fill gr} def
/m30 {mp gsave x w2 sub y w2 add w3 sub m currentpoint t 4 {side} repeat cl s gr} def
/m31 {mp x y w2 sub m 0 w d x w2 sub y m w 0 d x w2 sub y w2 add m w w neg d x w2 sub y w2 sub m w w d s} def
/m32 {mp x y w2 sub m w2 w d w neg 0 d cl s} def
/m33 {mp x y w2 add m w3 neg w2 neg d w3 w2 neg d w3 w2 d cl f} def
/m34 {mp x w2 sub y w2 sub w3 add m w3 0 d  0 w3 neg d w3 0 d 0 w3 d w3 0 d  0 w3 d w3 neg 0 d 0 w3 d w3 neg 0 d 0 w3 neg d w3 neg 0 d cl f } def
/m35 {mp x y w2 add m w2 neg w2 neg d w2 w2 neg d w2 w2 d w2 neg w2 d x y w2 sub m 0 w d x w2 sub y m w 0 d s} def
/m36 {mb x w2 sub y w2 add m w w neg d x w2 sub y w2 sub m w w d s} def
/m37 {mp x y m w4 neg w2 d w4 neg w2 neg d w2 0 d  w4 neg w2 neg d w2 0 d w4 neg w2 d w2 0 d w4 neg w2 d w4 neg w2 neg d cl s} def
/m38 {mp x w4 sub y w2 add m w4 neg w4 neg d 0 w2 neg d w4 w4 neg d w2 0 d w4 w4 d 0 w2 d w4 neg w4 d w2 neg 0 d x y w2 sub m 0 w d x w2 sub y m w 0 d cl s} def
/m39 {mp x y m w4 neg w2 d w4 neg w2 neg d w2 0 d  w4 neg w2 neg d w2 0 d w4 neg w2 d w2 0 d w4 neg w2 d w4 neg w2 neg d cl f} def
/m40 {mp x y m w4 w2 d w4 w4 neg d w2 neg w4 neg d w2 w4 neg d w4 neg w4 neg d w4 neg w2 d w4 neg w2 neg d w4 neg w4 d w2 w4 d w2 neg w4 d w4 w4 d w4 w2 neg d cl s} def
/m41 {mp x y m w4 w2 d w4 w4 neg d w2 neg w4 neg d w2 w4 neg d w4 neg w4 neg d w4 neg w2 d w4 neg w2 neg d w4 neg w4 d w2 w4 d w2 neg w4 d w4 w4 d w4 w2 neg d cl f} def
/m42 {mp x y w2 add m w8 neg w2 -3 4 div mul d w2 -3 4 div mul w8 neg d w2 3 4 div mul w8 neg d w8 w2 -3 4 div mul d w8 w2 3 4 div mul d w2 3 4 div mul w8 d w2 -3 4 div mul w8 d w8 neg w2 3 4 div mul d cl s} def
/m43 {mp x y w2 add m w8 neg w2 -3 4 div mul d w2 -3 4 div mul w8 neg d w2 3 4 div mul w8 neg d w8 w2 -3 4 div mul d w8 w2 3 4 div mul d w2 3 4 div mul w8 d w2 -3 4 div mul w8 d w8 neg w2 3 4 div mul d cl f} def
/m44 {mp x y m w6 neg w2 d w2 2 3 div mul 0 d w6 neg w2 neg d w2 w6 d 0 w2 -2 3 div mul d w2 neg w6 d w6 w2 neg d w2 -2 3 div mul 0 d w6 w2 d w2 neg w6 neg d 0 w2 2 3 div mul d w2 w6 neg d cl s} def
/m45 {mp x y m w6 neg w2 d w2 2 3 div mul 0 d w6 neg w2 neg d w2 w6 d 0 w2 -2 3 div mul d w2 neg w6 d w6 w2 neg d w2 -2 3 div mul 0 d w6 w2 d w2 neg w6 neg d 0 w2 2 3 div mul d w2 w6 neg d cl f} def
/m46 {mp x y w4 add m w4 neg w4 d w4 neg w4 neg d  w4 w4 neg d w4 neg w4 neg d w4 w4 neg d w4 w4 d w4 w4 neg d w4 w4 d w4 neg w4 d w4 w4 d w4 neg w4 d w4 neg w4 neg d cl s} def
/m47 {mp x y w4 add m w4 neg w4 d w4 neg w4 neg d w4 w4 neg d w4 neg w4 neg d  w4 w4 neg d w4 w4 d w4 w4 neg d w4 w4 d w4 neg w4 d w4 w4 d w4 neg w4 d w4 neg w4 neg d cl f} def
/m48 {mp x y w4 add m w4 neg w4 d w4 neg w4 neg d w4 w4 neg d  w4 neg w4 neg d w4 w4 neg d w4 w4 d w4 w4 neg d w4 w4 d w4 neg w4 d w4 w4 d w4 neg w4 d w4 neg w4 neg d  w4 w4 neg d w4 neg w4 neg d w4 neg w4 d w4 w4 d cl f} def
/m49 {mp x w2 sub w3 add y w2 sub w3 add m  0 w3 neg d w3 0 d 0 w3 d w3 0 d 0 w3 d w3 neg 0 d 0 w3 d w3 neg 0 d 0 w3 neg d w3 neg 0 d 0 w3 neg d w3 0 d 0 w3 d w3 0 d 0 w3 neg d w3 neg 0 d cl f } def
/m2 {mp x y w2 sub m 0 w d x w2 sub y m w 0 d s} def
/m5 {mp x w2 sub y w2 sub m w w d x w2 sub y w2 add m w w neg d s} def
%%IncludeResource: ProcSet (FontSetInit)
%%IncludeResource: font Times-Roman
%%IncludeResource: font Times-Italic
%%IncludeResource: font Times-Bold
%%IncludeResource: font Times-BoldItalic
%%IncludeResource: font Helvetica
%%IncludeResource: font Helvetica-Oblique
%%IncludeResource: font Helvetica-Bold
%%IncludeResource: font Helvetica-BoldOblique
%%IncludeResource: font Courier
%%IncludeResource: font Courier-Oblique
%%IncludeResource: font Courier-Bold
%%IncludeResource: font Courier-BoldOblique
%%IncludeResource: font Symbol
%%IncludeResource: font ZapfDingbats
/reEncode {exch findfont dup length dict begin {1 index /FID eq  {pop pop} {def} ifelse } forall /Encoding exch def currentdict end dup /FontName get exch definefont pop } def [/Times-Bold /Times-Italic /Times-BoldItalic /Helvetica /Helvetica-Oblique
 /Helvetica-Bold /Helvetica-BoldOblique /Courier /Courier-Oblique /Courier-Bold /Courier-BoldOblique /Times-Roman /AvantGarde-Book /AvantGarde-BookOblique /AvantGarde-Demi /AvantGarde-DemiOblique /Bookman-Demi /Bookman-DemiItalic /Bookman-Light
 /Bookman-LightItalic /Helvetica-Narrow /Helvetica-Narrow-Bold /Helvetica-Narrow-BoldOblique /Helvetica-Narrow-Oblique /NewCenturySchlbk-Roman /NewCenturySchlbk-Bold /NewCenturySchlbk-BoldItalic /NewCenturySchlbk-Italic /Palatino-Bold
 /Palatino-BoldItalic /Palatino-Italic /Palatino-Roman ] {ISOLatin1Encoding reEncode } forall
%%EndProlog
%%BeginSetup
%%EndSetup
newpath  gsave  .25 .25 scale  gsave  0 0 t black[  ] 0 sd 3 lw 1 1 1 c 2268 2176 0 0 bf black 1 1 1 c black 1769 1697 408 305 bl 1769 1697 408 305 bl 1 1 1 c black 1769 1697 408 305 bl 1769 1697 408 305 bl 0.52 0.76 0.64 c 1 1 1 c 0.52 0.76 0.64 c
 408 1902 m 18 X s 456 1902 m 16 X s /w 30 def /w2 {w 2 div} def /w3 {w 3 div} def 441 1902 m20 472 1867 m 14 X s 517 1867 m 12 X s 501 1867 m20 529 1833 m 12 X s 571 1833 m 10 X s 556 1833 m20 581 1800 m 9 X s 620 1800 m 8 X s 605 1800 m20 628 1766
 m 7 X s 666 1766 m 6 X s 650 1766 m20 672 1732 m 5 X s 707 1732 m 5 X s 692 1732 m20 712 1702 m 4 X s 746 1702 m 3 X s 731 1702 m20 749 1677 m 3 X s 782 1677 m 2 X s 767 1677 m20 784 1658 m 2 X s 816 1658 m 1 X s 801 1658 m20 817 1637 m 1 X s 848
 1637 m s 833 1637 m20 863 1618 m20 892 1599 m20 919 1583 m20 945 1568 m20 970 1555 m20 993 1542 m20 1016 1530 m20 1038 1520 m20 1058 1510 m20 1079 1500 m20 1098 1490 m20 1117 1480 m20 1135 1472 m20 1152 1461 m20 1169 1454 m20 1186 1445 m20 1202 1439
 m20 1217 1431 m20 1232 1422 m20 1247 1417 m20 1261 1407 m20 1275 1399 m20 1289 1393 m20 1302 1385 m20 1315 1376 m20 1327 1369 m20 1340 1362 m20 1352 1353 m20 1364 1345 m20 1375 1338 m20 1387 1329 m20 1398 1321 m20 1408 1313 m20 1419 1303 m20 1430
 1294 m20 1440 1287 m20 1450 1278 m20 1460 1268 m20 1469 1263 m20 1479 1253 m20 1488 1242 m20 1498 1236 m20 1507 1226 m20 1515 1214 m20 1524 1208 m20 1533 1196 m20 1541 1187 m20 1550 1177 m20 1558 1169 m20 1566 1157 m20 1574 1151 m20 1582 1138 m20
 1590 1133 m20 1597 1119 m20 1605 1109 m20 1612 1098 m20 1620 1089 m20 1627 1078 m20 1634 1070 m20 1641 1063 m20 1648 1052 m20 1655 1036 m20 1662 1020 m20 1668 1004 m20 1675 991 m20 1682 981 m20 1688 968 m20 1694 966 m20 1701 954 m20 1707 947 m20
 1713 941 m20 1719 933 m20 1725 924 m20 1731 926 m20 1737 920 m20 1743 910 m20 1749 905 m20 1754 898 m20 1760 891 m20 1766 886 m20 1771 877 m20 1777 867 m20 1782 864 m20 1787 862 m20 1793 844 m20 1798 852 m20 1803 842 m20 1808 828 m20 1814 831 m20
 1819 826 m20 1824 824 m20 1829 815 m20 1834 816 m20 1839 805 m20 1843 804 m20 1848 792 m20 1853 778 m20 1858 780 m20 1862 777 m20 1867 781 m20 1872 770 m20 1876 766 m20 1881 759 m20 1885 748 m20 1890 751 m20 1894 747 m20 1898 741 m20 1903 743 m20
 1907 737 m20 1911 737 m20 1916 722 m20 1920 721 m20 1924 726 m20 1928 705 m20 1932 702 m20 1936 692 m20 1940 690 m20 1944 679 m20 1948 708 m20 1952 681 m20 1956 679 m20 1960 672 m20 1964 670 m20 1968 661 m20 1972 670 m20 1975 639 m20 1979 658 m20
 1983 665 m20 1987 638 m20 1990 643 m20 1994 645 m20 1998 626 m20 2001 621 m20 2005 629 m20 2009 629 m20 2012 631 m20 2016 600 m20 2019 593 m20 2023 604 m20 2026 590 m20 2029 597 m20 2033 581 m20 2036 602 m20 2040 591 m20 2043 581 m20 2046 585 m20
 2050 579 m20 2053 579 m20 2056 587 m20 2059 592 m20 2063 567 m20 2066 566 m20 2069 548 m20 2072 562 m20 2075 548 m20 2079 563 m20 2082 558 m20 2085 533 m20 2088 529 m20 2091 542 m20 2094 532 m20 2097 530 m20 2100 525 m20 2103 531 m20 2106 499 m20
 2109 516 m20 2112 502 m20 2115 488 m20 2118 513 m20 2121 528 m20 2124 512 m20 2126 494 m20 2129 476 m20 2132 488 m20 2135 497 m20 2138 489 m20 2141 470 m20 2143 484 m20 2146 438 m s 2146 454 m20 2149 435 m s 2149 451 m20 2152 433 m 1 Y s 2152 449
 m20 2154 472 m20 2157 447 m s 2157 462 m20 2160 439 m 1 Y s 2160 455 m20 2162 433 m 1 Y s 2162 449 m20 2165 414 m 1 Y s 2165 446 m s 2165 431 m20 2168 432 m 1 Y s 2168 448 m20 2170 433 m 1 Y s 2170 449 m20 2173 433 m 1 Y s 2173 449 m20 2176 438 m s
 2176 454 m20 black 408 305 m 1769 X s 507 330 m -25 Y s 591 330 m -25 Y s 663 330 m -25 Y s 727 330 m -25 Y s 784 356 m -51 Y s
 gsave  2268 2176 0 0 C 726.735 167.415 t 0 r /Helvetica findfont 102.732 sf 0 0 m (10) show NC gr  1161 330 m -25 Y s 1381 330 m -25 Y s 1537 330 m -25 Y s 1658 330 m -25 Y s 1757 330 m -25 Y s 1841 330 m -25 Y s 1913 330 m -25 Y s 1977 330 m -25 Y
 s 2035 356 m -51 Y s
 gsave  2268 2176 0 0 C 2066.06 213.074 t 0 r /Helvetica findfont 68.4881 sf 0 0 m (2) show NC gr 
 gsave  2268 2176 0 0 C 1955.72 167.415 t 0 r /Helvetica findfont 102.732 sf 0 0 m (10) show NC gr 
 gsave  2268 2176 0 0 C 1837.76 60.8783 t 0 r /Helvetica findfont 121.757 sf 0 0 m ( [GeV]) show NC gr 
 gsave  2268 2176 0 0 C 1788.3 -3.80489 t 0 r /Helvetica findfont 79.9028 sf 0 0 m (T) show NC gr 
 gsave  2268 2176 0 0 C 1240.4 60.8783 t 0 r /Helvetica findfont 121.757 sf 0 0 m (Electron p) show NC gr  408 2002 m 1769 X s 507 1977 m 25 Y s 591 1977 m 25 Y s 663 1977 m 25 Y s 727 1977 m 25 Y s 784 1951 m 51 Y s 1161 1977 m 25 Y s 1381 1977 m 25
 Y s 1537 1977 m 25 Y s 1658 1977 m 25 Y s 1757 1977 m 25 Y s 1841 1977 m 25 Y s 1913 1977 m 25 Y s 1977 1977 m 25 Y s 2035 1951 m 51 Y s 408 305 m 1697 Y s 461 319 m -53 X s
 gsave  2268 2176 0 0 C 342.44 319.611 t 0 r /Helvetica findfont 68.4881 sf 0 0 m (6) show NC gr 
 gsave  2268 2176 0 0 C 304.391 319.611 t 0 r /Symbol findfont 68.4881 sf 0 0 m (-) show NC gr 
 gsave  2268 2176 0 0 C 194.05 270.147 t 0 r /Helvetica findfont 102.732 sf 0 0 m (10) show NC gr  435 428 m -27 X s 435 492 m -27 X s 435 538 m -27 X s 435 573 m -27 X s 435 601 m -27 X s 435 626 m -27 X s 435 647 m -27 X s 435 665 m -27 X s 461 682
 m -53 X s
 gsave  2268 2176 0 0 C 342.44 684.881 t 0 r /Helvetica findfont 68.4881 sf 0 0 m (5) show NC gr 
 gsave  2268 2176 0 0 C 304.391 684.881 t 0 r /Symbol findfont 68.4881 sf 0 0 m (-) show NC gr 
 gsave  2268 2176 0 0 C 194.05 635.417 t 0 r /Helvetica findfont 102.732 sf 0 0 m (10) show NC gr  435 791 m -27 X s 435 854 m -27 X s 435 900 m -27 X s 435 935 m -27 X s 435 964 m -27 X s 435 988 m -27 X s 435 1009 m -27 X s 435 1027 m -27 X s 461
 1044 m -53 X s
 gsave  2268 2176 0 0 C 342.44 1042.54 t 0 r /Helvetica findfont 68.4881 sf 0 0 m (4) show NC gr 
 gsave  2268 2176 0 0 C 304.391 1042.54 t 0 r /Symbol findfont 68.4881 sf 0 0 m (-) show NC gr 
 gsave  2268 2176 0 0 C 194.05 996.882 t 0 r /Helvetica findfont 102.732 sf 0 0 m (10) show NC gr  435 1153 m -27 X s 435 1217 m -27 X s 435 1262 m -27 X s 435 1297 m -27 X s 435 1326 m -27 X s 435 1350 m -27 X s 435 1371 m -27 X s 435 1390 m -27 X s
 461 1406 m -53 X s
 gsave  2268 2176 0 0 C 342.44 1407.81 t 0 r /Helvetica findfont 68.4881 sf 0 0 m (3) show NC gr 
 gsave  2268 2176 0 0 C 304.391 1407.81 t 0 r /Symbol findfont 68.4881 sf 0 0 m (-) show NC gr 
 gsave  2268 2176 0 0 C 194.05 1358.35 t 0 r /Helvetica findfont 102.732 sf 0 0 m (10) show NC gr  435 1515 m -27 X s 435 1579 m -27 X s 435 1624 m -27 X s 435 1659 m -27 X s 435 1688 m -27 X s 435 1712 m -27 X s 435 1733 m -27 X s 435 1752 m -27 X s
 461 1768 m -53 X s
 gsave  2268 2176 0 0 C 342.44 1765.47 t 0 r /Helvetica findfont 68.4881 sf 0 0 m (2) show NC gr 
 gsave  2268 2176 0 0 C 304.391 1765.47 t 0 r /Symbol findfont 68.4881 sf 0 0 m (-) show NC gr 
 gsave  2268 2176 0 0 C 194.05 1719.81 t 0 r /Helvetica findfont 102.732 sf 0 0 m (10) show NC gr  435 1877 m -27 X s 435 1941 m -27 X s 435 1986 m -27 X s
 gsave  2268 2176 0 0 C 156.001 620.198 t 90 r /Helvetica findfont 121.757 sf 0 0 m (DY+Jets Fakes per Event) show NC gr  2177 305 m 1697 Y s 2124 319 m 53 X s 2150 428 m 27 X s 2150 492 m 27 X s 2150 538 m 27 X s 2150 573 m 27 X s 2150 601 m 27 X s
 2150 626 m 27 X s 2150 647 m 27 X s 2150 665 m 27 X s 2124 682 m 53 X s 2150 791 m 27 X s 2150 854 m 27 X s 2150 900 m 27 X s 2150 935 m 27 X s 2150 964 m 27 X s 2150 988 m 27 X s 2150 1009 m 27 X s 2150 1027 m 27 X s 2124 1044 m 53 X s 2150 1153 m
 27 X s 2150 1217 m 27 X s 2150 1262 m 27 X s 2150 1297 m 27 X s 2150 1326 m 27 X s 2150 1350 m 27 X s 2150 1371 m 27 X s 2150 1390 m 27 X s 2124 1406 m 53 X s 2150 1515 m 27 X s 2150 1579 m 27 X s 2150 1624 m 27 X s 2150 1659 m 27 X s 2150 1688 m 27
 X s 2150 1712 m 27 X s 2150 1733 m 27 X s 2150 1752 m 27 X s 2124 1768 m 53 X s 2150 1877 m 27 X s 2150 1941 m 27 X s 2150 1986 m 27 X s 0.49 0.6 0.82 c 1 1 1 c 0.49 0.6 0.82 c 408 1866 m 18 X s 456 1866 m 16 X s 441 1866 m24 472 1826 m 14 X s 517
 1826 m 12 X s 501 1826 m24 529 1789 m 12 X s 571 1789 m 10 X s 556 1789 m24 581 1755 m 9 X s 620 1755 m 8 X s 605 1755 m24 628 1723 m 7 X s 666 1723 m 6 X s 650 1723 m24 672 1693 m 5 X s 707 1693 m 5 X s 692 1693 m24 712 1667 m 4 X s 746 1667 m 3 X
 s 731 1667 m24 749 1645 m 3 X s 782 1645 m 2 X s 767 1645 m24 784 1623 m 2 X s 816 1623 m 1 X s 801 1623 m24 817 1602 m 1 X s 848 1602 m s 833 1602 m24 863 1582 m24 892 1565 m24 919 1548 m24 945 1532 m24 970 1517 m24 993 1506 m24 1016 1492 m24 1038
 1480 m24 1058 1469 m24 1079 1460 m24 1098 1449 m24 1117 1438 m24 1135 1428 m24 1152 1420 m24 1169 1409 m24 1186 1402 m24 1202 1393 m24 1217 1383 m24 1232 1375 m24 1247 1369 m24 1261 1358 m24 1275 1352 m24 1289 1344 m24 1302 1331 m24 1315 1328 m24
 1327 1319 m24 1340 1312 m24 1352 1302 m24 1364 1292 m24 1375 1288 m24 1387 1278 m24 1398 1269 m24 1408 1260 m24 1419 1253 m24 1430 1241 m24 1440 1238 m24 1450 1227 m24 1460 1216 m24 1469 1209 m24 1479 1200 m24 1488 1193 m24 1498 1184 m24 1507 1175
 m24 1515 1164 m24 1524 1158 m24 1533 1145 m24 1541 1136 m24 1550 1126 m24 1558 1114 m24 1566 1107 m24 1574 1094 m24 1582 1091 m24 1590 1076 m24 1597 1066 m24 1605 1058 m24 1612 1049 m24 1620 1035 m24 1627 1028 m24 1634 1014 m24 1641 1005 m24 1648
 997 m24 1655 986 m24 1662 982 m24 1668 965 m24 1675 963 m24 1682 947 m24 1688 948 m24 1694 936 m24 1701 931 m24 1707 924 m24 1713 919 m24 1719 912 m24 1725 888 m24 1731 896 m24 1737 891 m24 1743 875 m24 1749 857 m24 1754 861 m24 1760 866 m24 1766
 855 m24 1771 846 m24 1777 835 m24 1782 837 m24 1787 831 m24 1793 817 m24 1798 833 m24 1803 806 m24 1808 804 m24 1814 799 m24 1819 805 m24 1824 781 m24 1829 794 m24 1834 781 m24 1839 776 m24 1843 765 m24 1848 775 m24 1853 769 m24 1858 769 m24 1862
 759 m24 1867 757 m24 1872 734 m24 1876 712 m24 1881 729 m24 1885 732 m24 1890 740 m24 1894 717 m24 1898 718 m24 1903 718 m24 1907 719 m24 1911 702 m24 1916 702 m24 1920 700 m24 1924 699 m24 1928 693 m24 1932 709 m24 1936 674 m24 1940 684 m24 1944
 661 m24 1948 671 m24 1952 655 m24 1956 648 m24 1960 672 m24 1964 672 m24 1968 643 m24 1972 658 m24 1975 636 m24 1979 644 m24 1983 636 m24 1987 628 m24 1990 630 m24 1994 637 m24 1998 619 m24 2001 603 m24 2005 606 m24 2009 599 m24 2012 590 m24 2016
 579 m24 2019 614 m24 2023 613 m24 2026 553 m s 2026 568 m24 2029 589 m24 2033 575 m24 2036 586 m24 2040 591 m24 2043 539 m 1 Y s 2043 555 m24 2046 548 m 1 Y s 2046 564 m24 2050 581 m24 2053 584 m24 2056 541 m s 2056 557 m24 2059 529 m 2 Y s 2059 546
 m24 2063 524 m 2 Y s 2063 541 m24 2066 551 m s 2066 567 m24 2069 528 m 1 Y s 2069 544 m24 2072 529 m 2 Y s 2072 546 m24 2075 521 m 2 Y s 2075 553 m s 2075 538 m24 2079 551 m s 2079 567 m24 2082 542 m 1 Y s 2082 558 m24 2085 526 m 2 Y s 2085 543 m24
 2088 534 m 1 Y s 2088 551 m24 2091 534 m 1 Y s 2091 551 m24 2094 529 m 2 Y s 2094 546 m24 2097 519 m 2 Y s 2097 552 m s 2097 536 m24 2100 512 m 2 Y s 2100 545 m s 2100 529 m24 2103 524 m 2 Y s 2103 541 m24 2106 533 m 1 Y s 2106 549 m24 2109 457 m 6
 Y s 2109 494 m 3 Y s 2109 478 m24 2112 517 m 2 Y s 2112 550 m s 2112 535 m24 2115 514 m 2 Y s 2115 546 m 1 Y s 2115 531 m24 2118 521 m 2 Y s 2118 553 m s 2118 538 m24 2121 488 m 4 Y s 2121 522 m 2 Y s 2121 507 m24 2124 488 m 4 Y s 2124 522 m 2 Y s
 2124 507 m24 2126 486 m 4 Y s 2126 520 m 2 Y s 2126 505 m24 2129 488 m 4 Y s 2129 522 m 2 Y s 2129 507 m24 2132 452 m 6 Y s 2132 489 m 3 Y s 2132 473 m24 2135 484 m 4 Y s 2135 518 m 2 Y s 2135 503 m24 2138 457 m 6 Y s 2138 494 m 3 Y s 2138 478 m24
 2141 447 m 6 Y s 2141 484 m 3 Y s 2141 468 m24 2143 452 m 6 Y s 2143 489 m 3 Y s 2143 473 m24 2146 477 m 4 Y s 2146 512 m 2 Y s 2146 497 m24 2149 452 m 6 Y s 2149 489 m 3 Y s 2149 473 m24 2152 460 m 5 Y s 2152 496 m 3 Y s 2152 481 m24 2154 435 m 7 Y
 s 2154 473 m 4 Y s 2154 458 m24 2157 455 m 6 Y s 2157 491 m 3 Y s 2157 476 m24 2160 435 m 7 Y s 2160 473 m 4 Y s 2160 458 m24 2162 426 m 8 Y s 2162 464 m 5 Y s 2162 449 m24 2165 432 m 8 Y s 2165 470 m 5 Y s 2165 455 m24 2168 444 m 6 Y s 2168 481 m 4
 Y s 2168 466 m24 2170 484 m 4 Y s 2170 518 m 2 Y s 2170 503 m24 2173 426 m 8 Y s 2173 464 m 5 Y s 2173 449 m24 2176 449 m 7 Y s 2176 486 m 4 Y s 2176 471 m24 0.81 0.37 0.38 c 1 1 1 c 0.81 0.37 0.38 c 408 1910 m 18 X s 456 1910 m 16 X s 441 1910 m20
 472 1868 m 14 X s 517 1868 m 12 X s 501 1868 m20 529 1826 m 12 X s 571 1826 m 10 X s 556 1826 m20 581 1784 m 9 X s 620 1784 m 8 X s 605 1784 m20 628 1745 m 7 X s 666 1745 m 6 X s 650 1745 m20 672 1709 m 5 X s 707 1709 m 5 X s 692 1709 m20 712 1678 m
 4 X s 746 1678 m 3 X s 731 1678 m20 749 1651 m 3 X s 782 1651 m 2 X s 767 1651 m20 784 1629 m 2 X s 816 1629 m 1 X s 801 1629 m20 817 1609 m 1 X s 848 1609 m s 833 1609 m20 863 1590 m20 892 1571 m20 919 1554 m20 945 1539 m20 970 1524 m20 993 1512
 m20 1016 1499 m20 1038 1487 m20 1058 1476 m20 1079 1466 m20 1098 1455 m20 1117 1445 m20 1135 1436 m20 1152 1426 m20 1169 1417 m20 1186 1411 m20 1202 1402 m20 1217 1394 m20 1232 1386 m20 1247 1379 m20 1261 1370 m20 1275 1362 m20 1289 1355 m20 1302
 1347 m20 1315 1339 m20 1327 1330 m20 1340 1323 m20 1352 1317 m20 1364 1306 m20 1375 1299 m20 1387 1290 m20 1398 1281 m20 1408 1273 m20 1419 1266 m20 1430 1255 m20 1440 1248 m20 1450 1238 m20 1460 1231 m20 1469 1220 m20 1479 1210 m20 1488 1201 m20
 1498 1195 m20 1507 1184 m20 1515 1173 m20 1524 1166 m20 1533 1158 m20 1541 1148 m20 1550 1138 m20 1558 1126 m20 1566 1120 m20 1574 1108 m20 1582 1103 m20 1590 1088 m20 1597 1081 m20 1605 1068 m20 1612 1055 m20 1620 1045 m20 1627 1032 m20 1634 1022
 m20 1641 1011 m20 1648 996 m20 1655 983 m20 1662 968 m20 1668 958 m20 1675 953 m20 1682 944 m20 1688 938 m20 1694 935 m20 1701 925 m20 1707 924 m20 1713 908 m20 1719 907 m20 1725 900 m20 1731 894 m20 1737 885 m20 1743 878 m20 1749 875 m20 1754 865
 m20 1760 861 m20 1766 856 m20 1771 851 m20 1777 852 m20 1782 841 m20 1787 833 m20 1793 817 m20 1798 810 m20 1803 820 m20 1808 807 m20 1814 801 m20 1819 803 m20 1824 795 m20 1829 783 m20 1834 782 m20 1839 782 m20 1843 777 m20 1848 779 m20 1853 767
 m20 1858 753 m20 1862 740 m20 1867 751 m20 1872 743 m20 1876 735 m20 1881 732 m20 1885 737 m20 1890 738 m20 1894 738 m20 1898 712 m20 1903 716 m20 1907 720 m20 1911 702 m20 1916 700 m20 1920 689 m20 1924 686 m20 1928 684 m20 1932 700 m20 1936 672
 m20 1940 670 m20 1944 676 m20 1948 672 m20 1952 660 m20 1956 657 m20 1960 655 m20 1964 649 m20 1968 658 m20 1972 631 m20 1975 631 m20 1979 633 m20 1983 629 m20 1987 639 m20 1990 604 m20 1994 634 m20 1998 614 m20 2001 607 m20 2005 592 m20 2009 592
 m20 2012 594 m20 2016 579 m20 2019 599 m20 2023 597 m20 2026 596 m20 2029 588 m20 2033 579 m20 2036 584 m20 2040 566 m20 2043 564 m20 2046 559 m20 2050 571 m20 2053 573 m20 2056 567 m20 2059 551 m20 2063 567 m20 2066 565 m20 2069 550 m20 2072 535
 m20 2075 542 m20 2079 552 m20 2082 549 m20 2085 535 m20 2088 542 m20 2091 519 m20 2094 519 m20 2097 517 m20 2100 516 m20 2103 501 m20 2106 487 m20 2109 485 m20 2112 495 m20 2115 489 m20 2118 493 m20 2121 502 m20 2124 477 m20 2126 493 m20 2129 475
 m20 2132 485 m20 2135 465 m20 2138 459 m20 2141 459 m20 2143 471 m20 2146 473 m20 2149 481 m20 2152 467 m20 2154 461 m20 2157 411 m s 2157 426 m20 2160 444 m20 2162 435 m20 2165 446 m20 2168 433 m20 2170 436 m20 2173 414 m s 2173 429 m20 2176 437
 m20 black 1 1 1 c 635 392 476 435 bf black
 gsave  2268 2176 0 0 C 631.612 734.344 t 0 r /Helvetica findfont 102.732 sf 0 0 m (2016) show NC gr  0.52 0.76 0.64 c 556 777 m 24 Y s 556 747 m -24 Y s 556 762 m20 black
 gsave  2268 2176 0 0 C 631.612 604.978 t 0 r /Helvetica findfont 102.732 sf 0 0 m (2017 \(Legacy\)) show NC gr  0.49 0.6 0.82 c 556 646 m 24 Y s 556 616 m -24 Y s 556 631 m24 black
 gsave  2268 2176 0 0 C 631.612 471.807 t 0 r /Helvetica findfont 102.732 sf 0 0 m (2018) show NC gr  0.81 0.37 0.38 c 556 516 m 24 Y s 556 485 m -24 Y s 556 501 m20 black
 gsave  2268 2176 0 0 C 1769.28 2039.42 t 0 r /Helvetica findfont 106.537 sf 0 0 m (\(13 TeV\)) show NC gr 
 gsave  2268 2176 0 0 C 408.189 2037.11 t 0 r /Helvetica-Bold findfont 129.366 sf 0 0 m (CMS) show NC gr 
 gsave  2268 2176 0 0 C 487.026 2039.42 t 0 r /Helvetica-Oblique findfont 98.9272 sf 0 0 m (        Simulation) show NC gr  408 305 m 1769 X s 507 330 m -25 Y s 591 330 m -25 Y s 663 330 m -25 Y s 727 330 m -25 Y s 784 356 m -51 Y s 1161 330 m -25 Y
 s 1381 330 m -25 Y s 1537 330 m -25 Y s 1658 330 m -25 Y s 1757 330 m -25 Y s 1841 330 m -25 Y s 1913 330 m -25 Y s 1977 330 m -25 Y s 2035 356 m -51 Y s 408 2002 m 1769 X s 507 1977 m 25 Y s 591 1977 m 25 Y s 663 1977 m 25 Y s 727 1977 m 25 Y s 784
 1951 m 51 Y s 1161 1977 m 25 Y s 1381 1977 m 25 Y s 1537 1977 m 25 Y s 1658 1977 m 25 Y s 1757 1977 m 25 Y s 1841 1977 m 25 Y s 1913 1977 m 25 Y s 1977 1977 m 25 Y s 2035 1951 m 51 Y s 408 305 m 1697 Y s 461 319 m -53 X s 435 428 m -27 X s 435 492 m
 -27 X s 435 538 m -27 X s 435 573 m -27 X s 435 601 m -27 X s 435 626 m -27 X s 435 647 m -27 X s 435 665 m -27 X s 461 682 m -53 X s 435 791 m -27 X s 435 854 m -27 X s 435 900 m -27 X s 435 935 m -27 X s 435 964 m -27 X s 435 988 m -27 X s 435
 1009 m -27 X s 435 1027 m -27 X s 461 1044 m -53 X s 435 1153 m -27 X s 435 1217 m -27 X s 435 1262 m -27 X s 435 1297 m -27 X s 435 1326 m -27 X s 435 1350 m -27 X s 435 1371 m -27 X s 435 1390 m -27 X s 461 1406 m -53 X s 435 1515 m -27 X s 435
 1579 m -27 X s 435 1624 m -27 X s 435 1659 m -27 X s 435 1688 m -27 X s 435 1712 m -27 X s 435 1733 m -27 X s 435 1752 m -27 X s 461 1768 m -53 X s 435 1877 m -27 X s 435 1941 m -27 X s 435 1986 m -27 X s 2177 305 m 1697 Y s 2124 319 m 53 X s 2150
 428 m 27 X s 2150 492 m 27 X s 2150 538 m 27 X s 2150 573 m 27 X s 2150 601 m 27 X s 2150 626 m 27 X s 2150 647 m 27 X s 2150 665 m 27 X s 2124 682 m 53 X s 2150 791 m 27 X s 2150 854 m 27 X s 2150 900 m 27 X s 2150 935 m 27 X s 2150 964 m 27 X s
 2150 988 m 27 X s 2150 1009 m 27 X s 2150 1027 m 27 X s 2124 1044 m 53 X s 2150 1153 m 27 X s 2150 1217 m 27 X s 2150 1262 m 27 X s 2150 1297 m 27 X s 2150 1326 m 27 X s 2150 1350 m 27 X s 2150 1371 m 27 X s 2150 1390 m 27 X s 2124 1406 m 53 X s
 2150 1515 m 27 X s 2150 1579 m 27 X s 2150 1624 m 27 X s 2150 1659 m 27 X s 2150 1688 m 27 X s 2150 1712 m 27 X s 2150 1733 m 27 X s 2150 1752 m 27 X s 2124 1768 m 53 X s 2150 1877 m 27 X s 2150 1941 m 27 X s 2150 1986 m 27 X s 1 1 1 c black 1769
 1697 408 305 bl 1769 1697 408 305 bl
 gr  gr showpage
end
%%EOF
