%!PS-Adobe-2.0 EPSF-2.0
%%BoundingBox:  0 0 567 544
%%Title: plots/n_fakes_vs_genNpu_pt20_only2017_endcap_tracker_driven.eps: n_fakes_vs_genNpu_pt20_only2017_endcap_tracker_driven
%%Creator: ROOT Version 6.14/04
%%CreationDate: Tue Aug  4 10:25:00 2020
%%DocumentNeededResources: ProcSet (FontSetInit)
%%EndComments
%%BeginProlog
80 dict begin
/s {stroke} def /l {lineto} def /m {moveto} def /t {translate} def
/r {rotate} def /rl {roll}  def /R {repeat} def
/d {rlineto} def /rm {rmoveto} def /gr {grestore} def /f {eofill} def
/c {setrgbcolor} def /black {0 setgray} def /sd {setdash} def
/cl {closepath} def /sf {scalefont setfont} def /lw {setlinewidth} def
/box {m dup 0 exch d exch 0 d 0 exch neg d cl} def
/NC{systemdict begin initclip end}def/C{NC box clip newpath}def
/bl {box s} def /bf {gsave box gsave f grestore 1 lw [] 0 sd s grestore} def /Y { 0 exch d} def /X { 0 d} def 
/K {{pop pop 0 moveto} exch kshow} bind def
/ita {/ang 15 def gsave [1 0 ang dup sin exch cos div 1 0 0] concat} def 
/mp {newpath /y exch def /x exch def} def
/side {[w .77 mul w .23 mul] .385 w mul sd w 0 l currentpoint t -144 r} def
/mr {mp x y w2 0 360 arc} def /m24 {mr s} def /m20 {mr f} def
/mb {mp x y w2 add m w2 neg 0 d 0 w neg d w 0 d 0 w d cl} def
/mt {mp x y w2 add m w2 neg w neg d w 0 d cl} def
/w4 {w 4 div} def
/w6 {w 6 div} def
/w8 {w 8 div} def
/m21 {mb f} def /m25 {mb s} def /m22 {mt f} def /m26{mt s} def
/m23 {mp x y w2 sub m w2 w d w neg 0 d cl f} def
/m27 {mp x y w2 add m w3 neg w2 neg d w3 w2 neg d w3 w2 d cl s} def
/m28 {mp x w2 sub y w2 sub w3 add m w3 0 d  0 w3 neg d w3 0 d 0 w3 d w3 0 d  0 w3 d w3 neg 0 d 0 w3 d w3 neg 0 d 0 w3 neg d w3 neg 0 d cl s } def
/m29 {mp gsave x w2 sub y w2 add w3 sub m currentpoint t 4 {side} repeat cl fill gr} def
/m30 {mp gsave x w2 sub y w2 add w3 sub m currentpoint t 4 {side} repeat cl s gr} def
/m31 {mp x y w2 sub m 0 w d x w2 sub y m w 0 d x w2 sub y w2 add m w w neg d x w2 sub y w2 sub m w w d s} def
/m32 {mp x y w2 sub m w2 w d w neg 0 d cl s} def
/m33 {mp x y w2 add m w3 neg w2 neg d w3 w2 neg d w3 w2 d cl f} def
/m34 {mp x w2 sub y w2 sub w3 add m w3 0 d  0 w3 neg d w3 0 d 0 w3 d w3 0 d  0 w3 d w3 neg 0 d 0 w3 d w3 neg 0 d 0 w3 neg d w3 neg 0 d cl f } def
/m35 {mp x y w2 add m w2 neg w2 neg d w2 w2 neg d w2 w2 d w2 neg w2 d x y w2 sub m 0 w d x w2 sub y m w 0 d s} def
/m36 {mb x w2 sub y w2 add m w w neg d x w2 sub y w2 sub m w w d s} def
/m37 {mp x y m w4 neg w2 d w4 neg w2 neg d w2 0 d  w4 neg w2 neg d w2 0 d w4 neg w2 d w2 0 d w4 neg w2 d w4 neg w2 neg d cl s} def
/m38 {mp x w4 sub y w2 add m w4 neg w4 neg d 0 w2 neg d w4 w4 neg d w2 0 d w4 w4 d 0 w2 d w4 neg w4 d w2 neg 0 d x y w2 sub m 0 w d x w2 sub y m w 0 d cl s} def
/m39 {mp x y m w4 neg w2 d w4 neg w2 neg d w2 0 d  w4 neg w2 neg d w2 0 d w4 neg w2 d w2 0 d w4 neg w2 d w4 neg w2 neg d cl f} def
/m40 {mp x y m w4 w2 d w4 w4 neg d w2 neg w4 neg d w2 w4 neg d w4 neg w4 neg d w4 neg w2 d w4 neg w2 neg d w4 neg w4 d w2 w4 d w2 neg w4 d w4 w4 d w4 w2 neg d cl s} def
/m41 {mp x y m w4 w2 d w4 w4 neg d w2 neg w4 neg d w2 w4 neg d w4 neg w4 neg d w4 neg w2 d w4 neg w2 neg d w4 neg w4 d w2 w4 d w2 neg w4 d w4 w4 d w4 w2 neg d cl f} def
/m42 {mp x y w2 add m w8 neg w2 -3 4 div mul d w2 -3 4 div mul w8 neg d w2 3 4 div mul w8 neg d w8 w2 -3 4 div mul d w8 w2 3 4 div mul d w2 3 4 div mul w8 d w2 -3 4 div mul w8 d w8 neg w2 3 4 div mul d cl s} def
/m43 {mp x y w2 add m w8 neg w2 -3 4 div mul d w2 -3 4 div mul w8 neg d w2 3 4 div mul w8 neg d w8 w2 -3 4 div mul d w8 w2 3 4 div mul d w2 3 4 div mul w8 d w2 -3 4 div mul w8 d w8 neg w2 3 4 div mul d cl f} def
/m44 {mp x y m w6 neg w2 d w2 2 3 div mul 0 d w6 neg w2 neg d w2 w6 d 0 w2 -2 3 div mul d w2 neg w6 d w6 w2 neg d w2 -2 3 div mul 0 d w6 w2 d w2 neg w6 neg d 0 w2 2 3 div mul d w2 w6 neg d cl s} def
/m45 {mp x y m w6 neg w2 d w2 2 3 div mul 0 d w6 neg w2 neg d w2 w6 d 0 w2 -2 3 div mul d w2 neg w6 d w6 w2 neg d w2 -2 3 div mul 0 d w6 w2 d w2 neg w6 neg d 0 w2 2 3 div mul d w2 w6 neg d cl f} def
/m46 {mp x y w4 add m w4 neg w4 d w4 neg w4 neg d  w4 w4 neg d w4 neg w4 neg d w4 w4 neg d w4 w4 d w4 w4 neg d w4 w4 d w4 neg w4 d w4 w4 d w4 neg w4 d w4 neg w4 neg d cl s} def
/m47 {mp x y w4 add m w4 neg w4 d w4 neg w4 neg d w4 w4 neg d w4 neg w4 neg d  w4 w4 neg d w4 w4 d w4 w4 neg d w4 w4 d w4 neg w4 d w4 w4 d w4 neg w4 d w4 neg w4 neg d cl f} def
/m48 {mp x y w4 add m w4 neg w4 d w4 neg w4 neg d w4 w4 neg d  w4 neg w4 neg d w4 w4 neg d w4 w4 d w4 w4 neg d w4 w4 d w4 neg w4 d w4 w4 d w4 neg w4 d w4 neg w4 neg d  w4 w4 neg d w4 neg w4 neg d w4 neg w4 d w4 w4 d cl f} def
/m49 {mp x w2 sub w3 add y w2 sub w3 add m  0 w3 neg d w3 0 d 0 w3 d w3 0 d 0 w3 d w3 neg 0 d 0 w3 d w3 neg 0 d 0 w3 neg d w3 neg 0 d 0 w3 neg d w3 0 d 0 w3 d w3 0 d 0 w3 neg d w3 neg 0 d cl f } def
/m2 {mp x y w2 sub m 0 w d x w2 sub y m w 0 d s} def
/m5 {mp x w2 sub y w2 sub m w w d x w2 sub y w2 add m w w neg d s} def
%%IncludeResource: ProcSet (FontSetInit)
%%IncludeResource: font Times-Roman
%%IncludeResource: font Times-Italic
%%IncludeResource: font Times-Bold
%%IncludeResource: font Times-BoldItalic
%%IncludeResource: font Helvetica
%%IncludeResource: font Helvetica-Oblique
%%IncludeResource: font Helvetica-Bold
%%IncludeResource: font Helvetica-BoldOblique
%%IncludeResource: font Courier
%%IncludeResource: font Courier-Oblique
%%IncludeResource: font Courier-Bold
%%IncludeResource: font Courier-BoldOblique
%%IncludeResource: font Symbol
%%IncludeResource: font ZapfDingbats
/reEncode {exch findfont dup length dict begin {1 index /FID eq  {pop pop} {def} ifelse } forall /Encoding exch def currentdict end dup /FontName get exch definefont pop } def [/Times-Bold /Times-Italic /Times-BoldItalic /Helvetica /Helvetica-Oblique
 /Helvetica-Bold /Helvetica-BoldOblique /Courier /Courier-Oblique /Courier-Bold /Courier-BoldOblique /Times-Roman /AvantGarde-Book /AvantGarde-BookOblique /AvantGarde-Demi /AvantGarde-DemiOblique /Bookman-Demi /Bookman-DemiItalic /Bookman-Light
 /Bookman-LightItalic /Helvetica-Narrow /Helvetica-Narrow-Bold /Helvetica-Narrow-BoldOblique /Helvetica-Narrow-Oblique /NewCenturySchlbk-Roman /NewCenturySchlbk-Bold /NewCenturySchlbk-BoldItalic /NewCenturySchlbk-Italic /Palatino-Bold
 /Palatino-BoldItalic /Palatino-Italic /Palatino-Roman ] {ISOLatin1Encoding reEncode } forall
%%EndProlog
%%BeginSetup
%%EndSetup
newpath  gsave  .25 .25 scale  gsave  0 0 t black[  ] 0 sd 3 lw 1 1 1 c 2268 2176 0 0 bf black 1 1 1 c black 1769 1697 408 305 bl 1769 1697 408 305 bl 1 1 1 c black 1769 1697 408 305 bl 1769 1697 408 305 bl 0.49 0.6 0.82 c 1 1 1 c 0.49 0.6 0.82 c /w
 30 def /w2 {w 2 div} def /w3 {w 3 div} def 420 441 m20 442 451 m20 465 422 m20 488 431 m20 510 428 m20 533 440 m20 556 439 m20 578 434 m20 601 426 m20 624 440 m20 646 436 m20 669 440 m20 692 435 m20 714 434 m20 737 432 m20 760 428 m20 782 435 m20
 805 432 m20 828 434 m20 850 432 m20 873 432 m20 896 432 m20 918 433 m20 941 432 m20 964 432 m20 986 432 m20 1009 433 m20 1032 435 m20 1054 431 m20 1077 432 m20 1100 431 m20 1123 433 m20 1145 431 m20 1168 432 m20 1191 431 m20 1213 432 m20 1236 432
 m20 1259 426 m20 1281 426 m20 1304 425 m20 1327 424 m20 1349 427 m20 1372 428 m20 1395 428 m20 1417 424 m20 1440 429 m20 1463 420 m20 1485 424 m20 1508 423 m20 1531 423 m20 1553 422 m20 1576 425 m20 1599 426 m20 1621 425 m20 1644 418 m20 1667 420
 m20 1689 422 m20 1712 419 m20 1735 422 m20 1757 418 m20 1780 414 m20 1803 421 m20 1826 419 m20 1848 420 m20 1871 422 m20 1894 413 m20 1916 421 m20 1939 419 m20 1962 421 m20 1984 408 m20 2007 418 m20 2030 422 m20 2052 428 m20 2075 410 m20 2098 420
 m20 2120 413 m20 2143 402 m20 2166 407 m20 black 408 305 m 1769 X s 590 356 m -51 Y s 635 330 m -25 Y s 680 330 m -25 Y s 726 330 m -25 Y s 771 330 m -25 Y s 816 356 m -51 Y s 862 330 m -25 Y s 907 330 m -25 Y s 952 330 m -25 Y s 998 330 m -25 Y s
 1043 356 m -51 Y s 1089 330 m -25 Y s 1134 330 m -25 Y s 1179 330 m -25 Y s 1225 330 m -25 Y s 1270 356 m -51 Y s 1315 330 m -25 Y s 1361 330 m -25 Y s 1406 330 m -25 Y s 1451 330 m -25 Y s 1497 356 m -51 Y s 1542 330 m -25 Y s 1587 330 m -25 Y s
 1633 330 m -25 Y s 1678 330 m -25 Y s 1723 356 m -51 Y s 1769 330 m -25 Y s 1814 330 m -25 Y s 1860 330 m -25 Y s 1905 330 m -25 Y s 1950 356 m -51 Y s 1996 330 m -25 Y s 2041 330 m -25 Y s 2086 330 m -25 Y s 2132 330 m -25 Y s 2177 356 m -51 Y s
 590 356 m -51 Y s 544 330 m -25 Y s 499 330 m -25 Y s 454 330 m -25 Y s
 gsave  2268 2176 0 0 C 528.88 205.464 t 0 r /Helvetica findfont 102.732 sf 0 0 m (10) show NC gr 
 gsave  2268 2176 0 0 C 757.174 205.464 t 0 r /Helvetica findfont 102.732 sf 0 0 m (20) show NC gr 
 gsave  2268 2176 0 0 C 985.467 205.464 t 0 r /Helvetica findfont 102.732 sf 0 0 m (30) show NC gr 
 gsave  2268 2176 0 0 C 1209.96 205.464 t 0 r /Helvetica findfont 102.732 sf 0 0 m (40) show NC gr 
 gsave  2268 2176 0 0 C 1438.25 205.464 t 0 r /Helvetica findfont 102.732 sf 0 0 m (50) show NC gr 
 gsave  2268 2176 0 0 C 1662.74 205.464 t 0 r /Helvetica findfont 102.732 sf 0 0 m (60) show NC gr 
 gsave  2268 2176 0 0 C 1891.03 205.464 t 0 r /Helvetica findfont 102.732 sf 0 0 m (70) show NC gr 
 gsave  2268 2176 0 0 C 2119.33 205.464 t 0 r /Helvetica findfont 102.732 sf 0 0 m (80) show NC gr 
 gsave  2268 2176 0 0 C 1236.59 41.8538 t 0 r /Helvetica findfont 121.757 sf 0 0 m (Number of Pileup) show NC gr  408 2002 m 1769 X s 590 1951 m 51 Y s 635 1977 m 25 Y s 680 1977 m 25 Y s 726 1977 m 25 Y s 771 1977 m 25 Y s 816 1951 m 51 Y s 862 1977
 m 25 Y s 907 1977 m 25 Y s 952 1977 m 25 Y s 998 1977 m 25 Y s 1043 1951 m 51 Y s 1089 1977 m 25 Y s 1134 1977 m 25 Y s 1179 1977 m 25 Y s 1225 1977 m 25 Y s 1270 1951 m 51 Y s 1315 1977 m 25 Y s 1361 1977 m 25 Y s 1406 1977 m 25 Y s 1451 1977 m 25
 Y s 1497 1951 m 51 Y s 1542 1977 m 25 Y s 1587 1977 m 25 Y s 1633 1977 m 25 Y s 1678 1977 m 25 Y s 1723 1951 m 51 Y s 1769 1977 m 25 Y s 1814 1977 m 25 Y s 1860 1977 m 25 Y s 1905 1977 m 25 Y s 1950 1951 m 51 Y s 1996 1977 m 25 Y s 2041 1977 m 25 Y
 s 2086 1977 m 25 Y s 2132 1977 m 25 Y s 2177 1951 m 51 Y s 590 1951 m 51 Y s 544 1977 m 25 Y s 499 1977 m 25 Y s 454 1977 m 25 Y s 408 305 m 1697 Y s 461 305 m -53 X s 435 363 m -27 X s 435 421 m -27 X s 435 479 m -27 X s 435 537 m -27 X s 461 595 m
 -53 X s 435 653 m -27 X s 435 711 m -27 X s 435 769 m -27 X s 435 827 m -27 X s 461 885 m -53 X s 435 943 m -27 X s 435 1001 m -27 X s 435 1059 m -27 X s 435 1117 m -27 X s 461 1175 m -53 X s 435 1233 m -27 X s 435 1291 m -27 X s 435 1349 m -27 X s
 435 1407 m -27 X s 461 1465 m -53 X s 435 1523 m -27 X s 435 1582 m -27 X s 435 1640 m -27 X s 435 1698 m -27 X s 461 1756 m -53 X s 461 1756 m -53 X s 435 1814 m -27 X s 435 1872 m -27 X s 435 1930 m -27 X s 435 1988 m -27 X s
 gsave  2268 2176 0 0 C 338.636 270.147 t 0 r /Helvetica findfont 102.732 sf 0 0 m (0) show NC gr 
 gsave  2268 2176 0 0 C 213.074 559.319 t 0 r /Helvetica findfont 102.732 sf 0 0 m (0.01) show NC gr 
 gsave  2268 2176 0 0 C 194.05 848.491 t 0 r /Helvetica findfont 102.732 sf 0 0 m (0.02) show NC gr 
 gsave  2268 2176 0 0 C 194.05 1137.66 t 0 r /Helvetica findfont 102.732 sf 0 0 m (0.03) show NC gr 
 gsave  2268 2176 0 0 C 194.05 1430.64 t 0 r /Helvetica findfont 102.732 sf 0 0 m (0.04) show NC gr 
 gsave  2268 2176 0 0 C 194.05 1719.81 t 0 r /Helvetica findfont 102.732 sf 0 0 m (0.05) show NC gr 
 gsave  2268 2176 0 0 C 156.001 620.198 t 90 r /Helvetica findfont 121.757 sf 0 0 m (DY+Jets Fakes per Event) show NC gr  2177 305 m 1697 Y s 2124 305 m 53 X s 2150 363 m 27 X s 2150 421 m 27 X s 2150 479 m 27 X s 2150 537 m 27 X s 2124 595 m 53 X s
 2150 653 m 27 X s 2150 711 m 27 X s 2150 769 m 27 X s 2150 827 m 27 X s 2124 885 m 53 X s 2150 943 m 27 X s 2150 1001 m 27 X s 2150 1059 m 27 X s 2150 1117 m 27 X s 2124 1175 m 53 X s 2150 1233 m 27 X s 2150 1291 m 27 X s 2150 1349 m 27 X s 2150
 1407 m 27 X s 2124 1465 m 53 X s 2150 1523 m 27 X s 2150 1582 m 27 X s 2150 1640 m 27 X s 2150 1698 m 27 X s 2124 1756 m 53 X s 2124 1756 m 53 X s 2150 1814 m 27 X s 2150 1872 m 27 X s 2150 1930 m 27 X s 2150 1988 m 27 X s 0.49 0.6 0.82 c 1 1 1 c
 0.49 0.6 0.82 c 420 378 m 25 Y s 420 433 m 25 Y s 420 418 m24 442 358 m 11 Y s 442 399 m 12 Y s 442 384 m24 465 391 m 9 Y s 465 431 m 10 Y s 465 416 m24 488 403 m 5 Y s 488 438 m 5 Y s 488 423 m24 510 418 m s 510 449 m s 510 434 m24 533 418 m24 556
 433 m24 578 423 m24 601 433 m24 624 416 m24 646 428 m24 669 422 m24 692 419 m24 714 432 m24 737 425 m24 760 429 m24 782 428 m24 805 427 m24 828 427 m24 850 419 m24 873 426 m24 896 423 m24 918 423 m24 941 422 m24 964 423 m24 986 420 m24 1009 422 m24
 1032 420 m24 1054 425 m24 1077 421 m24 1100 422 m24 1123 422 m24 1145 424 m24 1168 422 m24 1191 422 m24 1213 421 m24 1236 416 m24 1259 424 m24 1281 415 m24 1304 418 m24 1327 419 m24 1349 420 m24 1372 419 m24 1395 415 m24 1417 418 m24 1440 418 m24
 1463 414 m24 1485 414 m24 1508 419 m24 1531 414 m24 1553 415 m24 1576 419 m24 1599 421 m24 1621 413 m24 1644 426 m24 1667 422 m24 1689 414 m24 1712 418 m24 1735 422 m24 1757 410 m24 1780 419 m24 1803 410 m24 1826 411 m24 1848 404 m24 1871 427 m24
 1894 420 m24 1916 412 m24 1939 398 m 1 Y s 1939 429 m 1 Y s 1939 414 m24 1962 381 m 2 Y s 1962 413 m 2 Y s 1962 398 m24 1984 397 m 6 Y s 1984 433 m 6 Y s 1984 418 m24 2007 390 m 9 Y s 2007 429 m 9 Y s 2007 414 m24 2030 358 m 8 Y s 2030 397 m 8 Y s
 2030 381 m24 2052 345 m 9 Y s 2052 384 m 9 Y s 2052 369 m24 2075 393 m 26 Y s 2075 450 m 25 Y s 2075 434 m24 2098 362 m 25 Y s 2098 417 m 25 Y s 2098 402 m24 2120 366 m 35 Y s 2120 432 m 34 Y s 2120 416 m24 2143 421 m 66 Y s 2143 517 m 66 Y s 2143
 502 m24 2166 363 m 65 Y s 2166 458 m 65 Y s 2166 443 m24 black 1 1 1 c 635 392 476 1523 bf black
 gsave  2268 2176 0 0 C 631.612 1776.89 t 0 r /Helvetica findfont 102.732 sf 0 0 m (2017 Endcap tracker driven) show NC gr  0.49 0.6 0.82 c 556 1833 m 43 Y s 556 1802 m -43 Y s 556 1817 m20 black
 gsave  2268 2176 0 0 C 631.612 1579.03 t 0 r /Helvetica findfont 102.732 sf 0 0 m (2017 \(Legacy\) Endcap tracker driven) show NC gr  0.49 0.6 0.82 c 556 1637 m 43 Y s 556 1606 m -43 Y s 556 1621 m24 black
 gsave  2268 2176 0 0 C 1769.28 2039.42 t 0 r /Helvetica findfont 106.537 sf 0 0 m (\(13 TeV\)) show NC gr 
 gsave  2268 2176 0 0 C 408.189 2037.11 t 0 r /Helvetica-Bold findfont 129.366 sf 0 0 m (CMS) show NC gr 
 gsave  2268 2176 0 0 C 487.026 2039.42 t 0 r /Helvetica-Oblique findfont 98.9272 sf 0 0 m (        Simulation) show NC gr  408 305 m 1769 X s 590 356 m -51 Y s 635 330 m -25 Y s 680 330 m -25 Y s 726 330 m -25 Y s 771 330 m -25 Y s 816 356 m -51 Y s
 862 330 m -25 Y s 907 330 m -25 Y s 952 330 m -25 Y s 998 330 m -25 Y s 1043 356 m -51 Y s 1089 330 m -25 Y s 1134 330 m -25 Y s 1179 330 m -25 Y s 1225 330 m -25 Y s 1270 356 m -51 Y s 1315 330 m -25 Y s 1361 330 m -25 Y s 1406 330 m -25 Y s 1451
 330 m -25 Y s 1497 356 m -51 Y s 1542 330 m -25 Y s 1587 330 m -25 Y s 1633 330 m -25 Y s 1678 330 m -25 Y s 1723 356 m -51 Y s 1769 330 m -25 Y s 1814 330 m -25 Y s 1860 330 m -25 Y s 1905 330 m -25 Y s 1950 356 m -51 Y s 1996 330 m -25 Y s 2041
 330 m -25 Y s 2086 330 m -25 Y s 2132 330 m -25 Y s 2177 356 m -51 Y s 590 356 m -51 Y s 544 330 m -25 Y s 499 330 m -25 Y s 454 330 m -25 Y s 408 2002 m 1769 X s 590 1951 m 51 Y s 635 1977 m 25 Y s 680 1977 m 25 Y s 726 1977 m 25 Y s 771 1977 m 25
 Y s 816 1951 m 51 Y s 862 1977 m 25 Y s 907 1977 m 25 Y s 952 1977 m 25 Y s 998 1977 m 25 Y s 1043 1951 m 51 Y s 1089 1977 m 25 Y s 1134 1977 m 25 Y s 1179 1977 m 25 Y s 1225 1977 m 25 Y s 1270 1951 m 51 Y s 1315 1977 m 25 Y s 1361 1977 m 25 Y s
 1406 1977 m 25 Y s 1451 1977 m 25 Y s 1497 1951 m 51 Y s 1542 1977 m 25 Y s 1587 1977 m 25 Y s 1633 1977 m 25 Y s 1678 1977 m 25 Y s 1723 1951 m 51 Y s 1769 1977 m 25 Y s 1814 1977 m 25 Y s 1860 1977 m 25 Y s 1905 1977 m 25 Y s 1950 1951 m 51 Y s
 1996 1977 m 25 Y s 2041 1977 m 25 Y s 2086 1977 m 25 Y s 2132 1977 m 25 Y s 2177 1951 m 51 Y s 590 1951 m 51 Y s 544 1977 m 25 Y s 499 1977 m 25 Y s 454 1977 m 25 Y s 408 305 m 1697 Y s 461 305 m -53 X s 435 363 m -27 X s 435 421 m -27 X s 435 479 m
 -27 X s 435 537 m -27 X s 461 595 m -53 X s 435 653 m -27 X s 435 711 m -27 X s 435 769 m -27 X s 435 827 m -27 X s 461 885 m -53 X s 435 943 m -27 X s 435 1001 m -27 X s 435 1059 m -27 X s 435 1117 m -27 X s 461 1175 m -53 X s 435 1233 m -27 X s
 435 1291 m -27 X s 435 1349 m -27 X s 435 1407 m -27 X s 461 1465 m -53 X s 435 1523 m -27 X s 435 1582 m -27 X s 435 1640 m -27 X s 435 1698 m -27 X s 461 1756 m -53 X s 461 1756 m -53 X s 435 1814 m -27 X s 435 1872 m -27 X s 435 1930 m -27 X s
 435 1988 m -27 X s 2177 305 m 1697 Y s 2124 305 m 53 X s 2150 363 m 27 X s 2150 421 m 27 X s 2150 479 m 27 X s 2150 537 m 27 X s 2124 595 m 53 X s 2150 653 m 27 X s 2150 711 m 27 X s 2150 769 m 27 X s 2150 827 m 27 X s 2124 885 m 53 X s 2150 943 m
 27 X s 2150 1001 m 27 X s 2150 1059 m 27 X s 2150 1117 m 27 X s 2124 1175 m 53 X s 2150 1233 m 27 X s 2150 1291 m 27 X s 2150 1349 m 27 X s 2150 1407 m 27 X s 2124 1465 m 53 X s 2150 1523 m 27 X s 2150 1582 m 27 X s 2150 1640 m 27 X s 2150 1698 m 27
 X s 2124 1756 m 53 X s 2124 1756 m 53 X s 2150 1814 m 27 X s 2150 1872 m 27 X s 2150 1930 m 27 X s 2150 1988 m 27 X s 1 1 1 c black 1769 1697 408 305 bl 1769 1697 408 305 bl
 gr  gr showpage
end
%%EOF
