%!PS-Adobe-2.0 EPSF-2.0
%%BoundingBox:  0 0 567 544
%%Title: plots/n_fakes_vs_ele_pt_only2017_tracker_driven.eps: n_fakes_vs_ele_pt_only2017_tracker_driven
%%Creator: ROOT Version 6.14/04
%%CreationDate: Tue Aug  4 10:15:35 2020
%%DocumentNeededResources: ProcSet (FontSetInit)
%%EndComments
%%BeginProlog
80 dict begin
/s {stroke} def /l {lineto} def /m {moveto} def /t {translate} def
/r {rotate} def /rl {roll}  def /R {repeat} def
/d {rlineto} def /rm {rmoveto} def /gr {grestore} def /f {eofill} def
/c {setrgbcolor} def /black {0 setgray} def /sd {setdash} def
/cl {closepath} def /sf {scalefont setfont} def /lw {setlinewidth} def
/box {m dup 0 exch d exch 0 d 0 exch neg d cl} def
/NC{systemdict begin initclip end}def/C{NC box clip newpath}def
/bl {box s} def /bf {gsave box gsave f grestore 1 lw [] 0 sd s grestore} def /Y { 0 exch d} def /X { 0 d} def 
/K {{pop pop 0 moveto} exch kshow} bind def
/ita {/ang 15 def gsave [1 0 ang dup sin exch cos div 1 0 0] concat} def 
/mp {newpath /y exch def /x exch def} def
/side {[w .77 mul w .23 mul] .385 w mul sd w 0 l currentpoint t -144 r} def
/mr {mp x y w2 0 360 arc} def /m24 {mr s} def /m20 {mr f} def
/mb {mp x y w2 add m w2 neg 0 d 0 w neg d w 0 d 0 w d cl} def
/mt {mp x y w2 add m w2 neg w neg d w 0 d cl} def
/w4 {w 4 div} def
/w6 {w 6 div} def
/w8 {w 8 div} def
/m21 {mb f} def /m25 {mb s} def /m22 {mt f} def /m26{mt s} def
/m23 {mp x y w2 sub m w2 w d w neg 0 d cl f} def
/m27 {mp x y w2 add m w3 neg w2 neg d w3 w2 neg d w3 w2 d cl s} def
/m28 {mp x w2 sub y w2 sub w3 add m w3 0 d  0 w3 neg d w3 0 d 0 w3 d w3 0 d  0 w3 d w3 neg 0 d 0 w3 d w3 neg 0 d 0 w3 neg d w3 neg 0 d cl s } def
/m29 {mp gsave x w2 sub y w2 add w3 sub m currentpoint t 4 {side} repeat cl fill gr} def
/m30 {mp gsave x w2 sub y w2 add w3 sub m currentpoint t 4 {side} repeat cl s gr} def
/m31 {mp x y w2 sub m 0 w d x w2 sub y m w 0 d x w2 sub y w2 add m w w neg d x w2 sub y w2 sub m w w d s} def
/m32 {mp x y w2 sub m w2 w d w neg 0 d cl s} def
/m33 {mp x y w2 add m w3 neg w2 neg d w3 w2 neg d w3 w2 d cl f} def
/m34 {mp x w2 sub y w2 sub w3 add m w3 0 d  0 w3 neg d w3 0 d 0 w3 d w3 0 d  0 w3 d w3 neg 0 d 0 w3 d w3 neg 0 d 0 w3 neg d w3 neg 0 d cl f } def
/m35 {mp x y w2 add m w2 neg w2 neg d w2 w2 neg d w2 w2 d w2 neg w2 d x y w2 sub m 0 w d x w2 sub y m w 0 d s} def
/m36 {mb x w2 sub y w2 add m w w neg d x w2 sub y w2 sub m w w d s} def
/m37 {mp x y m w4 neg w2 d w4 neg w2 neg d w2 0 d  w4 neg w2 neg d w2 0 d w4 neg w2 d w2 0 d w4 neg w2 d w4 neg w2 neg d cl s} def
/m38 {mp x w4 sub y w2 add m w4 neg w4 neg d 0 w2 neg d w4 w4 neg d w2 0 d w4 w4 d 0 w2 d w4 neg w4 d w2 neg 0 d x y w2 sub m 0 w d x w2 sub y m w 0 d cl s} def
/m39 {mp x y m w4 neg w2 d w4 neg w2 neg d w2 0 d  w4 neg w2 neg d w2 0 d w4 neg w2 d w2 0 d w4 neg w2 d w4 neg w2 neg d cl f} def
/m40 {mp x y m w4 w2 d w4 w4 neg d w2 neg w4 neg d w2 w4 neg d w4 neg w4 neg d w4 neg w2 d w4 neg w2 neg d w4 neg w4 d w2 w4 d w2 neg w4 d w4 w4 d w4 w2 neg d cl s} def
/m41 {mp x y m w4 w2 d w4 w4 neg d w2 neg w4 neg d w2 w4 neg d w4 neg w4 neg d w4 neg w2 d w4 neg w2 neg d w4 neg w4 d w2 w4 d w2 neg w4 d w4 w4 d w4 w2 neg d cl f} def
/m42 {mp x y w2 add m w8 neg w2 -3 4 div mul d w2 -3 4 div mul w8 neg d w2 3 4 div mul w8 neg d w8 w2 -3 4 div mul d w8 w2 3 4 div mul d w2 3 4 div mul w8 d w2 -3 4 div mul w8 d w8 neg w2 3 4 div mul d cl s} def
/m43 {mp x y w2 add m w8 neg w2 -3 4 div mul d w2 -3 4 div mul w8 neg d w2 3 4 div mul w8 neg d w8 w2 -3 4 div mul d w8 w2 3 4 div mul d w2 3 4 div mul w8 d w2 -3 4 div mul w8 d w8 neg w2 3 4 div mul d cl f} def
/m44 {mp x y m w6 neg w2 d w2 2 3 div mul 0 d w6 neg w2 neg d w2 w6 d 0 w2 -2 3 div mul d w2 neg w6 d w6 w2 neg d w2 -2 3 div mul 0 d w6 w2 d w2 neg w6 neg d 0 w2 2 3 div mul d w2 w6 neg d cl s} def
/m45 {mp x y m w6 neg w2 d w2 2 3 div mul 0 d w6 neg w2 neg d w2 w6 d 0 w2 -2 3 div mul d w2 neg w6 d w6 w2 neg d w2 -2 3 div mul 0 d w6 w2 d w2 neg w6 neg d 0 w2 2 3 div mul d w2 w6 neg d cl f} def
/m46 {mp x y w4 add m w4 neg w4 d w4 neg w4 neg d  w4 w4 neg d w4 neg w4 neg d w4 w4 neg d w4 w4 d w4 w4 neg d w4 w4 d w4 neg w4 d w4 w4 d w4 neg w4 d w4 neg w4 neg d cl s} def
/m47 {mp x y w4 add m w4 neg w4 d w4 neg w4 neg d w4 w4 neg d w4 neg w4 neg d  w4 w4 neg d w4 w4 d w4 w4 neg d w4 w4 d w4 neg w4 d w4 w4 d w4 neg w4 d w4 neg w4 neg d cl f} def
/m48 {mp x y w4 add m w4 neg w4 d w4 neg w4 neg d w4 w4 neg d  w4 neg w4 neg d w4 w4 neg d w4 w4 d w4 w4 neg d w4 w4 d w4 neg w4 d w4 w4 d w4 neg w4 d w4 neg w4 neg d  w4 w4 neg d w4 neg w4 neg d w4 neg w4 d w4 w4 d cl f} def
/m49 {mp x w2 sub w3 add y w2 sub w3 add m  0 w3 neg d w3 0 d 0 w3 d w3 0 d 0 w3 d w3 neg 0 d 0 w3 d w3 neg 0 d 0 w3 neg d w3 neg 0 d 0 w3 neg d w3 0 d 0 w3 d w3 0 d 0 w3 neg d w3 neg 0 d cl f } def
/m2 {mp x y w2 sub m 0 w d x w2 sub y m w 0 d s} def
/m5 {mp x w2 sub y w2 sub m w w d x w2 sub y w2 add m w w neg d s} def
%%IncludeResource: ProcSet (FontSetInit)
%%IncludeResource: font Times-Roman
%%IncludeResource: font Times-Italic
%%IncludeResource: font Times-Bold
%%IncludeResource: font Times-BoldItalic
%%IncludeResource: font Helvetica
%%IncludeResource: font Helvetica-Oblique
%%IncludeResource: font Helvetica-Bold
%%IncludeResource: font Helvetica-BoldOblique
%%IncludeResource: font Courier
%%IncludeResource: font Courier-Oblique
%%IncludeResource: font Courier-Bold
%%IncludeResource: font Courier-BoldOblique
%%IncludeResource: font Symbol
%%IncludeResource: font ZapfDingbats
/reEncode {exch findfont dup length dict begin {1 index /FID eq  {pop pop} {def} ifelse } forall /Encoding exch def currentdict end dup /FontName get exch definefont pop } def [/Times-Bold /Times-Italic /Times-BoldItalic /Helvetica /Helvetica-Oblique
 /Helvetica-Bold /Helvetica-BoldOblique /Courier /Courier-Oblique /Courier-Bold /Courier-BoldOblique /Times-Roman /AvantGarde-Book /AvantGarde-BookOblique /AvantGarde-Demi /AvantGarde-DemiOblique /Bookman-Demi /Bookman-DemiItalic /Bookman-Light
 /Bookman-LightItalic /Helvetica-Narrow /Helvetica-Narrow-Bold /Helvetica-Narrow-BoldOblique /Helvetica-Narrow-Oblique /NewCenturySchlbk-Roman /NewCenturySchlbk-Bold /NewCenturySchlbk-BoldItalic /NewCenturySchlbk-Italic /Palatino-Bold
 /Palatino-BoldItalic /Palatino-Italic /Palatino-Roman ] {ISOLatin1Encoding reEncode } forall
%%EndProlog
%%BeginSetup
%%EndSetup
newpath  gsave  .25 .25 scale  gsave  0 0 t black[  ] 0 sd 3 lw 1 1 1 c 2268 2176 0 0 bf black 1 1 1 c black 1769 1697 408 305 bl 1769 1697 408 305 bl 1 1 1 c black 1769 1697 408 305 bl 1769 1697 408 305 bl 0.49 0.6 0.82 c 1 1 1 c 0.49 0.6 0.82 c 408
 1905 m 18 X s 456 1905 m 16 X s /w 30 def /w2 {w 2 div} def /w3 {w 3 div} def 441 1905 m20 472 1866 m 14 X s 517 1866 m 12 X s 501 1866 m20 529 1820 m 12 X s 571 1820 m 10 X s 556 1820 m20 581 1780 m 9 X s 620 1780 m 8 X s 605 1780 m20 628 1744 m 7
 X s 666 1744 m 6 X s 650 1744 m20 672 1712 m 5 X s 707 1712 m 5 X s 692 1712 m20 712 1685 m 4 X s 746 1685 m 3 X s 731 1685 m20 749 1663 m 3 X s 782 1663 m 2 X s 767 1663 m20 784 1649 m 2 X s 816 1649 m 1 X s 801 1649 m20 817 1632 m 1 X s 848 1632 m
 s 833 1632 m20 863 1617 m20 892 1594 m20 919 1576 m20 945 1562 m20 970 1551 m20 993 1538 m20 1016 1530 m20 1038 1518 m20 1058 1507 m20 1079 1498 m20 1098 1487 m20 1117 1480 m20 1135 1470 m20 1152 1461 m20 1169 1455 m20 1186 1446 m20 1202 1437 m20
 1217 1431 m20 1232 1423 m20 1247 1413 m20 1261 1406 m20 1275 1399 m20 1289 1394 m20 1302 1381 m20 1315 1376 m20 1327 1368 m20 1340 1362 m20 1352 1351 m20 1364 1341 m20 1375 1334 m20 1387 1327 m20 1398 1317 m20 1408 1314 m20 1419 1303 m20 1430 1292
 m20 1440 1284 m20 1450 1275 m20 1460 1266 m20 1469 1256 m20 1479 1249 m20 1488 1241 m20 1498 1233 m20 1507 1223 m20 1515 1214 m20 1524 1207 m20 1533 1196 m20 1541 1184 m20 1550 1181 m20 1558 1172 m20 1566 1158 m20 1574 1153 m20 1582 1140 m20 1590
 1130 m20 1597 1118 m20 1605 1109 m20 1612 1098 m20 1620 1085 m20 1627 1074 m20 1634 1069 m20 1641 1055 m20 1648 1044 m20 1655 1029 m20 1662 1020 m20 1668 1005 m20 1675 1010 m20 1682 1000 m20 1688 986 m20 1694 982 m20 1701 980 m20 1707 977 m20 1713
 956 m20 1719 957 m20 1725 956 m20 1731 952 m20 1737 933 m20 1743 932 m20 1749 923 m20 1754 918 m20 1760 920 m20 1766 906 m20 1771 903 m20 1777 889 m20 1782 892 m20 1787 888 m20 1793 877 m20 1798 878 m20 1803 863 m20 1808 855 m20 1814 855 m20 1819
 856 m20 1824 848 m20 1829 844 m20 1834 830 m20 1839 829 m20 1843 829 m20 1848 810 m20 1853 814 m20 1858 802 m20 1862 795 m20 1867 784 m20 1872 790 m20 1876 776 m20 1881 773 m20 1885 780 m20 1890 766 m20 1894 772 m20 1898 751 m20 1903 759 m20 1907
 775 m20 1911 747 m20 1916 731 m20 1920 745 m20 1924 745 m20 1928 733 m20 1932 709 m20 1936 716 m20 1940 735 m20 1944 711 m20 1948 704 m20 1952 719 m20 1956 707 m20 1960 697 m20 1964 698 m20 1968 670 m20 1972 694 m20 1975 682 m20 1979 686 m20 1983
 680 m20 1987 669 m20 1990 668 m20 1994 670 m20 1998 663 m20 2001 659 m20 2005 655 m20 2009 647 m20 2012 626 m20 2016 634 m20 2019 624 m20 2023 640 m20 2026 653 m20 2029 600 m s 2029 616 m20 2033 599 m s 2033 614 m20 2036 597 m 1 Y s 2036 613 m20
 2040 591 m 1 Y s 2040 607 m20 2043 589 m 1 Y s 2043 605 m20 2046 597 m 1 Y s 2046 613 m20 2050 585 m 1 Y s 2050 601 m20 2053 583 m 1 Y s 2053 599 m20 2056 567 m 2 Y s 2056 600 m s 2056 584 m20 2059 558 m 2 Y s 2059 591 m s 2059 575 m20 2063 571 m 2
 Y s 2063 603 m s 2063 588 m20 2066 583 m 1 Y s 2066 599 m20 2069 569 m 2 Y s 2069 601 m s 2069 586 m20 2072 574 m 2 Y s 2072 591 m20 2075 550 m 3 Y s 2075 583 m 1 Y s 2075 568 m20 2079 567 m 2 Y s 2079 600 m s 2079 584 m20 2082 550 m 3 Y s 2082 583
 m 1 Y s 2082 568 m20 2085 548 m 3 Y s 2085 581 m 1 Y s 2085 566 m20 2088 523 m 5 Y s 2088 558 m 2 Y s 2088 543 m20 2091 530 m 4 Y s 2091 565 m 2 Y s 2091 549 m20 2094 523 m 5 Y s 2094 558 m 2 Y s 2094 543 m20 2097 562 m 2 Y s 2097 594 m 1 Y s 2097
 579 m20 2100 499 m 6 Y s 2100 536 m 4 Y s 2100 521 m20 2103 499 m 6 Y s 2103 536 m 4 Y s 2103 521 m20 2106 548 m 3 Y s 2106 581 m 1 Y s 2106 566 m20 2109 465 m 8 Y s 2109 504 m 5 Y s 2109 489 m20 2112 471 m 9 Y s 2112 510 m 5 Y s 2112 495 m20 2115
 493 m 7 Y s 2115 531 m 3 Y s 2115 515 m20 2118 481 m 8 Y s 2118 519 m 5 Y s 2118 504 m20 2121 510 m 6 Y s 2121 546 m 3 Y s 2121 531 m20 2124 507 m 6 Y s 2124 544 m 3 Y s 2124 528 m20 2126 487 m 8 Y s 2126 525 m 4 Y s 2126 510 m20 2129 481 m 8 Y s
 2129 519 m 5 Y s 2129 504 m20 2132 525 m 5 Y s 2132 560 m 2 Y s 2132 545 m20 2135 484 m 8 Y s 2135 522 m 5 Y s 2135 507 m20 2138 502 m 6 Y s 2138 539 m 3 Y s 2138 523 m20 2141 507 m 6 Y s 2141 544 m 3 Y s 2141 528 m20 2143 434 m 11 Y s 2143 475 m 8
 Y s 2143 460 m20 2146 481 m 8 Y s 2146 519 m 5 Y s 2146 504 m20 2149 461 m 9 Y s 2149 501 m 5 Y s 2149 485 m20 2152 475 m 8 Y s 2152 513 m 5 Y s 2152 498 m20 2154 429 m 12 Y s 2154 471 m 8 Y s 2154 456 m20 2157 446 m 10 Y s 2157 487 m 6 Y s 2157 471
 m20 2160 442 m 11 Y s 2160 483 m 7 Y s 2160 468 m20 2162 420 m 13 Y s 2162 463 m 8 Y s 2162 448 m20 2165 457 m 10 Y s 2165 497 m 6 Y s 2165 482 m20 2168 457 m 10 Y s 2168 497 m 6 Y s 2168 482 m20 2170 410 m 14 Y s 2170 454 m 9 Y s 2170 439 m20 2173
 410 m 14 Y s 2173 454 m 9 Y s 2173 439 m20 2176 429 m 12 Y s 2176 471 m 8 Y s 2176 456 m20 black 408 305 m 1769 X s 507 330 m -25 Y s 591 330 m -25 Y s 663 330 m -25 Y s 727 330 m -25 Y s 784 356 m -51 Y s
 gsave  2268 2176 0 0 C 726.735 167.415 t 0 r /Helvetica findfont 102.732 sf 0 0 m (10) show NC gr  1161 330 m -25 Y s 1381 330 m -25 Y s 1537 330 m -25 Y s 1658 330 m -25 Y s 1757 330 m -25 Y s 1841 330 m -25 Y s 1913 330 m -25 Y s 1977 330 m -25 Y
 s 2035 356 m -51 Y s
 gsave  2268 2176 0 0 C 2066.06 213.074 t 0 r /Helvetica findfont 68.4881 sf 0 0 m (2) show NC gr 
 gsave  2268 2176 0 0 C 1955.72 167.415 t 0 r /Helvetica findfont 102.732 sf 0 0 m (10) show NC gr 
 gsave  2268 2176 0 0 C 1837.76 60.8783 t 0 r /Helvetica findfont 121.757 sf 0 0 m ( [GeV]) show NC gr 
 gsave  2268 2176 0 0 C 1788.3 -3.80489 t 0 r /Helvetica findfont 79.9028 sf 0 0 m (T) show NC gr 
 gsave  2268 2176 0 0 C 1240.4 60.8783 t 0 r /Helvetica findfont 121.757 sf 0 0 m (Electron p) show NC gr  408 2002 m 1769 X s 507 1977 m 25 Y s 591 1977 m 25 Y s 663 1977 m 25 Y s 727 1977 m 25 Y s 784 1951 m 51 Y s 1161 1977 m 25 Y s 1381 1977 m 25
 Y s 1537 1977 m 25 Y s 1658 1977 m 25 Y s 1757 1977 m 25 Y s 1841 1977 m 25 Y s 1913 1977 m 25 Y s 1977 1977 m 25 Y s 2035 1951 m 51 Y s 408 305 m 1697 Y s 435 310 m -27 X s 435 354 m -27 X s 435 388 m -27 X s 435 416 m -27 X s 435 440 m -27 X s 435
 460 m -27 X s 435 478 m -27 X s 461 494 m -53 X s
 gsave  2268 2176 0 0 C 342.44 494.636 t 0 r /Helvetica findfont 68.4881 sf 0 0 m (6) show NC gr 
 gsave  2268 2176 0 0 C 304.391 494.636 t 0 r /Symbol findfont 68.4881 sf 0 0 m (-) show NC gr 
 gsave  2268 2176 0 0 C 194.05 445.173 t 0 r /Helvetica findfont 102.732 sf 0 0 m (10) show NC gr  435 600 m -27 X s 435 662 m -27 X s 435 706 m -27 X s 435 740 m -27 X s 435 767 m -27 X s 435 791 m -27 X s 435 811 m -27 X s 435 829 m -27 X s 461 845
 m -53 X s
 gsave  2268 2176 0 0 C 342.44 848.491 t 0 r /Helvetica findfont 68.4881 sf 0 0 m (5) show NC gr 
 gsave  2268 2176 0 0 C 304.391 848.491 t 0 r /Symbol findfont 68.4881 sf 0 0 m (-) show NC gr 
 gsave  2268 2176 0 0 C 194.05 799.028 t 0 r /Helvetica findfont 102.732 sf 0 0 m (10) show NC gr  435 951 m -27 X s 435 1013 m -27 X s 435 1057 m -27 X s 435 1091 m -27 X s 435 1119 m -27 X s 435 1142 m -27 X s 435 1163 m -27 X s 435 1181 m -27 X s
 461 1197 m -53 X s
 gsave  2268 2176 0 0 C 342.44 1194.74 t 0 r /Helvetica findfont 68.4881 sf 0 0 m (4) show NC gr 
 gsave  2268 2176 0 0 C 304.391 1194.74 t 0 r /Symbol findfont 68.4881 sf 0 0 m (-) show NC gr 
 gsave  2268 2176 0 0 C 194.05 1149.08 t 0 r /Helvetica findfont 102.732 sf 0 0 m (10) show NC gr  435 1303 m -27 X s 435 1364 m -27 X s 435 1408 m -27 X s 435 1442 m -27 X s 435 1470 m -27 X s 435 1494 m -27 X s 435 1514 m -27 X s 435 1532 m -27 X s
 461 1548 m -53 X s
 gsave  2268 2176 0 0 C 342.44 1548.59 t 0 r /Helvetica findfont 68.4881 sf 0 0 m (3) show NC gr 
 gsave  2268 2176 0 0 C 304.391 1548.59 t 0 r /Symbol findfont 68.4881 sf 0 0 m (-) show NC gr 
 gsave  2268 2176 0 0 C 194.05 1499.13 t 0 r /Helvetica findfont 102.732 sf 0 0 m (10) show NC gr  435 1654 m -27 X s 435 1716 m -27 X s 435 1760 m -27 X s 435 1794 m -27 X s 435 1822 m -27 X s 435 1845 m -27 X s 435 1866 m -27 X s 435 1884 m -27 X s
 461 1900 m -53 X s
 gsave  2268 2176 0 0 C 342.44 1898.64 t 0 r /Helvetica findfont 68.4881 sf 0 0 m (2) show NC gr 
 gsave  2268 2176 0 0 C 304.391 1898.64 t 0 r /Symbol findfont 68.4881 sf 0 0 m (-) show NC gr 
 gsave  2268 2176 0 0 C 194.05 1852.98 t 0 r /Helvetica findfont 102.732 sf 0 0 m (10) show NC gr 
 gsave  2268 2176 0 0 C 156.001 620.198 t 90 r /Helvetica findfont 121.757 sf 0 0 m (DY+Jets Fakes per Event) show NC gr  2177 305 m 1697 Y s 2150 310 m 27 X s 2150 354 m 27 X s 2150 388 m 27 X s 2150 416 m 27 X s 2150 440 m 27 X s 2150 460 m 27 X s
 2150 478 m 27 X s 2124 494 m 53 X s 2150 600 m 27 X s 2150 662 m 27 X s 2150 706 m 27 X s 2150 740 m 27 X s 2150 767 m 27 X s 2150 791 m 27 X s 2150 811 m 27 X s 2150 829 m 27 X s 2124 845 m 53 X s 2150 951 m 27 X s 2150 1013 m 27 X s 2150 1057 m 27
 X s 2150 1091 m 27 X s 2150 1119 m 27 X s 2150 1142 m 27 X s 2150 1163 m 27 X s 2150 1181 m 27 X s 2124 1197 m 53 X s 2150 1303 m 27 X s 2150 1364 m 27 X s 2150 1408 m 27 X s 2150 1442 m 27 X s 2150 1470 m 27 X s 2150 1494 m 27 X s 2150 1514 m 27 X
 s 2150 1532 m 27 X s 2124 1548 m 53 X s 2150 1654 m 27 X s 2150 1716 m 27 X s 2150 1760 m 27 X s 2150 1794 m 27 X s 2150 1822 m 27 X s 2150 1845 m 27 X s 2150 1866 m 27 X s 2150 1884 m 27 X s 2124 1900 m 53 X s 0.49 0.6 0.82 c 1 1 1 c 0.49 0.6 0.82
 c 408 1903 m 18 X s 456 1903 m 16 X s 441 1903 m24 472 1858 m 14 X s 517 1858 m 12 X s 501 1858 m24 529 1808 m 12 X s 571 1808 m 10 X s 556 1808 m24 581 1767 m 9 X s 620 1767 m 8 X s 605 1767 m24 628 1731 m 7 X s 666 1731 m 6 X s 650 1731 m24 672
 1700 m 5 X s 707 1700 m 5 X s 692 1700 m24 712 1675 m 4 X s 746 1675 m 3 X s 731 1675 m24 749 1658 m 3 X s 782 1658 m 2 X s 767 1658 m24 784 1641 m 2 X s 816 1641 m 1 X s 801 1641 m24 817 1623 m 1 X s 848 1623 m s 833 1623 m24 863 1607 m24 892 1586
 m24 919 1567 m24 945 1551 m24 970 1536 m24 993 1528 m24 1016 1515 m24 1038 1504 m24 1058 1493 m24 1079 1486 m24 1098 1475 m24 1117 1465 m24 1135 1454 m24 1152 1449 m24 1169 1437 m24 1186 1430 m24 1202 1422 m24 1217 1411 m24 1232 1404 m24 1247 1400
 m24 1261 1387 m24 1275 1383 m24 1289 1375 m24 1302 1362 m24 1315 1357 m24 1327 1348 m24 1340 1343 m24 1352 1334 m24 1364 1324 m24 1375 1319 m24 1387 1312 m24 1398 1300 m24 1408 1292 m24 1419 1284 m24 1430 1276 m24 1440 1269 m24 1450 1260 m24 1460
 1253 m24 1469 1238 m24 1479 1229 m24 1488 1223 m24 1498 1219 m24 1507 1211 m24 1515 1202 m24 1524 1195 m24 1533 1181 m24 1541 1174 m24 1550 1164 m24 1558 1150 m24 1566 1147 m24 1574 1130 m24 1582 1125 m24 1590 1110 m24 1597 1109 m24 1605 1095 m24
 1612 1092 m24 1620 1082 m24 1627 1079 m24 1634 1061 m24 1641 1069 m24 1648 1053 m24 1655 1038 m24 1662 1041 m24 1668 1022 m24 1675 1027 m24 1682 1015 m24 1688 1016 m24 1694 1004 m24 1701 997 m24 1707 984 m24 1713 985 m24 1719 976 m24 1725 949 m24
 1731 962 m24 1737 954 m24 1743 938 m24 1749 927 m24 1754 931 m24 1760 940 m24 1766 921 m24 1771 920 m24 1777 894 m24 1782 906 m24 1787 895 m24 1793 895 m24 1798 903 m24 1803 876 m24 1808 871 m24 1814 873 m24 1819 866 m24 1824 840 m24 1829 864 m24
 1834 857 m24 1839 851 m24 1843 834 m24 1848 843 m24 1853 844 m24 1858 842 m24 1862 837 m24 1867 823 m24 1872 816 m24 1876 787 m24 1881 803 m24 1885 804 m24 1890 813 m24 1894 780 m24 1898 780 m24 1903 794 m24 1907 796 m24 1911 772 m24 1916 788 m24
 1920 780 m24 1924 761 m24 1928 767 m24 1932 768 m24 1936 757 m24 1940 750 m24 1944 745 m24 1948 740 m24 1952 731 m24 1956 710 m s 1956 726 m24 1960 767 m24 1964 752 m24 1968 701 m 1 Y s 1968 717 m24 1972 745 m24 1975 709 m s 1975 724 m24 1979 709 m
 s 1979 724 m24 1983 715 m s 1983 730 m24 1987 691 m 1 Y s 1987 708 m24 1990 689 m 2 Y s 1990 706 m24 1994 698 m 1 Y s 1994 714 m24 1998 689 m 2 Y s 1998 706 m24 2001 664 m 2 Y s 2001 697 m 1 Y s 2001 682 m24 2005 675 m 2 Y s 2005 708 m s 2005 693
 m24 2009 653 m 4 Y s 2009 687 m 2 Y s 2009 672 m24 2012 642 m 4 Y s 2012 677 m 2 Y s 2012 662 m24 2016 638 m 4 Y s 2016 672 m 3 Y s 2016 657 m24 2019 683 m 1 Y s 2019 699 m24 2023 688 m 1 Y s 2023 704 m24 2026 615 m 6 Y s 2026 651 m 3 Y s 2026 636
 m24 2029 653 m 4 Y s 2029 687 m 2 Y s 2029 672 m24 2033 620 m 6 Y s 2033 656 m 3 Y s 2033 641 m24 2036 638 m 4 Y s 2036 672 m 3 Y s 2036 657 m24 2040 638 m 4 Y s 2040 672 m 3 Y s 2040 657 m24 2043 620 m 6 Y s 2043 656 m 3 Y s 2043 641 m24 2046 672 m
 2 Y s 2046 704 m 1 Y s 2046 689 m24 2050 620 m 6 Y s 2050 656 m 3 Y s 2050 641 m24 2053 612 m 6 Y s 2053 649 m 3 Y s 2053 633 m24 2056 603 m 7 Y s 2056 641 m 3 Y s 2056 625 m24 2059 620 m 6 Y s 2059 656 m 3 Y s 2059 641 m24 2063 588 m 8 Y s 2063 626
 m 5 Y s 2063 611 m24 2066 640 m 4 Y s 2066 675 m 2 Y s 2066 659 m24 2069 620 m 6 Y s 2069 656 m 3 Y s 2069 641 m24 2072 625 m 6 Y s 2072 661 m 3 Y s 2072 646 m24 2075 603 m 7 Y s 2075 641 m 3 Y s 2075 625 m24 2079 633 m 4 Y s 2079 668 m 2 Y s 2079
 653 m24 2082 620 m 6 Y s 2082 656 m 3 Y s 2082 641 m24 2085 628 m 5 Y s 2085 663 m 3 Y s 2085 648 m24 2088 603 m 7 Y s 2088 641 m 3 Y s 2088 625 m24 2091 609 m 6 Y s 2091 646 m 4 Y s 2091 631 m24 2094 603 m 7 Y s 2094 641 m 3 Y s 2094 625 m24 2097
 581 m 9 Y s 2097 620 m 5 Y s 2097 605 m24 2100 581 m 9 Y s 2100 620 m 5 Y s 2100 605 m24 2103 597 m 8 Y s 2103 635 m 4 Y s 2103 620 m24 2106 606 m 7 Y s 2106 643 m 4 Y s 2106 628 m24 2109 567 m 10 Y s 2109 607 m 6 Y s 2109 592 m24 2112 591 m 8 Y s
 2112 629 m 5 Y s 2112 614 m24 2115 609 m 6 Y s 2115 646 m 4 Y s 2115 631 m24 2118 571 m 9 Y s 2118 611 m 5 Y s 2118 595 m24 2121 564 m 9 Y s 2121 604 m 6 Y s 2121 589 m24 2124 556 m 10 Y s 2124 597 m 6 Y s 2124 581 m24 2126 564 m 9 Y s 2126 604 m 6
 Y s 2126 589 m24 2129 567 m 10 Y s 2129 607 m 6 Y s 2129 592 m24 2132 499 m 16 Y s 2132 545 m 11 Y s 2132 530 m24 2135 571 m 9 Y s 2135 611 m 5 Y s 2135 595 m24 2138 515 m 14 Y s 2138 560 m 9 Y s 2138 545 m24 2141 525 m 13 Y s 2141 569 m 8 Y s 2141
 554 m24 2143 543 m 12 Y s 2143 585 m 8 Y s 2143 570 m24 2146 552 m 11 Y s 2146 593 m 7 Y s 2146 578 m24 2149 543 m 12 Y s 2149 585 m 8 Y s 2149 570 m24 2152 539 m 12 Y s 2152 581 m 8 Y s 2152 566 m24 2154 515 m 14 Y s 2154 560 m 9 Y s 2154 545 m24
 2157 567 m 10 Y s 2157 607 m 6 Y s 2157 592 m24 2160 510 m 15 Y s 2160 555 m 10 Y s 2160 540 m24 2162 515 m 14 Y s 2162 560 m 9 Y s 2162 545 m24 2165 510 m 15 Y s 2165 555 m 10 Y s 2165 540 m24 2168 494 m 16 Y s 2168 540 m 11 Y s 2168 525 m24 2170
 560 m 10 Y s 2170 600 m 7 Y s 2170 585 m24 2173 530 m 13 Y s 2173 573 m 8 Y s 2173 558 m24 2176 539 m 12 Y s 2176 581 m 8 Y s 2176 566 m24 black 1 1 1 c 635 392 476 435 bf black
 gsave  2268 2176 0 0 C 631.612 688.686 t 0 r /Helvetica findfont 102.732 sf 0 0 m (2017 tracker driven) show NC gr  0.49 0.6 0.82 c 556 744 m 44 Y s 556 714 m -44 Y s 556 729 m20 black
 gsave  2268 2176 0 0 C 631.612 490.831 t 0 r /Helvetica findfont 102.732 sf 0 0 m (2017 \(Legacy\) tracker driven) show NC gr  0.49 0.6 0.82 c 556 548 m 44 Y s 556 518 m -44 Y s 556 533 m24 black
 gsave  2268 2176 0 0 C 1769.28 2039.42 t 0 r /Helvetica findfont 106.537 sf 0 0 m (\(13 TeV\)) show NC gr 
 gsave  2268 2176 0 0 C 408.189 2037.11 t 0 r /Helvetica-Bold findfont 129.366 sf 0 0 m (CMS) show NC gr 
 gsave  2268 2176 0 0 C 487.026 2039.42 t 0 r /Helvetica-Oblique findfont 98.9272 sf 0 0 m (        Simulation) show NC gr  408 305 m 1769 X s 507 330 m -25 Y s 591 330 m -25 Y s 663 330 m -25 Y s 727 330 m -25 Y s 784 356 m -51 Y s 1161 330 m -25 Y
 s 1381 330 m -25 Y s 1537 330 m -25 Y s 1658 330 m -25 Y s 1757 330 m -25 Y s 1841 330 m -25 Y s 1913 330 m -25 Y s 1977 330 m -25 Y s 2035 356 m -51 Y s 408 2002 m 1769 X s 507 1977 m 25 Y s 591 1977 m 25 Y s 663 1977 m 25 Y s 727 1977 m 25 Y s 784
 1951 m 51 Y s 1161 1977 m 25 Y s 1381 1977 m 25 Y s 1537 1977 m 25 Y s 1658 1977 m 25 Y s 1757 1977 m 25 Y s 1841 1977 m 25 Y s 1913 1977 m 25 Y s 1977 1977 m 25 Y s 2035 1951 m 51 Y s 408 305 m 1697 Y s 435 310 m -27 X s 435 354 m -27 X s 435 388 m
 -27 X s 435 416 m -27 X s 435 440 m -27 X s 435 460 m -27 X s 435 478 m -27 X s 461 494 m -53 X s 435 600 m -27 X s 435 662 m -27 X s 435 706 m -27 X s 435 740 m -27 X s 435 767 m -27 X s 435 791 m -27 X s 435 811 m -27 X s 435 829 m -27 X s 461 845
 m -53 X s 435 951 m -27 X s 435 1013 m -27 X s 435 1057 m -27 X s 435 1091 m -27 X s 435 1119 m -27 X s 435 1142 m -27 X s 435 1163 m -27 X s 435 1181 m -27 X s 461 1197 m -53 X s 435 1303 m -27 X s 435 1364 m -27 X s 435 1408 m -27 X s 435 1442 m
 -27 X s 435 1470 m -27 X s 435 1494 m -27 X s 435 1514 m -27 X s 435 1532 m -27 X s 461 1548 m -53 X s 435 1654 m -27 X s 435 1716 m -27 X s 435 1760 m -27 X s 435 1794 m -27 X s 435 1822 m -27 X s 435 1845 m -27 X s 435 1866 m -27 X s 435 1884 m
 -27 X s 461 1900 m -53 X s 2177 305 m 1697 Y s 2150 310 m 27 X s 2150 354 m 27 X s 2150 388 m 27 X s 2150 416 m 27 X s 2150 440 m 27 X s 2150 460 m 27 X s 2150 478 m 27 X s 2124 494 m 53 X s 2150 600 m 27 X s 2150 662 m 27 X s 2150 706 m 27 X s 2150
 740 m 27 X s 2150 767 m 27 X s 2150 791 m 27 X s 2150 811 m 27 X s 2150 829 m 27 X s 2124 845 m 53 X s 2150 951 m 27 X s 2150 1013 m 27 X s 2150 1057 m 27 X s 2150 1091 m 27 X s 2150 1119 m 27 X s 2150 1142 m 27 X s 2150 1163 m 27 X s 2150 1181 m 27
 X s 2124 1197 m 53 X s 2150 1303 m 27 X s 2150 1364 m 27 X s 2150 1408 m 27 X s 2150 1442 m 27 X s 2150 1470 m 27 X s 2150 1494 m 27 X s 2150 1514 m 27 X s 2150 1532 m 27 X s 2124 1548 m 53 X s 2150 1654 m 27 X s 2150 1716 m 27 X s 2150 1760 m 27 X
 s 2150 1794 m 27 X s 2150 1822 m 27 X s 2150 1845 m 27 X s 2150 1866 m 27 X s 2150 1884 m 27 X s 2124 1900 m 53 X s 1 1 1 c black 1769 1697 408 305 bl 1769 1697 408 305 bl
 gr  gr showpage
end
%%EOF
