%!PS-Adobe-2.0 EPSF-2.0
%%BoundingBox:  0 0 567 544
%%Title: plots/n_fakes_vs_genNpu_pt20_only2017_ecal_driven.eps: n_fakes_vs_genNpu_pt20_only2017_ecal_driven
%%Creator: ROOT Version 6.14/04
%%CreationDate: Tue Aug  4 10:16:06 2020
%%DocumentNeededResources: ProcSet (FontSetInit)
%%EndComments
%%BeginProlog
80 dict begin
/s {stroke} def /l {lineto} def /m {moveto} def /t {translate} def
/r {rotate} def /rl {roll}  def /R {repeat} def
/d {rlineto} def /rm {rmoveto} def /gr {grestore} def /f {eofill} def
/c {setrgbcolor} def /black {0 setgray} def /sd {setdash} def
/cl {closepath} def /sf {scalefont setfont} def /lw {setlinewidth} def
/box {m dup 0 exch d exch 0 d 0 exch neg d cl} def
/NC{systemdict begin initclip end}def/C{NC box clip newpath}def
/bl {box s} def /bf {gsave box gsave f grestore 1 lw [] 0 sd s grestore} def /Y { 0 exch d} def /X { 0 d} def 
/K {{pop pop 0 moveto} exch kshow} bind def
/ita {/ang 15 def gsave [1 0 ang dup sin exch cos div 1 0 0] concat} def 
/mp {newpath /y exch def /x exch def} def
/side {[w .77 mul w .23 mul] .385 w mul sd w 0 l currentpoint t -144 r} def
/mr {mp x y w2 0 360 arc} def /m24 {mr s} def /m20 {mr f} def
/mb {mp x y w2 add m w2 neg 0 d 0 w neg d w 0 d 0 w d cl} def
/mt {mp x y w2 add m w2 neg w neg d w 0 d cl} def
/w4 {w 4 div} def
/w6 {w 6 div} def
/w8 {w 8 div} def
/m21 {mb f} def /m25 {mb s} def /m22 {mt f} def /m26{mt s} def
/m23 {mp x y w2 sub m w2 w d w neg 0 d cl f} def
/m27 {mp x y w2 add m w3 neg w2 neg d w3 w2 neg d w3 w2 d cl s} def
/m28 {mp x w2 sub y w2 sub w3 add m w3 0 d  0 w3 neg d w3 0 d 0 w3 d w3 0 d  0 w3 d w3 neg 0 d 0 w3 d w3 neg 0 d 0 w3 neg d w3 neg 0 d cl s } def
/m29 {mp gsave x w2 sub y w2 add w3 sub m currentpoint t 4 {side} repeat cl fill gr} def
/m30 {mp gsave x w2 sub y w2 add w3 sub m currentpoint t 4 {side} repeat cl s gr} def
/m31 {mp x y w2 sub m 0 w d x w2 sub y m w 0 d x w2 sub y w2 add m w w neg d x w2 sub y w2 sub m w w d s} def
/m32 {mp x y w2 sub m w2 w d w neg 0 d cl s} def
/m33 {mp x y w2 add m w3 neg w2 neg d w3 w2 neg d w3 w2 d cl f} def
/m34 {mp x w2 sub y w2 sub w3 add m w3 0 d  0 w3 neg d w3 0 d 0 w3 d w3 0 d  0 w3 d w3 neg 0 d 0 w3 d w3 neg 0 d 0 w3 neg d w3 neg 0 d cl f } def
/m35 {mp x y w2 add m w2 neg w2 neg d w2 w2 neg d w2 w2 d w2 neg w2 d x y w2 sub m 0 w d x w2 sub y m w 0 d s} def
/m36 {mb x w2 sub y w2 add m w w neg d x w2 sub y w2 sub m w w d s} def
/m37 {mp x y m w4 neg w2 d w4 neg w2 neg d w2 0 d  w4 neg w2 neg d w2 0 d w4 neg w2 d w2 0 d w4 neg w2 d w4 neg w2 neg d cl s} def
/m38 {mp x w4 sub y w2 add m w4 neg w4 neg d 0 w2 neg d w4 w4 neg d w2 0 d w4 w4 d 0 w2 d w4 neg w4 d w2 neg 0 d x y w2 sub m 0 w d x w2 sub y m w 0 d cl s} def
/m39 {mp x y m w4 neg w2 d w4 neg w2 neg d w2 0 d  w4 neg w2 neg d w2 0 d w4 neg w2 d w2 0 d w4 neg w2 d w4 neg w2 neg d cl f} def
/m40 {mp x y m w4 w2 d w4 w4 neg d w2 neg w4 neg d w2 w4 neg d w4 neg w4 neg d w4 neg w2 d w4 neg w2 neg d w4 neg w4 d w2 w4 d w2 neg w4 d w4 w4 d w4 w2 neg d cl s} def
/m41 {mp x y m w4 w2 d w4 w4 neg d w2 neg w4 neg d w2 w4 neg d w4 neg w4 neg d w4 neg w2 d w4 neg w2 neg d w4 neg w4 d w2 w4 d w2 neg w4 d w4 w4 d w4 w2 neg d cl f} def
/m42 {mp x y w2 add m w8 neg w2 -3 4 div mul d w2 -3 4 div mul w8 neg d w2 3 4 div mul w8 neg d w8 w2 -3 4 div mul d w8 w2 3 4 div mul d w2 3 4 div mul w8 d w2 -3 4 div mul w8 d w8 neg w2 3 4 div mul d cl s} def
/m43 {mp x y w2 add m w8 neg w2 -3 4 div mul d w2 -3 4 div mul w8 neg d w2 3 4 div mul w8 neg d w8 w2 -3 4 div mul d w8 w2 3 4 div mul d w2 3 4 div mul w8 d w2 -3 4 div mul w8 d w8 neg w2 3 4 div mul d cl f} def
/m44 {mp x y m w6 neg w2 d w2 2 3 div mul 0 d w6 neg w2 neg d w2 w6 d 0 w2 -2 3 div mul d w2 neg w6 d w6 w2 neg d w2 -2 3 div mul 0 d w6 w2 d w2 neg w6 neg d 0 w2 2 3 div mul d w2 w6 neg d cl s} def
/m45 {mp x y m w6 neg w2 d w2 2 3 div mul 0 d w6 neg w2 neg d w2 w6 d 0 w2 -2 3 div mul d w2 neg w6 d w6 w2 neg d w2 -2 3 div mul 0 d w6 w2 d w2 neg w6 neg d 0 w2 2 3 div mul d w2 w6 neg d cl f} def
/m46 {mp x y w4 add m w4 neg w4 d w4 neg w4 neg d  w4 w4 neg d w4 neg w4 neg d w4 w4 neg d w4 w4 d w4 w4 neg d w4 w4 d w4 neg w4 d w4 w4 d w4 neg w4 d w4 neg w4 neg d cl s} def
/m47 {mp x y w4 add m w4 neg w4 d w4 neg w4 neg d w4 w4 neg d w4 neg w4 neg d  w4 w4 neg d w4 w4 d w4 w4 neg d w4 w4 d w4 neg w4 d w4 w4 d w4 neg w4 d w4 neg w4 neg d cl f} def
/m48 {mp x y w4 add m w4 neg w4 d w4 neg w4 neg d w4 w4 neg d  w4 neg w4 neg d w4 w4 neg d w4 w4 d w4 w4 neg d w4 w4 d w4 neg w4 d w4 w4 d w4 neg w4 d w4 neg w4 neg d  w4 w4 neg d w4 neg w4 neg d w4 neg w4 d w4 w4 d cl f} def
/m49 {mp x w2 sub w3 add y w2 sub w3 add m  0 w3 neg d w3 0 d 0 w3 d w3 0 d 0 w3 d w3 neg 0 d 0 w3 d w3 neg 0 d 0 w3 neg d w3 neg 0 d 0 w3 neg d w3 0 d 0 w3 d w3 0 d 0 w3 neg d w3 neg 0 d cl f } def
/m2 {mp x y w2 sub m 0 w d x w2 sub y m w 0 d s} def
/m5 {mp x w2 sub y w2 sub m w w d x w2 sub y w2 add m w w neg d s} def
%%IncludeResource: ProcSet (FontSetInit)
%%IncludeResource: font Times-Roman
%%IncludeResource: font Times-Italic
%%IncludeResource: font Times-Bold
%%IncludeResource: font Times-BoldItalic
%%IncludeResource: font Helvetica
%%IncludeResource: font Helvetica-Oblique
%%IncludeResource: font Helvetica-Bold
%%IncludeResource: font Helvetica-BoldOblique
%%IncludeResource: font Courier
%%IncludeResource: font Courier-Oblique
%%IncludeResource: font Courier-Bold
%%IncludeResource: font Courier-BoldOblique
%%IncludeResource: font Symbol
%%IncludeResource: font ZapfDingbats
/reEncode {exch findfont dup length dict begin {1 index /FID eq  {pop pop} {def} ifelse } forall /Encoding exch def currentdict end dup /FontName get exch definefont pop } def [/Times-Bold /Times-Italic /Times-BoldItalic /Helvetica /Helvetica-Oblique
 /Helvetica-Bold /Helvetica-BoldOblique /Courier /Courier-Oblique /Courier-Bold /Courier-BoldOblique /Times-Roman /AvantGarde-Book /AvantGarde-BookOblique /AvantGarde-Demi /AvantGarde-DemiOblique /Bookman-Demi /Bookman-DemiItalic /Bookman-Light
 /Bookman-LightItalic /Helvetica-Narrow /Helvetica-Narrow-Bold /Helvetica-Narrow-BoldOblique /Helvetica-Narrow-Oblique /NewCenturySchlbk-Roman /NewCenturySchlbk-Bold /NewCenturySchlbk-BoldItalic /NewCenturySchlbk-Italic /Palatino-Bold
 /Palatino-BoldItalic /Palatino-Italic /Palatino-Roman ] {ISOLatin1Encoding reEncode } forall
%%EndProlog
%%BeginSetup
%%EndSetup
newpath  gsave  .25 .25 scale  gsave  0 0 t black[  ] 0 sd 3 lw 1 1 1 c 2268 2176 0 0 bf black 1 1 1 c black 1769 1697 408 305 bl 1769 1697 408 305 bl 1 1 1 c black 1769 1697 408 305 bl 1769 1697 408 305 bl 0.49 0.6 0.82 c 1 1 1 c 0.49 0.6 0.82 c 420
 793 m 2 Y s 420 825 m 2 Y s /w 30 def /w2 {w 2 div} def /w3 {w 3 div} def 420 810 m20 442 790 m 2 Y s 442 822 m 2 Y s 442 807 m20 465 769 m20 488 792 m20 510 796 m20 533 777 m20 556 782 m20 578 796 m20 601 786 m20 624 798 m20 646 793 m20 669 790 m20
 692 793 m20 714 789 m20 737 789 m20 760 780 m20 782 794 m20 805 780 m20 828 788 m20 850 790 m20 873 782 m20 896 785 m20 918 790 m20 941 793 m20 964 792 m20 986 793 m20 1009 795 m20 1032 789 m20 1054 800 m20 1077 795 m20 1100 796 m20 1123 793 m20
 1145 798 m20 1168 799 m20 1191 801 m20 1213 803 m20 1236 806 m20 1259 793 m20 1281 793 m20 1304 804 m20 1327 805 m20 1349 802 m20 1372 813 m20 1395 807 m20 1417 809 m20 1440 814 m20 1463 814 m20 1485 819 m20 1508 823 m20 1531 833 m20 1553 828 m20
 1576 834 m20 1599 838 m20 1621 841 m20 1644 843 m20 1667 843 m20 1689 853 m20 1712 840 m20 1735 866 m20 1757 853 m20 1780 858 m20 1803 868 m20 1826 861 m20 1848 857 m20 1871 869 m20 1894 860 m20 1916 885 m20 1939 889 m20 1962 880 m20 1984 897 m20
 2007 910 m20 2030 893 m20 2052 908 m 1 Y s 2052 939 m 1 Y s 2052 924 m20 2075 933 m 2 Y s 2075 965 m 2 Y s 2075 950 m20 2098 954 m 3 Y s 2098 988 m 4 Y s 2098 973 m20 2120 921 m 4 Y s 2120 956 m 5 Y s 2120 941 m20 2143 887 m 5 Y s 2143 923 m 6 Y s
 2143 908 m20 2166 926 m 8 Y s 2166 964 m 8 Y s 2166 949 m20 black 408 305 m 1769 X s 590 356 m -51 Y s 635 330 m -25 Y s 680 330 m -25 Y s 726 330 m -25 Y s 771 330 m -25 Y s 816 356 m -51 Y s 862 330 m -25 Y s 907 330 m -25 Y s 952 330 m -25 Y s
 998 330 m -25 Y s 1043 356 m -51 Y s 1089 330 m -25 Y s 1134 330 m -25 Y s 1179 330 m -25 Y s 1225 330 m -25 Y s 1270 356 m -51 Y s 1315 330 m -25 Y s 1361 330 m -25 Y s 1406 330 m -25 Y s 1451 330 m -25 Y s 1497 356 m -51 Y s 1542 330 m -25 Y s
 1587 330 m -25 Y s 1633 330 m -25 Y s 1678 330 m -25 Y s 1723 356 m -51 Y s 1769 330 m -25 Y s 1814 330 m -25 Y s 1860 330 m -25 Y s 1905 330 m -25 Y s 1950 356 m -51 Y s 1996 330 m -25 Y s 2041 330 m -25 Y s 2086 330 m -25 Y s 2132 330 m -25 Y s
 2177 356 m -51 Y s 590 356 m -51 Y s 544 330 m -25 Y s 499 330 m -25 Y s 454 330 m -25 Y s
 gsave  2268 2176 0 0 C 528.88 205.464 t 0 r /Helvetica findfont 102.732 sf 0 0 m (10) show NC gr 
 gsave  2268 2176 0 0 C 757.174 205.464 t 0 r /Helvetica findfont 102.732 sf 0 0 m (20) show NC gr 
 gsave  2268 2176 0 0 C 985.467 205.464 t 0 r /Helvetica findfont 102.732 sf 0 0 m (30) show NC gr 
 gsave  2268 2176 0 0 C 1209.96 205.464 t 0 r /Helvetica findfont 102.732 sf 0 0 m (40) show NC gr 
 gsave  2268 2176 0 0 C 1438.25 205.464 t 0 r /Helvetica findfont 102.732 sf 0 0 m (50) show NC gr 
 gsave  2268 2176 0 0 C 1662.74 205.464 t 0 r /Helvetica findfont 102.732 sf 0 0 m (60) show NC gr 
 gsave  2268 2176 0 0 C 1891.03 205.464 t 0 r /Helvetica findfont 102.732 sf 0 0 m (70) show NC gr 
 gsave  2268 2176 0 0 C 2119.33 205.464 t 0 r /Helvetica findfont 102.732 sf 0 0 m (80) show NC gr 
 gsave  2268 2176 0 0 C 1236.59 41.8538 t 0 r /Helvetica findfont 121.757 sf 0 0 m (Number of Pileup) show NC gr  408 2002 m 1769 X s 590 1951 m 51 Y s 635 1977 m 25 Y s 680 1977 m 25 Y s 726 1977 m 25 Y s 771 1977 m 25 Y s 816 1951 m 51 Y s 862 1977
 m 25 Y s 907 1977 m 25 Y s 952 1977 m 25 Y s 998 1977 m 25 Y s 1043 1951 m 51 Y s 1089 1977 m 25 Y s 1134 1977 m 25 Y s 1179 1977 m 25 Y s 1225 1977 m 25 Y s 1270 1951 m 51 Y s 1315 1977 m 25 Y s 1361 1977 m 25 Y s 1406 1977 m 25 Y s 1451 1977 m 25
 Y s 1497 1951 m 51 Y s 1542 1977 m 25 Y s 1587 1977 m 25 Y s 1633 1977 m 25 Y s 1678 1977 m 25 Y s 1723 1951 m 51 Y s 1769 1977 m 25 Y s 1814 1977 m 25 Y s 1860 1977 m 25 Y s 1905 1977 m 25 Y s 1950 1951 m 51 Y s 1996 1977 m 25 Y s 2041 1977 m 25 Y
 s 2086 1977 m 25 Y s 2132 1977 m 25 Y s 2177 1951 m 51 Y s 590 1951 m 51 Y s 544 1977 m 25 Y s 499 1977 m 25 Y s 454 1977 m 25 Y s 408 305 m 1697 Y s 461 305 m -53 X s 435 363 m -27 X s 435 421 m -27 X s 435 479 m -27 X s 435 537 m -27 X s 461 595 m
 -53 X s 435 653 m -27 X s 435 711 m -27 X s 435 769 m -27 X s 435 827 m -27 X s 461 885 m -53 X s 435 943 m -27 X s 435 1001 m -27 X s 435 1059 m -27 X s 435 1117 m -27 X s 461 1175 m -53 X s 435 1233 m -27 X s 435 1291 m -27 X s 435 1349 m -27 X s
 435 1407 m -27 X s 461 1465 m -53 X s 435 1523 m -27 X s 435 1582 m -27 X s 435 1640 m -27 X s 435 1698 m -27 X s 461 1756 m -53 X s 461 1756 m -53 X s 435 1814 m -27 X s 435 1872 m -27 X s 435 1930 m -27 X s 435 1988 m -27 X s
 gsave  2268 2176 0 0 C 338.636 270.147 t 0 r /Helvetica findfont 102.732 sf 0 0 m (0) show NC gr 
 gsave  2268 2176 0 0 C 213.074 559.319 t 0 r /Helvetica findfont 102.732 sf 0 0 m (0.01) show NC gr 
 gsave  2268 2176 0 0 C 194.05 848.491 t 0 r /Helvetica findfont 102.732 sf 0 0 m (0.02) show NC gr 
 gsave  2268 2176 0 0 C 194.05 1137.66 t 0 r /Helvetica findfont 102.732 sf 0 0 m (0.03) show NC gr 
 gsave  2268 2176 0 0 C 194.05 1430.64 t 0 r /Helvetica findfont 102.732 sf 0 0 m (0.04) show NC gr 
 gsave  2268 2176 0 0 C 194.05 1719.81 t 0 r /Helvetica findfont 102.732 sf 0 0 m (0.05) show NC gr 
 gsave  2268 2176 0 0 C 156.001 620.198 t 90 r /Helvetica findfont 121.757 sf 0 0 m (DY+Jets Fakes per Event) show NC gr  2177 305 m 1697 Y s 2124 305 m 53 X s 2150 363 m 27 X s 2150 421 m 27 X s 2150 479 m 27 X s 2150 537 m 27 X s 2124 595 m 53 X s
 2150 653 m 27 X s 2150 711 m 27 X s 2150 769 m 27 X s 2150 827 m 27 X s 2124 885 m 53 X s 2150 943 m 27 X s 2150 1001 m 27 X s 2150 1059 m 27 X s 2150 1117 m 27 X s 2124 1175 m 53 X s 2150 1233 m 27 X s 2150 1291 m 27 X s 2150 1349 m 27 X s 2150
 1407 m 27 X s 2124 1465 m 53 X s 2150 1523 m 27 X s 2150 1582 m 27 X s 2150 1640 m 27 X s 2150 1698 m 27 X s 2124 1756 m 53 X s 2124 1756 m 53 X s 2150 1814 m 27 X s 2150 1872 m 27 X s 2150 1930 m 27 X s 2150 1988 m 27 X s 0.49 0.6 0.82 c 1 1 1 c
 0.49 0.6 0.82 c 420 664 m 65 Y s 420 759 m 64 Y s 420 744 m24 442 757 m 53 Y s 442 841 m 53 Y s 442 826 m24 465 693 m 35 Y s 465 758 m 35 Y s 465 743 m24 488 742 m 25 Y s 488 797 m 25 Y s 488 782 m24 510 689 m 13 Y s 510 733 m 13 Y s 510 718 m24 533
 738 m 8 Y s 533 776 m 8 Y s 533 761 m24 556 738 m 3 Y s 556 771 m 3 Y s 556 756 m24 578 735 m24 601 742 m24 624 730 m24 646 743 m24 669 747 m24 692 734 m24 714 749 m24 737 753 m24 760 737 m24 782 737 m24 805 746 m24 828 746 m24 850 744 m24 873 750
 m24 896 740 m24 918 753 m24 941 744 m24 964 742 m24 986 748 m24 1009 749 m24 1032 744 m24 1054 750 m24 1077 739 m24 1100 744 m24 1123 741 m24 1145 747 m24 1168 744 m24 1191 752 m24 1213 746 m24 1236 749 m24 1259 754 m24 1281 751 m24 1304 755 m24
 1327 747 m24 1349 752 m24 1372 758 m24 1395 761 m24 1417 760 m24 1440 770 m24 1463 754 m24 1485 752 m24 1508 759 m24 1531 771 m24 1553 756 m24 1576 761 m24 1599 762 m24 1621 780 m24 1644 766 m24 1667 778 m24 1689 781 m24 1712 777 m24 1735 765 m24
 1757 766 m24 1780 776 m 1 Y s 1780 807 m 1 Y s 1780 792 m24 1803 778 m 3 Y s 1803 811 m 2 Y s 1803 796 m24 1826 739 m 4 Y s 1826 773 m 4 Y s 1826 758 m24 1848 771 m 6 Y s 1848 808 m 6 Y s 1848 792 m24 1871 785 m 9 Y s 1871 824 m 10 Y s 1871 809 m24
 1894 759 m 12 Y s 1894 801 m 12 Y s 1894 786 m24 1916 805 m 17 Y s 1916 853 m 16 Y s 1916 837 m24 1939 794 m 21 Y s 1939 845 m 20 Y s 1939 830 m24 1962 793 m 25 Y s 1962 849 m 26 Y s 1962 834 m24 1984 742 m 29 Y s 1984 802 m 29 Y s 1984 786 m24 2007
 748 m 36 Y s 2007 814 m 36 Y s 2007 799 m24 2030 708 m 42 Y s 2030 780 m 42 Y s 2030 765 m24 2052 698 m 50 Y s 2052 778 m 51 Y s 2052 763 m24 2075 920 m 82 Y s 2075 1033 m 82 Y s 2075 1018 m24 2098 702 m 75 Y s 2098 807 m 75 Y s 2098 792 m24 2120
 651 m 85 Y s 2120 766 m 86 Y s 2120 751 m24 2143 698 m 118 Y s 2143 846 m 118 Y s 2143 831 m24 2166 657 m 139 Y s 2166 827 m 138 Y s 2166 811 m24 black 1 1 1 c 635 392 476 1523 bf black
 gsave  2268 2176 0 0 C 631.612 1776.89 t 0 r /Helvetica findfont 102.732 sf 0 0 m (2017 ecal driven) show NC gr  0.49 0.6 0.82 c 556 1833 m 43 Y s 556 1802 m -43 Y s 556 1817 m20 black
 gsave  2268 2176 0 0 C 631.612 1579.03 t 0 r /Helvetica findfont 102.732 sf 0 0 m (2017 \(Legacy\) ecal driven) show NC gr  0.49 0.6 0.82 c 556 1637 m 43 Y s 556 1606 m -43 Y s 556 1621 m24 black
 gsave  2268 2176 0 0 C 1769.28 2039.42 t 0 r /Helvetica findfont 106.537 sf 0 0 m (\(13 TeV\)) show NC gr 
 gsave  2268 2176 0 0 C 408.189 2037.11 t 0 r /Helvetica-Bold findfont 129.366 sf 0 0 m (CMS) show NC gr 
 gsave  2268 2176 0 0 C 487.026 2039.42 t 0 r /Helvetica-Oblique findfont 98.9272 sf 0 0 m (        Simulation) show NC gr  408 305 m 1769 X s 590 356 m -51 Y s 635 330 m -25 Y s 680 330 m -25 Y s 726 330 m -25 Y s 771 330 m -25 Y s 816 356 m -51 Y s
 862 330 m -25 Y s 907 330 m -25 Y s 952 330 m -25 Y s 998 330 m -25 Y s 1043 356 m -51 Y s 1089 330 m -25 Y s 1134 330 m -25 Y s 1179 330 m -25 Y s 1225 330 m -25 Y s 1270 356 m -51 Y s 1315 330 m -25 Y s 1361 330 m -25 Y s 1406 330 m -25 Y s 1451
 330 m -25 Y s 1497 356 m -51 Y s 1542 330 m -25 Y s 1587 330 m -25 Y s 1633 330 m -25 Y s 1678 330 m -25 Y s 1723 356 m -51 Y s 1769 330 m -25 Y s 1814 330 m -25 Y s 1860 330 m -25 Y s 1905 330 m -25 Y s 1950 356 m -51 Y s 1996 330 m -25 Y s 2041
 330 m -25 Y s 2086 330 m -25 Y s 2132 330 m -25 Y s 2177 356 m -51 Y s 590 356 m -51 Y s 544 330 m -25 Y s 499 330 m -25 Y s 454 330 m -25 Y s 408 2002 m 1769 X s 590 1951 m 51 Y s 635 1977 m 25 Y s 680 1977 m 25 Y s 726 1977 m 25 Y s 771 1977 m 25
 Y s 816 1951 m 51 Y s 862 1977 m 25 Y s 907 1977 m 25 Y s 952 1977 m 25 Y s 998 1977 m 25 Y s 1043 1951 m 51 Y s 1089 1977 m 25 Y s 1134 1977 m 25 Y s 1179 1977 m 25 Y s 1225 1977 m 25 Y s 1270 1951 m 51 Y s 1315 1977 m 25 Y s 1361 1977 m 25 Y s
 1406 1977 m 25 Y s 1451 1977 m 25 Y s 1497 1951 m 51 Y s 1542 1977 m 25 Y s 1587 1977 m 25 Y s 1633 1977 m 25 Y s 1678 1977 m 25 Y s 1723 1951 m 51 Y s 1769 1977 m 25 Y s 1814 1977 m 25 Y s 1860 1977 m 25 Y s 1905 1977 m 25 Y s 1950 1951 m 51 Y s
 1996 1977 m 25 Y s 2041 1977 m 25 Y s 2086 1977 m 25 Y s 2132 1977 m 25 Y s 2177 1951 m 51 Y s 590 1951 m 51 Y s 544 1977 m 25 Y s 499 1977 m 25 Y s 454 1977 m 25 Y s 408 305 m 1697 Y s 461 305 m -53 X s 435 363 m -27 X s 435 421 m -27 X s 435 479 m
 -27 X s 435 537 m -27 X s 461 595 m -53 X s 435 653 m -27 X s 435 711 m -27 X s 435 769 m -27 X s 435 827 m -27 X s 461 885 m -53 X s 435 943 m -27 X s 435 1001 m -27 X s 435 1059 m -27 X s 435 1117 m -27 X s 461 1175 m -53 X s 435 1233 m -27 X s
 435 1291 m -27 X s 435 1349 m -27 X s 435 1407 m -27 X s 461 1465 m -53 X s 435 1523 m -27 X s 435 1582 m -27 X s 435 1640 m -27 X s 435 1698 m -27 X s 461 1756 m -53 X s 461 1756 m -53 X s 435 1814 m -27 X s 435 1872 m -27 X s 435 1930 m -27 X s
 435 1988 m -27 X s 2177 305 m 1697 Y s 2124 305 m 53 X s 2150 363 m 27 X s 2150 421 m 27 X s 2150 479 m 27 X s 2150 537 m 27 X s 2124 595 m 53 X s 2150 653 m 27 X s 2150 711 m 27 X s 2150 769 m 27 X s 2150 827 m 27 X s 2124 885 m 53 X s 2150 943 m
 27 X s 2150 1001 m 27 X s 2150 1059 m 27 X s 2150 1117 m 27 X s 2124 1175 m 53 X s 2150 1233 m 27 X s 2150 1291 m 27 X s 2150 1349 m 27 X s 2150 1407 m 27 X s 2124 1465 m 53 X s 2150 1523 m 27 X s 2150 1582 m 27 X s 2150 1640 m 27 X s 2150 1698 m 27
 X s 2124 1756 m 53 X s 2124 1756 m 53 X s 2150 1814 m 27 X s 2150 1872 m 27 X s 2150 1930 m 27 X s 2150 1988 m 27 X s 1 1 1 c black 1769 1697 408 305 bl 1769 1697 408 305 bl
 gr  gr showpage
end
%%EOF
