%!PS-Adobe-2.0 EPSF-2.0
%%BoundingBox:  0 0 567 544
%%Title: plots/n_fakes_vs_ele_pt_only2017_barrel_tracker_driven.eps: n_fakes_vs_ele_pt_only2017_barrel_tracker_driven
%%Creator: ROOT Version 6.14/04
%%CreationDate: Tue Aug  4 10:20:26 2020
%%DocumentNeededResources: ProcSet (FontSetInit)
%%EndComments
%%BeginProlog
80 dict begin
/s {stroke} def /l {lineto} def /m {moveto} def /t {translate} def
/r {rotate} def /rl {roll}  def /R {repeat} def
/d {rlineto} def /rm {rmoveto} def /gr {grestore} def /f {eofill} def
/c {setrgbcolor} def /black {0 setgray} def /sd {setdash} def
/cl {closepath} def /sf {scalefont setfont} def /lw {setlinewidth} def
/box {m dup 0 exch d exch 0 d 0 exch neg d cl} def
/NC{systemdict begin initclip end}def/C{NC box clip newpath}def
/bl {box s} def /bf {gsave box gsave f grestore 1 lw [] 0 sd s grestore} def /Y { 0 exch d} def /X { 0 d} def 
/K {{pop pop 0 moveto} exch kshow} bind def
/ita {/ang 15 def gsave [1 0 ang dup sin exch cos div 1 0 0] concat} def 
/mp {newpath /y exch def /x exch def} def
/side {[w .77 mul w .23 mul] .385 w mul sd w 0 l currentpoint t -144 r} def
/mr {mp x y w2 0 360 arc} def /m24 {mr s} def /m20 {mr f} def
/mb {mp x y w2 add m w2 neg 0 d 0 w neg d w 0 d 0 w d cl} def
/mt {mp x y w2 add m w2 neg w neg d w 0 d cl} def
/w4 {w 4 div} def
/w6 {w 6 div} def
/w8 {w 8 div} def
/m21 {mb f} def /m25 {mb s} def /m22 {mt f} def /m26{mt s} def
/m23 {mp x y w2 sub m w2 w d w neg 0 d cl f} def
/m27 {mp x y w2 add m w3 neg w2 neg d w3 w2 neg d w3 w2 d cl s} def
/m28 {mp x w2 sub y w2 sub w3 add m w3 0 d  0 w3 neg d w3 0 d 0 w3 d w3 0 d  0 w3 d w3 neg 0 d 0 w3 d w3 neg 0 d 0 w3 neg d w3 neg 0 d cl s } def
/m29 {mp gsave x w2 sub y w2 add w3 sub m currentpoint t 4 {side} repeat cl fill gr} def
/m30 {mp gsave x w2 sub y w2 add w3 sub m currentpoint t 4 {side} repeat cl s gr} def
/m31 {mp x y w2 sub m 0 w d x w2 sub y m w 0 d x w2 sub y w2 add m w w neg d x w2 sub y w2 sub m w w d s} def
/m32 {mp x y w2 sub m w2 w d w neg 0 d cl s} def
/m33 {mp x y w2 add m w3 neg w2 neg d w3 w2 neg d w3 w2 d cl f} def
/m34 {mp x w2 sub y w2 sub w3 add m w3 0 d  0 w3 neg d w3 0 d 0 w3 d w3 0 d  0 w3 d w3 neg 0 d 0 w3 d w3 neg 0 d 0 w3 neg d w3 neg 0 d cl f } def
/m35 {mp x y w2 add m w2 neg w2 neg d w2 w2 neg d w2 w2 d w2 neg w2 d x y w2 sub m 0 w d x w2 sub y m w 0 d s} def
/m36 {mb x w2 sub y w2 add m w w neg d x w2 sub y w2 sub m w w d s} def
/m37 {mp x y m w4 neg w2 d w4 neg w2 neg d w2 0 d  w4 neg w2 neg d w2 0 d w4 neg w2 d w2 0 d w4 neg w2 d w4 neg w2 neg d cl s} def
/m38 {mp x w4 sub y w2 add m w4 neg w4 neg d 0 w2 neg d w4 w4 neg d w2 0 d w4 w4 d 0 w2 d w4 neg w4 d w2 neg 0 d x y w2 sub m 0 w d x w2 sub y m w 0 d cl s} def
/m39 {mp x y m w4 neg w2 d w4 neg w2 neg d w2 0 d  w4 neg w2 neg d w2 0 d w4 neg w2 d w2 0 d w4 neg w2 d w4 neg w2 neg d cl f} def
/m40 {mp x y m w4 w2 d w4 w4 neg d w2 neg w4 neg d w2 w4 neg d w4 neg w4 neg d w4 neg w2 d w4 neg w2 neg d w4 neg w4 d w2 w4 d w2 neg w4 d w4 w4 d w4 w2 neg d cl s} def
/m41 {mp x y m w4 w2 d w4 w4 neg d w2 neg w4 neg d w2 w4 neg d w4 neg w4 neg d w4 neg w2 d w4 neg w2 neg d w4 neg w4 d w2 w4 d w2 neg w4 d w4 w4 d w4 w2 neg d cl f} def
/m42 {mp x y w2 add m w8 neg w2 -3 4 div mul d w2 -3 4 div mul w8 neg d w2 3 4 div mul w8 neg d w8 w2 -3 4 div mul d w8 w2 3 4 div mul d w2 3 4 div mul w8 d w2 -3 4 div mul w8 d w8 neg w2 3 4 div mul d cl s} def
/m43 {mp x y w2 add m w8 neg w2 -3 4 div mul d w2 -3 4 div mul w8 neg d w2 3 4 div mul w8 neg d w8 w2 -3 4 div mul d w8 w2 3 4 div mul d w2 3 4 div mul w8 d w2 -3 4 div mul w8 d w8 neg w2 3 4 div mul d cl f} def
/m44 {mp x y m w6 neg w2 d w2 2 3 div mul 0 d w6 neg w2 neg d w2 w6 d 0 w2 -2 3 div mul d w2 neg w6 d w6 w2 neg d w2 -2 3 div mul 0 d w6 w2 d w2 neg w6 neg d 0 w2 2 3 div mul d w2 w6 neg d cl s} def
/m45 {mp x y m w6 neg w2 d w2 2 3 div mul 0 d w6 neg w2 neg d w2 w6 d 0 w2 -2 3 div mul d w2 neg w6 d w6 w2 neg d w2 -2 3 div mul 0 d w6 w2 d w2 neg w6 neg d 0 w2 2 3 div mul d w2 w6 neg d cl f} def
/m46 {mp x y w4 add m w4 neg w4 d w4 neg w4 neg d  w4 w4 neg d w4 neg w4 neg d w4 w4 neg d w4 w4 d w4 w4 neg d w4 w4 d w4 neg w4 d w4 w4 d w4 neg w4 d w4 neg w4 neg d cl s} def
/m47 {mp x y w4 add m w4 neg w4 d w4 neg w4 neg d w4 w4 neg d w4 neg w4 neg d  w4 w4 neg d w4 w4 d w4 w4 neg d w4 w4 d w4 neg w4 d w4 w4 d w4 neg w4 d w4 neg w4 neg d cl f} def
/m48 {mp x y w4 add m w4 neg w4 d w4 neg w4 neg d w4 w4 neg d  w4 neg w4 neg d w4 w4 neg d w4 w4 d w4 w4 neg d w4 w4 d w4 neg w4 d w4 w4 d w4 neg w4 d w4 neg w4 neg d  w4 w4 neg d w4 neg w4 neg d w4 neg w4 d w4 w4 d cl f} def
/m49 {mp x w2 sub w3 add y w2 sub w3 add m  0 w3 neg d w3 0 d 0 w3 d w3 0 d 0 w3 d w3 neg 0 d 0 w3 d w3 neg 0 d 0 w3 neg d w3 neg 0 d 0 w3 neg d w3 0 d 0 w3 d w3 0 d 0 w3 neg d w3 neg 0 d cl f } def
/m2 {mp x y w2 sub m 0 w d x w2 sub y m w 0 d s} def
/m5 {mp x w2 sub y w2 sub m w w d x w2 sub y w2 add m w w neg d s} def
%%IncludeResource: ProcSet (FontSetInit)
%%IncludeResource: font Times-Roman
%%IncludeResource: font Times-Italic
%%IncludeResource: font Times-Bold
%%IncludeResource: font Times-BoldItalic
%%IncludeResource: font Helvetica
%%IncludeResource: font Helvetica-Oblique
%%IncludeResource: font Helvetica-Bold
%%IncludeResource: font Helvetica-BoldOblique
%%IncludeResource: font Courier
%%IncludeResource: font Courier-Oblique
%%IncludeResource: font Courier-Bold
%%IncludeResource: font Courier-BoldOblique
%%IncludeResource: font Symbol
%%IncludeResource: font ZapfDingbats
/reEncode {exch findfont dup length dict begin {1 index /FID eq  {pop pop} {def} ifelse } forall /Encoding exch def currentdict end dup /FontName get exch definefont pop } def [/Times-Bold /Times-Italic /Times-BoldItalic /Helvetica /Helvetica-Oblique
 /Helvetica-Bold /Helvetica-BoldOblique /Courier /Courier-Oblique /Courier-Bold /Courier-BoldOblique /Times-Roman /AvantGarde-Book /AvantGarde-BookOblique /AvantGarde-Demi /AvantGarde-DemiOblique /Bookman-Demi /Bookman-DemiItalic /Bookman-Light
 /Bookman-LightItalic /Helvetica-Narrow /Helvetica-Narrow-Bold /Helvetica-Narrow-BoldOblique /Helvetica-Narrow-Oblique /NewCenturySchlbk-Roman /NewCenturySchlbk-Bold /NewCenturySchlbk-BoldItalic /NewCenturySchlbk-Italic /Palatino-Bold
 /Palatino-BoldItalic /Palatino-Italic /Palatino-Roman ] {ISOLatin1Encoding reEncode } forall
%%EndProlog
%%BeginSetup
%%EndSetup
newpath  gsave  .25 .25 scale  gsave  0 0 t black[  ] 0 sd 3 lw 1 1 1 c 2268 2176 0 0 bf black 1 1 1 c black 1769 1697 408 305 bl 1769 1697 408 305 bl 1 1 1 c black 1769 1697 408 305 bl 1769 1697 408 305 bl 0.49 0.6 0.82 c 1 1 1 c 0.49 0.6 0.82 c 408
 1902 m 18 X s 456 1902 m 16 X s /w 30 def /w2 {w 2 div} def /w3 {w 3 div} def 441 1902 m20 472 1865 m 14 X s 517 1865 m 12 X s 501 1865 m20 529 1824 m 12 X s 571 1824 m 10 X s 556 1824 m20 581 1786 m 9 X s 620 1786 m 8 X s 605 1786 m20 628 1750 m 7
 X s 666 1750 m 6 X s 650 1750 m20 672 1719 m 5 X s 707 1719 m 5 X s 692 1719 m20 712 1692 m 4 X s 746 1692 m 3 X s 731 1692 m20 749 1671 m 3 X s 782 1671 m 2 X s 767 1671 m20 784 1657 m 2 X s 816 1657 m 1 X s 801 1657 m20 817 1641 m 1 X s 848 1641 m
 s 833 1641 m20 863 1623 m20 892 1596 m20 919 1575 m20 945 1562 m20 970 1553 m20 993 1540 m20 1016 1533 m20 1038 1521 m20 1058 1512 m20 1079 1504 m20 1098 1493 m20 1117 1487 m20 1135 1477 m20 1152 1468 m20 1169 1462 m20 1186 1452 m20 1202 1444 m20
 1217 1441 m20 1232 1431 m20 1247 1420 m20 1261 1413 m20 1275 1408 m20 1289 1402 m20 1302 1390 m20 1315 1384 m20 1327 1374 m20 1340 1371 m20 1352 1359 m20 1364 1350 m20 1375 1342 m20 1387 1334 m20 1398 1323 m20 1408 1322 m20 1419 1311 m20 1430 1299
 m20 1440 1290 m20 1450 1283 m20 1460 1277 m20 1469 1264 m20 1479 1256 m20 1488 1248 m20 1498 1240 m20 1507 1230 m20 1515 1221 m20 1524 1216 m20 1533 1206 m20 1541 1191 m20 1550 1184 m20 1558 1176 m20 1566 1163 m20 1574 1157 m20 1582 1146 m20 1590
 1134 m20 1597 1121 m20 1605 1117 m20 1612 1100 m20 1620 1085 m20 1627 1073 m20 1634 1067 m20 1641 1049 m20 1648 1043 m20 1655 1027 m20 1662 1024 m20 1668 1004 m20 1675 1010 m20 1682 999 m20 1688 986 m20 1694 977 m20 1701 972 m20 1707 971 m20 1713
 959 m20 1719 947 m20 1725 953 m20 1731 953 m20 1737 930 m20 1743 930 m20 1749 925 m20 1754 917 m20 1760 921 m20 1766 901 m20 1771 908 m20 1777 901 m20 1782 889 m20 1787 897 m20 1793 880 m20 1798 893 m20 1803 870 m20 1808 860 m20 1814 854 m20 1819
 858 m20 1824 853 m20 1829 849 m20 1834 827 m20 1839 826 m20 1843 843 m20 1848 820 m20 1853 815 m20 1858 805 m20 1862 810 m20 1867 807 m20 1872 785 m20 1876 783 m20 1881 784 m20 1885 790 m20 1890 765 m20 1894 789 m20 1898 741 m20 1903 765 m20 1907
 783 m20 1911 753 m20 1916 724 m20 1920 756 m20 1924 747 m20 1928 735 m20 1932 713 m20 1936 728 m20 1940 743 m20 1944 717 m20 1948 710 m20 1952 716 m20 1956 724 m20 1960 713 m20 1964 705 m20 1968 650 m 2 Y s 1968 683 m s 1968 667 m20 1972 702 m20
 1975 704 m20 1979 679 m s 1979 694 m20 1983 676 m s 1983 692 m20 1987 667 m 1 Y s 1987 683 m20 1990 670 m 1 Y s 1990 686 m20 1994 683 m s 1994 698 m20 1998 660 m 2 Y s 1998 677 m20 2001 636 m 2 Y s 2001 669 m 1 Y s 2001 654 m20 2005 650 m 2 Y s 2005
 683 m s 2005 667 m20 2009 647 m 2 Y s 2009 679 m s 2009 664 m20 2012 630 m 3 Y s 2012 663 m 1 Y s 2012 648 m20 2016 638 m 2 Y s 2016 671 m s 2016 655 m20 2019 616 m 3 Y s 2019 650 m 2 Y s 2019 635 m20 2023 636 m 2 Y s 2023 669 m 1 Y s 2023 654 m20
 2026 652 m 2 Y s 2026 669 m20 2029 616 m 3 Y s 2029 650 m 2 Y s 2029 635 m20 2033 616 m 3 Y s 2033 650 m 2 Y s 2033 635 m20 2036 600 m 5 Y s 2036 635 m 3 Y s 2036 620 m20 2040 583 m 5 Y s 2040 619 m 3 Y s 2040 604 m20 2043 607 m 4 Y s 2043 642 m 2 Y
 s 2043 626 m20 2046 605 m 4 Y s 2046 640 m 2 Y s 2046 624 m20 2050 600 m 5 Y s 2050 635 m 3 Y s 2050 620 m20 2053 600 m 5 Y s 2053 635 m 3 Y s 2053 620 m20 2056 572 m 6 Y s 2056 609 m 4 Y s 2056 593 m20 2059 575 m 6 Y s 2059 611 m 4 Y s 2059 596 m20
 2063 583 m 5 Y s 2063 619 m 3 Y s 2063 604 m20 2066 588 m 5 Y s 2066 624 m 3 Y s 2066 608 m20 2069 590 m 6 Y s 2069 626 m 3 Y s 2069 611 m20 2072 590 m 6 Y s 2072 626 m 3 Y s 2072 611 m20 2075 554 m 8 Y s 2075 592 m 5 Y s 2075 577 m20 2079 575 m 6 Y
 s 2079 611 m 4 Y s 2079 596 m20 2082 527 m 10 Y s 2082 567 m 6 Y s 2082 552 m20 2085 566 m 7 Y s 2085 603 m 5 Y s 2085 588 m20 2088 530 m 10 Y s 2088 570 m 7 Y s 2088 555 m20 2091 551 m 8 Y s 2091 589 m 5 Y s 2091 574 m20 2094 534 m 9 Y s 2094 574 m
 6 Y s 2094 558 m20 2097 575 m 6 Y s 2097 611 m 4 Y s 2097 596 m20 2100 527 m 10 Y s 2100 567 m 6 Y s 2100 552 m20 2103 527 m 10 Y s 2103 567 m 6 Y s 2103 552 m20 2106 551 m 8 Y s 2106 589 m 5 Y s 2106 574 m20 2109 469 m 15 Y s 2109 515 m 10 Y s 2109
 500 m20 2112 503 m 12 Y s 2112 545 m 8 Y s 2112 530 m20 2115 503 m 12 Y s 2115 545 m 8 Y s 2115 530 m20 2118 503 m 12 Y s 2118 545 m 8 Y s 2118 530 m20 2121 515 m 11 Y s 2121 556 m 7 Y s 2121 541 m20 2124 515 m 11 Y s 2124 556 m 7 Y s 2124 541 m20
 2126 511 m 11 Y s 2126 553 m 7 Y s 2126 537 m20 2129 480 m 14 Y s 2129 524 m 9 Y s 2129 509 m20 2132 507 m 11 Y s 2132 549 m 7 Y s 2132 534 m20 2135 523 m 10 Y s 2135 563 m 7 Y s 2135 548 m20 2138 523 m 10 Y s 2138 563 m 7 Y s 2138 548 m20 2141 515
 m 11 Y s 2141 556 m 7 Y s 2141 541 m20 2143 464 m 15 Y s 2143 510 m 10 Y s 2143 495 m20 2146 515 m 11 Y s 2146 556 m 7 Y s 2146 541 m20 2149 498 m 13 Y s 2149 541 m 8 Y s 2149 526 m20 2152 498 m 13 Y s 2152 541 m 8 Y s 2152 526 m20 2154 441 m 17 Y s
 2154 489 m 12 Y s 2154 474 m20 2157 459 m 15 Y s 2157 505 m 11 Y s 2157 490 m20 2160 434 m 19 Y s 2160 483 m 13 Y s 2160 468 m20 2162 414 m 20 Y s 2162 465 m 14 Y s 2162 449 m20 2165 464 m 15 Y s 2165 510 m 10 Y s 2165 495 m20 2168 469 m 15 Y s 2168
 515 m 10 Y s 2168 500 m20 2170 441 m 17 Y s 2170 489 m 12 Y s 2170 474 m20 2173 428 m 19 Y s 2173 477 m 13 Y s 2173 462 m20 2176 459 m 15 Y s 2176 505 m 11 Y s 2176 490 m20 black 408 305 m 1769 X s 507 330 m -25 Y s 591 330 m -25 Y s 663 330 m -25 Y
 s 727 330 m -25 Y s 784 356 m -51 Y s
 gsave  2268 2176 0 0 C 726.735 167.415 t 0 r /Helvetica findfont 102.732 sf 0 0 m (10) show NC gr  1161 330 m -25 Y s 1381 330 m -25 Y s 1537 330 m -25 Y s 1658 330 m -25 Y s 1757 330 m -25 Y s 1841 330 m -25 Y s 1913 330 m -25 Y s 1977 330 m -25 Y
 s 2035 356 m -51 Y s
 gsave  2268 2176 0 0 C 2066.06 213.074 t 0 r /Helvetica findfont 68.4881 sf 0 0 m (2) show NC gr 
 gsave  2268 2176 0 0 C 1955.72 167.415 t 0 r /Helvetica findfont 102.732 sf 0 0 m (10) show NC gr 
 gsave  2268 2176 0 0 C 1837.76 60.8783 t 0 r /Helvetica findfont 121.757 sf 0 0 m ( [GeV]) show NC gr 
 gsave  2268 2176 0 0 C 1788.3 -3.80489 t 0 r /Helvetica findfont 79.9028 sf 0 0 m (T) show NC gr 
 gsave  2268 2176 0 0 C 1240.4 60.8783 t 0 r /Helvetica findfont 121.757 sf 0 0 m (Electron p) show NC gr  408 2002 m 1769 X s 507 1977 m 25 Y s 591 1977 m 25 Y s 663 1977 m 25 Y s 727 1977 m 25 Y s 784 1951 m 51 Y s 1161 1977 m 25 Y s 1381 1977 m 25
 Y s 1537 1977 m 25 Y s 1658 1977 m 25 Y s 1757 1977 m 25 Y s 1841 1977 m 25 Y s 1913 1977 m 25 Y s 1977 1977 m 25 Y s 2035 1951 m 51 Y s 408 305 m 1697 Y s 435 308 m -27 X s 435 371 m -27 X s 435 417 m -27 X s 435 452 m -27 X s 435 480 m -27 X s 435
 505 m -27 X s 435 526 m -27 X s 435 544 m -27 X s 461 561 m -53 X s
 gsave  2268 2176 0 0 C 342.44 563.124 t 0 r /Helvetica findfont 68.4881 sf 0 0 m (6) show NC gr 
 gsave  2268 2176 0 0 C 304.391 563.124 t 0 r /Symbol findfont 68.4881 sf 0 0 m (-) show NC gr 
 gsave  2268 2176 0 0 C 194.05 513.661 t 0 r /Helvetica findfont 102.732 sf 0 0 m (10) show NC gr  435 670 m -27 X s 435 733 m -27 X s 435 778 m -27 X s 435 814 m -27 X s 435 842 m -27 X s 435 866 m -27 X s 435 887 m -27 X s 435 906 m -27 X s 461 922
 m -53 X s
 gsave  2268 2176 0 0 C 342.44 924.589 t 0 r /Helvetica findfont 68.4881 sf 0 0 m (5) show NC gr 
 gsave  2268 2176 0 0 C 304.391 924.589 t 0 r /Symbol findfont 68.4881 sf 0 0 m (-) show NC gr 
 gsave  2268 2176 0 0 C 194.05 875.126 t 0 r /Helvetica findfont 102.732 sf 0 0 m (10) show NC gr  435 1031 m -27 X s 435 1095 m -27 X s 435 1140 m -27 X s 435 1175 m -27 X s 435 1204 m -27 X s 435 1228 m -27 X s 435 1249 m -27 X s 435 1268 m -27 X s
 461 1284 m -53 X s
 gsave  2268 2176 0 0 C 342.44 1282.25 t 0 r /Helvetica findfont 68.4881 sf 0 0 m (4) show NC gr 
 gsave  2268 2176 0 0 C 304.391 1282.25 t 0 r /Symbol findfont 68.4881 sf 0 0 m (-) show NC gr 
 gsave  2268 2176 0 0 C 194.05 1236.59 t 0 r /Helvetica findfont 102.732 sf 0 0 m (10) show NC gr  435 1393 m -27 X s 435 1457 m -27 X s 435 1502 m -27 X s 435 1537 m -27 X s 435 1566 m -27 X s 435 1590 m -27 X s 435 1611 m -27 X s 435 1630 m -27 X s
 461 1646 m -53 X s
 gsave  2268 2176 0 0 C 342.44 1647.52 t 0 r /Helvetica findfont 68.4881 sf 0 0 m (3) show NC gr 
 gsave  2268 2176 0 0 C 304.391 1647.52 t 0 r /Symbol findfont 68.4881 sf 0 0 m (-) show NC gr 
 gsave  2268 2176 0 0 C 194.05 1598.06 t 0 r /Helvetica findfont 102.732 sf 0 0 m (10) show NC gr  435 1755 m -27 X s 435 1819 m -27 X s 435 1864 m -27 X s 435 1899 m -27 X s 435 1928 m -27 X s 435 1952 m -27 X s 435 1973 m -27 X s 435 1991 m -27 X s
 gsave  2268 2176 0 0 C 156.001 620.198 t 90 r /Helvetica findfont 121.757 sf 0 0 m (DY+Jets Fakes per Event) show NC gr  2177 305 m 1697 Y s 2150 308 m 27 X s 2150 371 m 27 X s 2150 417 m 27 X s 2150 452 m 27 X s 2150 480 m 27 X s 2150 505 m 27 X s
 2150 526 m 27 X s 2150 544 m 27 X s 2124 561 m 53 X s 2150 670 m 27 X s 2150 733 m 27 X s 2150 778 m 27 X s 2150 814 m 27 X s 2150 842 m 27 X s 2150 866 m 27 X s 2150 887 m 27 X s 2150 906 m 27 X s 2124 922 m 53 X s 2150 1031 m 27 X s 2150 1095 m 27
 X s 2150 1140 m 27 X s 2150 1175 m 27 X s 2150 1204 m 27 X s 2150 1228 m 27 X s 2150 1249 m 27 X s 2150 1268 m 27 X s 2124 1284 m 53 X s 2150 1393 m 27 X s 2150 1457 m 27 X s 2150 1502 m 27 X s 2150 1537 m 27 X s 2150 1566 m 27 X s 2150 1590 m 27 X
 s 2150 1611 m 27 X s 2150 1630 m 27 X s 2124 1646 m 53 X s 2150 1755 m 27 X s 2150 1819 m 27 X s 2150 1864 m 27 X s 2150 1899 m 27 X s 2150 1928 m 27 X s 2150 1952 m 27 X s 2150 1973 m 27 X s 2150 1991 m 27 X s 0.49 0.6 0.82 c 1 1 1 c 0.49 0.6 0.82
 c 408 1896 m 18 X s 456 1896 m 16 X s 441 1896 m24 472 1858 m 14 X s 517 1858 m 12 X s 501 1858 m24 529 1815 m 12 X s 571 1815 m 10 X s 556 1815 m24 581 1777 m 9 X s 620 1777 m 8 X s 605 1777 m24 628 1743 m 7 X s 666 1743 m 6 X s 650 1743 m24 672
 1713 m 5 X s 707 1713 m 5 X s 692 1713 m24 712 1688 m 4 X s 746 1688 m 3 X s 731 1688 m24 749 1671 m 3 X s 782 1671 m 2 X s 767 1671 m24 784 1653 m 2 X s 816 1653 m 1 X s 801 1653 m24 817 1636 m 1 X s 848 1636 m s 833 1636 m24 863 1619 m24 892 1593
 m24 919 1569 m24 945 1552 m24 970 1540 m24 993 1534 m24 1016 1518 m24 1038 1508 m24 1058 1498 m24 1079 1489 m24 1098 1481 m24 1117 1472 m24 1135 1462 m24 1152 1453 m24 1169 1443 m24 1186 1440 m24 1202 1430 m24 1217 1415 m24 1232 1409 m24 1247 1406
 m24 1261 1395 m24 1275 1388 m24 1289 1382 m24 1302 1369 m24 1315 1362 m24 1327 1351 m24 1340 1346 m24 1352 1338 m24 1364 1332 m24 1375 1323 m24 1387 1313 m24 1398 1305 m24 1408 1297 m24 1419 1290 m24 1430 1280 m24 1440 1276 m24 1450 1262 m24 1460
 1260 m24 1469 1239 m24 1479 1233 m24 1488 1223 m24 1498 1221 m24 1507 1215 m24 1515 1205 m24 1524 1195 m24 1533 1185 m24 1541 1180 m24 1550 1165 m24 1558 1152 m24 1566 1151 m24 1574 1136 m24 1582 1134 m24 1590 1114 m24 1597 1110 m24 1605 1099 m24
 1612 1093 m24 1620 1089 m24 1627 1076 m24 1634 1064 m24 1641 1067 m24 1648 1049 m24 1655 1037 m24 1662 1042 m24 1668 1008 m24 1675 1030 m24 1682 1015 m24 1688 1022 m24 1694 1002 m24 1701 996 m24 1707 986 m24 1713 981 m24 1719 978 m24 1725 947 m24
 1731 960 m24 1737 948 m24 1743 930 m24 1749 939 m24 1754 937 m24 1760 942 m24 1766 927 m24 1771 924 m24 1777 900 m24 1782 904 m24 1787 907 m24 1793 886 m24 1798 911 m24 1803 886 m24 1808 885 m24 1814 875 m24 1819 869 m24 1824 848 m24 1829 855 m24
 1834 857 m24 1839 842 m24 1843 843 m24 1848 842 m24 1853 848 m24 1858 861 m24 1862 818 m24 1867 821 m24 1872 836 m24 1876 762 m 2 Y s 1876 794 m s 1876 779 m24 1881 792 m s 1881 808 m24 1885 821 m24 1890 795 m s 1890 810 m24 1894 765 m 2 Y s 1894
 782 m24 1898 765 m 2 Y s 1898 782 m24 1903 769 m 1 Y s 1903 785 m24 1907 777 m 1 Y s 1907 793 m24 1911 749 m 3 Y s 1911 782 m 1 Y s 1911 767 m24 1916 751 m 2 Y s 1916 784 m 1 Y s 1916 769 m24 1920 753 m 2 Y s 1920 786 m s 1920 770 m24 1924 729 m 4 Y
 s 1924 763 m 2 Y s 1924 748 m24 1928 753 m 2 Y s 1928 786 m s 1928 770 m24 1932 757 m 2 Y s 1932 789 m s 1932 774 m24 1936 725 m 4 Y s 1936 759 m 2 Y s 1936 744 m24 1940 723 m 4 Y s 1940 757 m 2 Y s 1940 742 m24 1944 733 m 4 Y s 1944 767 m 2 Y s
 1944 752 m24 1948 729 m 4 Y s 1948 763 m 2 Y s 1948 748 m24 1952 713 m 5 Y s 1952 748 m 3 Y s 1952 733 m24 1956 709 m 4 Y s 1956 744 m 3 Y s 1956 729 m24 1960 741 m 3 Y s 1960 775 m 1 Y s 1960 760 m24 1964 747 m 3 Y s 1964 780 m 1 Y s 1964 765 m24
 1968 661 m 8 Y s 1968 699 m 6 Y s 1968 684 m24 1972 723 m 4 Y s 1972 757 m 2 Y s 1972 742 m24 1975 701 m 5 Y s 1975 737 m 3 Y s 1975 722 m24 1979 713 m 5 Y s 1979 748 m 3 Y s 1979 733 m24 1983 711 m 5 Y s 1983 746 m 3 Y s 1983 731 m24 1987 673 m 8 Y
 s 1987 711 m 5 Y s 1987 696 m24 1990 685 m 7 Y s 1990 722 m 4 Y s 1990 707 m24 1994 657 m 9 Y s 1994 696 m 6 Y s 1994 681 m24 1998 704 m 5 Y s 1998 739 m 3 Y s 1998 724 m24 2001 664 m 8 Y s 2001 702 m 5 Y s 2001 687 m24 2005 647 m 9 Y s 2005 687 m 6
 Y s 2005 672 m24 2009 647 m 9 Y s 2009 687 m 6 Y s 2009 672 m24 2012 628 m 11 Y s 2012 670 m 7 Y s 2012 654 m24 2016 616 m 12 Y s 2016 658 m 8 Y s 2016 643 m24 2019 676 m 7 Y s 2019 714 m 4 Y s 2019 699 m24 2023 685 m 7 Y s 2023 722 m 4 Y s 2023 707
 m24 2026 607 m 13 Y s 2026 650 m 9 Y s 2026 635 m24 2029 654 m 9 Y s 2029 693 m 6 Y s 2029 678 m24 2033 607 m 13 Y s 2033 650 m 9 Y s 2033 635 m24 2036 632 m 11 Y s 2036 673 m 7 Y s 2036 658 m24 2040 654 m 9 Y s 2040 693 m 6 Y s 2040 678 m24 2043
 607 m 13 Y s 2043 650 m 9 Y s 2043 635 m24 2046 661 m 8 Y s 2046 699 m 6 Y s 2046 684 m24 2050 632 m 11 Y s 2050 673 m 7 Y s 2050 658 m24 2053 583 m 15 Y s 2053 628 m 10 Y s 2053 613 m24 2056 572 m 16 Y s 2056 618 m 11 Y s 2056 603 m24 2059 616 m 12
 Y s 2059 658 m 8 Y s 2059 643 m24 2063 554 m 18 Y s 2063 602 m 12 Y s 2063 587 m24 2066 654 m 9 Y s 2066 693 m 6 Y s 2066 678 m24 2069 624 m 11 Y s 2069 666 m 7 Y s 2069 651 m24 2072 624 m 11 Y s 2072 666 m 7 Y s 2072 651 m24 2075 593 m 14 Y s 2075
 637 m 10 Y s 2075 622 m24 2079 632 m 11 Y s 2079 673 m 7 Y s 2079 658 m24 2082 651 m 9 Y s 2082 690 m 6 Y s 2082 675 m24 2085 607 m 13 Y s 2085 650 m 9 Y s 2085 635 m24 2088 588 m 14 Y s 2088 633 m 9 Y s 2088 617 m24 2091 593 m 14 Y s 2091 637 m 10
 Y s 2091 622 m24 2094 612 m 12 Y s 2094 654 m 8 Y s 2094 639 m24 2097 560 m 17 Y s 2097 608 m 11 Y s 2097 592 m24 2100 588 m 14 Y s 2100 633 m 9 Y s 2100 617 m24 2103 612 m 12 Y s 2103 654 m 8 Y s 2103 639 m24 2106 603 m 13 Y s 2106 646 m 9 Y s 2106
 631 m24 2109 548 m 18 Y s 2109 596 m 13 Y s 2109 581 m24 2112 598 m 13 Y s 2112 642 m 9 Y s 2112 626 m24 2115 636 m 10 Y s 2115 677 m 6 Y s 2115 662 m24 2118 527 m 21 Y s 2118 578 m 14 Y s 2118 563 m24 2121 598 m 13 Y s 2121 642 m 9 Y s 2121 626 m24
 2124 560 m 17 Y s 2124 608 m 11 Y s 2124 592 m24 2126 572 m 16 Y s 2126 618 m 11 Y s 2126 603 m24 2129 588 m 14 Y s 2129 633 m 9 Y s 2129 617 m24 2132 454 m 30 Y s 2132 514 m 20 Y s 2132 499 m24 2135 548 m 18 Y s 2135 596 m 13 Y s 2135 581 m24 2138
 527 m 21 Y s 2138 578 m 14 Y s 2138 563 m24 2141 527 m 21 Y s 2141 578 m 14 Y s 2141 563 m24 2143 554 m 18 Y s 2143 602 m 12 Y s 2143 587 m24 2146 583 m 15 Y s 2146 628 m 10 Y s 2146 613 m24 2149 577 m 16 Y s 2149 623 m 11 Y s 2149 608 m24 2152 560
 m 17 Y s 2152 608 m 11 Y s 2152 592 m24 2154 519 m 22 Y s 2154 571 m 15 Y s 2154 556 m24 2157 588 m 14 Y s 2157 633 m 9 Y s 2157 617 m24 2160 519 m 22 Y s 2160 571 m 15 Y s 2160 556 m24 2162 541 m 19 Y s 2162 591 m 12 Y s 2162 575 m24 2165 485 m 26
 Y s 2165 541 m 17 Y s 2165 526 m24 2168 454 m 30 Y s 2168 514 m 20 Y s 2168 499 m24 2170 560 m 17 Y s 2170 608 m 11 Y s 2170 592 m24 2173 527 m 21 Y s 2173 578 m 14 Y s 2173 563 m24 2176 519 m 22 Y s 2176 571 m 15 Y s 2176 556 m24 black 1 1 1 c 635
 392 476 435 bf black
 gsave  2268 2176 0 0 C 631.612 688.686 t 0 r /Helvetica findfont 102.732 sf 0 0 m (2017 Barrel tracker driven) show NC gr  0.49 0.6 0.82 c 556 744 m 44 Y s 556 714 m -44 Y s 556 729 m20 black
 gsave  2268 2176 0 0 C 631.612 490.831 t 0 r /Helvetica findfont 102.732 sf 0 0 m (2017 \(Legacy\) Barrel tracker driven) show NC gr  0.49 0.6 0.82 c 556 548 m 44 Y s 556 518 m -44 Y s 556 533 m24 black
 gsave  2268 2176 0 0 C 1769.28 2039.42 t 0 r /Helvetica findfont 106.537 sf 0 0 m (\(13 TeV\)) show NC gr 
 gsave  2268 2176 0 0 C 408.189 2037.11 t 0 r /Helvetica-Bold findfont 129.366 sf 0 0 m (CMS) show NC gr 
 gsave  2268 2176 0 0 C 487.026 2039.42 t 0 r /Helvetica-Oblique findfont 98.9272 sf 0 0 m (        Simulation) show NC gr  408 305 m 1769 X s 507 330 m -25 Y s 591 330 m -25 Y s 663 330 m -25 Y s 727 330 m -25 Y s 784 356 m -51 Y s 1161 330 m -25 Y
 s 1381 330 m -25 Y s 1537 330 m -25 Y s 1658 330 m -25 Y s 1757 330 m -25 Y s 1841 330 m -25 Y s 1913 330 m -25 Y s 1977 330 m -25 Y s 2035 356 m -51 Y s 408 2002 m 1769 X s 507 1977 m 25 Y s 591 1977 m 25 Y s 663 1977 m 25 Y s 727 1977 m 25 Y s 784
 1951 m 51 Y s 1161 1977 m 25 Y s 1381 1977 m 25 Y s 1537 1977 m 25 Y s 1658 1977 m 25 Y s 1757 1977 m 25 Y s 1841 1977 m 25 Y s 1913 1977 m 25 Y s 1977 1977 m 25 Y s 2035 1951 m 51 Y s 408 305 m 1697 Y s 435 308 m -27 X s 435 371 m -27 X s 435 417 m
 -27 X s 435 452 m -27 X s 435 480 m -27 X s 435 505 m -27 X s 435 526 m -27 X s 435 544 m -27 X s 461 561 m -53 X s 435 670 m -27 X s 435 733 m -27 X s 435 778 m -27 X s 435 814 m -27 X s 435 842 m -27 X s 435 866 m -27 X s 435 887 m -27 X s 435 906
 m -27 X s 461 922 m -53 X s 435 1031 m -27 X s 435 1095 m -27 X s 435 1140 m -27 X s 435 1175 m -27 X s 435 1204 m -27 X s 435 1228 m -27 X s 435 1249 m -27 X s 435 1268 m -27 X s 461 1284 m -53 X s 435 1393 m -27 X s 435 1457 m -27 X s 435 1502 m
 -27 X s 435 1537 m -27 X s 435 1566 m -27 X s 435 1590 m -27 X s 435 1611 m -27 X s 435 1630 m -27 X s 461 1646 m -53 X s 435 1755 m -27 X s 435 1819 m -27 X s 435 1864 m -27 X s 435 1899 m -27 X s 435 1928 m -27 X s 435 1952 m -27 X s 435 1973 m
 -27 X s 435 1991 m -27 X s 2177 305 m 1697 Y s 2150 308 m 27 X s 2150 371 m 27 X s 2150 417 m 27 X s 2150 452 m 27 X s 2150 480 m 27 X s 2150 505 m 27 X s 2150 526 m 27 X s 2150 544 m 27 X s 2124 561 m 53 X s 2150 670 m 27 X s 2150 733 m 27 X s 2150
 778 m 27 X s 2150 814 m 27 X s 2150 842 m 27 X s 2150 866 m 27 X s 2150 887 m 27 X s 2150 906 m 27 X s 2124 922 m 53 X s 2150 1031 m 27 X s 2150 1095 m 27 X s 2150 1140 m 27 X s 2150 1175 m 27 X s 2150 1204 m 27 X s 2150 1228 m 27 X s 2150 1249 m 27
 X s 2150 1268 m 27 X s 2124 1284 m 53 X s 2150 1393 m 27 X s 2150 1457 m 27 X s 2150 1502 m 27 X s 2150 1537 m 27 X s 2150 1566 m 27 X s 2150 1590 m 27 X s 2150 1611 m 27 X s 2150 1630 m 27 X s 2124 1646 m 53 X s 2150 1755 m 27 X s 2150 1819 m 27 X
 s 2150 1864 m 27 X s 2150 1899 m 27 X s 2150 1928 m 27 X s 2150 1952 m 27 X s 2150 1973 m 27 X s 2150 1991 m 27 X s 1 1 1 c black 1769 1697 408 305 bl 1769 1697 408 305 bl
 gr  gr showpage
end
%%EOF
