%!PS-Adobe-2.0 EPSF-2.0
%%BoundingBox:  0 0 567 544
%%Title: plots/n_fakes_vs_ele_pt_only2017_ecal_driven.eps: n_fakes_vs_ele_pt_only2017_ecal_driven
%%Creator: ROOT Version 6.14/04
%%CreationDate: Tue Aug  4 10:16:21 2020
%%DocumentNeededResources: ProcSet (FontSetInit)
%%EndComments
%%BeginProlog
80 dict begin
/s {stroke} def /l {lineto} def /m {moveto} def /t {translate} def
/r {rotate} def /rl {roll}  def /R {repeat} def
/d {rlineto} def /rm {rmoveto} def /gr {grestore} def /f {eofill} def
/c {setrgbcolor} def /black {0 setgray} def /sd {setdash} def
/cl {closepath} def /sf {scalefont setfont} def /lw {setlinewidth} def
/box {m dup 0 exch d exch 0 d 0 exch neg d cl} def
/NC{systemdict begin initclip end}def/C{NC box clip newpath}def
/bl {box s} def /bf {gsave box gsave f grestore 1 lw [] 0 sd s grestore} def /Y { 0 exch d} def /X { 0 d} def 
/K {{pop pop 0 moveto} exch kshow} bind def
/ita {/ang 15 def gsave [1 0 ang dup sin exch cos div 1 0 0] concat} def 
/mp {newpath /y exch def /x exch def} def
/side {[w .77 mul w .23 mul] .385 w mul sd w 0 l currentpoint t -144 r} def
/mr {mp x y w2 0 360 arc} def /m24 {mr s} def /m20 {mr f} def
/mb {mp x y w2 add m w2 neg 0 d 0 w neg d w 0 d 0 w d cl} def
/mt {mp x y w2 add m w2 neg w neg d w 0 d cl} def
/w4 {w 4 div} def
/w6 {w 6 div} def
/w8 {w 8 div} def
/m21 {mb f} def /m25 {mb s} def /m22 {mt f} def /m26{mt s} def
/m23 {mp x y w2 sub m w2 w d w neg 0 d cl f} def
/m27 {mp x y w2 add m w3 neg w2 neg d w3 w2 neg d w3 w2 d cl s} def
/m28 {mp x w2 sub y w2 sub w3 add m w3 0 d  0 w3 neg d w3 0 d 0 w3 d w3 0 d  0 w3 d w3 neg 0 d 0 w3 d w3 neg 0 d 0 w3 neg d w3 neg 0 d cl s } def
/m29 {mp gsave x w2 sub y w2 add w3 sub m currentpoint t 4 {side} repeat cl fill gr} def
/m30 {mp gsave x w2 sub y w2 add w3 sub m currentpoint t 4 {side} repeat cl s gr} def
/m31 {mp x y w2 sub m 0 w d x w2 sub y m w 0 d x w2 sub y w2 add m w w neg d x w2 sub y w2 sub m w w d s} def
/m32 {mp x y w2 sub m w2 w d w neg 0 d cl s} def
/m33 {mp x y w2 add m w3 neg w2 neg d w3 w2 neg d w3 w2 d cl f} def
/m34 {mp x w2 sub y w2 sub w3 add m w3 0 d  0 w3 neg d w3 0 d 0 w3 d w3 0 d  0 w3 d w3 neg 0 d 0 w3 d w3 neg 0 d 0 w3 neg d w3 neg 0 d cl f } def
/m35 {mp x y w2 add m w2 neg w2 neg d w2 w2 neg d w2 w2 d w2 neg w2 d x y w2 sub m 0 w d x w2 sub y m w 0 d s} def
/m36 {mb x w2 sub y w2 add m w w neg d x w2 sub y w2 sub m w w d s} def
/m37 {mp x y m w4 neg w2 d w4 neg w2 neg d w2 0 d  w4 neg w2 neg d w2 0 d w4 neg w2 d w2 0 d w4 neg w2 d w4 neg w2 neg d cl s} def
/m38 {mp x w4 sub y w2 add m w4 neg w4 neg d 0 w2 neg d w4 w4 neg d w2 0 d w4 w4 d 0 w2 d w4 neg w4 d w2 neg 0 d x y w2 sub m 0 w d x w2 sub y m w 0 d cl s} def
/m39 {mp x y m w4 neg w2 d w4 neg w2 neg d w2 0 d  w4 neg w2 neg d w2 0 d w4 neg w2 d w2 0 d w4 neg w2 d w4 neg w2 neg d cl f} def
/m40 {mp x y m w4 w2 d w4 w4 neg d w2 neg w4 neg d w2 w4 neg d w4 neg w4 neg d w4 neg w2 d w4 neg w2 neg d w4 neg w4 d w2 w4 d w2 neg w4 d w4 w4 d w4 w2 neg d cl s} def
/m41 {mp x y m w4 w2 d w4 w4 neg d w2 neg w4 neg d w2 w4 neg d w4 neg w4 neg d w4 neg w2 d w4 neg w2 neg d w4 neg w4 d w2 w4 d w2 neg w4 d w4 w4 d w4 w2 neg d cl f} def
/m42 {mp x y w2 add m w8 neg w2 -3 4 div mul d w2 -3 4 div mul w8 neg d w2 3 4 div mul w8 neg d w8 w2 -3 4 div mul d w8 w2 3 4 div mul d w2 3 4 div mul w8 d w2 -3 4 div mul w8 d w8 neg w2 3 4 div mul d cl s} def
/m43 {mp x y w2 add m w8 neg w2 -3 4 div mul d w2 -3 4 div mul w8 neg d w2 3 4 div mul w8 neg d w8 w2 -3 4 div mul d w8 w2 3 4 div mul d w2 3 4 div mul w8 d w2 -3 4 div mul w8 d w8 neg w2 3 4 div mul d cl f} def
/m44 {mp x y m w6 neg w2 d w2 2 3 div mul 0 d w6 neg w2 neg d w2 w6 d 0 w2 -2 3 div mul d w2 neg w6 d w6 w2 neg d w2 -2 3 div mul 0 d w6 w2 d w2 neg w6 neg d 0 w2 2 3 div mul d w2 w6 neg d cl s} def
/m45 {mp x y m w6 neg w2 d w2 2 3 div mul 0 d w6 neg w2 neg d w2 w6 d 0 w2 -2 3 div mul d w2 neg w6 d w6 w2 neg d w2 -2 3 div mul 0 d w6 w2 d w2 neg w6 neg d 0 w2 2 3 div mul d w2 w6 neg d cl f} def
/m46 {mp x y w4 add m w4 neg w4 d w4 neg w4 neg d  w4 w4 neg d w4 neg w4 neg d w4 w4 neg d w4 w4 d w4 w4 neg d w4 w4 d w4 neg w4 d w4 w4 d w4 neg w4 d w4 neg w4 neg d cl s} def
/m47 {mp x y w4 add m w4 neg w4 d w4 neg w4 neg d w4 w4 neg d w4 neg w4 neg d  w4 w4 neg d w4 w4 d w4 w4 neg d w4 w4 d w4 neg w4 d w4 w4 d w4 neg w4 d w4 neg w4 neg d cl f} def
/m48 {mp x y w4 add m w4 neg w4 d w4 neg w4 neg d w4 w4 neg d  w4 neg w4 neg d w4 w4 neg d w4 w4 d w4 w4 neg d w4 w4 d w4 neg w4 d w4 w4 d w4 neg w4 d w4 neg w4 neg d  w4 w4 neg d w4 neg w4 neg d w4 neg w4 d w4 w4 d cl f} def
/m49 {mp x w2 sub w3 add y w2 sub w3 add m  0 w3 neg d w3 0 d 0 w3 d w3 0 d 0 w3 d w3 neg 0 d 0 w3 d w3 neg 0 d 0 w3 neg d w3 neg 0 d 0 w3 neg d w3 0 d 0 w3 d w3 0 d 0 w3 neg d w3 neg 0 d cl f } def
/m2 {mp x y w2 sub m 0 w d x w2 sub y m w 0 d s} def
/m5 {mp x w2 sub y w2 sub m w w d x w2 sub y w2 add m w w neg d s} def
%%IncludeResource: ProcSet (FontSetInit)
%%IncludeResource: font Times-Roman
%%IncludeResource: font Times-Italic
%%IncludeResource: font Times-Bold
%%IncludeResource: font Times-BoldItalic
%%IncludeResource: font Helvetica
%%IncludeResource: font Helvetica-Oblique
%%IncludeResource: font Helvetica-Bold
%%IncludeResource: font Helvetica-BoldOblique
%%IncludeResource: font Courier
%%IncludeResource: font Courier-Oblique
%%IncludeResource: font Courier-Bold
%%IncludeResource: font Courier-BoldOblique
%%IncludeResource: font Symbol
%%IncludeResource: font ZapfDingbats
/reEncode {exch findfont dup length dict begin {1 index /FID eq  {pop pop} {def} ifelse } forall /Encoding exch def currentdict end dup /FontName get exch definefont pop } def [/Times-Bold /Times-Italic /Times-BoldItalic /Helvetica /Helvetica-Oblique
 /Helvetica-Bold /Helvetica-BoldOblique /Courier /Courier-Oblique /Courier-Bold /Courier-BoldOblique /Times-Roman /AvantGarde-Book /AvantGarde-BookOblique /AvantGarde-Demi /AvantGarde-DemiOblique /Bookman-Demi /Bookman-DemiItalic /Bookman-Light
 /Bookman-LightItalic /Helvetica-Narrow /Helvetica-Narrow-Bold /Helvetica-Narrow-BoldOblique /Helvetica-Narrow-Oblique /NewCenturySchlbk-Roman /NewCenturySchlbk-Bold /NewCenturySchlbk-BoldItalic /NewCenturySchlbk-Italic /Palatino-Bold
 /Palatino-BoldItalic /Palatino-Italic /Palatino-Roman ] {ISOLatin1Encoding reEncode } forall
%%EndProlog
%%BeginSetup
%%EndSetup
newpath  gsave  .25 .25 scale  gsave  0 0 t black[  ] 0 sd 3 lw 1 1 1 c 2268 2176 0 0 bf black 1 1 1 c black 1769 1697 408 305 bl 1769 1697 408 305 bl 1 1 1 c black 1769 1697 408 305 bl 1769 1697 408 305 bl 0.49 0.6 0.82 c 1 1 1 c 0.49 0.6 0.82 c 408
 1899 m 18 X s 456 1899 m 16 X s /w 30 def /w2 {w 2 div} def /w3 {w 3 div} def 441 1899 m20 472 1873 m 14 X s 517 1873 m 12 X s 501 1873 m20 529 1839 m 12 X s 571 1839 m 10 X s 556 1839 m20 581 1804 m 9 X s 620 1804 m 8 X s 605 1804 m20 628 1771 m 7
 X s 666 1771 m 6 X s 650 1771 m20 672 1739 m 5 X s 707 1739 m 5 X s 692 1739 m20 712 1709 m 4 X s 746 1709 m 3 X s 731 1709 m20 749 1681 m 3 X s 782 1681 m 2 X s 767 1681 m20 784 1657 m 2 X s 816 1657 m 1 X s 801 1657 m20 817 1635 m 1 X s 848 1635 m
 s 833 1635 m20 863 1613 m20 892 1594 m20 919 1577 m20 945 1561 m20 970 1547 m20 993 1533 m20 1016 1521 m20 1038 1510 m20 1058 1497 m20 1079 1488 m20 1098 1477 m20 1117 1470 m20 1135 1459 m20 1152 1451 m20 1169 1442 m20 1186 1436 m20 1202 1426 m20
 1217 1419 m20 1232 1412 m20 1247 1404 m20 1261 1397 m20 1275 1389 m20 1289 1383 m20 1302 1373 m20 1315 1366 m20 1327 1358 m20 1340 1349 m20 1352 1340 m20 1364 1332 m20 1375 1324 m20 1387 1313 m20 1398 1307 m20 1408 1300 m20 1419 1293 m20 1430 1281
 m20 1440 1271 m20 1450 1264 m20 1460 1253 m20 1469 1242 m20 1479 1234 m20 1488 1223 m20 1498 1214 m20 1507 1205 m20 1515 1193 m20 1524 1186 m20 1533 1177 m20 1541 1163 m20 1550 1155 m20 1558 1144 m20 1566 1135 m20 1574 1124 m20 1582 1116 m20 1590
 1102 m20 1597 1092 m20 1605 1080 m20 1612 1068 m20 1620 1057 m20 1627 1043 m20 1634 1036 m20 1641 1014 m20 1648 1009 m20 1655 994 m20 1662 983 m20 1668 978 m20 1675 980 m20 1682 967 m20 1688 958 m20 1694 959 m20 1701 948 m20 1707 946 m20 1713 936
 m20 1719 930 m20 1725 925 m20 1731 927 m20 1737 910 m20 1743 907 m20 1749 902 m20 1754 900 m20 1760 893 m20 1766 881 m20 1771 884 m20 1777 875 m20 1782 875 m20 1787 864 m20 1793 855 m20 1798 865 m20 1803 852 m20 1808 838 m20 1814 833 m20 1819 840
 m20 1824 834 m20 1829 831 m20 1834 822 m20 1839 818 m20 1843 820 m20 1848 800 m20 1853 790 m20 1858 793 m20 1862 796 m20 1867 784 m20 1872 780 m20 1876 767 m20 1881 765 m20 1885 774 m20 1890 766 m20 1894 761 m20 1898 753 m20 1903 746 m20 1907 746
 m20 1911 730 m20 1916 741 m20 1920 734 m20 1924 725 m20 1928 734 m20 1932 709 m20 1936 707 m20 1940 714 m20 1944 707 m20 1948 706 m20 1952 705 m20 1956 692 m20 1960 697 m20 1964 677 m20 1968 672 m20 1972 683 m20 1975 664 m20 1979 684 m20 1983 673
 m20 1987 656 m20 1990 665 m20 1994 659 m20 1998 666 m20 2001 659 m20 2005 643 m20 2009 645 m20 2012 631 m20 2016 635 m20 2019 638 m20 2023 627 m20 2026 633 m20 2029 617 m20 2033 592 m20 2036 602 m20 2040 608 m20 2043 611 m20 2046 619 m20 2050 600
 m20 2053 603 m20 2056 592 m20 2059 577 m20 2063 584 m20 2066 586 m20 2069 591 m20 2072 586 m20 2075 567 m20 2079 561 m20 2082 565 m20 2085 580 m20 2088 559 m20 2091 561 m20 2094 542 m20 2097 577 m20 2100 537 m20 2103 529 m20 2106 566 m20 2109 549
 m20 2112 474 m s 2112 489 m20 2115 538 m20 2118 521 m20 2121 528 m20 2124 530 m20 2126 513 m20 2129 516 m20 2132 535 m20 2135 515 m20 2138 515 m20 2141 520 m20 2143 469 m 1 Y s 2143 485 m20 2146 464 m 1 Y s 2146 481 m20 2149 487 m s 2149 502 m20
 2152 472 m 1 Y s 2152 488 m20 2154 461 m 1 Y s 2154 478 m20 2157 472 m 1 Y s 2157 488 m20 2160 458 m 1 Y s 2160 474 m20 2162 475 m 1 Y s 2162 491 m20 2165 485 m s 2165 501 m20 2168 459 m 2 Y s 2168 476 m20 2170 416 m 4 Y s 2170 451 m 1 Y s 2170 435
 m20 2173 436 m 3 Y s 2173 470 m s 2173 454 m20 2176 427 m 3 Y s 2176 460 m 2 Y s 2176 445 m20 black 408 305 m 1769 X s 507 330 m -25 Y s 591 330 m -25 Y s 663 330 m -25 Y s 727 330 m -25 Y s 784 356 m -51 Y s
 gsave  2268 2176 0 0 C 726.735 167.415 t 0 r /Helvetica findfont 102.732 sf 0 0 m (10) show NC gr  1161 330 m -25 Y s 1381 330 m -25 Y s 1537 330 m -25 Y s 1658 330 m -25 Y s 1757 330 m -25 Y s 1841 330 m -25 Y s 1913 330 m -25 Y s 1977 330 m -25 Y
 s 2035 356 m -51 Y s
 gsave  2268 2176 0 0 C 2066.06 213.074 t 0 r /Helvetica findfont 68.4881 sf 0 0 m (2) show NC gr 
 gsave  2268 2176 0 0 C 1955.72 167.415 t 0 r /Helvetica findfont 102.732 sf 0 0 m (10) show NC gr 
 gsave  2268 2176 0 0 C 1837.76 60.8783 t 0 r /Helvetica findfont 121.757 sf 0 0 m ( [GeV]) show NC gr 
 gsave  2268 2176 0 0 C 1788.3 -3.80489 t 0 r /Helvetica findfont 79.9028 sf 0 0 m (T) show NC gr 
 gsave  2268 2176 0 0 C 1240.4 60.8783 t 0 r /Helvetica findfont 121.757 sf 0 0 m (Electron p) show NC gr  408 2002 m 1769 X s 507 1977 m 25 Y s 591 1977 m 25 Y s 663 1977 m 25 Y s 727 1977 m 25 Y s 784 1951 m 51 Y s 1161 1977 m 25 Y s 1381 1977 m 25
 Y s 1537 1977 m 25 Y s 1658 1977 m 25 Y s 1757 1977 m 25 Y s 1841 1977 m 25 Y s 1913 1977 m 25 Y s 1977 1977 m 25 Y s 2035 1951 m 51 Y s 408 305 m 1697 Y s 435 319 m -27 X s 435 338 m -27 X s 461 355 m -53 X s
 gsave  2268 2176 0 0 C 342.44 357.66 t 0 r /Helvetica findfont 68.4881 sf 0 0 m (6) show NC gr 
 gsave  2268 2176 0 0 C 304.391 357.66 t 0 r /Symbol findfont 68.4881 sf 0 0 m (-) show NC gr 
 gsave  2268 2176 0 0 C 194.05 308.196 t 0 r /Helvetica findfont 102.732 sf 0 0 m (10) show NC gr  435 467 m -27 X s 435 532 m -27 X s 435 578 m -27 X s 435 614 m -27 X s 435 644 m -27 X s 435 669 m -27 X s 435 690 m -27 X s 435 709 m -27 X s 461 726
 m -53 X s
 gsave  2268 2176 0 0 C 342.44 726.735 t 0 r /Helvetica findfont 68.4881 sf 0 0 m (5) show NC gr 
 gsave  2268 2176 0 0 C 304.391 726.735 t 0 r /Symbol findfont 68.4881 sf 0 0 m (-) show NC gr 
 gsave  2268 2176 0 0 C 194.05 677.271 t 0 r /Helvetica findfont 102.732 sf 0 0 m (10) show NC gr  435 838 m -27 X s 435 903 m -27 X s 435 949 m -27 X s 435 985 m -27 X s 435 1014 m -27 X s 435 1039 m -27 X s 435 1061 m -27 X s 435 1080 m -27 X s 461
 1097 m -53 X s
 gsave  2268 2176 0 0 C 342.44 1095.81 t 0 r /Helvetica findfont 68.4881 sf 0 0 m (4) show NC gr 
 gsave  2268 2176 0 0 C 304.391 1095.81 t 0 r /Symbol findfont 68.4881 sf 0 0 m (-) show NC gr 
 gsave  2268 2176 0 0 C 194.05 1050.15 t 0 r /Helvetica findfont 102.732 sf 0 0 m (10) show NC gr  435 1208 m -27 X s 435 1273 m -27 X s 435 1320 m -27 X s 435 1356 m -27 X s 435 1385 m -27 X s 435 1410 m -27 X s 435 1431 m -27 X s 435 1450 m -27 X s
 461 1467 m -53 X s
 gsave  2268 2176 0 0 C 342.44 1468.69 t 0 r /Helvetica findfont 68.4881 sf 0 0 m (3) show NC gr 
 gsave  2268 2176 0 0 C 304.391 1468.69 t 0 r /Symbol findfont 68.4881 sf 0 0 m (-) show NC gr 
 gsave  2268 2176 0 0 C 194.05 1419.23 t 0 r /Helvetica findfont 102.732 sf 0 0 m (10) show NC gr  435 1579 m -27 X s 435 1644 m -27 X s 435 1690 m -27 X s 435 1726 m -27 X s 435 1756 m -27 X s 435 1780 m -27 X s 435 1802 m -27 X s 435 1821 m -27 X s
 461 1838 m -53 X s
 gsave  2268 2176 0 0 C 342.44 1833.96 t 0 r /Helvetica findfont 68.4881 sf 0 0 m (2) show NC gr 
 gsave  2268 2176 0 0 C 304.391 1833.96 t 0 r /Symbol findfont 68.4881 sf 0 0 m (-) show NC gr 
 gsave  2268 2176 0 0 C 194.05 1788.3 t 0 r /Helvetica findfont 102.732 sf 0 0 m (10) show NC gr  435 1949 m -27 X s
 gsave  2268 2176 0 0 C 156.001 620.198 t 90 r /Helvetica findfont 121.757 sf 0 0 m (DY+Jets Fakes per Event) show NC gr  2177 305 m 1697 Y s 2150 319 m 27 X s 2150 338 m 27 X s 2124 355 m 53 X s 2150 467 m 27 X s 2150 532 m 27 X s 2150 578 m 27 X s
 2150 614 m 27 X s 2150 644 m 27 X s 2150 669 m 27 X s 2150 690 m 27 X s 2150 709 m 27 X s 2124 726 m 53 X s 2150 838 m 27 X s 2150 903 m 27 X s 2150 949 m 27 X s 2150 985 m 27 X s 2150 1014 m 27 X s 2150 1039 m 27 X s 2150 1061 m 27 X s 2150 1080 m
 27 X s 2124 1097 m 53 X s 2150 1208 m 27 X s 2150 1273 m 27 X s 2150 1320 m 27 X s 2150 1356 m 27 X s 2150 1385 m 27 X s 2150 1410 m 27 X s 2150 1431 m 27 X s 2150 1450 m 27 X s 2124 1467 m 53 X s 2150 1579 m 27 X s 2150 1644 m 27 X s 2150 1690 m 27
 X s 2150 1726 m 27 X s 2150 1756 m 27 X s 2150 1780 m 27 X s 2150 1802 m 27 X s 2150 1821 m 27 X s 2124 1838 m 53 X s 2150 1949 m 27 X s 0.49 0.6 0.82 c 1 1 1 c 0.49 0.6 0.82 c 408 1877 m 18 X s 456 1877 m 16 X s 441 1877 m24 472 1844 m 14 X s 517
 1844 m 12 X s 501 1844 m24 529 1811 m 12 X s 571 1811 m 10 X s 556 1811 m24 581 1780 m 9 X s 620 1780 m 8 X s 605 1780 m24 628 1750 m 7 X s 666 1750 m 6 X s 650 1750 m24 672 1721 m 5 X s 707 1721 m 5 X s 692 1721 m24 712 1693 m 4 X s 746 1693 m 3 X
 s 731 1693 m24 749 1668 m 3 X s 782 1668 m 2 X s 767 1668 m24 784 1643 m 2 X s 816 1643 m 1 X s 801 1643 m24 817 1619 m 1 X s 848 1619 m s 833 1619 m24 863 1599 m24 892 1581 m24 919 1561 m24 945 1545 m24 970 1531 m24 993 1520 m24 1016 1506 m24 1038
 1493 m24 1058 1483 m24 1079 1475 m24 1098 1463 m24 1117 1453 m24 1135 1444 m24 1152 1436 m24 1169 1427 m24 1186 1417 m24 1202 1410 m24 1217 1400 m24 1232 1393 m24 1247 1387 m24 1261 1376 m24 1275 1369 m24 1289 1362 m24 1302 1349 m24 1315 1346 m24
 1327 1338 m24 1340 1332 m24 1352 1319 m24 1364 1310 m24 1375 1306 m24 1387 1296 m24 1398 1287 m24 1408 1278 m24 1419 1272 m24 1430 1259 m24 1440 1257 m24 1450 1246 m24 1460 1233 m24 1469 1227 m24 1479 1219 m24 1488 1211 m24 1498 1198 m24 1507 1191
 m24 1515 1180 m24 1524 1172 m24 1533 1162 m24 1541 1149 m24 1550 1138 m24 1558 1128 m24 1566 1119 m24 1574 1107 m24 1582 1102 m24 1590 1087 m24 1597 1075 m24 1605 1072 m24 1612 1058 m24 1620 1043 m24 1627 1035 m24 1634 1018 m24 1641 1007 m24 1648
 1000 m24 1655 989 m24 1662 982 m24 1668 968 m24 1675 967 m24 1682 947 m24 1688 947 m24 1694 935 m24 1701 932 m24 1707 925 m24 1713 920 m24 1719 915 m24 1725 892 m24 1731 896 m24 1737 894 m24 1743 876 m24 1749 856 m24 1754 859 m24 1760 863 m24 1766
 860 m24 1771 845 m24 1777 839 m24 1782 831 m24 1787 833 m24 1793 815 m24 1798 826 m24 1803 811 m24 1808 803 m24 1814 798 m24 1819 800 m24 1824 778 m24 1829 794 m24 1834 776 m24 1839 775 m24 1843 760 m24 1848 770 m24 1853 761 m24 1858 760 m24 1862
 747 m24 1867 754 m24 1872 729 m24 1876 702 m24 1881 715 m24 1885 720 m24 1890 737 m24 1894 715 m24 1898 718 m24 1903 704 m24 1907 713 m24 1911 692 m24 1916 680 m24 1920 692 m24 1924 695 m24 1928 690 m24 1932 707 m24 1936 656 m24 1940 677 m24 1944
 648 m24 1948 651 m24 1952 648 m24 1956 638 m24 1960 658 m24 1964 660 m24 1968 623 m24 1972 651 m24 1975 603 m s 1975 618 m24 1979 632 m24 1983 621 m24 1987 591 m 1 Y s 1987 607 m24 1990 597 m s 1990 613 m24 1994 626 m24 1998 597 m s 1998 613 m24
 2001 580 m 1 Y s 2001 597 m24 2005 562 m 2 Y s 2005 594 m 1 Y s 2005 579 m24 2009 562 m 2 Y s 2009 594 m 1 Y s 2009 579 m24 2012 562 m 2 Y s 2012 594 m 1 Y s 2012 579 m24 2016 532 m 4 Y s 2016 567 m 1 Y s 2016 551 m24 2019 554 m 3 Y s 2019 587 m 1 Y
 s 2019 572 m24 2023 572 m 2 Y s 2023 604 m s 2023 589 m24 2026 521 m 5 Y s 2026 556 m 3 Y s 2026 541 m24 2029 549 m 2 Y s 2029 582 m 1 Y s 2029 567 m24 2033 534 m 4 Y s 2033 569 m 1 Y s 2033 553 m24 2036 554 m 3 Y s 2036 587 m 1 Y s 2036 572 m24
 2040 570 m 2 Y s 2040 602 m 1 Y s 2040 587 m24 2043 521 m 5 Y s 2043 556 m 3 Y s 2043 541 m24 2046 486 m 6 Y s 2046 523 m 4 Y s 2046 508 m24 2050 558 m 2 Y s 2050 591 m s 2050 576 m24 2053 556 m 3 Y s 2053 589 m 1 Y s 2053 574 m24 2056 519 m 5 Y s
 2056 554 m 2 Y s 2056 539 m24 2059 491 m 7 Y s 2059 528 m 4 Y s 2059 513 m24 2063 497 m 6 Y s 2063 533 m 4 Y s 2063 518 m24 2066 514 m 5 Y s 2066 550 m 2 Y s 2066 534 m24 2069 497 m 6 Y s 2069 533 m 4 Y s 2069 518 m24 2072 486 m 6 Y s 2072 523 m 4 Y
 s 2072 508 m24 2075 494 m 6 Y s 2075 531 m 3 Y s 2075 515 m24 2079 539 m 3 Y s 2079 572 m 2 Y s 2079 557 m24 2082 517 m 4 Y s 2082 552 m 2 Y s 2082 537 m24 2085 468 m 8 Y s 2085 506 m 5 Y s 2085 491 m24 2088 519 m 5 Y s 2088 554 m 2 Y s 2088 539 m24
 2091 504 m 6 Y s 2091 540 m 4 Y s 2091 525 m24 2094 514 m 5 Y s 2094 550 m 2 Y s 2094 534 m24 2097 494 m 6 Y s 2097 531 m 3 Y s 2097 515 m24 2100 483 m 7 Y s 2100 520 m 5 Y s 2100 505 m24 2103 491 m 7 Y s 2103 528 m 4 Y s 2103 513 m24 2106 523 m 5 Y
 s 2106 558 m 3 Y s 2106 543 m24 2109 421 m 11 Y s 2109 463 m 8 Y s 2109 448 m24 2112 480 m 7 Y s 2112 518 m 4 Y s 2112 502 m24 2115 488 m 7 Y s 2115 526 m 4 Y s 2115 510 m24 2118 507 m 5 Y s 2118 543 m 3 Y s 2118 528 m24 2121 471 m 8 Y s 2121 509 m
 5 Y s 2121 494 m24 2124 465 m 8 Y s 2124 503 m 6 Y s 2124 488 m24 2126 458 m 9 Y s 2126 497 m 6 Y s 2126 482 m24 2129 458 m 9 Y s 2129 497 m 6 Y s 2129 482 m24 2132 433 m 11 Y s 2132 474 m 7 Y s 2132 459 m24 2135 448 m 9 Y s 2135 488 m 6 Y s 2135
 472 m24 2138 437 m 10 Y s 2138 477 m 7 Y s 2138 462 m24 2141 429 m 11 Y s 2141 470 m 8 Y s 2141 455 m24 2143 408 m 12 Y s 2143 451 m 9 Y s 2143 436 m24 2146 458 m 9 Y s 2146 497 m 6 Y s 2146 482 m24 2149 398 m 14 Y s 2149 442 m 10 Y s 2149 427 m24
 2152 421 m 11 Y s 2152 463 m 8 Y s 2152 448 m24 2154 378 m 16 Y s 2154 424 m 11 Y s 2154 409 m24 2157 403 m 13 Y s 2157 447 m 9 Y s 2157 432 m24 2160 398 m 14 Y s 2160 442 m 10 Y s 2160 427 m24 2162 383 m 15 Y s 2162 429 m 10 Y s 2162 414 m24 2165
 408 m 12 Y s 2165 451 m 9 Y s 2165 436 m24 2168 408 m 12 Y s 2168 451 m 9 Y s 2168 436 m24 2170 448 m 9 Y s 2170 488 m 6 Y s 2170 472 m24 2173 361 m 17 Y s 2173 409 m 11 Y s 2173 393 m24 2176 388 m 15 Y s 2176 434 m 9 Y s 2176 418 m24 black 1 1 1 c
 635 392 476 435 bf black
 gsave  2268 2176 0 0 C 631.612 688.686 t 0 r /Helvetica findfont 102.732 sf 0 0 m (2017 ecal driven) show NC gr  0.49 0.6 0.82 c 556 744 m 44 Y s 556 714 m -44 Y s 556 729 m20 black
 gsave  2268 2176 0 0 C 631.612 490.831 t 0 r /Helvetica findfont 102.732 sf 0 0 m (2017 \(Legacy\) ecal driven) show NC gr  0.49 0.6 0.82 c 556 548 m 44 Y s 556 518 m -44 Y s 556 533 m24 black
 gsave  2268 2176 0 0 C 1769.28 2039.42 t 0 r /Helvetica findfont 106.537 sf 0 0 m (\(13 TeV\)) show NC gr 
 gsave  2268 2176 0 0 C 408.189 2037.11 t 0 r /Helvetica-Bold findfont 129.366 sf 0 0 m (CMS) show NC gr 
 gsave  2268 2176 0 0 C 487.026 2039.42 t 0 r /Helvetica-Oblique findfont 98.9272 sf 0 0 m (        Simulation) show NC gr  408 305 m 1769 X s 507 330 m -25 Y s 591 330 m -25 Y s 663 330 m -25 Y s 727 330 m -25 Y s 784 356 m -51 Y s 1161 330 m -25 Y
 s 1381 330 m -25 Y s 1537 330 m -25 Y s 1658 330 m -25 Y s 1757 330 m -25 Y s 1841 330 m -25 Y s 1913 330 m -25 Y s 1977 330 m -25 Y s 2035 356 m -51 Y s 408 2002 m 1769 X s 507 1977 m 25 Y s 591 1977 m 25 Y s 663 1977 m 25 Y s 727 1977 m 25 Y s 784
 1951 m 51 Y s 1161 1977 m 25 Y s 1381 1977 m 25 Y s 1537 1977 m 25 Y s 1658 1977 m 25 Y s 1757 1977 m 25 Y s 1841 1977 m 25 Y s 1913 1977 m 25 Y s 1977 1977 m 25 Y s 2035 1951 m 51 Y s 408 305 m 1697 Y s 435 319 m -27 X s 435 338 m -27 X s 461 355 m
 -53 X s 435 467 m -27 X s 435 532 m -27 X s 435 578 m -27 X s 435 614 m -27 X s 435 644 m -27 X s 435 669 m -27 X s 435 690 m -27 X s 435 709 m -27 X s 461 726 m -53 X s 435 838 m -27 X s 435 903 m -27 X s 435 949 m -27 X s 435 985 m -27 X s 435
 1014 m -27 X s 435 1039 m -27 X s 435 1061 m -27 X s 435 1080 m -27 X s 461 1097 m -53 X s 435 1208 m -27 X s 435 1273 m -27 X s 435 1320 m -27 X s 435 1356 m -27 X s 435 1385 m -27 X s 435 1410 m -27 X s 435 1431 m -27 X s 435 1450 m -27 X s 461
 1467 m -53 X s 435 1579 m -27 X s 435 1644 m -27 X s 435 1690 m -27 X s 435 1726 m -27 X s 435 1756 m -27 X s 435 1780 m -27 X s 435 1802 m -27 X s 435 1821 m -27 X s 461 1838 m -53 X s 435 1949 m -27 X s 2177 305 m 1697 Y s 2150 319 m 27 X s 2150
 338 m 27 X s 2124 355 m 53 X s 2150 467 m 27 X s 2150 532 m 27 X s 2150 578 m 27 X s 2150 614 m 27 X s 2150 644 m 27 X s 2150 669 m 27 X s 2150 690 m 27 X s 2150 709 m 27 X s 2124 726 m 53 X s 2150 838 m 27 X s 2150 903 m 27 X s 2150 949 m 27 X s
 2150 985 m 27 X s 2150 1014 m 27 X s 2150 1039 m 27 X s 2150 1061 m 27 X s 2150 1080 m 27 X s 2124 1097 m 53 X s 2150 1208 m 27 X s 2150 1273 m 27 X s 2150 1320 m 27 X s 2150 1356 m 27 X s 2150 1385 m 27 X s 2150 1410 m 27 X s 2150 1431 m 27 X s
 2150 1450 m 27 X s 2124 1467 m 53 X s 2150 1579 m 27 X s 2150 1644 m 27 X s 2150 1690 m 27 X s 2150 1726 m 27 X s 2150 1756 m 27 X s 2150 1780 m 27 X s 2150 1802 m 27 X s 2150 1821 m 27 X s 2124 1838 m 53 X s 2150 1949 m 27 X s 1 1 1 c black 1769
 1697 408 305 bl 1769 1697 408 305 bl
 gr  gr showpage
end
%%EOF
