%!PS-Adobe-2.0 EPSF-2.0
%%BoundingBox:  0 0 567 544
%%Title: plots/n_fakes_vs_ele_pt_barrel.eps: n_fakes_vs_ele_pt_barrel
%%Creator: ROOT Version 6.14/04
%%CreationDate: Tue Aug  4 10:19:01 2020
%%DocumentNeededResources: ProcSet (FontSetInit)
%%EndComments
%%BeginProlog
80 dict begin
/s {stroke} def /l {lineto} def /m {moveto} def /t {translate} def
/r {rotate} def /rl {roll}  def /R {repeat} def
/d {rlineto} def /rm {rmoveto} def /gr {grestore} def /f {eofill} def
/c {setrgbcolor} def /black {0 setgray} def /sd {setdash} def
/cl {closepath} def /sf {scalefont setfont} def /lw {setlinewidth} def
/box {m dup 0 exch d exch 0 d 0 exch neg d cl} def
/NC{systemdict begin initclip end}def/C{NC box clip newpath}def
/bl {box s} def /bf {gsave box gsave f grestore 1 lw [] 0 sd s grestore} def /Y { 0 exch d} def /X { 0 d} def 
/K {{pop pop 0 moveto} exch kshow} bind def
/ita {/ang 15 def gsave [1 0 ang dup sin exch cos div 1 0 0] concat} def 
/mp {newpath /y exch def /x exch def} def
/side {[w .77 mul w .23 mul] .385 w mul sd w 0 l currentpoint t -144 r} def
/mr {mp x y w2 0 360 arc} def /m24 {mr s} def /m20 {mr f} def
/mb {mp x y w2 add m w2 neg 0 d 0 w neg d w 0 d 0 w d cl} def
/mt {mp x y w2 add m w2 neg w neg d w 0 d cl} def
/w4 {w 4 div} def
/w6 {w 6 div} def
/w8 {w 8 div} def
/m21 {mb f} def /m25 {mb s} def /m22 {mt f} def /m26{mt s} def
/m23 {mp x y w2 sub m w2 w d w neg 0 d cl f} def
/m27 {mp x y w2 add m w3 neg w2 neg d w3 w2 neg d w3 w2 d cl s} def
/m28 {mp x w2 sub y w2 sub w3 add m w3 0 d  0 w3 neg d w3 0 d 0 w3 d w3 0 d  0 w3 d w3 neg 0 d 0 w3 d w3 neg 0 d 0 w3 neg d w3 neg 0 d cl s } def
/m29 {mp gsave x w2 sub y w2 add w3 sub m currentpoint t 4 {side} repeat cl fill gr} def
/m30 {mp gsave x w2 sub y w2 add w3 sub m currentpoint t 4 {side} repeat cl s gr} def
/m31 {mp x y w2 sub m 0 w d x w2 sub y m w 0 d x w2 sub y w2 add m w w neg d x w2 sub y w2 sub m w w d s} def
/m32 {mp x y w2 sub m w2 w d w neg 0 d cl s} def
/m33 {mp x y w2 add m w3 neg w2 neg d w3 w2 neg d w3 w2 d cl f} def
/m34 {mp x w2 sub y w2 sub w3 add m w3 0 d  0 w3 neg d w3 0 d 0 w3 d w3 0 d  0 w3 d w3 neg 0 d 0 w3 d w3 neg 0 d 0 w3 neg d w3 neg 0 d cl f } def
/m35 {mp x y w2 add m w2 neg w2 neg d w2 w2 neg d w2 w2 d w2 neg w2 d x y w2 sub m 0 w d x w2 sub y m w 0 d s} def
/m36 {mb x w2 sub y w2 add m w w neg d x w2 sub y w2 sub m w w d s} def
/m37 {mp x y m w4 neg w2 d w4 neg w2 neg d w2 0 d  w4 neg w2 neg d w2 0 d w4 neg w2 d w2 0 d w4 neg w2 d w4 neg w2 neg d cl s} def
/m38 {mp x w4 sub y w2 add m w4 neg w4 neg d 0 w2 neg d w4 w4 neg d w2 0 d w4 w4 d 0 w2 d w4 neg w4 d w2 neg 0 d x y w2 sub m 0 w d x w2 sub y m w 0 d cl s} def
/m39 {mp x y m w4 neg w2 d w4 neg w2 neg d w2 0 d  w4 neg w2 neg d w2 0 d w4 neg w2 d w2 0 d w4 neg w2 d w4 neg w2 neg d cl f} def
/m40 {mp x y m w4 w2 d w4 w4 neg d w2 neg w4 neg d w2 w4 neg d w4 neg w4 neg d w4 neg w2 d w4 neg w2 neg d w4 neg w4 d w2 w4 d w2 neg w4 d w4 w4 d w4 w2 neg d cl s} def
/m41 {mp x y m w4 w2 d w4 w4 neg d w2 neg w4 neg d w2 w4 neg d w4 neg w4 neg d w4 neg w2 d w4 neg w2 neg d w4 neg w4 d w2 w4 d w2 neg w4 d w4 w4 d w4 w2 neg d cl f} def
/m42 {mp x y w2 add m w8 neg w2 -3 4 div mul d w2 -3 4 div mul w8 neg d w2 3 4 div mul w8 neg d w8 w2 -3 4 div mul d w8 w2 3 4 div mul d w2 3 4 div mul w8 d w2 -3 4 div mul w8 d w8 neg w2 3 4 div mul d cl s} def
/m43 {mp x y w2 add m w8 neg w2 -3 4 div mul d w2 -3 4 div mul w8 neg d w2 3 4 div mul w8 neg d w8 w2 -3 4 div mul d w8 w2 3 4 div mul d w2 3 4 div mul w8 d w2 -3 4 div mul w8 d w8 neg w2 3 4 div mul d cl f} def
/m44 {mp x y m w6 neg w2 d w2 2 3 div mul 0 d w6 neg w2 neg d w2 w6 d 0 w2 -2 3 div mul d w2 neg w6 d w6 w2 neg d w2 -2 3 div mul 0 d w6 w2 d w2 neg w6 neg d 0 w2 2 3 div mul d w2 w6 neg d cl s} def
/m45 {mp x y m w6 neg w2 d w2 2 3 div mul 0 d w6 neg w2 neg d w2 w6 d 0 w2 -2 3 div mul d w2 neg w6 d w6 w2 neg d w2 -2 3 div mul 0 d w6 w2 d w2 neg w6 neg d 0 w2 2 3 div mul d w2 w6 neg d cl f} def
/m46 {mp x y w4 add m w4 neg w4 d w4 neg w4 neg d  w4 w4 neg d w4 neg w4 neg d w4 w4 neg d w4 w4 d w4 w4 neg d w4 w4 d w4 neg w4 d w4 w4 d w4 neg w4 d w4 neg w4 neg d cl s} def
/m47 {mp x y w4 add m w4 neg w4 d w4 neg w4 neg d w4 w4 neg d w4 neg w4 neg d  w4 w4 neg d w4 w4 d w4 w4 neg d w4 w4 d w4 neg w4 d w4 w4 d w4 neg w4 d w4 neg w4 neg d cl f} def
/m48 {mp x y w4 add m w4 neg w4 d w4 neg w4 neg d w4 w4 neg d  w4 neg w4 neg d w4 w4 neg d w4 w4 d w4 w4 neg d w4 w4 d w4 neg w4 d w4 w4 d w4 neg w4 d w4 neg w4 neg d  w4 w4 neg d w4 neg w4 neg d w4 neg w4 d w4 w4 d cl f} def
/m49 {mp x w2 sub w3 add y w2 sub w3 add m  0 w3 neg d w3 0 d 0 w3 d w3 0 d 0 w3 d w3 neg 0 d 0 w3 d w3 neg 0 d 0 w3 neg d w3 neg 0 d 0 w3 neg d w3 0 d 0 w3 d w3 0 d 0 w3 neg d w3 neg 0 d cl f } def
/m2 {mp x y w2 sub m 0 w d x w2 sub y m w 0 d s} def
/m5 {mp x w2 sub y w2 sub m w w d x w2 sub y w2 add m w w neg d s} def
%%IncludeResource: ProcSet (FontSetInit)
%%IncludeResource: font Times-Roman
%%IncludeResource: font Times-Italic
%%IncludeResource: font Times-Bold
%%IncludeResource: font Times-BoldItalic
%%IncludeResource: font Helvetica
%%IncludeResource: font Helvetica-Oblique
%%IncludeResource: font Helvetica-Bold
%%IncludeResource: font Helvetica-BoldOblique
%%IncludeResource: font Courier
%%IncludeResource: font Courier-Oblique
%%IncludeResource: font Courier-Bold
%%IncludeResource: font Courier-BoldOblique
%%IncludeResource: font Symbol
%%IncludeResource: font ZapfDingbats
/reEncode {exch findfont dup length dict begin {1 index /FID eq  {pop pop} {def} ifelse } forall /Encoding exch def currentdict end dup /FontName get exch definefont pop } def [/Times-Bold /Times-Italic /Times-BoldItalic /Helvetica /Helvetica-Oblique
 /Helvetica-Bold /Helvetica-BoldOblique /Courier /Courier-Oblique /Courier-Bold /Courier-BoldOblique /Times-Roman /AvantGarde-Book /AvantGarde-BookOblique /AvantGarde-Demi /AvantGarde-DemiOblique /Bookman-Demi /Bookman-DemiItalic /Bookman-Light
 /Bookman-LightItalic /Helvetica-Narrow /Helvetica-Narrow-Bold /Helvetica-Narrow-BoldOblique /Helvetica-Narrow-Oblique /NewCenturySchlbk-Roman /NewCenturySchlbk-Bold /NewCenturySchlbk-BoldItalic /NewCenturySchlbk-Italic /Palatino-Bold
 /Palatino-BoldItalic /Palatino-Italic /Palatino-Roman ] {ISOLatin1Encoding reEncode } forall
%%EndProlog
%%BeginSetup
%%EndSetup
newpath  gsave  .25 .25 scale  gsave  0 0 t black[  ] 0 sd 3 lw 1 1 1 c 2268 2176 0 0 bf black 1 1 1 c black 1769 1697 408 305 bl 1769 1697 408 305 bl 1 1 1 c black 1769 1697 408 305 bl 1769 1697 408 305 bl 0.52 0.76 0.64 c 1 1 1 c 0.52 0.76 0.64 c
 408 1900 m 18 X s 456 1900 m 16 X s /w 30 def /w2 {w 2 div} def /w3 {w 3 div} def 441 1900 m20 472 1872 m 14 X s 517 1872 m 12 X s 501 1872 m20 529 1844 m 12 X s 571 1844 m 10 X s 556 1844 m20 581 1817 m 9 X s 620 1817 m 8 X s 605 1817 m20 628 1787
 m 7 X s 666 1787 m 6 X s 650 1787 m20 672 1756 m 5 X s 707 1756 m 5 X s 692 1756 m20 712 1725 m 4 X s 746 1725 m 3 X s 731 1725 m20 749 1700 m 3 X s 782 1700 m 2 X s 767 1700 m20 784 1682 m 2 X s 816 1682 m 1 X s 801 1682 m20 817 1661 m 1 X s 848
 1661 m s 833 1661 m20 863 1640 m20 892 1621 m20 919 1604 m20 945 1589 m20 970 1576 m20 993 1562 m20 1016 1551 m20 1038 1539 m20 1058 1529 m20 1079 1521 m20 1098 1510 m20 1117 1501 m20 1135 1492 m20 1152 1481 m20 1169 1474 m20 1186 1464 m20 1202 1457
 m20 1217 1451 m20 1232 1442 m20 1247 1435 m20 1261 1424 m20 1275 1418 m20 1289 1411 m20 1302 1403 m20 1315 1395 m20 1327 1388 m20 1340 1377 m20 1352 1370 m20 1364 1361 m20 1375 1354 m20 1387 1347 m20 1398 1336 m20 1408 1329 m20 1419 1317 m20 1430
 1309 m20 1440 1300 m20 1450 1292 m20 1460 1279 m20 1469 1277 m20 1479 1264 m20 1488 1252 m20 1498 1246 m20 1507 1238 m20 1515 1221 m20 1524 1219 m20 1533 1206 m20 1541 1196 m20 1550 1184 m20 1558 1178 m20 1566 1163 m20 1574 1158 m20 1582 1141 m20
 1590 1139 m20 1597 1125 m20 1605 1116 m20 1612 1104 m20 1620 1095 m20 1627 1084 m20 1634 1077 m20 1641 1070 m20 1648 1058 m20 1655 1042 m20 1662 1021 m20 1668 1008 m20 1675 999 m20 1682 990 m20 1688 978 m20 1694 976 m20 1701 969 m20 1707 958 m20
 1713 955 m20 1719 948 m20 1725 934 m20 1731 938 m20 1737 940 m20 1743 927 m20 1749 920 m20 1754 914 m20 1760 899 m20 1766 900 m20 1771 897 m20 1777 883 m20 1782 877 m20 1787 885 m20 1793 860 m20 1798 868 m20 1803 867 m20 1808 843 m20 1814 854 m20
 1819 846 m20 1824 838 m20 1829 833 m20 1834 833 m20 1839 822 m20 1843 813 m20 1848 811 m20 1853 804 m20 1858 807 m20 1862 798 m20 1867 810 m20 1872 800 m20 1876 787 m20 1881 787 m20 1885 765 m20 1890 766 m20 1894 768 m20 1898 759 m20 1903 774 m20
 1907 770 m20 1911 763 m20 1916 750 m20 1920 739 m20 1924 752 m20 1928 726 m20 1932 728 m20 1936 716 m20 1940 720 m20 1944 697 m20 1948 731 m20 1952 693 m20 1956 695 m20 1960 695 m20 1964 691 m20 1968 686 m20 1972 694 m20 1975 665 m20 1979 687 m20
 1983 671 m20 1987 659 m20 1990 666 m20 1994 655 m20 1998 643 m20 2001 645 m20 2005 636 m20 2009 662 m20 2012 655 m20 2016 623 m20 2019 607 m20 2023 630 m20 2026 613 m20 2029 627 m20 2033 622 m20 2036 635 m20 2040 626 m20 2043 602 m20 2046 603 m20
 2050 588 m20 2053 610 m20 2056 612 m20 2059 619 m20 2063 601 m20 2066 599 m20 2069 591 m20 2072 578 m20 2075 586 m20 2079 586 m20 2082 580 m20 2085 542 m s 2085 557 m20 2088 552 m s 2088 567 m20 2091 576 m20 2094 538 m 1 Y s 2094 555 m20 2097 573
 m20 2100 527 m 2 Y s 2100 544 m20 2103 573 m20 2106 515 m 2 Y s 2106 548 m s 2106 533 m20 2109 515 m 2 Y s 2109 548 m s 2109 533 m20 2112 529 m 1 Y s 2112 546 m20 2115 494 m 4 Y s 2115 528 m 1 Y s 2115 513 m20 2118 519 m 2 Y s 2118 551 m s 2118 536
 m20 2121 540 m 1 Y s 2121 556 m20 2124 535 m 1 Y s 2124 552 m20 2126 506 m 3 Y s 2126 539 m 1 Y s 2126 524 m20 2129 492 m 4 Y s 2129 526 m 2 Y s 2129 511 m20 2132 500 m 3 Y s 2132 534 m 1 Y s 2132 519 m20 2135 504 m 3 Y s 2135 537 m 1 Y s 2135 522
 m20 2138 496 m 4 Y s 2138 530 m 1 Y s 2138 515 m20 2141 490 m 4 Y s 2141 524 m 2 Y s 2141 509 m20 2143 482 m 4 Y s 2143 516 m 2 Y s 2143 501 m20 2146 461 m 5 Y s 2146 497 m 3 Y s 2146 481 m20 2149 422 m 8 Y s 2149 460 m 5 Y s 2149 445 m20 2152 443 m
 6 Y s 2152 480 m 3 Y s 2152 464 m20 2154 492 m 4 Y s 2154 526 m 2 Y s 2154 511 m20 2157 461 m 5 Y s 2157 497 m 3 Y s 2157 481 m20 2160 468 m 5 Y s 2160 503 m 3 Y s 2160 488 m20 2162 440 m 6 Y s 2162 477 m 4 Y s 2162 462 m20 2165 416 m 8 Y s 2165 454
 m 6 Y s 2165 439 m20 2168 461 m 5 Y s 2168 497 m 3 Y s 2168 481 m20 2170 453 m 6 Y s 2170 490 m 3 Y s 2170 474 m20 2173 448 m 6 Y s 2173 485 m 3 Y s 2173 469 m20 2176 482 m 4 Y s 2176 516 m 2 Y s 2176 501 m20 black 408 305 m 1769 X s 507 330 m -25 Y
 s 591 330 m -25 Y s 663 330 m -25 Y s 727 330 m -25 Y s 784 356 m -51 Y s
 gsave  2268 2176 0 0 C 726.735 167.415 t 0 r /Helvetica findfont 102.732 sf 0 0 m (10) show NC gr  1161 330 m -25 Y s 1381 330 m -25 Y s 1537 330 m -25 Y s 1658 330 m -25 Y s 1757 330 m -25 Y s 1841 330 m -25 Y s 1913 330 m -25 Y s 1977 330 m -25 Y
 s 2035 356 m -51 Y s
 gsave  2268 2176 0 0 C 2066.06 213.074 t 0 r /Helvetica findfont 68.4881 sf 0 0 m (2) show NC gr 
 gsave  2268 2176 0 0 C 1955.72 167.415 t 0 r /Helvetica findfont 102.732 sf 0 0 m (10) show NC gr 
 gsave  2268 2176 0 0 C 1837.76 60.8783 t 0 r /Helvetica findfont 121.757 sf 0 0 m ( [GeV]) show NC gr 
 gsave  2268 2176 0 0 C 1788.3 -3.80489 t 0 r /Helvetica findfont 79.9028 sf 0 0 m (T) show NC gr 
 gsave  2268 2176 0 0 C 1240.4 60.8783 t 0 r /Helvetica findfont 121.757 sf 0 0 m (Electron p) show NC gr  408 2002 m 1769 X s 507 1977 m 25 Y s 591 1977 m 25 Y s 663 1977 m 25 Y s 727 1977 m 25 Y s 784 1951 m 51 Y s 1161 1977 m 25 Y s 1381 1977 m 25
 Y s 1537 1977 m 25 Y s 1658 1977 m 25 Y s 1757 1977 m 25 Y s 1841 1977 m 25 Y s 1913 1977 m 25 Y s 1977 1977 m 25 Y s 2035 1951 m 51 Y s 408 305 m 1697 Y s 435 310 m -27 X s 435 339 m -27 X s 435 364 m -27 X s 435 385 m -27 X s 435 404 m -27 X s 461
 421 m -53 X s
 gsave  2268 2176 0 0 C 342.44 422.343 t 0 r /Helvetica findfont 68.4881 sf 0 0 m (6) show NC gr 
 gsave  2268 2176 0 0 C 304.391 422.343 t 0 r /Symbol findfont 68.4881 sf 0 0 m (-) show NC gr 
 gsave  2268 2176 0 0 C 194.05 372.88 t 0 r /Helvetica findfont 102.732 sf 0 0 m (10) show NC gr  435 532 m -27 X s 435 597 m -27 X s 435 643 m -27 X s 435 679 m -27 X s 435 708 m -27 X s 435 732 m -27 X s 435 754 m -27 X s 435 773 m -27 X s 461 789
 m -53 X s
 gsave  2268 2176 0 0 C 342.44 791.418 t 0 r /Helvetica findfont 68.4881 sf 0 0 m (5) show NC gr 
 gsave  2268 2176 0 0 C 304.391 791.418 t 0 r /Symbol findfont 68.4881 sf 0 0 m (-) show NC gr 
 gsave  2268 2176 0 0 C 194.05 741.954 t 0 r /Helvetica findfont 102.732 sf 0 0 m (10) show NC gr  435 900 m -27 X s 435 965 m -27 X s 435 1011 m -27 X s 435 1047 m -27 X s 435 1076 m -27 X s 435 1101 m -27 X s 435 1122 m -27 X s 435 1141 m -27 X s
 461 1158 m -53 X s
 gsave  2268 2176 0 0 C 342.44 1156.69 t 0 r /Helvetica findfont 68.4881 sf 0 0 m (4) show NC gr 
 gsave  2268 2176 0 0 C 304.391 1156.69 t 0 r /Symbol findfont 68.4881 sf 0 0 m (-) show NC gr 
 gsave  2268 2176 0 0 C 194.05 1111.03 t 0 r /Helvetica findfont 102.732 sf 0 0 m (10) show NC gr  435 1269 m -27 X s 435 1334 m -27 X s 435 1380 m -27 X s 435 1415 m -27 X s 435 1444 m -27 X s 435 1469 m -27 X s 435 1490 m -27 X s 435 1509 m -27 X s
 461 1526 m -53 X s
 gsave  2268 2176 0 0 C 342.44 1529.57 t 0 r /Helvetica findfont 68.4881 sf 0 0 m (3) show NC gr 
 gsave  2268 2176 0 0 C 304.391 1529.57 t 0 r /Symbol findfont 68.4881 sf 0 0 m (-) show NC gr 
 gsave  2268 2176 0 0 C 194.05 1480.1 t 0 r /Helvetica findfont 102.732 sf 0 0 m (10) show NC gr  435 1637 m -27 X s 435 1702 m -27 X s 435 1748 m -27 X s 435 1784 m -27 X s 435 1813 m -27 X s 435 1837 m -27 X s 435 1859 m -27 X s 435 1878 m -27 X s
 461 1895 m -53 X s
 gsave  2268 2176 0 0 C 342.44 1891.03 t 0 r /Helvetica findfont 68.4881 sf 0 0 m (2) show NC gr 
 gsave  2268 2176 0 0 C 304.391 1891.03 t 0 r /Symbol findfont 68.4881 sf 0 0 m (-) show NC gr 
 gsave  2268 2176 0 0 C 194.05 1845.37 t 0 r /Helvetica findfont 102.732 sf 0 0 m (10) show NC gr 
 gsave  2268 2176 0 0 C 156.001 620.198 t 90 r /Helvetica findfont 121.757 sf 0 0 m (DY+Jets Fakes per Event) show NC gr  2177 305 m 1697 Y s 2150 310 m 27 X s 2150 339 m 27 X s 2150 364 m 27 X s 2150 385 m 27 X s 2150 404 m 27 X s 2124 421 m 53 X s
 2150 532 m 27 X s 2150 597 m 27 X s 2150 643 m 27 X s 2150 679 m 27 X s 2150 708 m 27 X s 2150 732 m 27 X s 2150 754 m 27 X s 2150 773 m 27 X s 2124 789 m 53 X s 2150 900 m 27 X s 2150 965 m 27 X s 2150 1011 m 27 X s 2150 1047 m 27 X s 2150 1076 m
 27 X s 2150 1101 m 27 X s 2150 1122 m 27 X s 2150 1141 m 27 X s 2124 1158 m 53 X s 2150 1269 m 27 X s 2150 1334 m 27 X s 2150 1380 m 27 X s 2150 1415 m 27 X s 2150 1444 m 27 X s 2150 1469 m 27 X s 2150 1490 m 27 X s 2150 1509 m 27 X s 2124 1526 m 53
 X s 2150 1637 m 27 X s 2150 1702 m 27 X s 2150 1748 m 27 X s 2150 1784 m 27 X s 2150 1813 m 27 X s 2150 1837 m 27 X s 2150 1859 m 27 X s 2150 1878 m 27 X s 2124 1895 m 53 X s 0.49 0.6 0.82 c 1 1 1 c 0.49 0.6 0.82 c 408 1876 m 18 X s 456 1876 m 16 X
 s 441 1876 m20 472 1844 m 14 X s 517 1844 m 12 X s 501 1844 m20 529 1814 m 12 X s 571 1814 m 10 X s 556 1814 m20 581 1782 m 9 X s 620 1782 m 8 X s 605 1782 m20 628 1752 m 7 X s 666 1752 m 6 X s 650 1752 m20 672 1724 m 5 X s 707 1724 m 5 X s 692 1724
 m20 712 1697 m 4 X s 746 1697 m 3 X s 731 1697 m20 749 1673 m 3 X s 782 1673 m 2 X s 767 1673 m20 784 1656 m 2 X s 816 1656 m 1 X s 801 1656 m20 817 1637 m 1 X s 848 1637 m s 833 1637 m20 863 1617 m20 892 1600 m20 919 1585 m20 945 1570 m20 970 1557
 m20 993 1543 m20 1016 1531 m20 1038 1519 m20 1058 1508 m20 1079 1498 m20 1098 1487 m20 1117 1479 m20 1135 1468 m20 1152 1459 m20 1169 1450 m20 1186 1442 m20 1202 1433 m20 1217 1427 m20 1232 1417 m20 1247 1408 m20 1261 1401 m20 1275 1393 m20 1289
 1386 m20 1302 1375 m20 1315 1369 m20 1327 1358 m20 1340 1351 m20 1352 1339 m20 1364 1332 m20 1375 1322 m20 1387 1312 m20 1398 1303 m20 1408 1297 m20 1419 1288 m20 1430 1277 m20 1440 1265 m20 1450 1259 m20 1460 1250 m20 1469 1237 m20 1479 1230 m20
 1488 1219 m20 1498 1212 m20 1507 1200 m20 1515 1189 m20 1524 1183 m20 1533 1172 m20 1541 1159 m20 1550 1151 m20 1558 1139 m20 1566 1131 m20 1574 1122 m20 1582 1111 m20 1590 1098 m20 1597 1087 m20 1605 1078 m20 1612 1065 m20 1620 1051 m20 1627 1040
 m20 1634 1029 m20 1641 1008 m20 1648 1004 m20 1655 988 m20 1662 982 m20 1668 967 m20 1675 973 m20 1682 957 m20 1688 947 m20 1694 941 m20 1701 930 m20 1707 934 m20 1713 925 m20 1719 912 m20 1725 913 m20 1731 916 m20 1737 900 m20 1743 891 m20 1749 886
 m20 1754 890 m20 1760 881 m20 1766 865 m20 1771 870 m20 1777 867 m20 1782 856 m20 1787 855 m20 1793 846 m20 1798 855 m20 1803 838 m20 1808 825 m20 1814 813 m20 1819 823 m20 1824 819 m20 1829 816 m20 1834 800 m20 1839 798 m20 1843 808 m20 1848 791
 m20 1853 775 m20 1858 769 m20 1862 779 m20 1867 772 m20 1872 755 m20 1876 750 m20 1881 747 m20 1885 759 m20 1890 742 m20 1894 747 m20 1898 721 m20 1903 730 m20 1907 725 m20 1911 716 m20 1916 720 m20 1920 715 m20 1924 704 m20 1928 719 m20 1932 689
 m20 1936 696 m20 1940 690 m20 1944 690 m20 1948 685 m20 1952 682 m20 1956 680 m20 1960 676 m20 1964 663 m20 1968 659 m20 1972 668 m20 1975 653 m20 1979 652 m20 1983 654 m20 1987 661 m20 1990 645 m20 1994 654 m20 1998 639 m20 2001 635 m20 2005 619
 m20 2009 626 m20 2012 604 m20 2016 615 m20 2019 613 m20 2023 613 m20 2026 622 m20 2029 599 m20 2033 572 m20 2036 591 m20 2040 584 m20 2043 597 m20 2046 577 m20 2050 579 m20 2053 582 m20 2056 568 m20 2059 573 m20 2063 542 m s 2063 557 m20 2066 575
 m20 2069 581 m20 2072 546 m s 2072 561 m20 2075 539 m s 2075 554 m20 2079 532 m 1 Y s 2079 549 m20 2082 539 m s 2082 554 m20 2085 542 m s 2085 557 m20 2088 521 m 2 Y s 2088 538 m20 2091 526 m 1 Y s 2091 543 m20 2094 514 m 2 Y s 2094 547 m s 2094 531
 m20 2097 568 m20 2100 523 m 1 Y s 2100 539 m20 2103 505 m 3 Y s 2103 538 m 1 Y s 2103 523 m20 2106 532 m 1 Y s 2106 549 m20 2109 519 m 2 Y s 2109 552 m s 2109 536 m20 2112 479 m 4 Y s 2112 514 m 2 Y s 2112 499 m20 2115 502 m 2 Y s 2115 535 m s 2115
 519 m20 2118 490 m 3 Y s 2118 524 m 1 Y s 2118 508 m20 2121 502 m 2 Y s 2121 535 m s 2121 519 m20 2124 498 m 3 Y s 2124 531 m 1 Y s 2124 516 m20 2126 479 m 4 Y s 2126 514 m 2 Y s 2126 499 m20 2129 473 m 4 Y s 2129 508 m 2 Y s 2129 492 m20 2132 492 m
 3 Y s 2132 526 m 1 Y s 2132 510 m20 2135 502 m 2 Y s 2135 535 m s 2135 519 m20 2138 492 m 3 Y s 2138 526 m 1 Y s 2138 510 m20 2141 498 m 3 Y s 2141 531 m 1 Y s 2141 516 m20 2143 451 m 6 Y s 2143 487 m 4 Y s 2143 472 m20 2146 464 m 5 Y s 2146 499 m 3
 Y s 2146 484 m20 2149 473 m 4 Y s 2149 508 m 2 Y s 2149 492 m20 2152 454 m 5 Y s 2152 490 m 3 Y s 2152 475 m20 2154 430 m 7 Y s 2154 467 m 4 Y s 2154 452 m20 2157 449 m 6 Y s 2157 485 m 3 Y s 2157 470 m20 2160 456 m 6 Y s 2160 492 m 3 Y s 2160 477
 m20 2162 446 m 6 Y s 2162 483 m 3 Y s 2162 467 m20 2165 459 m 5 Y s 2165 494 m 3 Y s 2165 479 m20 2168 449 m 6 Y s 2168 485 m 3 Y s 2168 470 m20 2170 411 m 9 Y s 2170 450 m 5 Y s 2170 435 m20 2173 430 m 7 Y s 2173 467 m 4 Y s 2173 452 m20 2176 421 m
 7 Y s 2176 459 m 5 Y s 2176 444 m20 0.81 0.37 0.38 c 1 1 1 c 0.81 0.37 0.38 c 408 1876 m 18 X s 456 1876 m 16 X s 441 1876 m20 472 1844 m 14 X s 517 1844 m 12 X s 501 1844 m20 529 1814 m 12 X s 571 1814 m 10 X s 556 1814 m20 581 1780 m 9 X s 620
 1780 m 8 X s 605 1780 m20 628 1748 m 7 X s 666 1748 m 6 X s 650 1748 m20 672 1719 m 5 X s 707 1719 m 5 X s 692 1719 m20 712 1691 m 4 X s 746 1691 m 3 X s 731 1691 m20 749 1667 m 3 X s 782 1667 m 2 X s 767 1667 m20 784 1647 m 2 X s 816 1647 m 1 X s
 801 1647 m20 817 1628 m 1 X s 848 1628 m s 833 1628 m20 863 1610 m20 892 1591 m20 919 1575 m20 945 1559 m20 970 1546 m20 993 1533 m20 1016 1522 m20 1038 1509 m20 1058 1498 m20 1079 1488 m20 1098 1477 m20 1117 1467 m20 1135 1458 m20 1152 1446 m20
 1169 1439 m20 1186 1432 m20 1202 1424 m20 1217 1414 m20 1232 1406 m20 1247 1399 m20 1261 1389 m20 1275 1380 m20 1289 1373 m20 1302 1366 m20 1315 1356 m20 1327 1346 m20 1340 1338 m20 1352 1331 m20 1364 1321 m20 1375 1311 m20 1387 1302 m20 1398 1295
 m20 1408 1285 m20 1419 1275 m20 1430 1265 m20 1440 1257 m20 1450 1247 m20 1460 1237 m20 1469 1228 m20 1479 1218 m20 1488 1209 m20 1498 1201 m20 1507 1188 m20 1515 1176 m20 1524 1172 m20 1533 1164 m20 1541 1150 m20 1550 1141 m20 1558 1128 m20 1566
 1122 m20 1574 1110 m20 1582 1106 m20 1590 1092 m20 1597 1083 m20 1605 1068 m20 1612 1054 m20 1620 1047 m20 1627 1031 m20 1634 1015 m20 1641 1008 m20 1648 995 m20 1655 985 m20 1662 966 m20 1668 951 m20 1675 950 m20 1682 941 m20 1688 937 m20 1694 928
 m20 1701 920 m20 1707 930 m20 1713 910 m20 1719 907 m20 1725 907 m20 1731 897 m20 1737 893 m20 1743 882 m20 1749 871 m20 1754 866 m20 1760 864 m20 1766 855 m20 1771 863 m20 1777 853 m20 1782 843 m20 1787 844 m20 1793 828 m20 1798 815 m20 1803 824
 m20 1808 814 m20 1814 802 m20 1819 813 m20 1824 798 m20 1829 794 m20 1834 777 m20 1839 792 m20 1843 778 m20 1848 797 m20 1853 779 m20 1858 763 m20 1862 741 m20 1867 770 m20 1872 754 m20 1876 743 m20 1881 747 m20 1885 747 m20 1890 746 m20 1894 743
 m20 1898 727 m20 1903 725 m20 1907 731 m20 1911 712 m20 1916 697 m20 1920 696 m20 1924 694 m20 1928 702 m20 1932 708 m20 1936 674 m20 1940 675 m20 1944 681 m20 1948 677 m20 1952 658 m20 1956 654 m20 1960 658 m20 1964 661 m20 1968 675 m20 1972 641
 m20 1975 647 m20 1979 633 m20 1983 644 m20 1987 660 m20 1990 616 m20 1994 646 m20 1998 626 m20 2001 617 m20 2005 603 m20 2009 594 m20 2012 603 m20 2016 587 m20 2019 607 m20 2023 621 m20 2026 607 m20 2029 583 m20 2033 610 m20 2036 594 m20 2040 577
 m20 2043 592 m20 2046 564 m20 2050 595 m20 2053 587 m20 2056 572 m20 2059 564 m20 2063 589 m20 2066 589 m20 2069 561 m20 2072 558 m20 2075 556 m20 2079 583 m20 2082 564 m20 2085 557 m20 2088 572 m20 2091 513 m s 2091 529 m20 2094 545 m20 2097 511 m
 1 Y s 2097 527 m20 2100 542 m20 2103 500 m 1 Y s 2103 517 m20 2106 474 m 3 Y s 2106 507 m 1 Y s 2106 492 m20 2109 487 m 2 Y s 2109 519 m s 2109 504 m20 2112 497 m 1 Y s 2112 514 m20 2115 478 m 2 Y s 2115 511 m s 2115 495 m20 2118 478 m 2 Y s 2118
 511 m s 2118 495 m20 2121 492 m 2 Y s 2121 524 m s 2121 509 m20 2124 485 m 2 Y s 2124 517 m 1 Y s 2124 502 m20 2126 490 m 2 Y s 2126 522 m 1 Y s 2126 507 m20 2129 449 m 4 Y s 2129 484 m 2 Y s 2129 469 m20 2132 499 m 1 Y s 2132 515 m20 2135 454 m 3 Y
 s 2135 488 m 2 Y s 2135 473 m20 2138 447 m 4 Y s 2138 482 m 2 Y s 2138 466 m20 2141 460 m 3 Y s 2141 494 m 1 Y s 2141 479 m20 2143 494 m 1 Y s 2143 526 m s 2143 510 m20 2146 470 m 3 Y s 2146 503 m 1 Y s 2146 488 m20 2149 483 m 2 Y s 2149 516 m s
 2149 500 m20 2152 472 m 3 Y s 2152 505 m 1 Y s 2152 490 m20 2154 464 m 3 Y s 2154 498 m 1 Y s 2154 482 m20 2157 428 m 5 Y s 2157 464 m 3 Y s 2157 449 m20 2160 440 m 5 Y s 2160 475 m 3 Y s 2160 460 m20 2162 442 m 5 Y s 2162 477 m 3 Y s 2162 462 m20
 2165 454 m 3 Y s 2165 488 m 2 Y s 2165 473 m20 2168 428 m 5 Y s 2168 464 m 3 Y s 2168 449 m20 2170 440 m 5 Y s 2170 475 m 3 Y s 2170 460 m20 2173 435 m 5 Y s 2173 471 m 3 Y s 2173 456 m20 2176 415 m 6 Y s 2176 452 m 3 Y s 2176 436 m20 black 1 1 1 c
 635 392 476 435 bf black
 gsave  2268 2176 0 0 C 631.612 734.344 t 0 r /Helvetica findfont 102.732 sf 0 0 m (2016 Barrel) show NC gr  0.52 0.76 0.64 c 556 777 m 24 Y s 556 747 m -24 Y s 556 762 m20 black
 gsave  2268 2176 0 0 C 631.612 604.978 t 0 r /Helvetica findfont 102.732 sf 0 0 m (2017 Barrel) show NC gr  0.49 0.6 0.82 c 556 646 m 24 Y s 556 616 m -24 Y s 556 631 m20 black
 gsave  2268 2176 0 0 C 631.612 471.807 t 0 r /Helvetica findfont 102.732 sf 0 0 m (2018 Barrel) show NC gr  0.81 0.37 0.38 c 556 516 m 24 Y s 556 485 m -24 Y s 556 501 m20 black
 gsave  2268 2176 0 0 C 1769.28 2039.42 t 0 r /Helvetica findfont 106.537 sf 0 0 m (\(13 TeV\)) show NC gr 
 gsave  2268 2176 0 0 C 408.189 2037.11 t 0 r /Helvetica-Bold findfont 129.366 sf 0 0 m (CMS) show NC gr 
 gsave  2268 2176 0 0 C 487.026 2039.42 t 0 r /Helvetica-Oblique findfont 98.9272 sf 0 0 m (        Simulation) show NC gr  408 305 m 1769 X s 507 330 m -25 Y s 591 330 m -25 Y s 663 330 m -25 Y s 727 330 m -25 Y s 784 356 m -51 Y s 1161 330 m -25 Y
 s 1381 330 m -25 Y s 1537 330 m -25 Y s 1658 330 m -25 Y s 1757 330 m -25 Y s 1841 330 m -25 Y s 1913 330 m -25 Y s 1977 330 m -25 Y s 2035 356 m -51 Y s 408 2002 m 1769 X s 507 1977 m 25 Y s 591 1977 m 25 Y s 663 1977 m 25 Y s 727 1977 m 25 Y s 784
 1951 m 51 Y s 1161 1977 m 25 Y s 1381 1977 m 25 Y s 1537 1977 m 25 Y s 1658 1977 m 25 Y s 1757 1977 m 25 Y s 1841 1977 m 25 Y s 1913 1977 m 25 Y s 1977 1977 m 25 Y s 2035 1951 m 51 Y s 408 305 m 1697 Y s 435 310 m -27 X s 435 339 m -27 X s 435 364 m
 -27 X s 435 385 m -27 X s 435 404 m -27 X s 461 421 m -53 X s 435 532 m -27 X s 435 597 m -27 X s 435 643 m -27 X s 435 679 m -27 X s 435 708 m -27 X s 435 732 m -27 X s 435 754 m -27 X s 435 773 m -27 X s 461 789 m -53 X s 435 900 m -27 X s 435 965
 m -27 X s 435 1011 m -27 X s 435 1047 m -27 X s 435 1076 m -27 X s 435 1101 m -27 X s 435 1122 m -27 X s 435 1141 m -27 X s 461 1158 m -53 X s 435 1269 m -27 X s 435 1334 m -27 X s 435 1380 m -27 X s 435 1415 m -27 X s 435 1444 m -27 X s 435 1469 m
 -27 X s 435 1490 m -27 X s 435 1509 m -27 X s 461 1526 m -53 X s 435 1637 m -27 X s 435 1702 m -27 X s 435 1748 m -27 X s 435 1784 m -27 X s 435 1813 m -27 X s 435 1837 m -27 X s 435 1859 m -27 X s 435 1878 m -27 X s 461 1895 m -53 X s 2177 305 m
 1697 Y s 2150 310 m 27 X s 2150 339 m 27 X s 2150 364 m 27 X s 2150 385 m 27 X s 2150 404 m 27 X s 2124 421 m 53 X s 2150 532 m 27 X s 2150 597 m 27 X s 2150 643 m 27 X s 2150 679 m 27 X s 2150 708 m 27 X s 2150 732 m 27 X s 2150 754 m 27 X s 2150
 773 m 27 X s 2124 789 m 53 X s 2150 900 m 27 X s 2150 965 m 27 X s 2150 1011 m 27 X s 2150 1047 m 27 X s 2150 1076 m 27 X s 2150 1101 m 27 X s 2150 1122 m 27 X s 2150 1141 m 27 X s 2124 1158 m 53 X s 2150 1269 m 27 X s 2150 1334 m 27 X s 2150 1380 m
 27 X s 2150 1415 m 27 X s 2150 1444 m 27 X s 2150 1469 m 27 X s 2150 1490 m 27 X s 2150 1509 m 27 X s 2124 1526 m 53 X s 2150 1637 m 27 X s 2150 1702 m 27 X s 2150 1748 m 27 X s 2150 1784 m 27 X s 2150 1813 m 27 X s 2150 1837 m 27 X s 2150 1859 m 27
 X s 2150 1878 m 27 X s 2124 1895 m 53 X s 1 1 1 c black 1769 1697 408 305 bl 1769 1697 408 305 bl
 gr  gr showpage
end
%%EOF
