%!PS-Adobe-2.0 EPSF-2.0
%%BoundingBox:  0 0 567 544
%%Title: plots/n_fakes_vs_ele_pt_ul2017_barrel.eps: n_fakes_vs_ele_pt_ul2017_barrel
%%Creator: ROOT Version 6.14/04
%%CreationDate: Tue Aug  4 10:19:40 2020
%%DocumentNeededResources: ProcSet (FontSetInit)
%%EndComments
%%BeginProlog
80 dict begin
/s {stroke} def /l {lineto} def /m {moveto} def /t {translate} def
/r {rotate} def /rl {roll}  def /R {repeat} def
/d {rlineto} def /rm {rmoveto} def /gr {grestore} def /f {eofill} def
/c {setrgbcolor} def /black {0 setgray} def /sd {setdash} def
/cl {closepath} def /sf {scalefont setfont} def /lw {setlinewidth} def
/box {m dup 0 exch d exch 0 d 0 exch neg d cl} def
/NC{systemdict begin initclip end}def/C{NC box clip newpath}def
/bl {box s} def /bf {gsave box gsave f grestore 1 lw [] 0 sd s grestore} def /Y { 0 exch d} def /X { 0 d} def 
/K {{pop pop 0 moveto} exch kshow} bind def
/ita {/ang 15 def gsave [1 0 ang dup sin exch cos div 1 0 0] concat} def 
/mp {newpath /y exch def /x exch def} def
/side {[w .77 mul w .23 mul] .385 w mul sd w 0 l currentpoint t -144 r} def
/mr {mp x y w2 0 360 arc} def /m24 {mr s} def /m20 {mr f} def
/mb {mp x y w2 add m w2 neg 0 d 0 w neg d w 0 d 0 w d cl} def
/mt {mp x y w2 add m w2 neg w neg d w 0 d cl} def
/w4 {w 4 div} def
/w6 {w 6 div} def
/w8 {w 8 div} def
/m21 {mb f} def /m25 {mb s} def /m22 {mt f} def /m26{mt s} def
/m23 {mp x y w2 sub m w2 w d w neg 0 d cl f} def
/m27 {mp x y w2 add m w3 neg w2 neg d w3 w2 neg d w3 w2 d cl s} def
/m28 {mp x w2 sub y w2 sub w3 add m w3 0 d  0 w3 neg d w3 0 d 0 w3 d w3 0 d  0 w3 d w3 neg 0 d 0 w3 d w3 neg 0 d 0 w3 neg d w3 neg 0 d cl s } def
/m29 {mp gsave x w2 sub y w2 add w3 sub m currentpoint t 4 {side} repeat cl fill gr} def
/m30 {mp gsave x w2 sub y w2 add w3 sub m currentpoint t 4 {side} repeat cl s gr} def
/m31 {mp x y w2 sub m 0 w d x w2 sub y m w 0 d x w2 sub y w2 add m w w neg d x w2 sub y w2 sub m w w d s} def
/m32 {mp x y w2 sub m w2 w d w neg 0 d cl s} def
/m33 {mp x y w2 add m w3 neg w2 neg d w3 w2 neg d w3 w2 d cl f} def
/m34 {mp x w2 sub y w2 sub w3 add m w3 0 d  0 w3 neg d w3 0 d 0 w3 d w3 0 d  0 w3 d w3 neg 0 d 0 w3 d w3 neg 0 d 0 w3 neg d w3 neg 0 d cl f } def
/m35 {mp x y w2 add m w2 neg w2 neg d w2 w2 neg d w2 w2 d w2 neg w2 d x y w2 sub m 0 w d x w2 sub y m w 0 d s} def
/m36 {mb x w2 sub y w2 add m w w neg d x w2 sub y w2 sub m w w d s} def
/m37 {mp x y m w4 neg w2 d w4 neg w2 neg d w2 0 d  w4 neg w2 neg d w2 0 d w4 neg w2 d w2 0 d w4 neg w2 d w4 neg w2 neg d cl s} def
/m38 {mp x w4 sub y w2 add m w4 neg w4 neg d 0 w2 neg d w4 w4 neg d w2 0 d w4 w4 d 0 w2 d w4 neg w4 d w2 neg 0 d x y w2 sub m 0 w d x w2 sub y m w 0 d cl s} def
/m39 {mp x y m w4 neg w2 d w4 neg w2 neg d w2 0 d  w4 neg w2 neg d w2 0 d w4 neg w2 d w2 0 d w4 neg w2 d w4 neg w2 neg d cl f} def
/m40 {mp x y m w4 w2 d w4 w4 neg d w2 neg w4 neg d w2 w4 neg d w4 neg w4 neg d w4 neg w2 d w4 neg w2 neg d w4 neg w4 d w2 w4 d w2 neg w4 d w4 w4 d w4 w2 neg d cl s} def
/m41 {mp x y m w4 w2 d w4 w4 neg d w2 neg w4 neg d w2 w4 neg d w4 neg w4 neg d w4 neg w2 d w4 neg w2 neg d w4 neg w4 d w2 w4 d w2 neg w4 d w4 w4 d w4 w2 neg d cl f} def
/m42 {mp x y w2 add m w8 neg w2 -3 4 div mul d w2 -3 4 div mul w8 neg d w2 3 4 div mul w8 neg d w8 w2 -3 4 div mul d w8 w2 3 4 div mul d w2 3 4 div mul w8 d w2 -3 4 div mul w8 d w8 neg w2 3 4 div mul d cl s} def
/m43 {mp x y w2 add m w8 neg w2 -3 4 div mul d w2 -3 4 div mul w8 neg d w2 3 4 div mul w8 neg d w8 w2 -3 4 div mul d w8 w2 3 4 div mul d w2 3 4 div mul w8 d w2 -3 4 div mul w8 d w8 neg w2 3 4 div mul d cl f} def
/m44 {mp x y m w6 neg w2 d w2 2 3 div mul 0 d w6 neg w2 neg d w2 w6 d 0 w2 -2 3 div mul d w2 neg w6 d w6 w2 neg d w2 -2 3 div mul 0 d w6 w2 d w2 neg w6 neg d 0 w2 2 3 div mul d w2 w6 neg d cl s} def
/m45 {mp x y m w6 neg w2 d w2 2 3 div mul 0 d w6 neg w2 neg d w2 w6 d 0 w2 -2 3 div mul d w2 neg w6 d w6 w2 neg d w2 -2 3 div mul 0 d w6 w2 d w2 neg w6 neg d 0 w2 2 3 div mul d w2 w6 neg d cl f} def
/m46 {mp x y w4 add m w4 neg w4 d w4 neg w4 neg d  w4 w4 neg d w4 neg w4 neg d w4 w4 neg d w4 w4 d w4 w4 neg d w4 w4 d w4 neg w4 d w4 w4 d w4 neg w4 d w4 neg w4 neg d cl s} def
/m47 {mp x y w4 add m w4 neg w4 d w4 neg w4 neg d w4 w4 neg d w4 neg w4 neg d  w4 w4 neg d w4 w4 d w4 w4 neg d w4 w4 d w4 neg w4 d w4 w4 d w4 neg w4 d w4 neg w4 neg d cl f} def
/m48 {mp x y w4 add m w4 neg w4 d w4 neg w4 neg d w4 w4 neg d  w4 neg w4 neg d w4 w4 neg d w4 w4 d w4 w4 neg d w4 w4 d w4 neg w4 d w4 w4 d w4 neg w4 d w4 neg w4 neg d  w4 w4 neg d w4 neg w4 neg d w4 neg w4 d w4 w4 d cl f} def
/m49 {mp x w2 sub w3 add y w2 sub w3 add m  0 w3 neg d w3 0 d 0 w3 d w3 0 d 0 w3 d w3 neg 0 d 0 w3 d w3 neg 0 d 0 w3 neg d w3 neg 0 d 0 w3 neg d w3 0 d 0 w3 d w3 0 d 0 w3 neg d w3 neg 0 d cl f } def
/m2 {mp x y w2 sub m 0 w d x w2 sub y m w 0 d s} def
/m5 {mp x w2 sub y w2 sub m w w d x w2 sub y w2 add m w w neg d s} def
%%IncludeResource: ProcSet (FontSetInit)
%%IncludeResource: font Times-Roman
%%IncludeResource: font Times-Italic
%%IncludeResource: font Times-Bold
%%IncludeResource: font Times-BoldItalic
%%IncludeResource: font Helvetica
%%IncludeResource: font Helvetica-Oblique
%%IncludeResource: font Helvetica-Bold
%%IncludeResource: font Helvetica-BoldOblique
%%IncludeResource: font Courier
%%IncludeResource: font Courier-Oblique
%%IncludeResource: font Courier-Bold
%%IncludeResource: font Courier-BoldOblique
%%IncludeResource: font Symbol
%%IncludeResource: font ZapfDingbats
/reEncode {exch findfont dup length dict begin {1 index /FID eq  {pop pop} {def} ifelse } forall /Encoding exch def currentdict end dup /FontName get exch definefont pop } def [/Times-Bold /Times-Italic /Times-BoldItalic /Helvetica /Helvetica-Oblique
 /Helvetica-Bold /Helvetica-BoldOblique /Courier /Courier-Oblique /Courier-Bold /Courier-BoldOblique /Times-Roman /AvantGarde-Book /AvantGarde-BookOblique /AvantGarde-Demi /AvantGarde-DemiOblique /Bookman-Demi /Bookman-DemiItalic /Bookman-Light
 /Bookman-LightItalic /Helvetica-Narrow /Helvetica-Narrow-Bold /Helvetica-Narrow-BoldOblique /Helvetica-Narrow-Oblique /NewCenturySchlbk-Roman /NewCenturySchlbk-Bold /NewCenturySchlbk-BoldItalic /NewCenturySchlbk-Italic /Palatino-Bold
 /Palatino-BoldItalic /Palatino-Italic /Palatino-Roman ] {ISOLatin1Encoding reEncode } forall
%%EndProlog
%%BeginSetup
%%EndSetup
newpath  gsave  .25 .25 scale  gsave  0 0 t black[  ] 0 sd 3 lw 1 1 1 c 2268 2176 0 0 bf black 1 1 1 c black 1769 1697 408 305 bl 1769 1697 408 305 bl 1 1 1 c black 1769 1697 408 305 bl 1769 1697 408 305 bl 0.52 0.76 0.64 c 1 1 1 c 0.52 0.76 0.64 c
 408 1900 m 18 X s 456 1900 m 16 X s /w 30 def /w2 {w 2 div} def /w3 {w 3 div} def 441 1900 m20 472 1872 m 14 X s 517 1872 m 12 X s 501 1872 m20 529 1844 m 12 X s 571 1844 m 10 X s 556 1844 m20 581 1817 m 9 X s 620 1817 m 8 X s 605 1817 m20 628 1787
 m 7 X s 666 1787 m 6 X s 650 1787 m20 672 1756 m 5 X s 707 1756 m 5 X s 692 1756 m20 712 1725 m 4 X s 746 1725 m 3 X s 731 1725 m20 749 1700 m 3 X s 782 1700 m 2 X s 767 1700 m20 784 1682 m 2 X s 816 1682 m 1 X s 801 1682 m20 817 1661 m 1 X s 848
 1661 m s 833 1661 m20 863 1640 m20 892 1621 m20 919 1604 m20 945 1589 m20 970 1576 m20 993 1562 m20 1016 1551 m20 1038 1539 m20 1058 1529 m20 1079 1521 m20 1098 1510 m20 1117 1501 m20 1135 1492 m20 1152 1481 m20 1169 1474 m20 1186 1464 m20 1202 1457
 m20 1217 1451 m20 1232 1442 m20 1247 1435 m20 1261 1424 m20 1275 1418 m20 1289 1411 m20 1302 1403 m20 1315 1395 m20 1327 1388 m20 1340 1377 m20 1352 1370 m20 1364 1361 m20 1375 1354 m20 1387 1347 m20 1398 1336 m20 1408 1329 m20 1419 1317 m20 1430
 1309 m20 1440 1300 m20 1450 1292 m20 1460 1279 m20 1469 1277 m20 1479 1264 m20 1488 1252 m20 1498 1246 m20 1507 1238 m20 1515 1221 m20 1524 1219 m20 1533 1206 m20 1541 1196 m20 1550 1184 m20 1558 1178 m20 1566 1163 m20 1574 1158 m20 1582 1141 m20
 1590 1139 m20 1597 1125 m20 1605 1116 m20 1612 1104 m20 1620 1095 m20 1627 1084 m20 1634 1077 m20 1641 1070 m20 1648 1058 m20 1655 1042 m20 1662 1021 m20 1668 1008 m20 1675 999 m20 1682 990 m20 1688 978 m20 1694 976 m20 1701 969 m20 1707 958 m20
 1713 955 m20 1719 948 m20 1725 934 m20 1731 938 m20 1737 940 m20 1743 927 m20 1749 920 m20 1754 914 m20 1760 899 m20 1766 900 m20 1771 897 m20 1777 883 m20 1782 877 m20 1787 885 m20 1793 860 m20 1798 868 m20 1803 867 m20 1808 843 m20 1814 854 m20
 1819 846 m20 1824 838 m20 1829 833 m20 1834 833 m20 1839 822 m20 1843 813 m20 1848 811 m20 1853 804 m20 1858 807 m20 1862 798 m20 1867 810 m20 1872 800 m20 1876 787 m20 1881 787 m20 1885 765 m20 1890 766 m20 1894 768 m20 1898 759 m20 1903 774 m20
 1907 770 m20 1911 763 m20 1916 750 m20 1920 739 m20 1924 752 m20 1928 726 m20 1932 728 m20 1936 716 m20 1940 720 m20 1944 697 m20 1948 731 m20 1952 693 m20 1956 695 m20 1960 695 m20 1964 691 m20 1968 686 m20 1972 694 m20 1975 665 m20 1979 687 m20
 1983 671 m20 1987 659 m20 1990 666 m20 1994 655 m20 1998 643 m20 2001 645 m20 2005 636 m20 2009 662 m20 2012 655 m20 2016 623 m20 2019 607 m20 2023 630 m20 2026 613 m20 2029 627 m20 2033 622 m20 2036 635 m20 2040 626 m20 2043 602 m20 2046 603 m20
 2050 588 m20 2053 610 m20 2056 612 m20 2059 619 m20 2063 601 m20 2066 599 m20 2069 591 m20 2072 578 m20 2075 586 m20 2079 586 m20 2082 580 m20 2085 542 m s 2085 557 m20 2088 552 m s 2088 567 m20 2091 576 m20 2094 538 m 1 Y s 2094 555 m20 2097 573
 m20 2100 527 m 2 Y s 2100 544 m20 2103 573 m20 2106 515 m 2 Y s 2106 548 m s 2106 533 m20 2109 515 m 2 Y s 2109 548 m s 2109 533 m20 2112 529 m 1 Y s 2112 546 m20 2115 494 m 4 Y s 2115 528 m 1 Y s 2115 513 m20 2118 519 m 2 Y s 2118 551 m s 2118 536
 m20 2121 540 m 1 Y s 2121 556 m20 2124 535 m 1 Y s 2124 552 m20 2126 506 m 3 Y s 2126 539 m 1 Y s 2126 524 m20 2129 492 m 4 Y s 2129 526 m 2 Y s 2129 511 m20 2132 500 m 3 Y s 2132 534 m 1 Y s 2132 519 m20 2135 504 m 3 Y s 2135 537 m 1 Y s 2135 522
 m20 2138 496 m 4 Y s 2138 530 m 1 Y s 2138 515 m20 2141 490 m 4 Y s 2141 524 m 2 Y s 2141 509 m20 2143 482 m 4 Y s 2143 516 m 2 Y s 2143 501 m20 2146 461 m 5 Y s 2146 497 m 3 Y s 2146 481 m20 2149 422 m 8 Y s 2149 460 m 5 Y s 2149 445 m20 2152 443 m
 6 Y s 2152 480 m 3 Y s 2152 464 m20 2154 492 m 4 Y s 2154 526 m 2 Y s 2154 511 m20 2157 461 m 5 Y s 2157 497 m 3 Y s 2157 481 m20 2160 468 m 5 Y s 2160 503 m 3 Y s 2160 488 m20 2162 440 m 6 Y s 2162 477 m 4 Y s 2162 462 m20 2165 416 m 8 Y s 2165 454
 m 6 Y s 2165 439 m20 2168 461 m 5 Y s 2168 497 m 3 Y s 2168 481 m20 2170 453 m 6 Y s 2170 490 m 3 Y s 2170 474 m20 2173 448 m 6 Y s 2173 485 m 3 Y s 2173 469 m20 2176 482 m 4 Y s 2176 516 m 2 Y s 2176 501 m20 black 408 305 m 1769 X s 507 330 m -25 Y
 s 591 330 m -25 Y s 663 330 m -25 Y s 727 330 m -25 Y s 784 356 m -51 Y s
 gsave  2268 2176 0 0 C 726.735 167.415 t 0 r /Helvetica findfont 102.732 sf 0 0 m (10) show NC gr  1161 330 m -25 Y s 1381 330 m -25 Y s 1537 330 m -25 Y s 1658 330 m -25 Y s 1757 330 m -25 Y s 1841 330 m -25 Y s 1913 330 m -25 Y s 1977 330 m -25 Y
 s 2035 356 m -51 Y s
 gsave  2268 2176 0 0 C 2066.06 213.074 t 0 r /Helvetica findfont 68.4881 sf 0 0 m (2) show NC gr 
 gsave  2268 2176 0 0 C 1955.72 167.415 t 0 r /Helvetica findfont 102.732 sf 0 0 m (10) show NC gr 
 gsave  2268 2176 0 0 C 1837.76 60.8783 t 0 r /Helvetica findfont 121.757 sf 0 0 m ( [GeV]) show NC gr 
 gsave  2268 2176 0 0 C 1788.3 -3.80489 t 0 r /Helvetica findfont 79.9028 sf 0 0 m (T) show NC gr 
 gsave  2268 2176 0 0 C 1240.4 60.8783 t 0 r /Helvetica findfont 121.757 sf 0 0 m (Electron p) show NC gr  408 2002 m 1769 X s 507 1977 m 25 Y s 591 1977 m 25 Y s 663 1977 m 25 Y s 727 1977 m 25 Y s 784 1951 m 51 Y s 1161 1977 m 25 Y s 1381 1977 m 25
 Y s 1537 1977 m 25 Y s 1658 1977 m 25 Y s 1757 1977 m 25 Y s 1841 1977 m 25 Y s 1913 1977 m 25 Y s 1977 1977 m 25 Y s 2035 1951 m 51 Y s 408 305 m 1697 Y s 435 310 m -27 X s 435 339 m -27 X s 435 364 m -27 X s 435 385 m -27 X s 435 404 m -27 X s 461
 421 m -53 X s
 gsave  2268 2176 0 0 C 342.44 422.343 t 0 r /Helvetica findfont 68.4881 sf 0 0 m (6) show NC gr 
 gsave  2268 2176 0 0 C 304.391 422.343 t 0 r /Symbol findfont 68.4881 sf 0 0 m (-) show NC gr 
 gsave  2268 2176 0 0 C 194.05 372.88 t 0 r /Helvetica findfont 102.732 sf 0 0 m (10) show NC gr  435 532 m -27 X s 435 597 m -27 X s 435 643 m -27 X s 435 679 m -27 X s 435 708 m -27 X s 435 732 m -27 X s 435 754 m -27 X s 435 773 m -27 X s 461 789
 m -53 X s
 gsave  2268 2176 0 0 C 342.44 791.418 t 0 r /Helvetica findfont 68.4881 sf 0 0 m (5) show NC gr 
 gsave  2268 2176 0 0 C 304.391 791.418 t 0 r /Symbol findfont 68.4881 sf 0 0 m (-) show NC gr 
 gsave  2268 2176 0 0 C 194.05 741.954 t 0 r /Helvetica findfont 102.732 sf 0 0 m (10) show NC gr  435 900 m -27 X s 435 965 m -27 X s 435 1011 m -27 X s 435 1047 m -27 X s 435 1076 m -27 X s 435 1101 m -27 X s 435 1122 m -27 X s 435 1141 m -27 X s
 461 1158 m -53 X s
 gsave  2268 2176 0 0 C 342.44 1156.69 t 0 r /Helvetica findfont 68.4881 sf 0 0 m (4) show NC gr 
 gsave  2268 2176 0 0 C 304.391 1156.69 t 0 r /Symbol findfont 68.4881 sf 0 0 m (-) show NC gr 
 gsave  2268 2176 0 0 C 194.05 1111.03 t 0 r /Helvetica findfont 102.732 sf 0 0 m (10) show NC gr  435 1269 m -27 X s 435 1334 m -27 X s 435 1380 m -27 X s 435 1415 m -27 X s 435 1444 m -27 X s 435 1469 m -27 X s 435 1490 m -27 X s 435 1509 m -27 X s
 461 1526 m -53 X s
 gsave  2268 2176 0 0 C 342.44 1529.57 t 0 r /Helvetica findfont 68.4881 sf 0 0 m (3) show NC gr 
 gsave  2268 2176 0 0 C 304.391 1529.57 t 0 r /Symbol findfont 68.4881 sf 0 0 m (-) show NC gr 
 gsave  2268 2176 0 0 C 194.05 1480.1 t 0 r /Helvetica findfont 102.732 sf 0 0 m (10) show NC gr  435 1637 m -27 X s 435 1702 m -27 X s 435 1748 m -27 X s 435 1784 m -27 X s 435 1813 m -27 X s 435 1837 m -27 X s 435 1859 m -27 X s 435 1878 m -27 X s
 461 1895 m -53 X s
 gsave  2268 2176 0 0 C 342.44 1891.03 t 0 r /Helvetica findfont 68.4881 sf 0 0 m (2) show NC gr 
 gsave  2268 2176 0 0 C 304.391 1891.03 t 0 r /Symbol findfont 68.4881 sf 0 0 m (-) show NC gr 
 gsave  2268 2176 0 0 C 194.05 1845.37 t 0 r /Helvetica findfont 102.732 sf 0 0 m (10) show NC gr 
 gsave  2268 2176 0 0 C 156.001 620.198 t 90 r /Helvetica findfont 121.757 sf 0 0 m (DY+Jets Fakes per Event) show NC gr  2177 305 m 1697 Y s 2150 310 m 27 X s 2150 339 m 27 X s 2150 364 m 27 X s 2150 385 m 27 X s 2150 404 m 27 X s 2124 421 m 53 X s
 2150 532 m 27 X s 2150 597 m 27 X s 2150 643 m 27 X s 2150 679 m 27 X s 2150 708 m 27 X s 2150 732 m 27 X s 2150 754 m 27 X s 2150 773 m 27 X s 2124 789 m 53 X s 2150 900 m 27 X s 2150 965 m 27 X s 2150 1011 m 27 X s 2150 1047 m 27 X s 2150 1076 m
 27 X s 2150 1101 m 27 X s 2150 1122 m 27 X s 2150 1141 m 27 X s 2124 1158 m 53 X s 2150 1269 m 27 X s 2150 1334 m 27 X s 2150 1380 m 27 X s 2150 1415 m 27 X s 2150 1444 m 27 X s 2150 1469 m 27 X s 2150 1490 m 27 X s 2150 1509 m 27 X s 2124 1526 m 53
 X s 2150 1637 m 27 X s 2150 1702 m 27 X s 2150 1748 m 27 X s 2150 1784 m 27 X s 2150 1813 m 27 X s 2150 1837 m 27 X s 2150 1859 m 27 X s 2150 1878 m 27 X s 2124 1895 m 53 X s 0.49 0.6 0.82 c 1 1 1 c 0.49 0.6 0.82 c 408 1849 m 18 X s 456 1849 m 16 X
 s 441 1849 m24 472 1817 m 14 X s 517 1817 m 12 X s 501 1817 m24 529 1792 m 12 X s 571 1792 m 10 X s 556 1792 m24 581 1767 m 9 X s 620 1767 m 8 X s 605 1767 m24 628 1741 m 7 X s 666 1741 m 6 X s 650 1741 m24 672 1715 m 5 X s 707 1715 m 5 X s 692 1715
 m24 712 1691 m 4 X s 746 1691 m 3 X s 731 1691 m24 749 1672 m 3 X s 782 1672 m 2 X s 767 1672 m24 784 1651 m 2 X s 816 1651 m 1 X s 801 1651 m24 817 1630 m 1 X s 848 1630 m s 833 1630 m24 863 1613 m24 892 1595 m24 919 1577 m24 945 1560 m24 970 1546
 m24 993 1535 m24 1016 1518 m24 1038 1508 m24 1058 1496 m24 1079 1485 m24 1098 1475 m24 1117 1463 m24 1135 1452 m24 1152 1444 m24 1169 1432 m24 1186 1425 m24 1202 1415 m24 1217 1403 m24 1232 1397 m24 1247 1390 m24 1261 1377 m24 1275 1372 m24 1289
 1364 m24 1302 1349 m24 1315 1344 m24 1327 1335 m24 1340 1325 m24 1352 1315 m24 1364 1308 m24 1375 1300 m24 1387 1289 m24 1398 1282 m24 1408 1273 m24 1419 1266 m24 1430 1249 m24 1440 1251 m24 1450 1235 m24 1460 1228 m24 1469 1213 m24 1479 1209 m24
 1488 1200 m24 1498 1191 m24 1507 1181 m24 1515 1170 m24 1524 1163 m24 1533 1150 m24 1541 1144 m24 1550 1130 m24 1558 1116 m24 1566 1108 m24 1574 1101 m24 1582 1100 m24 1590 1081 m24 1597 1065 m24 1605 1060 m24 1612 1051 m24 1620 1042 m24 1627 1034
 m24 1634 1021 m24 1641 1013 m24 1648 1002 m24 1655 987 m24 1662 985 m24 1668 962 m24 1675 970 m24 1682 950 m24 1688 956 m24 1694 943 m24 1701 937 m24 1707 927 m24 1713 913 m24 1719 924 m24 1725 892 m24 1731 898 m24 1737 886 m24 1743 871 m24 1749 863
 m24 1754 867 m24 1760 875 m24 1766 861 m24 1771 848 m24 1777 839 m24 1782 829 m24 1787 844 m24 1793 815 m24 1798 845 m24 1803 819 m24 1808 817 m24 1814 800 m24 1819 804 m24 1824 786 m24 1829 799 m24 1834 790 m24 1839 771 m24 1843 767 m24 1848 767
 m24 1853 773 m24 1858 788 m24 1862 751 m24 1867 758 m24 1872 748 m24 1876 716 m24 1881 731 m24 1885 744 m24 1890 739 m24 1894 725 m24 1898 721 m24 1903 711 m24 1907 726 m24 1911 696 m24 1916 686 m24 1920 702 m24 1924 695 m24 1928 702 m24 1932 711
 m24 1936 658 m 1 Y s 1936 674 m24 1940 689 m24 1944 655 m 1 Y s 1944 671 m24 1948 658 m 1 Y s 1948 674 m24 1952 641 m 2 Y s 1952 658 m24 1956 638 m 2 Y s 1956 655 m24 1960 663 m s 1960 678 m24 1964 690 m24 1968 595 m 4 Y s 1968 629 m 2 Y s 1968 614
 m24 1972 648 m 1 Y s 1972 664 m24 1975 613 m 3 Y s 1975 646 m 1 Y s 1975 631 m24 1979 633 m 2 Y s 1979 665 m s 1979 650 m24 1983 635 m 1 Y s 1983 667 m s 1983 652 m24 1987 605 m 3 Y s 1987 639 m 1 Y s 1987 624 m24 1990 626 m 2 Y s 1990 659 m s 1990
 643 m24 1994 597 m 4 Y s 1994 631 m 2 Y s 1994 616 m24 1998 622 m 3 Y s 1998 655 m 1 Y s 1998 640 m24 2001 601 m 4 Y s 2001 635 m 2 Y s 2001 620 m24 2005 574 m 5 Y s 2005 610 m 3 Y s 2005 595 m24 2009 584 m 4 Y s 2009 619 m 2 Y s 2009 603 m24 2012
 542 m 7 Y s 2012 580 m 4 Y s 2012 564 m24 2016 551 m 6 Y s 2016 588 m 4 Y s 2016 573 m24 2019 584 m 4 Y s 2019 619 m 2 Y s 2019 603 m24 2023 603 m 4 Y s 2023 637 m 1 Y s 2023 622 m24 2026 551 m 6 Y s 2026 588 m 4 Y s 2026 573 m24 2029 567 m 5 Y s
 2029 603 m 3 Y s 2029 588 m24 2033 551 m 6 Y s 2033 588 m 4 Y s 2033 573 m24 2036 577 m 5 Y s 2036 612 m 3 Y s 2036 597 m24 2040 584 m 4 Y s 2040 619 m 2 Y s 2040 603 m24 2043 539 m 7 Y s 2043 577 m 5 Y s 2043 562 m24 2046 551 m 6 Y s 2046 588 m 4 Y
 s 2046 573 m24 2050 561 m 6 Y s 2050 598 m 3 Y s 2050 583 m24 2053 545 m 7 Y s 2053 582 m 5 Y s 2053 567 m24 2056 533 m 8 Y s 2056 571 m 5 Y s 2056 556 m24 2059 545 m 7 Y s 2059 582 m 5 Y s 2059 567 m24 2063 506 m 10 Y s 2063 546 m 7 Y s 2063 531
 m24 2066 579 m 5 Y s 2066 614 m 3 Y s 2066 599 m24 2069 545 m 7 Y s 2069 582 m 5 Y s 2069 567 m24 2072 539 m 7 Y s 2072 577 m 5 Y s 2072 562 m24 2075 502 m 10 Y s 2075 543 m 6 Y s 2075 527 m24 2079 574 m 5 Y s 2079 610 m 3 Y s 2079 595 m24 2082 574
 m 5 Y s 2082 610 m 3 Y s 2082 595 m24 2085 506 m 10 Y s 2085 546 m 7 Y s 2085 531 m24 2088 513 m 9 Y s 2088 553 m 6 Y s 2088 537 m24 2091 516 m 9 Y s 2091 556 m 6 Y s 2091 541 m24 2094 536 m 8 Y s 2094 574 m 5 Y s 2094 559 m24 2097 516 m 9 Y s 2097
 556 m 6 Y s 2097 541 m24 2100 520 m 9 Y s 2100 559 m 6 Y s 2100 544 m24 2103 530 m 8 Y s 2103 568 m 5 Y s 2103 553 m24 2106 533 m 8 Y s 2106 571 m 5 Y s 2106 556 m24 2109 464 m 13 Y s 2109 508 m 9 Y s 2109 493 m24 2112 539 m 7 Y s 2112 577 m 5 Y s
 2112 562 m24 2115 548 m 7 Y s 2115 585 m 4 Y s 2115 570 m24 2118 502 m 10 Y s 2118 543 m 6 Y s 2118 527 m24 2121 520 m 9 Y s 2121 559 m 6 Y s 2121 544 m24 2124 513 m 9 Y s 2124 553 m 6 Y s 2124 537 m24 2126 509 m 10 Y s 2126 549 m 7 Y s 2126 534 m24
 2129 516 m 9 Y s 2129 556 m 6 Y s 2129 541 m24 2132 414 m 19 Y s 2132 463 m 13 Y s 2132 448 m24 2135 473 m 13 Y s 2135 516 m 9 Y s 2135 501 m24 2138 482 m 12 Y s 2138 524 m 8 Y s 2138 509 m24 2141 444 m 15 Y s 2141 489 m 11 Y s 2141 474 m24 2143 468
 m 14 Y s 2143 512 m 9 Y s 2143 497 m24 2146 509 m 10 Y s 2146 549 m 7 Y s 2146 534 m24 2149 486 m 12 Y s 2149 528 m 8 Y s 2149 513 m24 2152 490 m 11 Y s 2152 532 m 7 Y s 2152 517 m24 2154 464 m 13 Y s 2154 508 m 9 Y s 2154 493 m24 2157 482 m 12 Y s
 2157 524 m 8 Y s 2157 509 m24 2160 433 m 16 Y s 2160 479 m 12 Y s 2160 464 m24 2162 473 m 13 Y s 2162 516 m 9 Y s 2162 501 m24 2165 427 m 17 Y s 2165 474 m 12 Y s 2165 459 m24 2168 433 m 16 Y s 2168 479 m 12 Y s 2168 464 m24 2170 477 m 13 Y s 2170
 520 m 8 Y s 2170 505 m24 2173 459 m 14 Y s 2173 503 m 10 Y s 2173 488 m24 2176 433 m 16 Y s 2176 479 m 12 Y s 2176 464 m24 0.81 0.37 0.38 c 1 1 1 c 0.81 0.37 0.38 c 408 1876 m 18 X s 456 1876 m 16 X s 441 1876 m20 472 1844 m 14 X s 517 1844 m 12 X s
 501 1844 m20 529 1814 m 12 X s 571 1814 m 10 X s 556 1814 m20 581 1780 m 9 X s 620 1780 m 8 X s 605 1780 m20 628 1748 m 7 X s 666 1748 m 6 X s 650 1748 m20 672 1719 m 5 X s 707 1719 m 5 X s 692 1719 m20 712 1691 m 4 X s 746 1691 m 3 X s 731 1691 m20
 749 1667 m 3 X s 782 1667 m 2 X s 767 1667 m20 784 1647 m 2 X s 816 1647 m 1 X s 801 1647 m20 817 1628 m 1 X s 848 1628 m s 833 1628 m20 863 1610 m20 892 1591 m20 919 1575 m20 945 1559 m20 970 1546 m20 993 1533 m20 1016 1522 m20 1038 1509 m20 1058
 1498 m20 1079 1488 m20 1098 1477 m20 1117 1467 m20 1135 1458 m20 1152 1446 m20 1169 1439 m20 1186 1432 m20 1202 1424 m20 1217 1414 m20 1232 1406 m20 1247 1399 m20 1261 1389 m20 1275 1380 m20 1289 1373 m20 1302 1366 m20 1315 1356 m20 1327 1346 m20
 1340 1338 m20 1352 1331 m20 1364 1321 m20 1375 1311 m20 1387 1302 m20 1398 1295 m20 1408 1285 m20 1419 1275 m20 1430 1265 m20 1440 1257 m20 1450 1247 m20 1460 1237 m20 1469 1228 m20 1479 1218 m20 1488 1209 m20 1498 1201 m20 1507 1188 m20 1515 1176
 m20 1524 1172 m20 1533 1164 m20 1541 1150 m20 1550 1141 m20 1558 1128 m20 1566 1122 m20 1574 1110 m20 1582 1106 m20 1590 1092 m20 1597 1083 m20 1605 1068 m20 1612 1054 m20 1620 1047 m20 1627 1031 m20 1634 1015 m20 1641 1008 m20 1648 995 m20 1655 985
 m20 1662 966 m20 1668 951 m20 1675 950 m20 1682 941 m20 1688 937 m20 1694 928 m20 1701 920 m20 1707 930 m20 1713 910 m20 1719 907 m20 1725 907 m20 1731 897 m20 1737 893 m20 1743 882 m20 1749 871 m20 1754 866 m20 1760 864 m20 1766 855 m20 1771 863
 m20 1777 853 m20 1782 843 m20 1787 844 m20 1793 828 m20 1798 815 m20 1803 824 m20 1808 814 m20 1814 802 m20 1819 813 m20 1824 798 m20 1829 794 m20 1834 777 m20 1839 792 m20 1843 778 m20 1848 797 m20 1853 779 m20 1858 763 m20 1862 741 m20 1867 770
 m20 1872 754 m20 1876 743 m20 1881 747 m20 1885 747 m20 1890 746 m20 1894 743 m20 1898 727 m20 1903 725 m20 1907 731 m20 1911 712 m20 1916 697 m20 1920 696 m20 1924 694 m20 1928 702 m20 1932 708 m20 1936 674 m20 1940 675 m20 1944 681 m20 1948 677
 m20 1952 658 m20 1956 654 m20 1960 658 m20 1964 661 m20 1968 675 m20 1972 641 m20 1975 647 m20 1979 633 m20 1983 644 m20 1987 660 m20 1990 616 m20 1994 646 m20 1998 626 m20 2001 617 m20 2005 603 m20 2009 594 m20 2012 603 m20 2016 587 m20 2019 607
 m20 2023 621 m20 2026 607 m20 2029 583 m20 2033 610 m20 2036 594 m20 2040 577 m20 2043 592 m20 2046 564 m20 2050 595 m20 2053 587 m20 2056 572 m20 2059 564 m20 2063 589 m20 2066 589 m20 2069 561 m20 2072 558 m20 2075 556 m20 2079 583 m20 2082 564
 m20 2085 557 m20 2088 572 m20 2091 513 m s 2091 529 m20 2094 545 m20 2097 511 m 1 Y s 2097 527 m20 2100 542 m20 2103 500 m 1 Y s 2103 517 m20 2106 474 m 3 Y s 2106 507 m 1 Y s 2106 492 m20 2109 487 m 2 Y s 2109 519 m s 2109 504 m20 2112 497 m 1 Y s
 2112 514 m20 2115 478 m 2 Y s 2115 511 m s 2115 495 m20 2118 478 m 2 Y s 2118 511 m s 2118 495 m20 2121 492 m 2 Y s 2121 524 m s 2121 509 m20 2124 485 m 2 Y s 2124 517 m 1 Y s 2124 502 m20 2126 490 m 2 Y s 2126 522 m 1 Y s 2126 507 m20 2129 449 m 4
 Y s 2129 484 m 2 Y s 2129 469 m20 2132 499 m 1 Y s 2132 515 m20 2135 454 m 3 Y s 2135 488 m 2 Y s 2135 473 m20 2138 447 m 4 Y s 2138 482 m 2 Y s 2138 466 m20 2141 460 m 3 Y s 2141 494 m 1 Y s 2141 479 m20 2143 494 m 1 Y s 2143 526 m s 2143 510 m20
 2146 470 m 3 Y s 2146 503 m 1 Y s 2146 488 m20 2149 483 m 2 Y s 2149 516 m s 2149 500 m20 2152 472 m 3 Y s 2152 505 m 1 Y s 2152 490 m20 2154 464 m 3 Y s 2154 498 m 1 Y s 2154 482 m20 2157 428 m 5 Y s 2157 464 m 3 Y s 2157 449 m20 2160 440 m 5 Y s
 2160 475 m 3 Y s 2160 460 m20 2162 442 m 5 Y s 2162 477 m 3 Y s 2162 462 m20 2165 454 m 3 Y s 2165 488 m 2 Y s 2165 473 m20 2168 428 m 5 Y s 2168 464 m 3 Y s 2168 449 m20 2170 440 m 5 Y s 2170 475 m 3 Y s 2170 460 m20 2173 435 m 5 Y s 2173 471 m 3 Y
 s 2173 456 m20 2176 415 m 6 Y s 2176 452 m 3 Y s 2176 436 m20 black 1 1 1 c 635 392 476 435 bf black
 gsave  2268 2176 0 0 C 631.612 734.344 t 0 r /Helvetica findfont 102.732 sf 0 0 m (2016 Barrel) show NC gr  0.52 0.76 0.64 c 556 777 m 24 Y s 556 747 m -24 Y s 556 762 m20 black
 gsave  2268 2176 0 0 C 631.612 604.978 t 0 r /Helvetica findfont 102.732 sf 0 0 m (2017 \(Legacy\) Barrel) show NC gr  0.49 0.6 0.82 c 556 646 m 24 Y s 556 616 m -24 Y s 556 631 m24 black
 gsave  2268 2176 0 0 C 631.612 471.807 t 0 r /Helvetica findfont 102.732 sf 0 0 m (2018 Barrel) show NC gr  0.81 0.37 0.38 c 556 516 m 24 Y s 556 485 m -24 Y s 556 501 m20 black
 gsave  2268 2176 0 0 C 1769.28 2039.42 t 0 r /Helvetica findfont 106.537 sf 0 0 m (\(13 TeV\)) show NC gr 
 gsave  2268 2176 0 0 C 408.189 2037.11 t 0 r /Helvetica-Bold findfont 129.366 sf 0 0 m (CMS) show NC gr 
 gsave  2268 2176 0 0 C 487.026 2039.42 t 0 r /Helvetica-Oblique findfont 98.9272 sf 0 0 m (        Simulation) show NC gr  408 305 m 1769 X s 507 330 m -25 Y s 591 330 m -25 Y s 663 330 m -25 Y s 727 330 m -25 Y s 784 356 m -51 Y s 1161 330 m -25 Y
 s 1381 330 m -25 Y s 1537 330 m -25 Y s 1658 330 m -25 Y s 1757 330 m -25 Y s 1841 330 m -25 Y s 1913 330 m -25 Y s 1977 330 m -25 Y s 2035 356 m -51 Y s 408 2002 m 1769 X s 507 1977 m 25 Y s 591 1977 m 25 Y s 663 1977 m 25 Y s 727 1977 m 25 Y s 784
 1951 m 51 Y s 1161 1977 m 25 Y s 1381 1977 m 25 Y s 1537 1977 m 25 Y s 1658 1977 m 25 Y s 1757 1977 m 25 Y s 1841 1977 m 25 Y s 1913 1977 m 25 Y s 1977 1977 m 25 Y s 2035 1951 m 51 Y s 408 305 m 1697 Y s 435 310 m -27 X s 435 339 m -27 X s 435 364 m
 -27 X s 435 385 m -27 X s 435 404 m -27 X s 461 421 m -53 X s 435 532 m -27 X s 435 597 m -27 X s 435 643 m -27 X s 435 679 m -27 X s 435 708 m -27 X s 435 732 m -27 X s 435 754 m -27 X s 435 773 m -27 X s 461 789 m -53 X s 435 900 m -27 X s 435 965
 m -27 X s 435 1011 m -27 X s 435 1047 m -27 X s 435 1076 m -27 X s 435 1101 m -27 X s 435 1122 m -27 X s 435 1141 m -27 X s 461 1158 m -53 X s 435 1269 m -27 X s 435 1334 m -27 X s 435 1380 m -27 X s 435 1415 m -27 X s 435 1444 m -27 X s 435 1469 m
 -27 X s 435 1490 m -27 X s 435 1509 m -27 X s 461 1526 m -53 X s 435 1637 m -27 X s 435 1702 m -27 X s 435 1748 m -27 X s 435 1784 m -27 X s 435 1813 m -27 X s 435 1837 m -27 X s 435 1859 m -27 X s 435 1878 m -27 X s 461 1895 m -53 X s 2177 305 m
 1697 Y s 2150 310 m 27 X s 2150 339 m 27 X s 2150 364 m 27 X s 2150 385 m 27 X s 2150 404 m 27 X s 2124 421 m 53 X s 2150 532 m 27 X s 2150 597 m 27 X s 2150 643 m 27 X s 2150 679 m 27 X s 2150 708 m 27 X s 2150 732 m 27 X s 2150 754 m 27 X s 2150
 773 m 27 X s 2124 789 m 53 X s 2150 900 m 27 X s 2150 965 m 27 X s 2150 1011 m 27 X s 2150 1047 m 27 X s 2150 1076 m 27 X s 2150 1101 m 27 X s 2150 1122 m 27 X s 2150 1141 m 27 X s 2124 1158 m 53 X s 2150 1269 m 27 X s 2150 1334 m 27 X s 2150 1380 m
 27 X s 2150 1415 m 27 X s 2150 1444 m 27 X s 2150 1469 m 27 X s 2150 1490 m 27 X s 2150 1509 m 27 X s 2124 1526 m 53 X s 2150 1637 m 27 X s 2150 1702 m 27 X s 2150 1748 m 27 X s 2150 1784 m 27 X s 2150 1813 m 27 X s 2150 1837 m 27 X s 2150 1859 m 27
 X s 2150 1878 m 27 X s 2124 1895 m 53 X s 1 1 1 c black 1769 1697 408 305 bl 1769 1697 408 305 bl
 gr  gr showpage
end
%%EOF
