%!PS-Adobe-2.0 EPSF-2.0
%%BoundingBox:  0 0 567 544
%%Title: plots/n_fakes_vs_ele_pt_ul2017_endcap.eps: n_fakes_vs_ele_pt_ul2017_endcap
%%Creator: ROOT Version 6.14/04
%%CreationDate: Tue Aug  4 10:24:29 2020
%%DocumentNeededResources: ProcSet (FontSetInit)
%%EndComments
%%BeginProlog
80 dict begin
/s {stroke} def /l {lineto} def /m {moveto} def /t {translate} def
/r {rotate} def /rl {roll}  def /R {repeat} def
/d {rlineto} def /rm {rmoveto} def /gr {grestore} def /f {eofill} def
/c {setrgbcolor} def /black {0 setgray} def /sd {setdash} def
/cl {closepath} def /sf {scalefont setfont} def /lw {setlinewidth} def
/box {m dup 0 exch d exch 0 d 0 exch neg d cl} def
/NC{systemdict begin initclip end}def/C{NC box clip newpath}def
/bl {box s} def /bf {gsave box gsave f grestore 1 lw [] 0 sd s grestore} def /Y { 0 exch d} def /X { 0 d} def 
/K {{pop pop 0 moveto} exch kshow} bind def
/ita {/ang 15 def gsave [1 0 ang dup sin exch cos div 1 0 0] concat} def 
/mp {newpath /y exch def /x exch def} def
/side {[w .77 mul w .23 mul] .385 w mul sd w 0 l currentpoint t -144 r} def
/mr {mp x y w2 0 360 arc} def /m24 {mr s} def /m20 {mr f} def
/mb {mp x y w2 add m w2 neg 0 d 0 w neg d w 0 d 0 w d cl} def
/mt {mp x y w2 add m w2 neg w neg d w 0 d cl} def
/w4 {w 4 div} def
/w6 {w 6 div} def
/w8 {w 8 div} def
/m21 {mb f} def /m25 {mb s} def /m22 {mt f} def /m26{mt s} def
/m23 {mp x y w2 sub m w2 w d w neg 0 d cl f} def
/m27 {mp x y w2 add m w3 neg w2 neg d w3 w2 neg d w3 w2 d cl s} def
/m28 {mp x w2 sub y w2 sub w3 add m w3 0 d  0 w3 neg d w3 0 d 0 w3 d w3 0 d  0 w3 d w3 neg 0 d 0 w3 d w3 neg 0 d 0 w3 neg d w3 neg 0 d cl s } def
/m29 {mp gsave x w2 sub y w2 add w3 sub m currentpoint t 4 {side} repeat cl fill gr} def
/m30 {mp gsave x w2 sub y w2 add w3 sub m currentpoint t 4 {side} repeat cl s gr} def
/m31 {mp x y w2 sub m 0 w d x w2 sub y m w 0 d x w2 sub y w2 add m w w neg d x w2 sub y w2 sub m w w d s} def
/m32 {mp x y w2 sub m w2 w d w neg 0 d cl s} def
/m33 {mp x y w2 add m w3 neg w2 neg d w3 w2 neg d w3 w2 d cl f} def
/m34 {mp x w2 sub y w2 sub w3 add m w3 0 d  0 w3 neg d w3 0 d 0 w3 d w3 0 d  0 w3 d w3 neg 0 d 0 w3 d w3 neg 0 d 0 w3 neg d w3 neg 0 d cl f } def
/m35 {mp x y w2 add m w2 neg w2 neg d w2 w2 neg d w2 w2 d w2 neg w2 d x y w2 sub m 0 w d x w2 sub y m w 0 d s} def
/m36 {mb x w2 sub y w2 add m w w neg d x w2 sub y w2 sub m w w d s} def
/m37 {mp x y m w4 neg w2 d w4 neg w2 neg d w2 0 d  w4 neg w2 neg d w2 0 d w4 neg w2 d w2 0 d w4 neg w2 d w4 neg w2 neg d cl s} def
/m38 {mp x w4 sub y w2 add m w4 neg w4 neg d 0 w2 neg d w4 w4 neg d w2 0 d w4 w4 d 0 w2 d w4 neg w4 d w2 neg 0 d x y w2 sub m 0 w d x w2 sub y m w 0 d cl s} def
/m39 {mp x y m w4 neg w2 d w4 neg w2 neg d w2 0 d  w4 neg w2 neg d w2 0 d w4 neg w2 d w2 0 d w4 neg w2 d w4 neg w2 neg d cl f} def
/m40 {mp x y m w4 w2 d w4 w4 neg d w2 neg w4 neg d w2 w4 neg d w4 neg w4 neg d w4 neg w2 d w4 neg w2 neg d w4 neg w4 d w2 w4 d w2 neg w4 d w4 w4 d w4 w2 neg d cl s} def
/m41 {mp x y m w4 w2 d w4 w4 neg d w2 neg w4 neg d w2 w4 neg d w4 neg w4 neg d w4 neg w2 d w4 neg w2 neg d w4 neg w4 d w2 w4 d w2 neg w4 d w4 w4 d w4 w2 neg d cl f} def
/m42 {mp x y w2 add m w8 neg w2 -3 4 div mul d w2 -3 4 div mul w8 neg d w2 3 4 div mul w8 neg d w8 w2 -3 4 div mul d w8 w2 3 4 div mul d w2 3 4 div mul w8 d w2 -3 4 div mul w8 d w8 neg w2 3 4 div mul d cl s} def
/m43 {mp x y w2 add m w8 neg w2 -3 4 div mul d w2 -3 4 div mul w8 neg d w2 3 4 div mul w8 neg d w8 w2 -3 4 div mul d w8 w2 3 4 div mul d w2 3 4 div mul w8 d w2 -3 4 div mul w8 d w8 neg w2 3 4 div mul d cl f} def
/m44 {mp x y m w6 neg w2 d w2 2 3 div mul 0 d w6 neg w2 neg d w2 w6 d 0 w2 -2 3 div mul d w2 neg w6 d w6 w2 neg d w2 -2 3 div mul 0 d w6 w2 d w2 neg w6 neg d 0 w2 2 3 div mul d w2 w6 neg d cl s} def
/m45 {mp x y m w6 neg w2 d w2 2 3 div mul 0 d w6 neg w2 neg d w2 w6 d 0 w2 -2 3 div mul d w2 neg w6 d w6 w2 neg d w2 -2 3 div mul 0 d w6 w2 d w2 neg w6 neg d 0 w2 2 3 div mul d w2 w6 neg d cl f} def
/m46 {mp x y w4 add m w4 neg w4 d w4 neg w4 neg d  w4 w4 neg d w4 neg w4 neg d w4 w4 neg d w4 w4 d w4 w4 neg d w4 w4 d w4 neg w4 d w4 w4 d w4 neg w4 d w4 neg w4 neg d cl s} def
/m47 {mp x y w4 add m w4 neg w4 d w4 neg w4 neg d w4 w4 neg d w4 neg w4 neg d  w4 w4 neg d w4 w4 d w4 w4 neg d w4 w4 d w4 neg w4 d w4 w4 d w4 neg w4 d w4 neg w4 neg d cl f} def
/m48 {mp x y w4 add m w4 neg w4 d w4 neg w4 neg d w4 w4 neg d  w4 neg w4 neg d w4 w4 neg d w4 w4 d w4 w4 neg d w4 w4 d w4 neg w4 d w4 w4 d w4 neg w4 d w4 neg w4 neg d  w4 w4 neg d w4 neg w4 neg d w4 neg w4 d w4 w4 d cl f} def
/m49 {mp x w2 sub w3 add y w2 sub w3 add m  0 w3 neg d w3 0 d 0 w3 d w3 0 d 0 w3 d w3 neg 0 d 0 w3 d w3 neg 0 d 0 w3 neg d w3 neg 0 d 0 w3 neg d w3 0 d 0 w3 d w3 0 d 0 w3 neg d w3 neg 0 d cl f } def
/m2 {mp x y w2 sub m 0 w d x w2 sub y m w 0 d s} def
/m5 {mp x w2 sub y w2 sub m w w d x w2 sub y w2 add m w w neg d s} def
%%IncludeResource: ProcSet (FontSetInit)
%%IncludeResource: font Times-Roman
%%IncludeResource: font Times-Italic
%%IncludeResource: font Times-Bold
%%IncludeResource: font Times-BoldItalic
%%IncludeResource: font Helvetica
%%IncludeResource: font Helvetica-Oblique
%%IncludeResource: font Helvetica-Bold
%%IncludeResource: font Helvetica-BoldOblique
%%IncludeResource: font Courier
%%IncludeResource: font Courier-Oblique
%%IncludeResource: font Courier-Bold
%%IncludeResource: font Courier-BoldOblique
%%IncludeResource: font Symbol
%%IncludeResource: font ZapfDingbats
/reEncode {exch findfont dup length dict begin {1 index /FID eq  {pop pop} {def} ifelse } forall /Encoding exch def currentdict end dup /FontName get exch definefont pop } def [/Times-Bold /Times-Italic /Times-BoldItalic /Helvetica /Helvetica-Oblique
 /Helvetica-Bold /Helvetica-BoldOblique /Courier /Courier-Oblique /Courier-Bold /Courier-BoldOblique /Times-Roman /AvantGarde-Book /AvantGarde-BookOblique /AvantGarde-Demi /AvantGarde-DemiOblique /Bookman-Demi /Bookman-DemiItalic /Bookman-Light
 /Bookman-LightItalic /Helvetica-Narrow /Helvetica-Narrow-Bold /Helvetica-Narrow-BoldOblique /Helvetica-Narrow-Oblique /NewCenturySchlbk-Roman /NewCenturySchlbk-Bold /NewCenturySchlbk-BoldItalic /NewCenturySchlbk-Italic /Palatino-Bold
 /Palatino-BoldItalic /Palatino-Italic /Palatino-Roman ] {ISOLatin1Encoding reEncode } forall
%%EndProlog
%%BeginSetup
%%EndSetup
newpath  gsave  .25 .25 scale  gsave  0 0 t black[  ] 0 sd 3 lw 1 1 1 c 2268 2176 0 0 bf black 1 1 1 c black 1769 1697 408 305 bl 1769 1697 408 305 bl 1 1 1 c black 1769 1697 408 305 bl 1769 1697 408 305 bl 0.52 0.76 0.64 c 1 1 1 c 0.52 0.76 0.64 c
 408 1907 m 18 X s 456 1907 m 16 X s /w 30 def /w2 {w 2 div} def /w3 {w 3 div} def 441 1907 m20 472 1868 m 14 X s 517 1868 m 12 X s 501 1868 m20 529 1830 m 12 X s 571 1830 m 10 X s 556 1830 m20 581 1792 m 9 X s 620 1792 m 8 X s 605 1792 m20 628 1756
 m 7 X s 666 1756 m 6 X s 650 1756 m20 672 1720 m 5 X s 707 1720 m 5 X s 692 1720 m20 712 1691 m 4 X s 746 1691 m 3 X s 731 1691 m20 749 1668 m 3 X s 782 1668 m 2 X s 767 1668 m20 784 1648 m 2 X s 816 1648 m 1 X s 801 1648 m20 817 1629 m 1 X s 848
 1629 m s 833 1629 m20 863 1610 m20 892 1594 m20 919 1578 m20 945 1565 m20 970 1552 m20 993 1541 m20 1016 1529 m20 1038 1519 m20 1058 1509 m20 1079 1499 m20 1098 1490 m20 1117 1480 m20 1135 1473 m20 1152 1462 m20 1169 1455 m20 1186 1448 m20 1202 1442
 m20 1217 1433 m20 1232 1425 m20 1247 1421 m20 1261 1412 m20 1275 1404 m20 1289 1398 m20 1302 1391 m20 1315 1382 m20 1327 1374 m20 1340 1370 m20 1352 1361 m20 1364 1353 m20 1375 1347 m20 1387 1337 m20 1398 1332 m20 1408 1323 m20 1419 1316 m20 1430
 1306 m20 1440 1301 m20 1450 1292 m20 1460 1285 m20 1469 1276 m20 1479 1269 m20 1488 1261 m20 1498 1254 m20 1507 1243 m20 1515 1236 m20 1524 1226 m20 1533 1216 m20 1541 1208 m20 1550 1200 m20 1558 1191 m20 1566 1182 m20 1574 1175 m20 1582 1166 m20
 1590 1158 m20 1597 1146 m20 1605 1135 m20 1612 1126 m20 1620 1116 m20 1627 1105 m20 1634 1096 m20 1641 1090 m20 1648 1081 m20 1655 1065 m20 1662 1055 m20 1668 1036 m20 1675 1020 m20 1682 1010 m20 1688 996 m20 1694 993 m20 1701 978 m20 1707 974 m20
 1713 964 m20 1719 956 m20 1725 952 m20 1731 952 m20 1737 938 m20 1743 931 m20 1749 929 m20 1754 922 m20 1760 924 m20 1766 911 m20 1771 895 m20 1777 892 m20 1782 892 m20 1787 878 m20 1793 869 m20 1798 876 m20 1803 856 m20 1808 853 m20 1814 847 m20
 1819 845 m20 1824 852 m20 1829 839 m20 1834 841 m20 1839 829 m20 1843 838 m20 1848 816 m20 1853 791 m20 1858 794 m20 1862 798 m20 1867 790 m20 1872 779 m20 1876 786 m20 1881 770 m20 1885 775 m20 1890 779 m20 1894 768 m20 1898 765 m20 1903 752 m20
 1907 741 m20 1911 752 m20 1916 734 m20 1920 746 m20 1924 741 m20 1928 728 m20 1932 718 m20 1936 712 m20 1940 700 m20 1944 705 m20 1948 727 m20 1952 715 m20 1956 708 m20 1960 692 m20 1964 694 m20 1968 679 m20 1972 689 m20 1975 658 m20 1979 670 m20
 1983 707 m20 1987 662 m20 1990 665 m20 1994 684 m20 1998 656 m20 2001 641 m20 2005 671 m20 2009 637 m20 2012 653 m20 2016 623 m20 2019 629 m20 2023 621 m20 2026 614 m20 2029 596 m s 2029 611 m20 2033 559 m 2 Y s 2033 592 m s 2033 577 m20 2036 595 m
 s 2036 610 m20 2040 580 m 1 Y s 2040 596 m20 2043 592 m s 2043 607 m20 2046 614 m20 2050 620 m20 2053 575 m 2 Y s 2053 592 m20 2056 592 m s 2056 607 m20 2059 595 m s 2059 610 m20 2063 557 m 3 Y s 2063 590 m s 2063 575 m20 2066 557 m 3 Y s 2066 590 m
 s 2066 575 m20 2069 518 m 5 Y s 2069 553 m 3 Y s 2069 538 m20 2072 579 m 1 Y s 2072 595 m20 2075 528 m 4 Y s 2075 562 m 2 Y s 2075 547 m20 2079 568 m 2 Y s 2079 585 m20 2082 567 m 1 Y s 2082 583 m20 2085 537 m 3 Y s 2085 571 m 1 Y s 2085 556 m20
 2088 508 m 5 Y s 2088 544 m 3 Y s 2088 529 m20 2091 530 m 4 Y s 2091 565 m 1 Y s 2091 549 m20 2094 539 m 3 Y s 2094 573 m 1 Y s 2094 558 m20 2097 500 m 6 Y s 2097 536 m 4 Y s 2097 521 m20 2100 537 m 3 Y s 2100 571 m 1 Y s 2100 556 m20 2103 506 m 5 Y
 s 2103 541 m 3 Y s 2103 526 m20 2106 486 m 6 Y s 2106 523 m 4 Y s 2106 508 m20 2109 530 m 4 Y s 2109 565 m 1 Y s 2109 549 m20 2112 470 m 8 Y s 2112 508 m 5 Y s 2112 493 m20 2115 489 m 6 Y s 2115 526 m 4 Y s 2115 510 m20 2118 518 m 5 Y s 2118 553 m 3
 Y s 2118 538 m20 2121 526 m 4 Y s 2121 560 m 2 Y s 2121 545 m20 2124 489 m 6 Y s 2124 526 m 4 Y s 2124 510 m20 2126 489 m 6 Y s 2126 526 m 4 Y s 2126 510 m20 2129 459 m 9 Y s 2129 498 m 6 Y s 2129 483 m20 2132 479 m 8 Y s 2132 517 m 5 Y s 2132 502
 m20 2135 497 m 6 Y s 2135 534 m 3 Y s 2135 519 m20 2138 489 m 6 Y s 2138 526 m 4 Y s 2138 510 m20 2141 444 m 10 Y s 2141 485 m 6 Y s 2141 469 m20 2143 497 m 6 Y s 2143 534 m 3 Y s 2143 519 m20 2146 448 m 10 Y s 2146 488 m 6 Y s 2146 473 m20 2149 489
 m 6 Y s 2149 526 m 4 Y s 2149 510 m20 2152 463 m 8 Y s 2152 502 m 5 Y s 2152 487 m20 2154 448 m 10 Y s 2154 488 m 6 Y s 2154 473 m20 2157 470 m 8 Y s 2157 508 m 5 Y s 2157 493 m20 2160 440 m 10 Y s 2160 481 m 7 Y s 2160 466 m20 2162 466 m 9 Y s 2162
 505 m 5 Y s 2162 490 m20 2165 452 m 9 Y s 2165 492 m 6 Y s 2165 476 m20 2168 432 m 11 Y s 2168 473 m 7 Y s 2168 458 m20 2170 448 m 10 Y s 2170 488 m 6 Y s 2170 473 m20 2173 455 m 10 Y s 2173 495 m 6 Y s 2173 480 m20 2176 408 m 14 Y s 2176 452 m 9 Y
 s 2176 437 m20 black 408 305 m 1769 X s 507 330 m -25 Y s 591 330 m -25 Y s 663 330 m -25 Y s 727 330 m -25 Y s 784 356 m -51 Y s
 gsave  2268 2176 0 0 C 726.735 167.415 t 0 r /Helvetica findfont 102.732 sf 0 0 m (10) show NC gr  1161 330 m -25 Y s 1381 330 m -25 Y s 1537 330 m -25 Y s 1658 330 m -25 Y s 1757 330 m -25 Y s 1841 330 m -25 Y s 1913 330 m -25 Y s 1977 330 m -25 Y
 s 2035 356 m -51 Y s
 gsave  2268 2176 0 0 C 2066.06 213.074 t 0 r /Helvetica findfont 68.4881 sf 0 0 m (2) show NC gr 
 gsave  2268 2176 0 0 C 1955.72 167.415 t 0 r /Helvetica findfont 102.732 sf 0 0 m (10) show NC gr 
 gsave  2268 2176 0 0 C 1837.76 60.8783 t 0 r /Helvetica findfont 121.757 sf 0 0 m ( [GeV]) show NC gr 
 gsave  2268 2176 0 0 C 1788.3 -3.80489 t 0 r /Helvetica findfont 79.9028 sf 0 0 m (T) show NC gr 
 gsave  2268 2176 0 0 C 1240.4 60.8783 t 0 r /Helvetica findfont 121.757 sf 0 0 m (Electron p) show NC gr  408 2002 m 1769 X s 507 1977 m 25 Y s 591 1977 m 25 Y s 663 1977 m 25 Y s 727 1977 m 25 Y s 784 1951 m 51 Y s 1161 1977 m 25 Y s 1381 1977 m 25
 Y s 1537 1977 m 25 Y s 1658 1977 m 25 Y s 1757 1977 m 25 Y s 1841 1977 m 25 Y s 1913 1977 m 25 Y s 1977 1977 m 25 Y s 2035 1951 m 51 Y s 408 305 m 1697 Y s 435 311 m -27 X s 435 354 m -27 X s 435 387 m -27 X s 435 414 m -27 X s 435 437 m -27 X s 435
 457 m -27 X s 435 475 m -27 X s 461 491 m -53 X s
 gsave  2268 2176 0 0 C 342.44 490.831 t 0 r /Helvetica findfont 68.4881 sf 0 0 m (6) show NC gr 
 gsave  2268 2176 0 0 C 304.391 490.831 t 0 r /Symbol findfont 68.4881 sf 0 0 m (-) show NC gr 
 gsave  2268 2176 0 0 C 194.05 441.368 t 0 r /Helvetica findfont 102.732 sf 0 0 m (10) show NC gr  435 594 m -27 X s 435 655 m -27 X s 435 698 m -27 X s 435 731 m -27 X s 435 759 m -27 X s 435 782 m -27 X s 435 802 m -27 X s 435 819 m -27 X s 461 835
 m -53 X s
 gsave  2268 2176 0 0 C 342.44 837.077 t 0 r /Helvetica findfont 68.4881 sf 0 0 m (5) show NC gr 
 gsave  2268 2176 0 0 C 304.391 837.077 t 0 r /Symbol findfont 68.4881 sf 0 0 m (-) show NC gr 
 gsave  2268 2176 0 0 C 194.05 787.613 t 0 r /Helvetica findfont 102.732 sf 0 0 m (10) show NC gr  435 939 m -27 X s 435 999 m -27 X s 435 1042 m -27 X s 435 1076 m -27 X s 435 1103 m -27 X s 435 1126 m -27 X s 435 1146 m -27 X s 435 1163 m -27 X s
 461 1179 m -53 X s
 gsave  2268 2176 0 0 C 342.44 1175.71 t 0 r /Helvetica findfont 68.4881 sf 0 0 m (4) show NC gr 
 gsave  2268 2176 0 0 C 304.391 1175.71 t 0 r /Symbol findfont 68.4881 sf 0 0 m (-) show NC gr 
 gsave  2268 2176 0 0 C 194.05 1130.05 t 0 r /Helvetica findfont 102.732 sf 0 0 m (10) show NC gr  435 1283 m -27 X s 435 1343 m -27 X s 435 1386 m -27 X s 435 1420 m -27 X s 435 1447 m -27 X s 435 1470 m -27 X s 435 1490 m -27 X s 435 1508 m -27 X s
 461 1523 m -53 X s
 gsave  2268 2176 0 0 C 342.44 1525.76 t 0 r /Helvetica findfont 68.4881 sf 0 0 m (3) show NC gr 
 gsave  2268 2176 0 0 C 304.391 1525.76 t 0 r /Symbol findfont 68.4881 sf 0 0 m (-) show NC gr 
 gsave  2268 2176 0 0 C 194.05 1476.3 t 0 r /Helvetica findfont 102.732 sf 0 0 m (10) show NC gr  435 1627 m -27 X s 435 1688 m -27 X s 435 1731 m -27 X s 435 1764 m -27 X s 435 1791 m -27 X s 435 1814 m -27 X s 435 1834 m -27 X s 435 1852 m -27 X s
 461 1867 m -53 X s
 gsave  2268 2176 0 0 C 342.44 1864.4 t 0 r /Helvetica findfont 68.4881 sf 0 0 m (2) show NC gr 
 gsave  2268 2176 0 0 C 304.391 1864.4 t 0 r /Symbol findfont 68.4881 sf 0 0 m (-) show NC gr 
 gsave  2268 2176 0 0 C 194.05 1818.74 t 0 r /Helvetica findfont 102.732 sf 0 0 m (10) show NC gr  435 1971 m -27 X s
 gsave  2268 2176 0 0 C 156.001 620.198 t 90 r /Helvetica findfont 121.757 sf 0 0 m (DY+Jets Fakes per Event) show NC gr  2177 305 m 1697 Y s 2150 311 m 27 X s 2150 354 m 27 X s 2150 387 m 27 X s 2150 414 m 27 X s 2150 437 m 27 X s 2150 457 m 27 X s
 2150 475 m 27 X s 2124 491 m 53 X s 2150 594 m 27 X s 2150 655 m 27 X s 2150 698 m 27 X s 2150 731 m 27 X s 2150 759 m 27 X s 2150 782 m 27 X s 2150 802 m 27 X s 2150 819 m 27 X s 2124 835 m 53 X s 2150 939 m 27 X s 2150 999 m 27 X s 2150 1042 m 27
 X s 2150 1076 m 27 X s 2150 1103 m 27 X s 2150 1126 m 27 X s 2150 1146 m 27 X s 2150 1163 m 27 X s 2124 1179 m 53 X s 2150 1283 m 27 X s 2150 1343 m 27 X s 2150 1386 m 27 X s 2150 1420 m 27 X s 2150 1447 m 27 X s 2150 1470 m 27 X s 2150 1490 m 27 X
 s 2150 1508 m 27 X s 2124 1523 m 53 X s 2150 1627 m 27 X s 2150 1688 m 27 X s 2150 1731 m 27 X s 2150 1764 m 27 X s 2150 1791 m 27 X s 2150 1814 m 27 X s 2150 1834 m 27 X s 2150 1852 m 27 X s 2124 1867 m 53 X s 2150 1971 m 27 X s 0.49 0.6 0.82 c 1 1
 1 c 0.49 0.6 0.82 c 408 1882 m 18 X s 456 1882 m 16 X s 441 1882 m24 472 1838 m 14 X s 517 1838 m 12 X s 501 1838 m24 529 1794 m 12 X s 571 1794 m 10 X s 556 1794 m24 581 1755 m 9 X s 620 1755 m 8 X s 605 1755 m24 628 1718 m 7 X s 666 1718 m 6 X s
 650 1718 m24 672 1684 m 5 X s 707 1684 m 5 X s 692 1684 m24 712 1656 m 4 X s 746 1656 m 3 X s 731 1656 m24 749 1632 m 3 X s 782 1632 m 2 X s 767 1632 m24 784 1610 m 2 X s 816 1610 m 1 X s 801 1610 m24 817 1589 m 1 X s 848 1589 m s 833 1589 m24 863
 1568 m24 892 1552 m24 919 1536 m24 945 1521 m24 970 1507 m24 993 1495 m24 1016 1486 m24 1038 1471 m24 1058 1462 m24 1079 1456 m24 1098 1443 m24 1117 1434 m24 1135 1425 m24 1152 1418 m24 1169 1409 m24 1186 1401 m24 1202 1395 m24 1217 1385 m24 1232
 1377 m24 1247 1372 m24 1261 1362 m24 1275 1357 m24 1289 1349 m24 1302 1338 m24 1315 1338 m24 1327 1329 m24 1340 1326 m24 1352 1315 m24 1364 1304 m24 1375 1303 m24 1387 1294 m24 1398 1284 m24 1408 1275 m24 1419 1269 m24 1430 1261 m24 1440 1253 m24
 1450 1248 m24 1460 1234 m24 1469 1233 m24 1479 1221 m24 1488 1216 m24 1498 1206 m24 1507 1200 m24 1515 1189 m24 1524 1184 m24 1533 1171 m24 1541 1160 m24 1550 1155 m24 1558 1144 m24 1566 1137 m24 1574 1120 m24 1582 1115 m24 1590 1104 m24 1597 1101
 m24 1605 1090 m24 1612 1081 m24 1620 1064 m24 1627 1058 m24 1634 1043 m24 1641 1033 m24 1648 1030 m24 1655 1021 m24 1662 1015 m24 1668 1006 m24 1675 994 m24 1682 981 m24 1688 978 m24 1694 967 m24 1701 964 m24 1707 959 m24 1713 962 m24 1719 939 m24
 1725 924 m24 1731 934 m24 1737 934 m24 1743 920 m24 1749 891 m24 1754 896 m24 1760 898 m24 1766 890 m24 1771 885 m24 1777 873 m24 1782 885 m24 1787 859 m24 1793 862 m24 1798 862 m24 1803 836 m24 1808 832 m24 1814 841 m24 1819 848 m24 1824 818 m24
 1829 833 m24 1834 814 m24 1839 824 m24 1843 806 m24 1848 825 m24 1853 810 m24 1858 791 m24 1862 810 m24 1867 800 m24 1872 764 m24 1876 753 m24 1881 773 m24 1885 766 m24 1890 785 m24 1894 754 m24 1898 761 m24 1903 770 m24 1907 759 m24 1911 754 m24
 1916 763 m24 1920 744 m24 1924 750 m24 1928 730 m24 1932 752 m24 1936 722 m24 1940 726 m24 1944 682 m 1 Y s 1944 698 m24 1948 700 m s 1948 715 m24 1952 684 m 1 Y s 1952 700 m24 1956 672 m 1 Y s 1956 689 m24 1960 698 m s 1960 713 m24 1964 684 m 1 Y s
 1964 700 m24 1968 700 m s 1968 715 m24 1972 684 m 1 Y s 1972 700 m24 1975 672 m 1 Y s 1975 689 m24 1979 668 m 2 Y s 1979 701 m s 1979 685 m24 1983 649 m 3 Y s 1983 682 m 1 Y s 1983 667 m24 1987 663 m 2 Y s 1987 695 m 1 Y s 1987 680 m24 1990 645 m 3
 Y s 1990 678 m 1 Y s 1990 663 m24 1994 687 m 1 Y s 1994 703 m24 1998 624 m 5 Y s 1998 659 m 2 Y s 1998 644 m24 2001 614 m 5 Y s 2001 650 m 3 Y s 2001 635 m24 2005 647 m 3 Y s 2005 680 m 1 Y s 2005 665 m24 2009 624 m 5 Y s 2009 659 m 2 Y s 2009 644
 m24 2012 643 m 3 Y s 2012 676 m 2 Y s 2012 661 m24 2016 614 m 5 Y s 2016 650 m 3 Y s 2016 635 m24 2019 655 m 3 Y s 2019 688 m 1 Y s 2019 673 m24 2023 634 m 4 Y s 2023 668 m 2 Y s 2023 653 m24 2026 592 m 7 Y s 2026 629 m 4 Y s 2026 614 m24 2029 619 m
 5 Y s 2029 655 m 2 Y s 2029 639 m24 2033 606 m 6 Y s 2033 642 m 4 Y s 2033 627 m24 2036 604 m 5 Y s 2036 640 m 3 Y s 2036 625 m24 2040 606 m 6 Y s 2040 642 m 4 Y s 2040 627 m24 2043 576 m 8 Y s 2043 615 m 4 Y s 2043 600 m24 2046 583 m 7 Y s 2046 621
 m 4 Y s 2046 605 m24 2050 609 m 6 Y s 2050 645 m 3 Y s 2050 630 m24 2053 629 m 4 Y s 2053 664 m 2 Y s 2053 648 m24 2056 586 m 7 Y s 2056 624 m 4 Y s 2056 608 m24 2059 547 m 11 Y s 2059 588 m 7 Y s 2059 573 m24 2063 580 m 7 Y s 2063 618 m 4 Y s 2063
 603 m24 2066 551 m 10 Y s 2066 592 m 6 Y s 2066 576 m24 2069 543 m 11 Y s 2069 584 m 7 Y s 2069 569 m24 2072 555 m 10 Y s 2072 595 m 6 Y s 2072 580 m24 2075 576 m 8 Y s 2075 615 m 4 Y s 2075 600 m24 2079 559 m 9 Y s 2079 599 m 5 Y s 2079 583 m24
 2082 535 m 11 Y s 2082 577 m 7 Y s 2082 562 m24 2085 583 m 7 Y s 2085 621 m 4 Y s 2085 605 m24 2088 592 m 7 Y s 2088 629 m 4 Y s 2088 614 m24 2091 589 m 7 Y s 2091 626 m 4 Y s 2091 611 m24 2094 559 m 9 Y s 2094 599 m 5 Y s 2094 583 m24 2097 559 m 9
 Y s 2097 599 m 5 Y s 2097 583 m24 2100 539 m 11 Y s 2100 581 m 7 Y s 2100 565 m24 2103 555 m 10 Y s 2103 595 m 6 Y s 2103 580 m24 2106 570 m 8 Y s 2106 609 m 5 Y s 2106 593 m24 2109 485 m 16 Y s 2109 531 m 11 Y s 2109 516 m24 2112 526 m 12 Y s 2112
 569 m 7 Y s 2112 553 m24 2115 501 m 15 Y s 2115 546 m 10 Y s 2115 531 m24 2118 576 m 8 Y s 2118 615 m 4 Y s 2118 600 m24 2121 478 m 17 Y s 2121 526 m 11 Y s 2121 510 m24 2124 490 m 16 Y s 2124 536 m 11 Y s 2124 521 m24 2126 490 m 16 Y s 2126 536 m
 11 Y s 2126 521 m24 2129 485 m 16 Y s 2129 531 m 11 Y s 2129 516 m24 2132 522 m 12 Y s 2132 564 m 9 Y s 2132 549 m24 2135 531 m 11 Y s 2135 573 m 7 Y s 2135 558 m24 2138 459 m 19 Y s 2138 508 m 13 Y s 2138 493 m24 2141 485 m 16 Y s 2141 531 m 11 Y s
 2141 516 m24 2143 466 m 18 Y s 2143 514 m 12 Y s 2143 499 m24 2146 466 m 18 Y s 2146 514 m 12 Y s 2146 499 m24 2149 436 m 22 Y s 2149 488 m 14 Y s 2149 473 m24 2152 452 m 19 Y s 2152 502 m 13 Y s 2152 486 m24 2154 428 m 22 Y s 2154 481 m 15 Y s 2154
 466 m24 2157 452 m 19 Y s 2157 502 m 13 Y s 2157 486 m24 2160 472 m 18 Y s 2160 520 m 12 Y s 2160 505 m24 2162 378 m 29 Y s 2162 438 m 19 Y s 2162 423 m24 2165 472 m 18 Y s 2165 520 m 12 Y s 2165 505 m24 2168 490 m 16 Y s 2168 536 m 11 Y s 2168 521
 m24 2170 526 m 12 Y s 2170 569 m 7 Y s 2170 553 m24 2173 410 m 25 Y s 2173 465 m 16 Y s 2173 450 m24 2176 501 m 15 Y s 2176 546 m 10 Y s 2176 531 m24 0.81 0.37 0.38 c 1 1 1 c 0.81 0.37 0.38 c 408 1935 m 18 X s 456 1935 m 16 X s 441 1935 m20 472 1890
 m 14 X s 517 1890 m 12 X s 501 1890 m20 529 1842 m 12 X s 571 1842 m 10 X s 556 1842 m20 581 1795 m 9 X s 620 1795 m 8 X s 605 1795 m20 628 1752 m 7 X s 666 1752 m 6 X s 650 1752 m20 672 1712 m 5 X s 707 1712 m 5 X s 692 1712 m20 712 1678 m 4 X s
 746 1678 m 3 X s 731 1678 m20 749 1650 m 3 X s 782 1650 m 2 X s 767 1650 m20 784 1626 m 2 X s 816 1626 m 1 X s 801 1626 m20 817 1606 m 1 X s 848 1606 m s 833 1606 m20 863 1587 m20 892 1569 m20 919 1551 m20 945 1537 m20 970 1522 m20 993 1510 m20 1016
 1496 m20 1038 1485 m20 1058 1474 m20 1079 1464 m20 1098 1455 m20 1117 1444 m20 1135 1437 m20 1152 1427 m20 1169 1418 m20 1186 1413 m20 1202 1403 m20 1217 1397 m20 1232 1390 m20 1247 1382 m20 1261 1374 m20 1275 1367 m20 1289 1361 m20 1302 1354 m20
 1315 1347 m20 1327 1339 m20 1340 1333 m20 1352 1329 m20 1364 1318 m20 1375 1312 m20 1387 1305 m20 1398 1295 m20 1408 1289 m20 1419 1284 m20 1430 1273 m20 1440 1268 m20 1450 1257 m20 1460 1253 m20 1469 1242 m20 1479 1232 m20 1488 1223 m20 1498 1220
 m20 1507 1210 m20 1515 1201 m20 1524 1191 m20 1533 1183 m20 1541 1177 m20 1550 1166 m20 1558 1156 m20 1566 1151 m20 1574 1138 m20 1582 1133 m20 1590 1118 m20 1597 1113 m20 1605 1101 m20 1612 1089 m20 1620 1079 m20 1627 1068 m20 1634 1063 m20 1641
 1049 m20 1648 1034 m20 1655 1018 m20 1662 1006 m20 1668 1001 m20 1675 994 m20 1682 984 m20 1688 977 m20 1694 980 m20 1701 968 m20 1707 957 m20 1713 945 m20 1719 947 m20 1725 933 m20 1731 931 m20 1737 917 m20 1743 914 m20 1749 919 m20 1754 905 m20
 1760 900 m20 1766 897 m20 1771 880 m20 1777 891 m20 1782 880 m20 1787 864 m20 1793 848 m20 1798 847 m20 1803 859 m20 1808 842 m20 1814 843 m20 1819 835 m20 1824 834 m20 1829 816 m20 1834 830 m20 1839 816 m20 1843 820 m20 1848 804 m20 1853 799 m20
 1858 788 m20 1862 784 m20 1867 775 m20 1872 777 m20 1876 772 m20 1881 761 m20 1885 772 m20 1890 775 m20 1894 778 m20 1898 742 m20 1903 753 m20 1907 754 m20 1911 737 m20 1916 748 m20 1920 729 m20 1924 724 m20 1928 711 m20 1932 738 m20 1936 717 m20
 1940 711 m20 1944 719 m20 1948 715 m20 1952 709 m20 1956 707 m20 1960 699 m20 1964 684 m20 1968 687 m20 1972 670 m20 1975 661 m20 1979 681 m20 1983 661 m20 1987 664 m20 1990 642 m20 1994 669 m20 1998 650 m20 2001 644 m20 2005 630 m20 2009 640 m20
 2012 634 m20 2016 621 m20 2019 641 m20 2023 619 m20 2026 635 m20 2029 644 m20 2033 591 m20 2036 622 m20 2040 605 m20 2043 565 m s 2043 580 m20 2046 605 m20 2050 592 m20 2053 608 m20 2056 612 m20 2059 588 m20 2063 592 m20 2066 587 m20 2069 590 m20
 2072 544 m 1 Y s 2072 560 m20 2075 563 m s 2075 579 m20 2079 549 m 1 Y s 2079 565 m20 2082 584 m20 2085 544 m 1 Y s 2085 560 m20 2088 538 m 2 Y s 2088 555 m20 2091 544 m 1 Y s 2091 560 m20 2094 521 m 3 Y s 2094 554 m 1 Y s 2094 539 m20 2097 542 m 1
 Y s 2097 558 m20 2100 519 m 3 Y s 2100 552 m 1 Y s 2100 537 m20 2103 517 m 3 Y s 2103 550 m 1 Y s 2103 535 m20 2106 517 m 3 Y s 2106 550 m 1 Y s 2106 535 m20 2109 497 m 4 Y s 2109 532 m 2 Y s 2109 517 m20 2112 509 m 3 Y s 2112 542 m 2 Y s 2112 527
 m20 2115 517 m 3 Y s 2115 550 m 1 Y s 2115 535 m20 2118 525 m 2 Y s 2118 558 m s 2118 543 m20 2121 531 m 2 Y s 2121 563 m 1 Y s 2121 548 m20 2124 480 m 5 Y s 2124 516 m 2 Y s 2124 500 m20 2126 513 m 3 Y s 2126 546 m 2 Y s 2126 531 m20 2129 517 m 3 Y
 s 2129 550 m 1 Y s 2129 535 m20 2132 480 m 5 Y s 2132 516 m 2 Y s 2132 500 m20 2135 490 m 5 Y s 2135 525 m 2 Y s 2135 510 m20 2138 485 m 5 Y s 2138 520 m 3 Y s 2138 505 m20 2141 469 m 6 Y s 2141 505 m 4 Y s 2141 490 m20 2143 448 m 7 Y s 2143 486 m 4
 Y s 2143 471 m20 2146 490 m 5 Y s 2146 525 m 2 Y s 2146 510 m20 2149 492 m 5 Y s 2149 527 m 2 Y s 2149 512 m20 2152 472 m 6 Y s 2152 508 m 3 Y s 2152 493 m20 2154 469 m 6 Y s 2154 505 m 4 Y s 2154 490 m20 2157 431 m 9 Y s 2157 470 m 6 Y s 2157 455
 m20 2160 457 m 7 Y s 2160 495 m 4 Y s 2160 479 m20 2162 431 m 9 Y s 2162 470 m 6 Y s 2162 455 m20 2165 445 m 7 Y s 2165 483 m 5 Y s 2165 468 m20 2168 448 m 7 Y s 2168 486 m 4 Y s 2168 471 m20 2170 438 m 8 Y s 2170 477 m 5 Y s 2170 461 m20 2173 427 m
 9 Y s 2173 467 m 5 Y s 2173 451 m20 2176 472 m 6 Y s 2176 508 m 3 Y s 2176 493 m20 black 1 1 1 c 635 392 476 435 bf black
 gsave  2268 2176 0 0 C 631.612 734.344 t 0 r /Helvetica findfont 102.732 sf 0 0 m (2016 Endcap) show NC gr  0.52 0.76 0.64 c 556 777 m 24 Y s 556 747 m -24 Y s 556 762 m20 black
 gsave  2268 2176 0 0 C 631.612 604.978 t 0 r /Helvetica findfont 102.732 sf 0 0 m (2017 \(Legacy\) Endcap) show NC gr  0.49 0.6 0.82 c 556 646 m 24 Y s 556 616 m -24 Y s 556 631 m24 black
 gsave  2268 2176 0 0 C 631.612 471.807 t 0 r /Helvetica findfont 102.732 sf 0 0 m (2018 Endcap) show NC gr  0.81 0.37 0.38 c 556 516 m 24 Y s 556 485 m -24 Y s 556 501 m20 black
 gsave  2268 2176 0 0 C 1769.28 2039.42 t 0 r /Helvetica findfont 106.537 sf 0 0 m (\(13 TeV\)) show NC gr 
 gsave  2268 2176 0 0 C 408.189 2037.11 t 0 r /Helvetica-Bold findfont 129.366 sf 0 0 m (CMS) show NC gr 
 gsave  2268 2176 0 0 C 487.026 2039.42 t 0 r /Helvetica-Oblique findfont 98.9272 sf 0 0 m (        Simulation) show NC gr  408 305 m 1769 X s 507 330 m -25 Y s 591 330 m -25 Y s 663 330 m -25 Y s 727 330 m -25 Y s 784 356 m -51 Y s 1161 330 m -25 Y
 s 1381 330 m -25 Y s 1537 330 m -25 Y s 1658 330 m -25 Y s 1757 330 m -25 Y s 1841 330 m -25 Y s 1913 330 m -25 Y s 1977 330 m -25 Y s 2035 356 m -51 Y s 408 2002 m 1769 X s 507 1977 m 25 Y s 591 1977 m 25 Y s 663 1977 m 25 Y s 727 1977 m 25 Y s 784
 1951 m 51 Y s 1161 1977 m 25 Y s 1381 1977 m 25 Y s 1537 1977 m 25 Y s 1658 1977 m 25 Y s 1757 1977 m 25 Y s 1841 1977 m 25 Y s 1913 1977 m 25 Y s 1977 1977 m 25 Y s 2035 1951 m 51 Y s 408 305 m 1697 Y s 435 311 m -27 X s 435 354 m -27 X s 435 387 m
 -27 X s 435 414 m -27 X s 435 437 m -27 X s 435 457 m -27 X s 435 475 m -27 X s 461 491 m -53 X s 435 594 m -27 X s 435 655 m -27 X s 435 698 m -27 X s 435 731 m -27 X s 435 759 m -27 X s 435 782 m -27 X s 435 802 m -27 X s 435 819 m -27 X s 461 835
 m -53 X s 435 939 m -27 X s 435 999 m -27 X s 435 1042 m -27 X s 435 1076 m -27 X s 435 1103 m -27 X s 435 1126 m -27 X s 435 1146 m -27 X s 435 1163 m -27 X s 461 1179 m -53 X s 435 1283 m -27 X s 435 1343 m -27 X s 435 1386 m -27 X s 435 1420 m
 -27 X s 435 1447 m -27 X s 435 1470 m -27 X s 435 1490 m -27 X s 435 1508 m -27 X s 461 1523 m -53 X s 435 1627 m -27 X s 435 1688 m -27 X s 435 1731 m -27 X s 435 1764 m -27 X s 435 1791 m -27 X s 435 1814 m -27 X s 435 1834 m -27 X s 435 1852 m
 -27 X s 461 1867 m -53 X s 435 1971 m -27 X s 2177 305 m 1697 Y s 2150 311 m 27 X s 2150 354 m 27 X s 2150 387 m 27 X s 2150 414 m 27 X s 2150 437 m 27 X s 2150 457 m 27 X s 2150 475 m 27 X s 2124 491 m 53 X s 2150 594 m 27 X s 2150 655 m 27 X s
 2150 698 m 27 X s 2150 731 m 27 X s 2150 759 m 27 X s 2150 782 m 27 X s 2150 802 m 27 X s 2150 819 m 27 X s 2124 835 m 53 X s 2150 939 m 27 X s 2150 999 m 27 X s 2150 1042 m 27 X s 2150 1076 m 27 X s 2150 1103 m 27 X s 2150 1126 m 27 X s 2150 1146 m
 27 X s 2150 1163 m 27 X s 2124 1179 m 53 X s 2150 1283 m 27 X s 2150 1343 m 27 X s 2150 1386 m 27 X s 2150 1420 m 27 X s 2150 1447 m 27 X s 2150 1470 m 27 X s 2150 1490 m 27 X s 2150 1508 m 27 X s 2124 1523 m 53 X s 2150 1627 m 27 X s 2150 1688 m 27
 X s 2150 1731 m 27 X s 2150 1764 m 27 X s 2150 1791 m 27 X s 2150 1814 m 27 X s 2150 1834 m 27 X s 2150 1852 m 27 X s 2124 1867 m 53 X s 2150 1971 m 27 X s 1 1 1 c black 1769 1697 408 305 bl 1769 1697 408 305 bl
 gr  gr showpage
end
%%EOF
