%!PS-Adobe-2.0 EPSF-2.0
%%BoundingBox:  0 0 567 544
%%Title: plots/n_fakes_vs_ele_pt_only2017_endcap.eps: n_fakes_vs_ele_pt_only2017_endcap
%%Creator: ROOT Version 6.14/04
%%CreationDate: Tue Aug  4 10:24:05 2020
%%DocumentNeededResources: ProcSet (FontSetInit)
%%EndComments
%%BeginProlog
80 dict begin
/s {stroke} def /l {lineto} def /m {moveto} def /t {translate} def
/r {rotate} def /rl {roll}  def /R {repeat} def
/d {rlineto} def /rm {rmoveto} def /gr {grestore} def /f {eofill} def
/c {setrgbcolor} def /black {0 setgray} def /sd {setdash} def
/cl {closepath} def /sf {scalefont setfont} def /lw {setlinewidth} def
/box {m dup 0 exch d exch 0 d 0 exch neg d cl} def
/NC{systemdict begin initclip end}def/C{NC box clip newpath}def
/bl {box s} def /bf {gsave box gsave f grestore 1 lw [] 0 sd s grestore} def /Y { 0 exch d} def /X { 0 d} def 
/K {{pop pop 0 moveto} exch kshow} bind def
/ita {/ang 15 def gsave [1 0 ang dup sin exch cos div 1 0 0] concat} def 
/mp {newpath /y exch def /x exch def} def
/side {[w .77 mul w .23 mul] .385 w mul sd w 0 l currentpoint t -144 r} def
/mr {mp x y w2 0 360 arc} def /m24 {mr s} def /m20 {mr f} def
/mb {mp x y w2 add m w2 neg 0 d 0 w neg d w 0 d 0 w d cl} def
/mt {mp x y w2 add m w2 neg w neg d w 0 d cl} def
/w4 {w 4 div} def
/w6 {w 6 div} def
/w8 {w 8 div} def
/m21 {mb f} def /m25 {mb s} def /m22 {mt f} def /m26{mt s} def
/m23 {mp x y w2 sub m w2 w d w neg 0 d cl f} def
/m27 {mp x y w2 add m w3 neg w2 neg d w3 w2 neg d w3 w2 d cl s} def
/m28 {mp x w2 sub y w2 sub w3 add m w3 0 d  0 w3 neg d w3 0 d 0 w3 d w3 0 d  0 w3 d w3 neg 0 d 0 w3 d w3 neg 0 d 0 w3 neg d w3 neg 0 d cl s } def
/m29 {mp gsave x w2 sub y w2 add w3 sub m currentpoint t 4 {side} repeat cl fill gr} def
/m30 {mp gsave x w2 sub y w2 add w3 sub m currentpoint t 4 {side} repeat cl s gr} def
/m31 {mp x y w2 sub m 0 w d x w2 sub y m w 0 d x w2 sub y w2 add m w w neg d x w2 sub y w2 sub m w w d s} def
/m32 {mp x y w2 sub m w2 w d w neg 0 d cl s} def
/m33 {mp x y w2 add m w3 neg w2 neg d w3 w2 neg d w3 w2 d cl f} def
/m34 {mp x w2 sub y w2 sub w3 add m w3 0 d  0 w3 neg d w3 0 d 0 w3 d w3 0 d  0 w3 d w3 neg 0 d 0 w3 d w3 neg 0 d 0 w3 neg d w3 neg 0 d cl f } def
/m35 {mp x y w2 add m w2 neg w2 neg d w2 w2 neg d w2 w2 d w2 neg w2 d x y w2 sub m 0 w d x w2 sub y m w 0 d s} def
/m36 {mb x w2 sub y w2 add m w w neg d x w2 sub y w2 sub m w w d s} def
/m37 {mp x y m w4 neg w2 d w4 neg w2 neg d w2 0 d  w4 neg w2 neg d w2 0 d w4 neg w2 d w2 0 d w4 neg w2 d w4 neg w2 neg d cl s} def
/m38 {mp x w4 sub y w2 add m w4 neg w4 neg d 0 w2 neg d w4 w4 neg d w2 0 d w4 w4 d 0 w2 d w4 neg w4 d w2 neg 0 d x y w2 sub m 0 w d x w2 sub y m w 0 d cl s} def
/m39 {mp x y m w4 neg w2 d w4 neg w2 neg d w2 0 d  w4 neg w2 neg d w2 0 d w4 neg w2 d w2 0 d w4 neg w2 d w4 neg w2 neg d cl f} def
/m40 {mp x y m w4 w2 d w4 w4 neg d w2 neg w4 neg d w2 w4 neg d w4 neg w4 neg d w4 neg w2 d w4 neg w2 neg d w4 neg w4 d w2 w4 d w2 neg w4 d w4 w4 d w4 w2 neg d cl s} def
/m41 {mp x y m w4 w2 d w4 w4 neg d w2 neg w4 neg d w2 w4 neg d w4 neg w4 neg d w4 neg w2 d w4 neg w2 neg d w4 neg w4 d w2 w4 d w2 neg w4 d w4 w4 d w4 w2 neg d cl f} def
/m42 {mp x y w2 add m w8 neg w2 -3 4 div mul d w2 -3 4 div mul w8 neg d w2 3 4 div mul w8 neg d w8 w2 -3 4 div mul d w8 w2 3 4 div mul d w2 3 4 div mul w8 d w2 -3 4 div mul w8 d w8 neg w2 3 4 div mul d cl s} def
/m43 {mp x y w2 add m w8 neg w2 -3 4 div mul d w2 -3 4 div mul w8 neg d w2 3 4 div mul w8 neg d w8 w2 -3 4 div mul d w8 w2 3 4 div mul d w2 3 4 div mul w8 d w2 -3 4 div mul w8 d w8 neg w2 3 4 div mul d cl f} def
/m44 {mp x y m w6 neg w2 d w2 2 3 div mul 0 d w6 neg w2 neg d w2 w6 d 0 w2 -2 3 div mul d w2 neg w6 d w6 w2 neg d w2 -2 3 div mul 0 d w6 w2 d w2 neg w6 neg d 0 w2 2 3 div mul d w2 w6 neg d cl s} def
/m45 {mp x y m w6 neg w2 d w2 2 3 div mul 0 d w6 neg w2 neg d w2 w6 d 0 w2 -2 3 div mul d w2 neg w6 d w6 w2 neg d w2 -2 3 div mul 0 d w6 w2 d w2 neg w6 neg d 0 w2 2 3 div mul d w2 w6 neg d cl f} def
/m46 {mp x y w4 add m w4 neg w4 d w4 neg w4 neg d  w4 w4 neg d w4 neg w4 neg d w4 w4 neg d w4 w4 d w4 w4 neg d w4 w4 d w4 neg w4 d w4 w4 d w4 neg w4 d w4 neg w4 neg d cl s} def
/m47 {mp x y w4 add m w4 neg w4 d w4 neg w4 neg d w4 w4 neg d w4 neg w4 neg d  w4 w4 neg d w4 w4 d w4 w4 neg d w4 w4 d w4 neg w4 d w4 w4 d w4 neg w4 d w4 neg w4 neg d cl f} def
/m48 {mp x y w4 add m w4 neg w4 d w4 neg w4 neg d w4 w4 neg d  w4 neg w4 neg d w4 w4 neg d w4 w4 d w4 w4 neg d w4 w4 d w4 neg w4 d w4 w4 d w4 neg w4 d w4 neg w4 neg d  w4 w4 neg d w4 neg w4 neg d w4 neg w4 d w4 w4 d cl f} def
/m49 {mp x w2 sub w3 add y w2 sub w3 add m  0 w3 neg d w3 0 d 0 w3 d w3 0 d 0 w3 d w3 neg 0 d 0 w3 d w3 neg 0 d 0 w3 neg d w3 neg 0 d 0 w3 neg d w3 0 d 0 w3 d w3 0 d 0 w3 neg d w3 neg 0 d cl f } def
/m2 {mp x y w2 sub m 0 w d x w2 sub y m w 0 d s} def
/m5 {mp x w2 sub y w2 sub m w w d x w2 sub y w2 add m w w neg d s} def
%%IncludeResource: ProcSet (FontSetInit)
%%IncludeResource: font Times-Roman
%%IncludeResource: font Times-Italic
%%IncludeResource: font Times-Bold
%%IncludeResource: font Times-BoldItalic
%%IncludeResource: font Helvetica
%%IncludeResource: font Helvetica-Oblique
%%IncludeResource: font Helvetica-Bold
%%IncludeResource: font Helvetica-BoldOblique
%%IncludeResource: font Courier
%%IncludeResource: font Courier-Oblique
%%IncludeResource: font Courier-Bold
%%IncludeResource: font Courier-BoldOblique
%%IncludeResource: font Symbol
%%IncludeResource: font ZapfDingbats
/reEncode {exch findfont dup length dict begin {1 index /FID eq  {pop pop} {def} ifelse } forall /Encoding exch def currentdict end dup /FontName get exch definefont pop } def [/Times-Bold /Times-Italic /Times-BoldItalic /Helvetica /Helvetica-Oblique
 /Helvetica-Bold /Helvetica-BoldOblique /Courier /Courier-Oblique /Courier-Bold /Courier-BoldOblique /Times-Roman /AvantGarde-Book /AvantGarde-BookOblique /AvantGarde-Demi /AvantGarde-DemiOblique /Bookman-Demi /Bookman-DemiItalic /Bookman-Light
 /Bookman-LightItalic /Helvetica-Narrow /Helvetica-Narrow-Bold /Helvetica-Narrow-BoldOblique /Helvetica-Narrow-Oblique /NewCenturySchlbk-Roman /NewCenturySchlbk-Bold /NewCenturySchlbk-BoldItalic /NewCenturySchlbk-Italic /Palatino-Bold
 /Palatino-BoldItalic /Palatino-Italic /Palatino-Roman ] {ISOLatin1Encoding reEncode } forall
%%EndProlog
%%BeginSetup
%%EndSetup
newpath  gsave  .25 .25 scale  gsave  0 0 t black[  ] 0 sd 3 lw 1 1 1 c 2268 2176 0 0 bf black 1 1 1 c black 1769 1697 408 305 bl 1769 1697 408 305 bl 1 1 1 c black 1769 1697 408 305 bl 1769 1697 408 305 bl 0.49 0.6 0.82 c 1 1 1 c 0.49 0.6 0.82 c 408
 1906 m 18 X s 456 1906 m 16 X s /w 30 def /w2 {w 2 div} def /w3 {w 3 div} def 441 1906 m20 472 1873 m 14 X s 517 1873 m 12 X s 501 1873 m20 529 1835 m 12 X s 571 1835 m 10 X s 556 1835 m20 581 1796 m 9 X s 620 1796 m 8 X s 605 1796 m20 628 1759 m 7
 X s 666 1759 m 6 X s 650 1759 m20 672 1724 m 5 X s 707 1724 m 5 X s 692 1724 m20 712 1693 m 4 X s 746 1693 m 3 X s 731 1693 m20 749 1666 m 3 X s 782 1666 m 2 X s 767 1666 m20 784 1644 m 2 X s 816 1644 m 1 X s 801 1644 m20 817 1623 m 1 X s 848 1623 m
 s 833 1623 m20 863 1605 m20 892 1587 m20 919 1570 m20 945 1554 m20 970 1540 m20 993 1528 m20 1016 1517 m20 1038 1507 m20 1058 1493 m20 1079 1484 m20 1098 1472 m20 1117 1465 m20 1135 1455 m20 1152 1448 m20 1169 1439 m20 1186 1433 m20 1202 1423 m20
 1217 1415 m20 1232 1409 m20 1247 1402 m20 1261 1394 m20 1275 1386 m20 1289 1381 m20 1302 1371 m20 1315 1364 m20 1327 1359 m20 1340 1350 m20 1352 1341 m20 1364 1334 m20 1375 1326 m20 1387 1316 m20 1398 1312 m20 1408 1305 m20 1419 1299 m20 1430 1289
 m20 1440 1281 m20 1450 1273 m20 1460 1261 m20 1469 1253 m20 1479 1247 m20 1488 1237 m20 1498 1227 m20 1507 1220 m20 1515 1210 m20 1524 1202 m20 1533 1196 m20 1541 1182 m20 1550 1176 m20 1558 1169 m20 1566 1156 m20 1574 1149 m20 1582 1139 m20 1590
 1130 m20 1597 1119 m20 1605 1104 m20 1612 1096 m20 1620 1089 m20 1627 1072 m20 1634 1070 m20 1641 1054 m20 1648 1040 m20 1655 1028 m20 1662 1012 m20 1668 1010 m20 1675 1004 m20 1682 995 m20 1688 985 m20 1694 986 m20 1701 982 m20 1707 973 m20 1713
 954 m20 1719 958 m20 1725 949 m20 1731 943 m20 1737 927 m20 1743 930 m20 1749 923 m20 1754 913 m20 1760 910 m20 1766 907 m20 1771 899 m20 1777 881 m20 1782 896 m20 1787 876 m20 1793 870 m20 1798 869 m20 1803 863 m20 1808 850 m20 1814 852 m20 1819
 855 m20 1824 848 m20 1829 843 m20 1834 837 m20 1839 835 m20 1843 825 m20 1848 810 m20 1853 802 m20 1858 811 m20 1862 804 m20 1867 783 m20 1872 799 m20 1876 775 m20 1881 777 m20 1885 784 m20 1890 787 m20 1894 766 m20 1898 776 m20 1903 768 m20 1907
 761 m20 1911 744 m20 1916 754 m20 1920 748 m20 1924 744 m20 1928 743 m20 1932 724 m20 1936 709 m20 1940 735 m20 1944 719 m20 1948 714 m20 1952 727 m20 1956 707 m20 1960 707 m20 1964 692 m20 1968 685 m20 1972 701 m20 1975 666 m20 1979 707 m20 1983
 692 m20 1987 643 m20 1990 680 m20 1994 657 m20 1998 684 m20 2001 673 m20 2005 668 m20 2009 660 m20 2012 653 m20 2016 648 m20 2019 652 m20 2023 648 m20 2026 641 m20 2029 632 m20 2033 597 m s 2033 612 m20 2036 597 m s 2036 612 m20 2040 622 m20 2043
 601 m 1 Y s 2043 617 m20 2046 651 m20 2050 595 m 1 Y s 2050 611 m20 2053 621 m20 2056 598 m 1 Y s 2056 614 m20 2059 568 m 2 Y s 2059 600 m s 2059 585 m20 2063 594 m s 2063 609 m20 2066 579 m 1 Y s 2066 595 m20 2069 585 m 1 Y s 2069 602 m20 2072 597
 m s 2072 612 m20 2075 554 m 3 Y s 2075 587 m 1 Y s 2075 572 m20 2079 543 m 4 Y s 2079 577 m 2 Y s 2079 562 m20 2082 564 m 2 Y s 2082 597 m s 2082 581 m20 2085 575 m 2 Y s 2085 592 m20 2088 564 m 2 Y s 2088 597 m s 2088 581 m20 2091 550 m 3 Y s 2091
 583 m 1 Y s 2091 568 m20 2094 546 m 3 Y s 2094 579 m 2 Y s 2094 564 m20 2097 558 m 3 Y s 2097 591 m 1 Y s 2097 576 m20 2100 504 m 6 Y s 2100 540 m 4 Y s 2100 525 m20 2103 517 m 5 Y s 2103 553 m 3 Y s 2103 538 m20 2106 564 m 2 Y s 2106 597 m s 2106
 581 m20 2109 530 m 4 Y s 2109 564 m 3 Y s 2109 549 m20 2112 454 m 10 Y s 2112 494 m 7 Y s 2112 479 m20 2115 539 m 4 Y s 2115 573 m 2 Y s 2115 558 m20 2118 515 m 5 Y s 2118 550 m 3 Y s 2118 535 m20 2121 515 m 5 Y s 2121 550 m 3 Y s 2121 535 m20 2124
 520 m 5 Y s 2124 555 m 3 Y s 2124 540 m20 2126 512 m 5 Y s 2126 548 m 3 Y s 2126 533 m20 2129 515 m 5 Y s 2129 550 m 3 Y s 2129 535 m20 2132 546 m 3 Y s 2132 579 m 2 Y s 2132 564 m20 2135 476 m 8 Y s 2135 514 m 5 Y s 2135 499 m20 2138 492 m 7 Y s
 2138 529 m 4 Y s 2138 514 m20 2141 492 m 7 Y s 2141 529 m 4 Y s 2141 514 m20 2143 469 m 8 Y s 2143 508 m 5 Y s 2143 493 m20 2146 446 m 10 Y s 2146 487 m 7 Y s 2146 472 m20 2149 486 m 7 Y s 2149 523 m 5 Y s 2149 508 m20 2152 495 m 7 Y s 2152 532 m 4
 Y s 2152 517 m20 2154 472 m 9 Y s 2154 511 m 5 Y s 2154 496 m20 2157 482 m 8 Y s 2157 520 m 5 Y s 2157 505 m20 2160 450 m 10 Y s 2160 491 m 6 Y s 2160 475 m20 2162 486 m 7 Y s 2162 523 m 5 Y s 2162 508 m20 2165 489 m 7 Y s 2165 526 m 5 Y s 2165 511
 m20 2168 469 m 8 Y s 2168 508 m 5 Y s 2168 493 m20 2170 409 m 14 Y s 2170 453 m 10 Y s 2170 438 m20 2173 428 m 13 Y s 2173 471 m 8 Y s 2173 456 m20 2176 424 m 12 Y s 2176 467 m 8 Y s 2176 452 m20 black 408 305 m 1769 X s 507 330 m -25 Y s 591 330 m
 -25 Y s 663 330 m -25 Y s 727 330 m -25 Y s 784 356 m -51 Y s
 gsave  2268 2176 0 0 C 726.735 167.415 t 0 r /Helvetica findfont 102.732 sf 0 0 m (10) show NC gr  1161 330 m -25 Y s 1381 330 m -25 Y s 1537 330 m -25 Y s 1658 330 m -25 Y s 1757 330 m -25 Y s 1841 330 m -25 Y s 1913 330 m -25 Y s 1977 330 m -25 Y
 s 2035 356 m -51 Y s
 gsave  2268 2176 0 0 C 2066.06 213.074 t 0 r /Helvetica findfont 68.4881 sf 0 0 m (2) show NC gr 
 gsave  2268 2176 0 0 C 1955.72 167.415 t 0 r /Helvetica findfont 102.732 sf 0 0 m (10) show NC gr 
 gsave  2268 2176 0 0 C 1837.76 60.8783 t 0 r /Helvetica findfont 121.757 sf 0 0 m ( [GeV]) show NC gr 
 gsave  2268 2176 0 0 C 1788.3 -3.80489 t 0 r /Helvetica findfont 79.9028 sf 0 0 m (T) show NC gr 
 gsave  2268 2176 0 0 C 1240.4 60.8783 t 0 r /Helvetica findfont 121.757 sf 0 0 m (Electron p) show NC gr  408 2002 m 1769 X s 507 1977 m 25 Y s 591 1977 m 25 Y s 663 1977 m 25 Y s 727 1977 m 25 Y s 784 1951 m 51 Y s 1161 1977 m 25 Y s 1381 1977 m 25
 Y s 1537 1977 m 25 Y s 1658 1977 m 25 Y s 1757 1977 m 25 Y s 1841 1977 m 25 Y s 1913 1977 m 25 Y s 1977 1977 m 25 Y s 2035 1951 m 51 Y s 408 305 m 1697 Y s 435 320 m -27 X s 435 363 m -27 X s 435 397 m -27 X s 435 424 m -27 X s 435 448 m -27 X s 435
 468 m -27 X s 435 485 m -27 X s 461 501 m -53 X s
 gsave  2268 2176 0 0 C 342.44 502.246 t 0 r /Helvetica findfont 68.4881 sf 0 0 m (6) show NC gr 
 gsave  2268 2176 0 0 C 304.391 502.246 t 0 r /Symbol findfont 68.4881 sf 0 0 m (-) show NC gr 
 gsave  2268 2176 0 0 C 194.05 452.782 t 0 r /Helvetica findfont 102.732 sf 0 0 m (10) show NC gr  435 605 m -27 X s 435 666 m -27 X s 435 710 m -27 X s 435 743 m -27 X s 435 771 m -27 X s 435 794 m -27 X s 435 814 m -27 X s 435 831 m -27 X s 461 847
 m -53 X s
 gsave  2268 2176 0 0 C 342.44 848.491 t 0 r /Helvetica findfont 68.4881 sf 0 0 m (5) show NC gr 
 gsave  2268 2176 0 0 C 304.391 848.491 t 0 r /Symbol findfont 68.4881 sf 0 0 m (-) show NC gr 
 gsave  2268 2176 0 0 C 194.05 799.028 t 0 r /Helvetica findfont 102.732 sf 0 0 m (10) show NC gr  435 951 m -27 X s 435 1012 m -27 X s 435 1056 m -27 X s 435 1089 m -27 X s 435 1117 m -27 X s 435 1140 m -27 X s 435 1160 m -27 X s 435 1178 m -27 X s
 461 1193 m -53 X s
 gsave  2268 2176 0 0 C 342.44 1190.93 t 0 r /Helvetica findfont 68.4881 sf 0 0 m (4) show NC gr 
 gsave  2268 2176 0 0 C 304.391 1190.93 t 0 r /Symbol findfont 68.4881 sf 0 0 m (-) show NC gr 
 gsave  2268 2176 0 0 C 194.05 1145.27 t 0 r /Helvetica findfont 102.732 sf 0 0 m (10) show NC gr  435 1298 m -27 X s 435 1359 m -27 X s 435 1402 m -27 X s 435 1435 m -27 X s 435 1463 m -27 X s 435 1486 m -27 X s 435 1506 m -27 X s 435 1524 m -27 X s
 461 1540 m -53 X s
 gsave  2268 2176 0 0 C 342.44 1540.98 t 0 r /Helvetica findfont 68.4881 sf 0 0 m (3) show NC gr 
 gsave  2268 2176 0 0 C 304.391 1540.98 t 0 r /Symbol findfont 68.4881 sf 0 0 m (-) show NC gr 
 gsave  2268 2176 0 0 C 194.05 1491.52 t 0 r /Helvetica findfont 102.732 sf 0 0 m (10) show NC gr  435 1644 m -27 X s 435 1705 m -27 X s 435 1748 m -27 X s 435 1781 m -27 X s 435 1809 m -27 X s 435 1832 m -27 X s 435 1852 m -27 X s 435 1870 m -27 X s
 461 1886 m -53 X s
 gsave  2268 2176 0 0 C 342.44 1883.42 t 0 r /Helvetica findfont 68.4881 sf 0 0 m (2) show NC gr 
 gsave  2268 2176 0 0 C 304.391 1883.42 t 0 r /Symbol findfont 68.4881 sf 0 0 m (-) show NC gr 
 gsave  2268 2176 0 0 C 194.05 1837.76 t 0 r /Helvetica findfont 102.732 sf 0 0 m (10) show NC gr  435 1990 m -27 X s
 gsave  2268 2176 0 0 C 156.001 620.198 t 90 r /Helvetica findfont 121.757 sf 0 0 m (DY+Jets Fakes per Event) show NC gr  2177 305 m 1697 Y s 2150 320 m 27 X s 2150 363 m 27 X s 2150 397 m 27 X s 2150 424 m 27 X s 2150 448 m 27 X s 2150 468 m 27 X s
 2150 485 m 27 X s 2124 501 m 53 X s 2150 605 m 27 X s 2150 666 m 27 X s 2150 710 m 27 X s 2150 743 m 27 X s 2150 771 m 27 X s 2150 794 m 27 X s 2150 814 m 27 X s 2150 831 m 27 X s 2124 847 m 53 X s 2150 951 m 27 X s 2150 1012 m 27 X s 2150 1056 m 27
 X s 2150 1089 m 27 X s 2150 1117 m 27 X s 2150 1140 m 27 X s 2150 1160 m 27 X s 2150 1178 m 27 X s 2124 1193 m 53 X s 2150 1298 m 27 X s 2150 1359 m 27 X s 2150 1402 m 27 X s 2150 1435 m 27 X s 2150 1463 m 27 X s 2150 1486 m 27 X s 2150 1506 m 27 X
 s 2150 1524 m 27 X s 2124 1540 m 53 X s 2150 1644 m 27 X s 2150 1705 m 27 X s 2150 1748 m 27 X s 2150 1781 m 27 X s 2150 1809 m 27 X s 2150 1832 m 27 X s 2150 1852 m 27 X s 2150 1870 m 27 X s 2124 1886 m 53 X s 2150 1990 m 27 X s 0.49 0.6 0.82 c 1 1
 1 c 0.49 0.6 0.82 c 408 1900 m 18 X s 456 1900 m 16 X s 441 1900 m24 472 1856 m 14 X s 517 1856 m 12 X s 501 1856 m24 529 1812 m 12 X s 571 1812 m 10 X s 556 1812 m24 581 1772 m 9 X s 620 1772 m 8 X s 605 1772 m24 628 1735 m 7 X s 666 1735 m 6 X s
 650 1735 m24 672 1701 m 5 X s 707 1701 m 5 X s 692 1701 m24 712 1673 m 4 X s 746 1673 m 3 X s 731 1673 m24 749 1648 m 3 X s 782 1648 m 2 X s 767 1648 m24 784 1627 m 2 X s 816 1627 m 1 X s 801 1627 m24 817 1606 m 1 X s 848 1606 m s 833 1606 m24 863
 1585 m24 892 1569 m24 919 1552 m24 945 1537 m24 970 1523 m24 993 1511 m24 1016 1502 m24 1038 1487 m24 1058 1478 m24 1079 1472 m24 1098 1459 m24 1117 1449 m24 1135 1440 m24 1152 1433 m24 1169 1425 m24 1186 1417 m24 1202 1410 m24 1217 1401 m24 1232
 1393 m24 1247 1388 m24 1261 1378 m24 1275 1373 m24 1289 1364 m24 1302 1354 m24 1315 1353 m24 1327 1344 m24 1340 1341 m24 1352 1330 m24 1364 1319 m24 1375 1318 m24 1387 1309 m24 1398 1299 m24 1408 1289 m24 1419 1283 m24 1430 1276 m24 1440 1268 m24
 1450 1263 m24 1460 1249 m24 1469 1248 m24 1479 1235 m24 1488 1231 m24 1498 1221 m24 1507 1214 m24 1515 1204 m24 1524 1198 m24 1533 1185 m24 1541 1174 m24 1550 1169 m24 1558 1158 m24 1566 1151 m24 1574 1134 m24 1582 1129 m24 1590 1117 m24 1597 1115
 m24 1605 1104 m24 1612 1095 m24 1620 1077 m24 1627 1072 m24 1634 1056 m24 1641 1047 m24 1648 1043 m24 1655 1034 m24 1662 1028 m24 1668 1019 m24 1675 1008 m24 1682 995 m24 1688 991 m24 1694 980 m24 1701 977 m24 1707 972 m24 1713 975 m24 1719 952 m24
 1725 937 m24 1731 946 m24 1737 947 m24 1743 932 m24 1749 903 m24 1754 909 m24 1760 911 m24 1766 903 m24 1771 897 m24 1777 886 m24 1782 898 m24 1787 872 m24 1793 874 m24 1798 874 m24 1803 848 m24 1808 844 m24 1814 854 m24 1819 860 m24 1824 831 m24
 1829 845 m24 1834 826 m24 1839 836 m24 1843 818 m24 1848 838 m24 1853 822 m24 1858 804 m24 1862 822 m24 1867 813 m24 1872 776 m24 1876 765 m24 1881 785 m24 1885 778 m24 1890 797 m24 1894 766 m24 1898 773 m24 1903 782 m24 1907 770 m24 1911 766 m24
 1916 775 m24 1920 756 m24 1924 762 m24 1928 741 m24 1932 764 m24 1936 733 m24 1940 737 m24 1944 694 m 1 Y s 1944 710 m24 1948 711 m s 1948 726 m24 1952 695 m 1 Y s 1952 712 m24 1956 683 m 2 Y s 1956 700 m24 1960 710 m s 1960 725 m24 1964 695 m 1 Y s
 1964 712 m24 1968 711 m s 1968 726 m24 1972 695 m 1 Y s 1972 712 m24 1975 683 m 2 Y s 1975 700 m24 1979 680 m 2 Y s 1979 712 m s 1979 697 m24 1983 660 m 3 Y s 1983 694 m 1 Y s 1983 678 m24 1987 674 m 2 Y s 1987 707 m s 1987 692 m24 1990 656 m 3 Y s
 1990 690 m 1 Y s 1990 674 m24 1994 699 m s 1994 715 m24 1998 636 m 4 Y s 1998 670 m 3 Y s 1998 655 m24 2001 625 m 6 Y s 2001 661 m 3 Y s 2001 646 m24 2005 658 m 3 Y s 2005 692 m 1 Y s 2005 676 m24 2009 636 m 4 Y s 2009 670 m 3 Y s 2009 655 m24 2012
 654 m 3 Y s 2012 688 m 1 Y s 2012 672 m24 2016 625 m 6 Y s 2016 661 m 3 Y s 2016 646 m24 2019 666 m 3 Y s 2019 699 m 1 Y s 2019 684 m24 2023 645 m 4 Y s 2023 679 m 2 Y s 2023 664 m24 2026 603 m 7 Y s 2026 640 m 4 Y s 2026 625 m24 2029 631 m 4 Y s
 2029 666 m 2 Y s 2029 651 m24 2033 617 m 6 Y s 2033 654 m 3 Y s 2033 638 m24 2036 615 m 6 Y s 2036 651 m 3 Y s 2036 636 m24 2040 617 m 6 Y s 2040 654 m 3 Y s 2040 638 m24 2043 587 m 8 Y s 2043 626 m 5 Y s 2043 611 m24 2046 594 m 7 Y s 2046 632 m 4 Y
 s 2046 617 m24 2050 620 m 6 Y s 2050 656 m 3 Y s 2050 641 m24 2053 640 m 5 Y s 2053 675 m 2 Y s 2053 660 m24 2056 597 m 7 Y s 2056 635 m 4 Y s 2056 619 m24 2059 558 m 10 Y s 2059 599 m 7 Y s 2059 584 m24 2063 591 m 7 Y s 2063 629 m 4 Y s 2063 614
 m24 2066 562 m 10 Y s 2066 603 m 6 Y s 2066 587 m24 2069 554 m 11 Y s 2069 595 m 7 Y s 2069 580 m24 2072 566 m 10 Y s 2072 606 m 6 Y s 2072 591 m24 2075 587 m 8 Y s 2075 626 m 5 Y s 2075 611 m24 2079 570 m 9 Y s 2079 610 m 5 Y s 2079 594 m24 2082
 546 m 11 Y s 2082 588 m 7 Y s 2082 572 m24 2085 594 m 7 Y s 2085 632 m 4 Y s 2085 617 m24 2088 603 m 7 Y s 2088 640 m 4 Y s 2088 625 m24 2091 600 m 7 Y s 2091 638 m 4 Y s 2091 622 m24 2094 570 m 9 Y s 2094 610 m 5 Y s 2094 594 m24 2097 570 m 9 Y s
 2097 610 m 5 Y s 2097 594 m24 2100 550 m 11 Y s 2100 591 m 8 Y s 2100 576 m24 2103 566 m 10 Y s 2103 606 m 6 Y s 2103 591 m24 2106 581 m 8 Y s 2106 619 m 6 Y s 2106 604 m24 2109 495 m 16 Y s 2109 542 m 10 Y s 2109 526 m24 2112 537 m 12 Y s 2112 579
 m 8 Y s 2112 564 m24 2115 512 m 14 Y s 2115 557 m 10 Y s 2115 542 m24 2118 587 m 8 Y s 2118 626 m 5 Y s 2118 611 m24 2121 489 m 17 Y s 2121 536 m 11 Y s 2121 521 m24 2124 501 m 15 Y s 2124 547 m 10 Y s 2124 532 m24 2126 501 m 15 Y s 2126 547 m 10 Y
 s 2126 532 m24 2129 495 m 16 Y s 2129 542 m 10 Y s 2129 526 m24 2132 532 m 13 Y s 2132 575 m 8 Y s 2132 560 m24 2135 541 m 12 Y s 2135 584 m 7 Y s 2135 568 m24 2138 469 m 19 Y s 2138 518 m 13 Y s 2138 503 m24 2141 495 m 16 Y s 2141 542 m 10 Y s 2141
 526 m24 2143 476 m 18 Y s 2143 525 m 12 Y s 2143 509 m24 2146 476 m 18 Y s 2146 525 m 12 Y s 2146 509 m24 2149 446 m 22 Y s 2149 498 m 15 Y s 2149 483 m24 2152 462 m 20 Y s 2152 512 m 13 Y s 2152 497 m24 2154 438 m 23 Y s 2154 491 m 15 Y s 2154 476
 m24 2157 462 m 20 Y s 2157 512 m 13 Y s 2157 497 m24 2160 482 m 18 Y s 2160 530 m 12 Y s 2160 515 m24 2162 388 m 29 Y s 2162 448 m 19 Y s 2162 433 m24 2165 482 m 18 Y s 2165 530 m 12 Y s 2165 515 m24 2168 501 m 15 Y s 2168 547 m 10 Y s 2168 532 m24
 2170 537 m 12 Y s 2170 579 m 8 Y s 2170 564 m24 2173 420 m 25 Y s 2173 475 m 17 Y s 2173 460 m24 2176 512 m 14 Y s 2176 557 m 10 Y s 2176 542 m24 black 1 1 1 c 635 392 476 435 bf black
 gsave  2268 2176 0 0 C 631.612 688.686 t 0 r /Helvetica findfont 102.732 sf 0 0 m (2017 Endcap) show NC gr  0.49 0.6 0.82 c 556 744 m 44 Y s 556 714 m -44 Y s 556 729 m20 black
 gsave  2268 2176 0 0 C 631.612 490.831 t 0 r /Helvetica findfont 102.732 sf 0 0 m (2017 \(Legacy\) Endcap) show NC gr  0.49 0.6 0.82 c 556 548 m 44 Y s 556 518 m -44 Y s 556 533 m24 black
 gsave  2268 2176 0 0 C 1769.28 2039.42 t 0 r /Helvetica findfont 106.537 sf 0 0 m (\(13 TeV\)) show NC gr 
 gsave  2268 2176 0 0 C 408.189 2037.11 t 0 r /Helvetica-Bold findfont 129.366 sf 0 0 m (CMS) show NC gr 
 gsave  2268 2176 0 0 C 487.026 2039.42 t 0 r /Helvetica-Oblique findfont 98.9272 sf 0 0 m (        Simulation) show NC gr  408 305 m 1769 X s 507 330 m -25 Y s 591 330 m -25 Y s 663 330 m -25 Y s 727 330 m -25 Y s 784 356 m -51 Y s 1161 330 m -25 Y
 s 1381 330 m -25 Y s 1537 330 m -25 Y s 1658 330 m -25 Y s 1757 330 m -25 Y s 1841 330 m -25 Y s 1913 330 m -25 Y s 1977 330 m -25 Y s 2035 356 m -51 Y s 408 2002 m 1769 X s 507 1977 m 25 Y s 591 1977 m 25 Y s 663 1977 m 25 Y s 727 1977 m 25 Y s 784
 1951 m 51 Y s 1161 1977 m 25 Y s 1381 1977 m 25 Y s 1537 1977 m 25 Y s 1658 1977 m 25 Y s 1757 1977 m 25 Y s 1841 1977 m 25 Y s 1913 1977 m 25 Y s 1977 1977 m 25 Y s 2035 1951 m 51 Y s 408 305 m 1697 Y s 435 320 m -27 X s 435 363 m -27 X s 435 397 m
 -27 X s 435 424 m -27 X s 435 448 m -27 X s 435 468 m -27 X s 435 485 m -27 X s 461 501 m -53 X s 435 605 m -27 X s 435 666 m -27 X s 435 710 m -27 X s 435 743 m -27 X s 435 771 m -27 X s 435 794 m -27 X s 435 814 m -27 X s 435 831 m -27 X s 461 847
 m -53 X s 435 951 m -27 X s 435 1012 m -27 X s 435 1056 m -27 X s 435 1089 m -27 X s 435 1117 m -27 X s 435 1140 m -27 X s 435 1160 m -27 X s 435 1178 m -27 X s 461 1193 m -53 X s 435 1298 m -27 X s 435 1359 m -27 X s 435 1402 m -27 X s 435 1435 m
 -27 X s 435 1463 m -27 X s 435 1486 m -27 X s 435 1506 m -27 X s 435 1524 m -27 X s 461 1540 m -53 X s 435 1644 m -27 X s 435 1705 m -27 X s 435 1748 m -27 X s 435 1781 m -27 X s 435 1809 m -27 X s 435 1832 m -27 X s 435 1852 m -27 X s 435 1870 m
 -27 X s 461 1886 m -53 X s 435 1990 m -27 X s 2177 305 m 1697 Y s 2150 320 m 27 X s 2150 363 m 27 X s 2150 397 m 27 X s 2150 424 m 27 X s 2150 448 m 27 X s 2150 468 m 27 X s 2150 485 m 27 X s 2124 501 m 53 X s 2150 605 m 27 X s 2150 666 m 27 X s
 2150 710 m 27 X s 2150 743 m 27 X s 2150 771 m 27 X s 2150 794 m 27 X s 2150 814 m 27 X s 2150 831 m 27 X s 2124 847 m 53 X s 2150 951 m 27 X s 2150 1012 m 27 X s 2150 1056 m 27 X s 2150 1089 m 27 X s 2150 1117 m 27 X s 2150 1140 m 27 X s 2150 1160
 m 27 X s 2150 1178 m 27 X s 2124 1193 m 53 X s 2150 1298 m 27 X s 2150 1359 m 27 X s 2150 1402 m 27 X s 2150 1435 m 27 X s 2150 1463 m 27 X s 2150 1486 m 27 X s 2150 1506 m 27 X s 2150 1524 m 27 X s 2124 1540 m 53 X s 2150 1644 m 27 X s 2150 1705 m
 27 X s 2150 1748 m 27 X s 2150 1781 m 27 X s 2150 1809 m 27 X s 2150 1832 m 27 X s 2150 1852 m 27 X s 2150 1870 m 27 X s 2124 1886 m 53 X s 2150 1990 m 27 X s 1 1 1 c black 1769 1697 408 305 bl 1769 1697 408 305 bl
 gr  gr showpage
end
%%EOF
